%!PS-Adobe-2.0 EPSF-2.0
%%BoundingBox:  0 0 567 595
%%Title: CKKW_nominal.eps: c1
%%Creator: ROOT Version 6.04/08
%%CreationDate: Sat Jan 21 10:42:01 2017
%%DocumentNeededResources: ProcSet (FontSetInit)
%%EndComments
%%BeginProlog
80 dict begin
/s {stroke} def /l {lineto} def /m {moveto} def /t {translate} def
/r {rotate} def /rl {roll}  def /R {repeat} def
/d {rlineto} def /rm {rmoveto} def /gr {grestore} def /f {eofill} def
/c {setrgbcolor} def /black {0 setgray} def /sd {setdash} def
/cl {closepath} def /sf {scalefont setfont} def /lw {setlinewidth} def
/box {m dup 0 exch d exch 0 d 0 exch neg d cl} def
/NC{systemdict begin initclip end}def/C{NC box clip newpath}def
/bl {box s} def /bf {gsave box gsave f grestore 1 lw [] 0 sd s grestore} def /Y { 0 exch d} def /X { 0 d} def 
/K {{pop pop 0 moveto} exch kshow} bind def
/ita {/ang 15 def gsave [1 0 ang dup sin exch cos div 1 0 0] concat} def 
/mp {newpath /y exch def /x exch def} def
/side {[w .77 mul w .23 mul] .385 w mul sd w 0 l currentpoint t -144 r} def
/mr {mp x y w2 0 360 arc} def /m24 {mr s} def /m20 {mr f} def
/mb {mp x y w2 add m w2 neg 0 d 0 w neg d w 0 d 0 w d cl} def
/mt {mp x y w2 add m w2 neg w neg d w 0 d cl} def
/m21 {mb f} def /m25 {mb s} def /m22 {mt f} def /m26{mt s} def
/m23 {mp x y w2 sub m w2 w d w neg 0 d cl f} def
/m27 {mp x y w2 add m w3 neg w2 neg d w3 w2 neg d w3 w2 d cl s} def
/m28 {mp x w2 sub y w2 sub w3 add m w3 0 d  0 w3 neg d w3 0 d 0 w3 d w3 0 d  0 w3 d w3 neg 0 d 0 w3 d w3 neg 0 d 0 w3 neg d w3 neg 0 d cl s } def
/m29 {mp gsave x w2 sub y w2 add w3 sub m currentpoint t 4 {side} repeat cl fill gr} def
/m30 {mp gsave x w2 sub y w2 add w3 sub m currentpoint t 4 {side} repeat cl s gr} def
/m31 {mp x y w2 sub m 0 w d x w2 sub y m w 0 d x w2 sub y w2 add m w w neg d x w2 sub y w2 sub m w w d s} def
/m32 {mp x y w2 sub m w2 w d w neg 0 d cl s} def
/m33 {mp x y w2 add m w3 neg w2 neg d w3 w2 neg d w3 w2 d cl f} def
/m34 {mp x w2 sub y w2 sub w3 add m w3 0 d  0 w3 neg d w3 0 d 0 w3 d w3 0 d  0 w3 d w3 neg 0 d 0 w3 d w3 neg 0 d 0 w3 neg d w3 neg 0 d cl f } def
/m2 {mp x y w2 sub m 0 w d x w2 sub y m w 0 d s} def
/m5 {mp x w2 sub y w2 sub m w w d x w2 sub y w2 add m w w neg d s} def
%%IncludeResource: ProcSet (FontSetInit)
%%IncludeResource: font Times-Roman
%%IncludeResource: font Times-Italic
%%IncludeResource: font Times-Bold
%%IncludeResource: font Times-BoldItalic
%%IncludeResource: font Helvetica
%%IncludeResource: font Helvetica-Oblique
%%IncludeResource: font Helvetica-Bold
%%IncludeResource: font Helvetica-BoldOblique
%%IncludeResource: font Courier
%%IncludeResource: font Courier-Oblique
%%IncludeResource: font Courier-Bold
%%IncludeResource: font Courier-BoldOblique
%%IncludeResource: font Symbol
%%IncludeResource: font ZapfDingbats
/reEncode {exch findfont dup length dict begin {1 index /FID eq  {pop pop} {def} ifelse } forall /Encoding exch def currentdict end dup /FontName get exch definefont pop } def [/Times-Bold /Times-Italic /Times-BoldItalic /Helvetica /Helvetica-Oblique
 /Helvetica-Bold /Helvetica-BoldOblique /Courier /Courier-Oblique /Courier-Bold /Courier-BoldOblique /Times-Roman /AvantGarde-Book /AvantGarde-BookOblique /AvantGarde-Demi /AvantGarde-DemiOblique /Bookman-Demi /Bookman-DemiItalic /Bookman-Light
 /Bookman-LightItalic /Helvetica-Narrow /Helvetica-Narrow-Bold /Helvetica-Narrow-BoldOblique /Helvetica-Narrow-Oblique /NewCenturySchlbk-Roman /NewCenturySchlbk-Bold /NewCenturySchlbk-BoldItalic /NewCenturySchlbk-Italic /Palatino-Bold
 /Palatino-BoldItalic /Palatino-Italic /Palatino-Roman ] {ISOLatin1Encoding reEncode } forall
%%EndProlog
%%BeginSetup
%%EndSetup
newpath  gsave  .25 .25 scale  gsave  0 0 t black[  ] 0 sd 3 lw 1 1 1 c 2268 2379 0 0 bf black 1 1 1 c 2268 1546 0 833 bf black 1 1 1 c 1791 1454 363 848 bf black 1791 1454 363 848 bl 1 1 1 c 1791 1454 363 848 bf black 1791 1454 363 848 bl 6 lw 1 1 1
 c black 381 1664 m 1 Y s 363 1675 m 8 X s 391 1675 m 8 X s 3 lw /w 20 def /w2 {w 2 div} def /w3 {w 3 div} def 381 1675 m20 6 lw 399 1705 m 7 X s 427 1705 m 7 X s 3 lw 417 1705 m20 6 lw 434 1779 m 8 X s 463 1779 m 7 X s 3 lw 452 1779 m20 6 lw 470
 1897 m 8 X s 498 1897 m 8 X s 3 lw 488 1897 m20 6 lw 506 1996 m 8 X s 534 1996 m 8 X s 3 lw 524 1996 m20 6 lw 542 2090 m 8 X s 570 2090 m 8 X s 3 lw 560 2090 m20 6 lw 578 2216 m 8 X s 606 2216 m 8 X s 3 lw 596 2216 m20 6 lw 614 2231 m 7 X s 642 2231
 m 7 X s 3 lw 632 2231 m20 6 lw 649 2217 m 8 X s 677 2217 m 8 X s 3 lw 667 2217 m20 6 lw 685 2193 m 8 X s 713 2193 m 8 X s 3 lw 703 2193 m20 6 lw 721 2162 m 8 X s 749 2162 m 8 X s 3 lw 739 2162 m20 6 lw 757 2123 m 8 X s 785 2123 m 8 X s 3 lw 775 2123
 m20 6 lw 793 2083 m 8 X s 821 2083 m 8 X s 3 lw 811 2083 m20 6 lw 829 2040 m 7 X s 857 2040 m 7 X s 3 lw 847 2040 m20 6 lw 864 1996 m 8 X s 892 1996 m 8 X s 3 lw 882 1996 m20 6 lw 900 1954 m 8 X s 928 1954 m 8 X s 3 lw 918 1954 m20 6 lw 936 1923 m 8
 X s 964 1923 m 8 X s 3 lw 954 1923 m20 6 lw 972 1884 m 8 X s 1000 1884 m 8 X s 3 lw 990 1884 m20 6 lw 1008 1839 m 8 X s 1036 1839 m 8 X s 3 lw 1026 1839 m20 6 lw 1044 1812 m 7 X s 1072 1812 m 7 X s 3 lw 1062 1812 m20 6 lw 1079 1767 m 8 X s 1107 1767
 m 8 X s 3 lw 1097 1767 m20 6 lw 1115 1731 m 8 X s 1143 1731 m 8 X s 3 lw 1133 1731 m20 6 lw 1151 1686 m 8 X s 1179 1686 m 8 X s 3 lw 1169 1686 m20 6 lw 1187 1652 m 8 X s 1215 1652 m 8 X s 3 lw 1205 1652 m20 6 lw 1223 1634 m 8 X s 1251 1634 m 8 X s 3
 lw 1241 1634 m20 6 lw 1276 1599 m 1 Y s 1259 1610 m 7 X s 1287 1610 m 7 X s 3 lw 1276 1610 m20 6 lw 1312 1574 m 2 Y s 1312 1596 m 1 Y s 1294 1586 m 8 X s 1322 1586 m 8 X s 3 lw 1312 1586 m20 6 lw 1348 1526 m 4 Y s 1348 1550 m 3 Y s 1330 1540 m 8 X s
 1358 1540 m 8 X s 3 lw 1348 1540 m20 6 lw 1384 1485 m 8 Y s 1384 1513 m 5 Y s 1366 1503 m 8 X s 1394 1503 m 8 X s 3 lw 1384 1503 m20 6 lw 1420 1489 m 8 Y s 1420 1517 m 5 Y s 1402 1507 m 8 X s 1430 1507 m 8 X s 3 lw 1420 1507 m20 6 lw 1456 1425 m 13
 Y s 1456 1458 m 8 Y s 1438 1448 m 8 X s 1466 1448 m 8 X s 3 lw 1456 1448 m20 6 lw 1491 1429 m 13 Y s 1491 1462 m 8 Y s 1474 1452 m 7 X s 1502 1452 m 7 X s 3 lw 1491 1452 m20 6 lw 1527 1410 m 15 Y s 1527 1446 m 10 Y s 1509 1436 m 8 X s 1537 1436 m 8
 X s 3 lw 1527 1436 m20 6 lw 1563 1366 m 20 Y s 1563 1406 m 13 Y s 1545 1396 m 8 X s 1573 1396 m 8 X s 3 lw 1563 1396 m20 6 lw 1599 1349 m 25 Y s 1599 1394 m 16 Y s 1581 1384 m 8 X s 1609 1384 m 8 X s 3 lw 1599 1384 m20 6 lw 1635 1296 m 35 Y s 1635
 1351 m 22 Y s 1617 1341 m 8 X s 1645 1341 m 8 X s 3 lw 1635 1341 m20 6 lw 1671 1243 m 49 Y s 1671 1313 m 28 Y s 1653 1303 m 8 X s 1681 1303 m 8 X s 3 lw 1671 1303 m20 6 lw 1706 923 m 124 Y s 1706 1067 m 48 Y s 1689 1057 m 7 X s 1717 1057 m 7 X s 3
 lw 1706 1057 m20 6 lw 1814 848 m 180 Y s 1814 1048 m 65 Y s 1796 1038 m 8 X s 1824 1038 m 8 X s 3 lw 1814 1038 m20 6 lw 1921 848 m 271 Y s 1921 1139 m 65 Y s 1904 1129 m 7 X s 1932 1129 m 7 X s 3 lw 1921 1129 m20 6 lw 3 lw 363 848 m 1791 X s 363 885
 m -37 Y s 399 866 m -18 Y s 434 866 m -18 Y s 470 866 m -18 Y s 506 866 m -18 Y s 542 885 m -37 Y s 578 866 m -18 Y s 614 866 m -18 Y s 649 866 m -18 Y s 685 866 m -18 Y s 721 885 m -37 Y s 757 866 m -18 Y s 793 866 m -18 Y s 829 866 m -18 Y s 864
 866 m -18 Y s 900 885 m -37 Y s 936 866 m -18 Y s 972 866 m -18 Y s 1008 866 m -18 Y s 1044 866 m -18 Y s 1079 885 m -37 Y s 1115 866 m -18 Y s 1151 866 m -18 Y s 1187 866 m -18 Y s 1223 866 m -18 Y s 1259 885 m -37 Y s 1294 866 m -18 Y s 1330 866 m
 -18 Y s 1366 866 m -18 Y s 1402 866 m -18 Y s 1438 885 m -37 Y s 1474 866 m -18 Y s 1509 866 m -18 Y s 1545 866 m -18 Y s 1581 866 m -18 Y s 1617 885 m -37 Y s 1653 866 m -18 Y s 1689 866 m -18 Y s 1724 866 m -18 Y s 1760 866 m -18 Y s 1796 885 m
 -37 Y s 1832 866 m -18 Y s 1868 866 m -18 Y s 1904 866 m -18 Y s 1939 866 m -18 Y s 1975 885 m -37 Y s 2011 866 m -18 Y s 2047 866 m -18 Y s 2083 866 m -18 Y s 2119 866 m -18 Y s 2154 885 m -37 Y s
 gsave  2268 1546 0 833 C 340.915 780.317 t 0 r /Helvetica findfont 73.2695 sf 0 0 m (0) show NC gr 
 gsave  2268 1546 0 833 C 479.806 780.317 t 0 r /Helvetica findfont 73.2695 sf 0 0 m (500) show NC gr 
 gsave  2268 1546 0 833 C 638.9 780.317 t 0 r /Helvetica findfont 73.2695 sf 0 0 m (1000) show NC gr 
 gsave  2268 1546 0 833 C 818.196 780.317 t 0 r /Helvetica findfont 73.2695 sf 0 0 m (1500) show NC gr 
 gsave  2268 1546 0 833 C 997.492 780.317 t 0 r /Helvetica findfont 73.2695 sf 0 0 m (2000) show NC gr 
 gsave  2268 1546 0 833 C 1176.79 780.317 t 0 r /Helvetica findfont 73.2695 sf 0 0 m (2500) show NC gr 
 gsave  2268 1546 0 833 C 1356.08 780.317 t 0 r /Helvetica findfont 73.2695 sf 0 0 m (3000) show NC gr 
 gsave  2268 1546 0 833 C 1535.38 780.317 t 0 r /Helvetica findfont 73.2695 sf 0 0 m (3500) show NC gr 
 gsave  2268 1546 0 833 C 1714.68 780.317 t 0 r /Helvetica findfont 73.2695 sf 0 0 m (4000) show NC gr 
 gsave  2268 1546 0 833 C 1893.97 780.317 t 0 r /Helvetica findfont 73.2695 sf 0 0 m (4500) show NC gr 
 gsave  2268 1546 0 833 C 2073.27 780.317 t 0 r /Helvetica findfont 73.2695 sf 0 0 m (5000) show NC gr  363 2302 m 1791 X s 363 2265 m 37 Y s 399 2283 m 19 Y s 434 2283 m 19 Y s 470 2283 m 19 Y s 506 2283 m 19 Y s 542 2265 m 37 Y s 578 2283 m 19 Y s
 614 2283 m 19 Y s 649 2283 m 19 Y s 685 2283 m 19 Y s 721 2265 m 37 Y s 757 2283 m 19 Y s 793 2283 m 19 Y s 829 2283 m 19 Y s 864 2283 m 19 Y s 900 2265 m 37 Y s 936 2283 m 19 Y s 972 2283 m 19 Y s 1008 2283 m 19 Y s 1044 2283 m 19 Y s 1079 2265 m
 37 Y s 1115 2283 m 19 Y s 1151 2283 m 19 Y s 1187 2283 m 19 Y s 1223 2283 m 19 Y s 1259 2265 m 37 Y s 1294 2283 m 19 Y s 1330 2283 m 19 Y s 1366 2283 m 19 Y s 1402 2283 m 19 Y s 1438 2265 m 37 Y s 1474 2283 m 19 Y s 1509 2283 m 19 Y s 1545 2283 m 19
 Y s 1581 2283 m 19 Y s 1617 2265 m 37 Y s 1653 2283 m 19 Y s 1689 2283 m 19 Y s 1724 2283 m 19 Y s 1760 2283 m 19 Y s 1796 2265 m 37 Y s 1832 2283 m 19 Y s 1868 2283 m 19 Y s 1904 2283 m 19 Y s 1939 2283 m 19 Y s 1975 2265 m 37 Y s 2011 2283 m 19 Y
 s 2047 2283 m 19 Y s 2083 2283 m 19 Y s 2119 2283 m 19 Y s 2154 2265 m 37 Y s 363 848 m 1454 Y s 395 863 m -32 X s 395 880 m -32 X s 395 894 m -32 X s 395 907 m -32 X s 427 919 m -64 X s
 gsave  2268 1546 0 833 C 315.662 919.208 t 0 r /Helvetica findfont 48.0042 sf 0 0 m (6) show NC gr 
 gsave  2268 1546 0 833 C 287.884 919.208 t 0 r /Symbol findfont 48.0042 sf 0 0 m (-) show NC gr 
 gsave  2268 1546 0 833 C 209.6 886.379 t 0 r /Helvetica findfont 73.2695 sf 0 0 m (10) show NC gr  395 994 m -32 X s 395 1038 m -32 X s 395 1069 m -32 X s 395 1093 m -32 X s 395 1113 m -32 X s 395 1130 m -32 X s 395 1144 m -32 X s 395 1157 m -32 X s
 427 1169 m -64 X s
 gsave  2268 1546 0 833 C 315.662 1169.21 t 0 r /Helvetica findfont 48.0042 sf 0 0 m (5) show NC gr 
 gsave  2268 1546 0 833 C 287.884 1169.21 t 0 r /Symbol findfont 48.0042 sf 0 0 m (-) show NC gr 
 gsave  2268 1546 0 833 C 209.6 1136.38 t 0 r /Helvetica findfont 73.2695 sf 0 0 m (10) show NC gr  395 1244 m -32 X s 395 1288 m -32 X s 395 1319 m -32 X s 395 1343 m -32 X s 395 1363 m -32 X s 395 1380 m -32 X s 395 1394 m -32 X s 395 1407 m -32 X
 s 427 1419 m -64 X s
 gsave  2268 1546 0 833 C 315.662 1416.69 t 0 r /Helvetica findfont 48.0042 sf 0 0 m (4) show NC gr 
 gsave  2268 1546 0 833 C 287.884 1416.69 t 0 r /Symbol findfont 48.0042 sf 0 0 m (-) show NC gr 
 gsave  2268 1546 0 833 C 209.6 1386.39 t 0 r /Helvetica findfont 73.2695 sf 0 0 m (10) show NC gr  395 1494 m -32 X s 395 1538 m -32 X s 395 1569 m -32 X s 395 1593 m -32 X s 395 1613 m -32 X s 395 1630 m -32 X s 395 1645 m -32 X s 395 1657 m -32 X
 s 427 1669 m -64 X s
 gsave  2268 1546 0 833 C 315.662 1669.22 t 0 r /Helvetica findfont 48.0042 sf 0 0 m (3) show NC gr 
 gsave  2268 1546 0 833 C 287.884 1669.22 t 0 r /Symbol findfont 48.0042 sf 0 0 m (-) show NC gr 
 gsave  2268 1546 0 833 C 209.6 1636.39 t 0 r /Helvetica findfont 73.2695 sf 0 0 m (10) show NC gr  395 1744 m -32 X s 395 1788 m -32 X s 395 1819 m -32 X s 395 1844 m -32 X s 395 1863 m -32 X s 395 1880 m -32 X s 395 1895 m -32 X s 395 1907 m -32 X
 s 427 1919 m -64 X s
 gsave  2268 1546 0 833 C 315.662 1916.7 t 0 r /Helvetica findfont 48.0042 sf 0 0 m (2) show NC gr 
 gsave  2268 1546 0 833 C 287.884 1916.7 t 0 r /Symbol findfont 48.0042 sf 0 0 m (-) show NC gr 
 gsave  2268 1546 0 833 C 209.6 1886.4 t 0 r /Helvetica findfont 73.2695 sf 0 0 m (10) show NC gr  395 1994 m -32 X s 395 2038 m -32 X s 395 2069 m -32 X s 395 2094 m -32 X s 395 2113 m -32 X s 395 2130 m -32 X s 395 2145 m -32 X s 395 2157 m -32 X s
 427 2169 m -64 X s
 gsave  2268 1546 0 833 C 323.238 2166.7 t 0 r /Helvetica findfont 48.0042 sf 0 0 m (1) show NC gr 
 gsave  2268 1546 0 833 C 295.46 2166.7 t 0 r /Symbol findfont 48.0042 sf 0 0 m (-) show NC gr 
 gsave  2268 1546 0 833 C 217.176 2136.4 t 0 r /Helvetica findfont 73.2695 sf 0 0 m (10) show NC gr  395 2244 m -32 X s 395 2288 m -32 X s 2154 848 m 1454 Y s 2122 863 m 32 X s 2122 880 m 32 X s 2122 894 m 32 X s 2122 907 m 32 X s 2090 919 m 64 X s
 2122 994 m 32 X s 2122 1038 m 32 X s 2122 1069 m 32 X s 2122 1093 m 32 X s 2122 1113 m 32 X s 2122 1130 m 32 X s 2122 1144 m 32 X s 2122 1157 m 32 X s 2090 1169 m 64 X s 2122 1244 m 32 X s 2122 1288 m 32 X s 2122 1319 m 32 X s 2122 1343 m 32 X s
 2122 1363 m 32 X s 2122 1380 m 32 X s 2122 1394 m 32 X s 2122 1407 m 32 X s 2090 1419 m 64 X s 2122 1494 m 32 X s 2122 1538 m 32 X s 2122 1569 m 32 X s 2122 1593 m 32 X s 2122 1613 m 32 X s 2122 1630 m 32 X s 2122 1645 m 32 X s 2122 1657 m 32 X s
 2090 1669 m 64 X s 2122 1744 m 32 X s 2122 1788 m 32 X s 2122 1819 m 32 X s 2122 1844 m 32 X s 2122 1863 m 32 X s 2122 1880 m 32 X s 2122 1895 m 32 X s 2122 1907 m 32 X s 2090 1919 m 64 X s 2122 1994 m 32 X s 2122 2038 m 32 X s 2122 2069 m 32 X s
 2122 2094 m 32 X s 2122 2113 m 32 X s 2122 2130 m 32 X s 2122 2145 m 32 X s 2122 2157 m 32 X s 2090 2169 m 64 X s 2122 2244 m 32 X s 2122 2288 m 32 X s 1 0 0 c 6 lw 1 1 1 c 1 0 0 c 381 1660 m 10 Y s 381 1691 m 7 Y s 363 1681 m 8 X s 391 1681 m 8 X s
 3 lw 381 1681 m20 6 lw 417 1727 m 5 Y s 417 1752 m 4 Y s 399 1742 m 7 X s 427 1742 m 7 X s 3 lw 417 1742 m20 6 lw 452 1799 m 1 Y s 452 1820 m s 434 1810 m 8 X s 463 1810 m 7 X s 3 lw 452 1810 m20 6 lw 470 1913 m 8 X s 498 1913 m 8 X s 3 lw 488 1913
 m20 6 lw 506 2019 m 8 X s 534 2019 m 8 X s 3 lw 524 2019 m20 6 lw 542 2100 m 8 X s 570 2100 m 8 X s 3 lw 560 2100 m20 6 lw 578 2218 m 8 X s 606 2218 m 8 X s 3 lw 596 2218 m20 6 lw 614 2228 m 7 X s 642 2228 m 7 X s 3 lw 632 2228 m20 6 lw 649 2216 m 8
 X s 677 2216 m 8 X s 3 lw 667 2216 m20 6 lw 685 2189 m 8 X s 713 2189 m 8 X s 3 lw 703 2189 m20 6 lw 721 2159 m 8 X s 749 2159 m 8 X s 3 lw 739 2159 m20 6 lw 757 2124 m 8 X s 785 2124 m 8 X s 3 lw 775 2124 m20 6 lw 793 2077 m 8 X s 821 2077 m 8 X s
 3 lw 811 2077 m20 6 lw 829 2039 m 7 X s 857 2039 m 7 X s 3 lw 847 2039 m20 6 lw 864 1997 m 8 X s 892 1997 m 8 X s 3 lw 882 1997 m20 6 lw 900 1960 m 8 X s 928 1960 m 8 X s 3 lw 918 1960 m20 6 lw 936 1915 m 8 X s 964 1915 m 8 X s 3 lw 954 1915 m20 6
 lw 972 1877 m 8 X s 1000 1877 m 8 X s 3 lw 990 1877 m20 6 lw 1008 1849 m 8 X s 1036 1849 m 8 X s 3 lw 1026 1849 m20 6 lw 1044 1806 m 7 X s 1072 1806 m 7 X s 3 lw 1062 1806 m20 6 lw 1079 1762 m 8 X s 1107 1762 m 8 X s 3 lw 1097 1762 m20 6 lw 1115
 1745 m 8 X s 1143 1745 m 8 X s 3 lw 1133 1745 m20 6 lw 1151 1705 m 8 X s 1179 1705 m 8 X s 3 lw 1169 1705 m20 6 lw 1187 1672 m 8 X s 1215 1672 m 8 X s 3 lw 1205 1672 m20 6 lw 1223 1636 m 8 X s 1251 1636 m 8 X s 3 lw 1241 1636 m20 6 lw 1259 1625 m 7
 X s 1287 1625 m 7 X s 3 lw 1276 1625 m20 6 lw 1312 1567 m 1 Y s 1294 1578 m 8 X s 1322 1578 m 8 X s 3 lw 1312 1578 m20 6 lw 1348 1557 m 1 Y s 1330 1568 m 8 X s 1358 1568 m 8 X s 3 lw 1348 1568 m20 6 lw 1384 1503 m 3 Y s 1384 1527 m 2 Y s 1366 1517 m
 8 X s 1394 1517 m 8 X s 3 lw 1384 1517 m20 6 lw 1420 1466 m 6 Y s 1420 1492 m 4 Y s 1402 1482 m 8 X s 1430 1482 m 8 X s 3 lw 1420 1482 m20 6 lw 1456 1440 m 8 Y s 1456 1468 m 6 Y s 1438 1458 m 8 X s 1466 1458 m 8 X s 3 lw 1456 1458 m20 6 lw 1491 1424
 m 10 Y s 1491 1454 m 6 Y s 1474 1444 m 7 X s 1502 1444 m 7 X s 3 lw 1491 1444 m20 6 lw 1527 1358 m 17 Y s 1527 1395 m 11 Y s 1509 1385 m 8 X s 1537 1385 m 8 X s 3 lw 1527 1385 m20 6 lw 1563 1346 m 18 Y s 1563 1384 m 13 Y s 1545 1374 m 8 X s 1573
 1374 m 8 X s 3 lw 1563 1374 m20 6 lw 1599 1299 m 24 Y s 1599 1343 m 16 Y s 1581 1333 m 8 X s 1609 1333 m 8 X s 3 lw 1599 1333 m20 6 lw 1635 1257 m 32 Y s 1635 1309 m 21 Y s 1617 1299 m 8 X s 1645 1299 m 8 X s 3 lw 1635 1299 m20 6 lw 1671 1265 m 31 Y
 s 1671 1316 m 20 Y s 1653 1306 m 8 X s 1681 1306 m 8 X s 3 lw 1671 1306 m20 6 lw 1706 1172 m 54 Y s 1706 1246 m 30 Y s 1689 1236 m 7 X s 1717 1236 m 7 X s 3 lw 1706 1236 m20 6 lw 1742 1213 m 42 Y s 1742 1276 m 25 Y s 1724 1266 m 8 X s 1752 1266 m 8
 X s 3 lw 1742 1266 m20 6 lw 1778 974 m 129 Y s 1778 1124 m 49 Y s 1760 1114 m 8 X s 1788 1114 m 8 X s 3 lw 1778 1114 m20 6 lw 1921 848 m 201 Y s 1921 1069 m 65 Y s 1904 1059 m 7 X s 1932 1059 m 7 X s 3 lw 1921 1059 m20 6 lw 0 0 1 c 1 1 1 c 0 0 1 c
 381 1640 m 9 Y s 381 1670 m 6 Y s 363 1659 m 8 X s 391 1659 m 8 X s 3 lw 381 1659 m20 6 lw 417 1665 m 5 Y s 417 1690 m 4 Y s 399 1680 m 7 X s 427 1680 m 7 X s 3 lw 417 1680 m20 6 lw 452 1755 m 2 Y s 452 1777 m 1 Y s 434 1767 m 8 X s 463 1767 m 7 X s
 3 lw 452 1767 m20 6 lw 470 1882 m 8 X s 498 1882 m 8 X s 3 lw 488 1882 m20 6 lw 506 1978 m 8 X s 534 1978 m 8 X s 3 lw 524 1978 m20 6 lw 542 2091 m 8 X s 570 2091 m 8 X s 3 lw 560 2091 m20 6 lw 578 2215 m 8 X s 606 2215 m 8 X s 3 lw 596 2215 m20 6
 lw 614 2230 m 7 X s 642 2230 m 7 X s 3 lw 632 2230 m20 6 lw 649 2219 m 8 X s 677 2219 m 8 X s 3 lw 667 2219 m20 6 lw 685 2194 m 8 X s 713 2194 m 8 X s 3 lw 703 2194 m20 6 lw 721 2163 m 8 X s 749 2163 m 8 X s 3 lw 739 2163 m20 6 lw 757 2129 m 8 X s
 785 2129 m 8 X s 3 lw 775 2129 m20 6 lw 793 2082 m 8 X s 821 2082 m 8 X s 3 lw 811 2082 m20 6 lw 829 2042 m 7 X s 857 2042 m 7 X s 3 lw 847 2042 m20 6 lw 864 1997 m 8 X s 892 1997 m 8 X s 3 lw 882 1997 m20 6 lw 900 1964 m 8 X s 928 1964 m 8 X s 3 lw
 918 1964 m20 6 lw 936 1916 m 8 X s 964 1916 m 8 X s 3 lw 954 1916 m20 6 lw 972 1873 m 8 X s 1000 1873 m 8 X s 3 lw 990 1873 m20 6 lw 1008 1840 m 8 X s 1036 1840 m 8 X s 3 lw 1026 1840 m20 6 lw 1044 1797 m 7 X s 1072 1797 m 7 X s 3 lw 1062 1797 m20 6
 lw 1079 1771 m 8 X s 1107 1771 m 8 X s 3 lw 1097 1771 m20 6 lw 1115 1738 m 8 X s 1143 1738 m 8 X s 3 lw 1133 1738 m20 6 lw 1151 1699 m 8 X s 1179 1699 m 8 X s 3 lw 1169 1699 m20 6 lw 1187 1661 m 8 X s 1215 1661 m 8 X s 3 lw 1205 1661 m20 6 lw 1223
 1625 m 8 X s 1251 1625 m 8 X s 3 lw 1241 1625 m20 6 lw 1259 1594 m 7 X s 1287 1594 m 7 X s 3 lw 1276 1594 m20 6 lw 1312 1563 m s 1294 1573 m 8 X s 1322 1573 m 8 X s 3 lw 1312 1573 m20 6 lw 1348 1525 m 2 Y s 1348 1547 m 1 Y s 1330 1537 m 8 X s 1358
 1537 m 8 X s 3 lw 1348 1537 m20 6 lw 1384 1515 m 2 Y s 1384 1537 m 1 Y s 1366 1527 m 8 X s 1394 1527 m 8 X s 3 lw 1384 1527 m20 6 lw 1420 1466 m 6 Y s 1420 1492 m 4 Y s 1402 1482 m 8 X s 1430 1482 m 8 X s 3 lw 1420 1482 m20 6 lw 1456 1434 m 9 Y s
 1456 1463 m 5 Y s 1438 1453 m 8 X s 1466 1453 m 8 X s 3 lw 1456 1453 m20 6 lw 1491 1384 m 12 Y s 1491 1417 m 8 Y s 1474 1406 m 7 X s 1502 1406 m 7 X s 3 lw 1491 1406 m20 6 lw 1527 1372 m 15 Y s 1527 1407 m 10 Y s 1509 1397 m 8 X s 1537 1397 m 8 X s
 3 lw 1527 1397 m20 6 lw 1563 1359 m 16 Y s 1563 1395 m 11 Y s 1545 1385 m 8 X s 1573 1385 m 8 X s 3 lw 1563 1385 m20 6 lw 1599 1371 m 14 Y s 1599 1405 m 10 Y s 1581 1395 m 8 X s 1609 1395 m 8 X s 3 lw 1599 1395 m20 6 lw 1635 1301 m 24 Y s 1635 1345
 m 16 Y s 1617 1335 m 8 X s 1645 1335 m 8 X s 3 lw 1635 1335 m20 6 lw 1671 1319 m 22 Y s 1671 1361 m 14 Y s 1653 1351 m 8 X s 1681 1351 m 8 X s 3 lw 1671 1351 m20 6 lw 1706 848 m 205 Y s 1706 1073 m 66 Y s 1689 1063 m 7 X s 1717 1063 m 7 X s 3 lw
 1706 1063 m20 6 lw 1778 1131 m 66 Y s 1778 1217 m 34 Y s 1760 1207 m 8 X s 1788 1207 m 8 X s 3 lw 1778 1207 m20 6 lw 1814 848 m 141 Y s 1814 1009 m 65 Y s 1796 999 m 8 X s 1824 999 m 8 X s 3 lw 1814 999 m20 6 lw 1957 848 m 205 Y s 1957 1073 m 66 Y s
 1939 1063 m 8 X s 1967 1063 m 8 X s 3 lw 1957 1063 m20 6 lw black
 gsave  2268 1546 0 833 C 1244.97 2116.2 t 0 r /Helvetica findfont 58.1103 sf 0 0 m (CKKW) show NC gr  3 lw 1 1 1 c 2268 833 0 0 bf black 1 1 1 c 1791 582 363 250 bf black 1791 582 363 250 bl 1 0 0 c 6 lw 1 1 1 c 1 0 0 c 381 450 m 113 Y s 381 584 m
 113 Y s 363 573 m 8 X s 391 573 m 8 X s 3 lw 381 573 m20 6 lw 417 650 m 119 Y s 417 789 m 43 Y s 399 779 m 7 X s 427 779 m 7 X s 3 lw 417 779 m20 6 lw 452 642 m 78 Y s 452 740 m 79 Y s 434 730 m 8 X s 463 730 m 7 X s 3 lw 452 730 m20 6 lw 488 586 m
 36 Y s 488 642 m 37 Y s 470 632 m 8 X s 498 632 m 8 X s 3 lw 488 632 m20 6 lw 524 648 m 22 Y s 524 690 m 22 Y s 506 680 m 8 X s 534 680 m 8 X s 3 lw 524 680 m20 6 lw 560 574 m 9 Y s 560 604 m 9 Y s 542 593 m 8 X s 570 593 m 8 X s 3 lw 560 593 m20 6
 lw 596 542 m 2 Y s 596 564 m 1 Y s 578 554 m 8 X s 606 554 m 8 X s 3 lw 596 554 m20 6 lw 614 523 m 7 X s 642 523 m 7 X s 3 lw 632 523 m20 6 lw 667 526 m s 667 547 m s 649 537 m 8 X s 677 537 m 8 X s 3 lw 667 537 m20 6 lw 703 509 m 2 Y s 703 531 m 1
 Y s 685 521 m 8 X s 713 521 m 8 X s 3 lw 703 521 m20 6 lw 739 509 m 3 Y s 739 532 m 3 Y s 721 522 m 8 X s 749 522 m 8 X s 3 lw 739 522 m20 6 lw 775 530 m 4 Y s 775 555 m 4 Y s 757 544 m 8 X s 785 544 m 8 X s 3 lw 775 544 m20 6 lw 811 493 m 6 Y s 811
 519 m 6 Y s 793 509 m 8 X s 821 509 m 8 X s 3 lw 811 509 m20 6 lw 847 519 m 8 Y s 847 547 m 8 Y s 829 537 m 7 X s 857 537 m 7 X s 3 lw 847 537 m20 6 lw 882 523 m 11 Y s 882 554 m 12 Y s 864 544 m 8 X s 892 544 m 8 X s 3 lw 882 544 m20 6 lw 918 545 m
 14 Y s 918 579 m 14 Y s 900 569 m 8 X s 928 569 m 8 X s 3 lw 918 569 m20 6 lw 954 480 m 13 Y s 954 513 m 14 Y s 936 503 m 8 X s 964 503 m 8 X s 3 lw 954 503 m20 6 lw 990 482 m 15 Y s 990 518 m 14 Y s 972 507 m 8 X s 1000 507 m 8 X s 3 lw 990 507 m20
 6 lw 1026 562 m 25 Y s 1026 607 m 26 Y s 1008 597 m 8 X s 1036 597 m 8 X s 3 lw 1026 597 m20 6 lw 1062 478 m 24 Y s 1062 522 m 23 Y s 1044 512 m 7 X s 1072 512 m 7 X s 3 lw 1062 512 m20 6 lw 1097 478 m 27 Y s 1097 526 m 27 Y s 1079 515 m 8 X s 1107
 515 m 8 X s 3 lw 1097 515 m20 6 lw 1133 573 m 40 Y s 1133 633 m 39 Y s 1115 623 m 8 X s 1143 623 m 8 X s 3 lw 1133 623 m20 6 lw 1169 587 m 52 Y s 1169 659 m 51 Y s 1151 649 m 8 X s 1179 649 m 8 X s 3 lw 1169 649 m20 6 lw 1205 586 m 58 Y s 1205 665 m
 58 Y s 1187 654 m 8 X s 1215 654 m 8 X s 3 lw 1205 654 m20 6 lw 1241 490 m 56 Y s 1241 566 m 55 Y s 1223 556 m 8 X s 1251 556 m 8 X s 3 lw 1241 556 m20 6 lw 1276 546 m 70 Y s 1276 636 m 71 Y s 1259 626 m 7 X s 1287 626 m 7 X s 3 lw 1276 626 m20 6 lw
 1312 422 m 67 Y s 1312 509 m 67 Y s 1294 499 m 8 X s 1322 499 m 8 X s 3 lw 1312 499 m20 6 lw 1348 592 m 106 Y s 1348 718 m 106 Y s 1330 708 m 8 X s 1358 708 m 8 X s 3 lw 1348 708 m20 6 lw 1384 492 m 118 Y s 1384 630 m 117 Y s 1366 620 m 8 X s 1394
 620 m 8 X s 3 lw 1384 620 m20 6 lw 1420 329 m 84 Y s 1420 433 m 85 Y s 1402 423 m 8 X s 1430 423 m 8 X s 3 lw 1420 423 m20 6 lw 1456 445 m 146 Y s 1456 611 m 145 Y s 1438 601 m 8 X s 1466 601 m 8 X s 3 lw 1456 601 m20 6 lw 1491 364 m 126 Y s 1491
 510 m 126 Y s 1474 500 m 7 X s 1502 500 m 7 X s 3 lw 1491 500 m20 6 lw 1527 250 m 63 Y s 1527 333 m 102 Y s 1509 323 m 8 X s 1537 323 m 8 X s 3 lw 1527 323 m20 6 lw 1563 278 m 148 Y s 1563 447 m 148 Y s 1545 436 m 8 X s 1573 436 m 8 X s 3 lw 1563
 436 m20 6 lw 1599 250 m 64 Y s 1599 334 m 132 Y s 1581 324 m 8 X s 1609 324 m 8 X s 3 lw 1599 324 m20 6 lw 1635 250 m 93 Y s 1635 364 m 174 Y s 1617 353 m 8 X s 1645 353 m 8 X s 3 lw 1635 353 m20 6 lw 1671 250 m 301 Y s 1671 572 m 260 Y s 1653 561 m
 8 X s 1681 561 m 8 X s 3 lw 1671 561 m20 6 lw 1921 250 m 4 Y s 1921 274 m 421 Y s 1904 264 m 7 X s 1932 264 m 7 X s 3 lw 1921 264 m20 6 lw black 9 lw 0.95 0.95 0.95 c black 443 552 m 17 -1 d 17 -1 d 18 X 17 -1 d 17 -1 d 17 -1 d 17 X 18 -1 d 17 -1 d
 17 -1 d 17 -1 d 17 X 18 -1 d 17 -1 d 17 -1 d 17 X 17 -1 d 18 -1 d 17 -1 d 17 X 17 -1 d 17 -1 d 18 -1 d 17 -1 d 17 X 17 -1 d 17 -1 d 18 -1 d 17 X 17 -1 d 17 -1 d 17 -1 d 18 -1 d 17 X 17 -1 d 17 -1 d 17 -1 d 18 X 17 -1 d 17 -1 d 17 -1 d 17 -1 d 18 X
 17 -1 d 17 -1 d 17 -1 d 17 X 18 -1 d 17 -1 d s 1286 514 m 17 -1 d 17 X 17 -1 d 18 -1 d 17 -1 d 17 -1 d 17 X 17 -1 d 18 -1 d 17 -1 d 17 X 17 -1 d 17 -1 d 18 -1 d 17 -1 d 17 X 17 -1 d 17 -1 d 18 -1 d 17 X 17 -1 d 17 -1 d 17 -1 d 18 X 17 -1 d 17 -1 d
 17 -1 d 17 -1 d 18 X 17 -1 d 17 -1 d 17 -1 d 17 X 18 -1 d 17 -1 d 17 -1 d 17 -1 d 17 X 18 -1 d 17 -1 d 17 -1 d 17 X 17 -1 d 18 -1 d 17 -1 d 17 -1 d 17 X 17 -1 d 18 -1 d s 2129 476 m 17 -1 d s 3 lw 363 250 m 1791 X s
 gsave  2268 833 0 0 C 1936.9 45.4553 t 0 r /Helvetica findfont 78.4508 sf 0 0 m ( [GeV]) show NC gr 
 gsave  2268 833 0 0 C 1899.02 22.7277 t 0 r /Helvetica findfont 50.6134 sf 0 0 m ( J) show NC gr 
 gsave  2268 833 0 0 C 1871.24 22.7277 t 0 r /Symbol findfont 50.6134 sf 0 0 m (n) show NC gr 
 gsave  2268 833 0 0 C 1853.57 22.7277 t 0 r /Helvetica findfont 50.6134 sf 0 0 m ( ) show NC gr 
 gsave  2268 833 0 0 C 1825.79 22.7277 t 0 r /Symbol findfont 50.6134 sf 0 0 m (n) show NC gr 
 gsave  2268 833 0 0 C 1825.79 70.7083 t 0 r /Helvetica findfont 50.6134 sf 0 0 m (T) show NC gr 
 gsave  2268 833 0 0 C 1765.18 45.4553 t 0 r /Helvetica findfont 78.4508 sf 0 0 m (m) show NC gr  363 270 m -20 Y s 399 260 m -10 Y s 434 260 m -10 Y s 470 260 m -10 Y s 506 260 m -10 Y s 542 270 m -20 Y s 578 260 m -10 Y s 614 260 m -10 Y s 649 260
 m -10 Y s 685 260 m -10 Y s 721 270 m -20 Y s 757 260 m -10 Y s 793 260 m -10 Y s 829 260 m -10 Y s 864 260 m -10 Y s 900 270 m -20 Y s 936 260 m -10 Y s 972 260 m -10 Y s 1008 260 m -10 Y s 1044 260 m -10 Y s 1079 270 m -20 Y s 1115 260 m -10 Y s
 1151 260 m -10 Y s 1187 260 m -10 Y s 1223 260 m -10 Y s 1259 270 m -20 Y s 1294 260 m -10 Y s 1330 260 m -10 Y s 1366 260 m -10 Y s 1402 260 m -10 Y s 1438 270 m -20 Y s 1474 260 m -10 Y s 1509 260 m -10 Y s 1545 260 m -10 Y s 1581 260 m -10 Y s
 1617 270 m -20 Y s 1653 260 m -10 Y s 1689 260 m -10 Y s 1724 260 m -10 Y s 1760 260 m -10 Y s 1796 270 m -20 Y s 1832 260 m -10 Y s 1868 260 m -10 Y s 1904 260 m -10 Y s 1939 260 m -10 Y s 1975 270 m -20 Y s 2011 260 m -10 Y s 2047 260 m -10 Y s
 2083 260 m -10 Y s 2119 260 m -10 Y s 2154 270 m -20 Y s
 gsave  2268 833 0 0 C 351.016 214.65 t 0 r /Helvetica findfont 37.96 sf 0 0 m (0) show NC gr 
 gsave  2268 833 0 0 C 507.585 214.65 t 0 r /Helvetica findfont 37.96 sf 0 0 m (500) show NC gr 
 gsave  2268 833 0 0 C 676.78 214.65 t 0 r /Helvetica findfont 37.96 sf 0 0 m (1000) show NC gr 
 gsave  2268 833 0 0 C 856.076 214.65 t 0 r /Helvetica findfont 37.96 sf 0 0 m (1500) show NC gr 
 gsave  2268 833 0 0 C 1035.37 214.65 t 0 r /Helvetica findfont 37.96 sf 0 0 m (2000) show NC gr 
 gsave  2268 833 0 0 C 1214.67 214.65 t 0 r /Helvetica findfont 37.96 sf 0 0 m (2500) show NC gr 
 gsave  2268 833 0 0 C 1393.96 214.65 t 0 r /Helvetica findfont 37.96 sf 0 0 m (3000) show NC gr 
 gsave  2268 833 0 0 C 1573.26 214.65 t 0 r /Helvetica findfont 37.96 sf 0 0 m (3500) show NC gr 
 gsave  2268 833 0 0 C 1752.56 214.65 t 0 r /Helvetica findfont 37.96 sf 0 0 m (4000) show NC gr 
 gsave  2268 833 0 0 C 1931.85 214.65 t 0 r /Helvetica findfont 37.96 sf 0 0 m (4500) show NC gr 
 gsave  2268 833 0 0 C 2111.15 214.65 t 0 r /Helvetica findfont 37.96 sf 0 0 m (5000) show NC gr  363 832 m 1791 X s 363 812 m 20 Y s 399 822 m 10 Y s 434 822 m 10 Y s 470 822 m 10 Y s 506 822 m 10 Y s 542 812 m 20 Y s 578 822 m 10 Y s 614 822 m 10 Y
 s 649 822 m 10 Y s 685 822 m 10 Y s 721 812 m 20 Y s 757 822 m 10 Y s 793 822 m 10 Y s 829 822 m 10 Y s 864 822 m 10 Y s 900 812 m 20 Y s 936 822 m 10 Y s 972 822 m 10 Y s 1008 822 m 10 Y s 1044 822 m 10 Y s 1079 812 m 20 Y s 1115 822 m 10 Y s 1151
 822 m 10 Y s 1187 822 m 10 Y s 1223 822 m 10 Y s 1259 812 m 20 Y s 1294 822 m 10 Y s 1330 822 m 10 Y s 1366 822 m 10 Y s 1402 822 m 10 Y s 1438 812 m 20 Y s 1474 822 m 10 Y s 1509 822 m 10 Y s 1545 822 m 10 Y s 1581 822 m 10 Y s 1617 812 m 20 Y s
 1653 822 m 10 Y s 1689 822 m 10 Y s 1724 822 m 10 Y s 1760 822 m 10 Y s 1796 812 m 20 Y s 1832 822 m 10 Y s 1868 822 m 10 Y s 1904 822 m 10 Y s 1939 822 m 10 Y s 1975 812 m 20 Y s 2011 822 m 10 Y s 2047 822 m 10 Y s 2083 822 m 10 Y s 2119 822 m 10 Y
 s 2154 812 m 20 Y s 363 250 m 582 Y s 410 250 m -47 X s 387 261 m -24 X s 387 273 m -24 X s 387 285 m -24 X s 387 296 m -24 X s 410 308 m -47 X s 387 320 m -24 X s 387 331 m -24 X s 387 343 m -24 X s 387 355 m -24 X s 410 366 m -47 X s 387 378 m -24
 X s 387 389 m -24 X s 387 401 m -24 X s 387 413 m -24 X s 410 424 m -47 X s 387 436 m -24 X s 387 448 m -24 X s 387 459 m -24 X s 387 471 m -24 X s 410 483 m -47 X s 387 494 m -24 X s 387 506 m -24 X s 387 517 m -24 X s 387 529 m -24 X s 410 541 m
 -47 X s 387 552 m -24 X s 387 564 m -24 X s 387 576 m -24 X s 387 587 m -24 X s 410 599 m -47 X s 387 611 m -24 X s 387 622 m -24 X s 387 634 m -24 X s 387 646 m -24 X s 410 657 m -47 X s 387 669 m -24 X s 387 680 m -24 X s 387 692 m -24 X s 387 704
 m -24 X s 410 715 m -47 X s 387 727 m -24 X s 387 739 m -24 X s 387 750 m -24 X s 387 762 m -24 X s 410 774 m -47 X s 387 785 m -24 X s 387 797 m -24 X s 387 808 m -24 X s 387 820 m -24 X s 410 832 m -47 X s
 gsave  2268 833 0 0 C 297.985 234.853 t 0 r /Helvetica findfont 37.96 sf 0 0 m (0.5) show NC gr 
 gsave  2268 833 0 0 C 297.985 292.934 t 0 r /Helvetica findfont 37.96 sf 0 0 m (0.6) show NC gr 
 gsave  2268 833 0 0 C 297.985 353.542 t 0 r /Helvetica findfont 37.96 sf 0 0 m (0.7) show NC gr 
 gsave  2268 833 0 0 C 297.985 411.623 t 0 r /Helvetica findfont 37.96 sf 0 0 m (0.8) show NC gr 
 gsave  2268 833 0 0 C 297.985 469.705 t 0 r /Helvetica findfont 37.96 sf 0 0 m (0.9) show NC gr 
 gsave  2268 833 0 0 C 335.864 527.787 t 0 r /Helvetica findfont 37.96 sf 0 0 m (1) show NC gr 
 gsave  2268 833 0 0 C 305.561 585.869 t 0 r /Helvetica findfont 37.96 sf 0 0 m (1.1) show NC gr 
 gsave  2268 833 0 0 C 297.985 643.951 t 0 r /Helvetica findfont 37.96 sf 0 0 m (1.2) show NC gr 
 gsave  2268 833 0 0 C 297.985 702.033 t 0 r /Helvetica findfont 37.96 sf 0 0 m (1.3) show NC gr 
 gsave  2268 833 0 0 C 297.985 760.114 t 0 r /Helvetica findfont 37.96 sf 0 0 m (1.4) show NC gr 
 gsave  2268 833 0 0 C 297.985 818.196 t 0 r /Helvetica findfont 37.96 sf 0 0 m (1.5) show NC gr  2154 250 m 582 Y s 2107 250 m 47 X s 2131 261 m 23 X s 2131 273 m 23 X s 2131 285 m 23 X s 2131 296 m 23 X s 2107 308 m 47 X s 2131 320 m 23 X s 2131
 331 m 23 X s 2131 343 m 23 X s 2131 355 m 23 X s 2107 366 m 47 X s 2131 378 m 23 X s 2131 389 m 23 X s 2131 401 m 23 X s 2131 413 m 23 X s 2107 424 m 47 X s 2131 436 m 23 X s 2131 448 m 23 X s 2131 459 m 23 X s 2131 471 m 23 X s 2107 483 m 47 X s
 2131 494 m 23 X s 2131 506 m 23 X s 2131 517 m 23 X s 2131 529 m 23 X s 2107 541 m 47 X s 2131 552 m 23 X s 2131 564 m 23 X s 2131 576 m 23 X s 2131 587 m 23 X s 2107 599 m 47 X s 2131 611 m 23 X s 2131 622 m 23 X s 2131 634 m 23 X s 2131 646 m 23 X
 s 2107 657 m 47 X s 2131 669 m 23 X s 2131 680 m 23 X s 2131 692 m 23 X s 2131 704 m 23 X s 2107 715 m 47 X s 2131 727 m 23 X s 2131 739 m 23 X s 2131 750 m 23 X s 2131 762 m 23 X s 2107 774 m 47 X s 2131 785 m 23 X s 2131 797 m 23 X s 2131 808 m 23
 X s 2131 820 m 23 X s 2107 832 m 47 X s 0 0 1 c 6 lw 1 1 1 c 0 0 1 c 381 368 m 87 Y s 381 475 m 86 Y s 363 465 m 8 X s 391 465 m 8 X s 3 lw 381 465 m20 6 lw 417 350 m 62 Y s 417 432 m 63 Y s 399 422 m 7 X s 427 422 m 7 X s 3 lw 417 422 m20 6 lw 452
 415 m 53 Y s 452 488 m 53 Y s 434 478 m 8 X s 463 478 m 7 X s 3 lw 452 478 m20 6 lw 488 427 m 26 Y s 488 473 m 26 Y s 470 463 m 8 X s 498 463 m 8 X s 3 lw 488 463 m20 6 lw 524 430 m 13 Y s 524 463 m 12 Y s 506 453 m 8 X s 534 453 m 8 X s 3 lw 524
 453 m20 6 lw 560 530 m 6 Y s 560 557 m 6 Y s 542 547 m 8 X s 570 547 m 8 X s 3 lw 560 547 m20 6 lw 578 538 m 8 X s 606 538 m 8 X s 3 lw 596 538 m20 6 lw 614 533 m 7 X s 642 533 m 7 X s 3 lw 632 533 m20 6 lw 649 552 m 8 X s 677 552 m 8 X s 3 lw 667
 552 m20 6 lw 685 542 m 8 X s 713 542 m 8 X s 3 lw 703 542 m20 6 lw 739 533 m s 739 553 m 1 Y s 721 543 m 8 X s 749 543 m 8 X s 3 lw 739 543 m20 6 lw 775 560 m 3 Y s 775 583 m 2 Y s 757 573 m 8 X s 785 573 m 8 X s 3 lw 775 573 m20 6 lw 811 522 m 4 Y
 s 811 546 m 3 Y s 793 536 m 8 X s 821 536 m 8 X s 3 lw 811 536 m20 6 lw 847 537 m 5 Y s 847 562 m 6 Y s 829 552 m 7 X s 857 552 m 7 X s 3 lw 847 552 m20 6 lw 882 530 m 7 Y s 882 557 m 7 Y s 864 547 m 8 X s 892 547 m 8 X s 3 lw 882 547 m20 6 lw 918
 572 m 11 Y s 918 603 m 11 Y s 900 593 m 8 X s 928 593 m 8 X s 3 lw 918 593 m20 6 lw 954 488 m 10 Y s 954 518 m 10 Y s 936 508 m 8 X s 964 508 m 8 X s 3 lw 954 508 m20 6 lw 990 466 m 12 Y s 990 498 m 11 Y s 972 488 m 8 X s 1000 488 m 8 X s 3 lw 990
 488 m20 6 lw 1026 519 m 18 Y s 1026 557 m 19 Y s 1008 547 m 8 X s 1036 547 m 8 X s 3 lw 1026 547 m20 6 lw 1062 439 m 19 Y s 1062 478 m 19 Y s 1044 468 m 7 X s 1072 468 m 7 X s 3 lw 1062 468 m20 6 lw 1097 527 m 28 Y s 1097 575 m 27 Y s 1079 565 m 8 X
 s 1107 565 m 8 X s 3 lw 1097 565 m20 6 lw 1133 538 m 33 Y s 1133 592 m 33 Y s 1115 581 m 8 X s 1143 581 m 8 X s 3 lw 1133 581 m20 6 lw 1169 558 m 45 Y s 1169 623 m 45 Y s 1151 613 m 8 X s 1179 613 m 8 X s 3 lw 1169 613 m20 6 lw 1205 531 m 50 Y s
 1205 602 m 50 Y s 1187 592 m 8 X s 1215 592 m 8 X s 3 lw 1205 592 m20 6 lw 1241 440 m 49 Y s 1241 509 m 48 Y s 1223 499 m 8 X s 1251 499 m 8 X s 3 lw 1241 499 m20 6 lw 1276 398 m 51 Y s 1276 470 m 51 Y s 1259 459 m 7 X s 1287 459 m 7 X s 3 lw 1276
 459 m20 6 lw 1312 402 m 61 Y s 1312 483 m 61 Y s 1294 473 m 8 X s 1322 473 m 8 X s 3 lw 1312 473 m20 6 lw 1348 433 m 81 Y s 1348 535 m 81 Y s 1330 524 m 8 X s 1358 524 m 8 X s 3 lw 1348 524 m20 6 lw 1384 552 m 125 Y s 1384 698 m 125 Y s 1366 688 m 8
 X s 1394 688 m 8 X s 3 lw 1384 688 m20 6 lw 1420 328 m 83 Y s 1420 431 m 84 Y s 1402 421 m 8 X s 1430 421 m 8 X s 3 lw 1420 421 m20 6 lw 1456 421 m 137 Y s 1456 578 m 138 Y s 1438 568 m 8 X s 1466 568 m 8 X s 3 lw 1456 568 m20 6 lw 1491 250 m 83 Y s
 1491 353 m 93 Y s 1474 343 m 7 X s 1502 343 m 7 X s 3 lw 1491 343 m20 6 lw 1527 250 m 107 Y s 1527 377 m 111 Y s 1509 367 m 8 X s 1537 367 m 8 X s 3 lw 1527 367 m20 6 lw 1563 317 m 159 Y s 1563 496 m 158 Y s 1545 486 m 8 X s 1573 486 m 8 X s 3 lw
 1563 486 m20 6 lw 1599 385 m 211 Y s 1599 616 m 211 Y s 1581 606 m 8 X s 1609 606 m 8 X s 3 lw 1599 606 m20 6 lw 1635 270 m 229 Y s 1635 519 m 229 Y s 1617 509 m 8 X s 1645 509 m 8 X s 3 lw 1635 509 m20 6 lw 1706 250 m 317 Y s 1706 588 m 244 Y s
 1689 578 m 7 X s 1717 578 m 7 X s 3 lw 1706 578 m20 6 lw 1814 250 m 104 Y s 1814 374 m 458 Y s 1796 364 m 8 X s 1824 364 m 8 X s 3 lw 1814 364 m20 6 lw black 9 lw 0.95 0.95 0.95 c black 443 540 m 843 X s 1286 540 m 69 X 17 -1 d 757 X s 2129 539 m 17
 X s
 gr  gr showpage
end
%%EOF
