%!PS-Adobe-2.0 EPSF-2.0
%%BoundingBox:  0 0 567 595
%%Title: fac_sideband.eps: c4
%%Creator: ROOT Version 6.04/08
%%CreationDate: Sat Jan 21 10:37:12 2017
%%DocumentNeededResources: ProcSet (FontSetInit)
%%EndComments
%%BeginProlog
80 dict begin
/s {stroke} def /l {lineto} def /m {moveto} def /t {translate} def
/r {rotate} def /rl {roll}  def /R {repeat} def
/d {rlineto} def /rm {rmoveto} def /gr {grestore} def /f {eofill} def
/c {setrgbcolor} def /black {0 setgray} def /sd {setdash} def
/cl {closepath} def /sf {scalefont setfont} def /lw {setlinewidth} def
/box {m dup 0 exch d exch 0 d 0 exch neg d cl} def
/NC{systemdict begin initclip end}def/C{NC box clip newpath}def
/bl {box s} def /bf {gsave box gsave f grestore 1 lw [] 0 sd s grestore} def /Y { 0 exch d} def /X { 0 d} def 
/K {{pop pop 0 moveto} exch kshow} bind def
/ita {/ang 15 def gsave [1 0 ang dup sin exch cos div 1 0 0] concat} def 
/mp {newpath /y exch def /x exch def} def
/side {[w .77 mul w .23 mul] .385 w mul sd w 0 l currentpoint t -144 r} def
/mr {mp x y w2 0 360 arc} def /m24 {mr s} def /m20 {mr f} def
/mb {mp x y w2 add m w2 neg 0 d 0 w neg d w 0 d 0 w d cl} def
/mt {mp x y w2 add m w2 neg w neg d w 0 d cl} def
/m21 {mb f} def /m25 {mb s} def /m22 {mt f} def /m26{mt s} def
/m23 {mp x y w2 sub m w2 w d w neg 0 d cl f} def
/m27 {mp x y w2 add m w3 neg w2 neg d w3 w2 neg d w3 w2 d cl s} def
/m28 {mp x w2 sub y w2 sub w3 add m w3 0 d  0 w3 neg d w3 0 d 0 w3 d w3 0 d  0 w3 d w3 neg 0 d 0 w3 d w3 neg 0 d 0 w3 neg d w3 neg 0 d cl s } def
/m29 {mp gsave x w2 sub y w2 add w3 sub m currentpoint t 4 {side} repeat cl fill gr} def
/m30 {mp gsave x w2 sub y w2 add w3 sub m currentpoint t 4 {side} repeat cl s gr} def
/m31 {mp x y w2 sub m 0 w d x w2 sub y m w 0 d x w2 sub y w2 add m w w neg d x w2 sub y w2 sub m w w d s} def
/m32 {mp x y w2 sub m w2 w d w neg 0 d cl s} def
/m33 {mp x y w2 add m w3 neg w2 neg d w3 w2 neg d w3 w2 d cl f} def
/m34 {mp x w2 sub y w2 sub w3 add m w3 0 d  0 w3 neg d w3 0 d 0 w3 d w3 0 d  0 w3 d w3 neg 0 d 0 w3 d w3 neg 0 d 0 w3 neg d w3 neg 0 d cl f } def
/m2 {mp x y w2 sub m 0 w d x w2 sub y m w 0 d s} def
/m5 {mp x w2 sub y w2 sub m w w d x w2 sub y w2 add m w w neg d s} def
%%IncludeResource: ProcSet (FontSetInit)
%%IncludeResource: font Times-Roman
%%IncludeResource: font Times-Italic
%%IncludeResource: font Times-Bold
%%IncludeResource: font Times-BoldItalic
%%IncludeResource: font Helvetica
%%IncludeResource: font Helvetica-Oblique
%%IncludeResource: font Helvetica-Bold
%%IncludeResource: font Helvetica-BoldOblique
%%IncludeResource: font Courier
%%IncludeResource: font Courier-Oblique
%%IncludeResource: font Courier-Bold
%%IncludeResource: font Courier-BoldOblique
%%IncludeResource: font Symbol
%%IncludeResource: font ZapfDingbats
/reEncode {exch findfont dup length dict begin {1 index /FID eq  {pop pop} {def} ifelse } forall /Encoding exch def currentdict end dup /FontName get exch definefont pop } def [/Times-Bold /Times-Italic /Times-BoldItalic /Helvetica /Helvetica-Oblique
 /Helvetica-Bold /Helvetica-BoldOblique /Courier /Courier-Oblique /Courier-Bold /Courier-BoldOblique /Times-Roman /AvantGarde-Book /AvantGarde-BookOblique /AvantGarde-Demi /AvantGarde-DemiOblique /Bookman-Demi /Bookman-DemiItalic /Bookman-Light
 /Bookman-LightItalic /Helvetica-Narrow /Helvetica-Narrow-Bold /Helvetica-Narrow-BoldOblique /Helvetica-Narrow-Oblique /NewCenturySchlbk-Roman /NewCenturySchlbk-Bold /NewCenturySchlbk-BoldItalic /NewCenturySchlbk-Italic /Palatino-Bold
 /Palatino-BoldItalic /Palatino-Italic /Palatino-Roman ] {ISOLatin1Encoding reEncode } forall
%%EndProlog
%%BeginSetup
%%EndSetup
newpath  gsave  .25 .25 scale  gsave  0 0 t black[  ] 0 sd 3 lw 1 1 1 c 2268 2379 0 0 bf black 1 1 1 c 2268 1546 0 833 bf black 1 1 1 c 1791 1454 363 848 bf black 1791 1454 363 848 bl 1 1 1 c 1791 1454 363 848 bf black 1791 1454 363 848 bl 6 lw 1 1 1
 c black 381 1664 m 1 Y s 363 1675 m 8 X s 391 1675 m 8 X s 3 lw /w 20 def /w2 {w 2 div} def /w3 {w 3 div} def 381 1675 m20 6 lw 399 1705 m 7 X s 427 1705 m 7 X s 3 lw 417 1705 m20 6 lw 434 1779 m 8 X s 463 1779 m 7 X s 3 lw 452 1779 m20 6 lw 470
 1897 m 8 X s 498 1897 m 8 X s 3 lw 488 1897 m20 6 lw 506 1996 m 8 X s 534 1996 m 8 X s 3 lw 524 1996 m20 6 lw 542 2090 m 8 X s 570 2090 m 8 X s 3 lw 560 2090 m20 6 lw 578 2216 m 8 X s 606 2216 m 8 X s 3 lw 596 2216 m20 6 lw 614 2231 m 7 X s 642 2231
 m 7 X s 3 lw 632 2231 m20 6 lw 649 2217 m 8 X s 677 2217 m 8 X s 3 lw 667 2217 m20 6 lw 685 2193 m 8 X s 713 2193 m 8 X s 3 lw 703 2193 m20 6 lw 721 2162 m 8 X s 749 2162 m 8 X s 3 lw 739 2162 m20 6 lw 757 2123 m 8 X s 785 2123 m 8 X s 3 lw 775 2123
 m20 6 lw 793 2083 m 8 X s 821 2083 m 8 X s 3 lw 811 2083 m20 6 lw 829 2040 m 7 X s 857 2040 m 7 X s 3 lw 847 2040 m20 6 lw 864 1996 m 8 X s 892 1996 m 8 X s 3 lw 882 1996 m20 6 lw 900 1954 m 8 X s 928 1954 m 8 X s 3 lw 918 1954 m20 6 lw 936 1923 m 8
 X s 964 1923 m 8 X s 3 lw 954 1923 m20 6 lw 972 1884 m 8 X s 1000 1884 m 8 X s 3 lw 990 1884 m20 6 lw 1008 1839 m 8 X s 1036 1839 m 8 X s 3 lw 1026 1839 m20 6 lw 1044 1812 m 7 X s 1072 1812 m 7 X s 3 lw 1062 1812 m20 6 lw 1079 1767 m 8 X s 1107 1767
 m 8 X s 3 lw 1097 1767 m20 6 lw 1115 1731 m 8 X s 1143 1731 m 8 X s 3 lw 1133 1731 m20 6 lw 1151 1686 m 8 X s 1179 1686 m 8 X s 3 lw 1169 1686 m20 6 lw 1187 1652 m 8 X s 1215 1652 m 8 X s 3 lw 1205 1652 m20 6 lw 1223 1634 m 8 X s 1251 1634 m 8 X s 3
 lw 1241 1634 m20 6 lw 1276 1599 m 1 Y s 1259 1610 m 7 X s 1287 1610 m 7 X s 3 lw 1276 1610 m20 6 lw 1312 1574 m 2 Y s 1312 1596 m 1 Y s 1294 1586 m 8 X s 1322 1586 m 8 X s 3 lw 1312 1586 m20 6 lw 1348 1526 m 4 Y s 1348 1550 m 3 Y s 1330 1540 m 8 X s
 1358 1540 m 8 X s 3 lw 1348 1540 m20 6 lw 1384 1485 m 8 Y s 1384 1513 m 5 Y s 1366 1503 m 8 X s 1394 1503 m 8 X s 3 lw 1384 1503 m20 6 lw 1420 1489 m 8 Y s 1420 1517 m 5 Y s 1402 1507 m 8 X s 1430 1507 m 8 X s 3 lw 1420 1507 m20 6 lw 1456 1425 m 13
 Y s 1456 1458 m 8 Y s 1438 1448 m 8 X s 1466 1448 m 8 X s 3 lw 1456 1448 m20 6 lw 1491 1429 m 13 Y s 1491 1462 m 8 Y s 1474 1452 m 7 X s 1502 1452 m 7 X s 3 lw 1491 1452 m20 6 lw 1527 1410 m 15 Y s 1527 1446 m 10 Y s 1509 1436 m 8 X s 1537 1436 m 8
 X s 3 lw 1527 1436 m20 6 lw 1563 1366 m 20 Y s 1563 1406 m 13 Y s 1545 1396 m 8 X s 1573 1396 m 8 X s 3 lw 1563 1396 m20 6 lw 1599 1349 m 25 Y s 1599 1394 m 16 Y s 1581 1384 m 8 X s 1609 1384 m 8 X s 3 lw 1599 1384 m20 6 lw 1635 1296 m 35 Y s 1635
 1351 m 22 Y s 1617 1341 m 8 X s 1645 1341 m 8 X s 3 lw 1635 1341 m20 6 lw 1671 1243 m 49 Y s 1671 1313 m 28 Y s 1653 1303 m 8 X s 1681 1303 m 8 X s 3 lw 1671 1303 m20 6 lw 1706 923 m 124 Y s 1706 1067 m 48 Y s 1689 1057 m 7 X s 1717 1057 m 7 X s 3
 lw 1706 1057 m20 6 lw 1814 848 m 180 Y s 1814 1048 m 65 Y s 1796 1038 m 8 X s 1824 1038 m 8 X s 3 lw 1814 1038 m20 6 lw 1921 848 m 271 Y s 1921 1139 m 65 Y s 1904 1129 m 7 X s 1932 1129 m 7 X s 3 lw 1921 1129 m20 6 lw 3 lw 363 848 m 1791 X s 363 885
 m -37 Y s 399 866 m -18 Y s 434 866 m -18 Y s 470 866 m -18 Y s 506 866 m -18 Y s 542 885 m -37 Y s 578 866 m -18 Y s 614 866 m -18 Y s 649 866 m -18 Y s 685 866 m -18 Y s 721 885 m -37 Y s 757 866 m -18 Y s 793 866 m -18 Y s 829 866 m -18 Y s 864
 866 m -18 Y s 900 885 m -37 Y s 936 866 m -18 Y s 972 866 m -18 Y s 1008 866 m -18 Y s 1044 866 m -18 Y s 1079 885 m -37 Y s 1115 866 m -18 Y s 1151 866 m -18 Y s 1187 866 m -18 Y s 1223 866 m -18 Y s 1259 885 m -37 Y s 1294 866 m -18 Y s 1330 866 m
 -18 Y s 1366 866 m -18 Y s 1402 866 m -18 Y s 1438 885 m -37 Y s 1474 866 m -18 Y s 1509 866 m -18 Y s 1545 866 m -18 Y s 1581 866 m -18 Y s 1617 885 m -37 Y s 1653 866 m -18 Y s 1689 866 m -18 Y s 1724 866 m -18 Y s 1760 866 m -18 Y s 1796 885 m
 -37 Y s 1832 866 m -18 Y s 1868 866 m -18 Y s 1904 866 m -18 Y s 1939 866 m -18 Y s 1975 885 m -37 Y s 2011 866 m -18 Y s 2047 866 m -18 Y s 2083 866 m -18 Y s 2119 866 m -18 Y s 2154 885 m -37 Y s
 gsave  2268 1546 0 833 C 340.915 780.317 t 0 r /Helvetica findfont 73.2695 sf 0 0 m (0) show NC gr 
 gsave  2268 1546 0 833 C 479.806 780.317 t 0 r /Helvetica findfont 73.2695 sf 0 0 m (500) show NC gr 
 gsave  2268 1546 0 833 C 638.9 780.317 t 0 r /Helvetica findfont 73.2695 sf 0 0 m (1000) show NC gr 
 gsave  2268 1546 0 833 C 818.196 780.317 t 0 r /Helvetica findfont 73.2695 sf 0 0 m (1500) show NC gr 
 gsave  2268 1546 0 833 C 997.492 780.317 t 0 r /Helvetica findfont 73.2695 sf 0 0 m (2000) show NC gr 
 gsave  2268 1546 0 833 C 1176.79 780.317 t 0 r /Helvetica findfont 73.2695 sf 0 0 m (2500) show NC gr 
 gsave  2268 1546 0 833 C 1356.08 780.317 t 0 r /Helvetica findfont 73.2695 sf 0 0 m (3000) show NC gr 
 gsave  2268 1546 0 833 C 1535.38 780.317 t 0 r /Helvetica findfont 73.2695 sf 0 0 m (3500) show NC gr 
 gsave  2268 1546 0 833 C 1714.68 780.317 t 0 r /Helvetica findfont 73.2695 sf 0 0 m (4000) show NC gr 
 gsave  2268 1546 0 833 C 1893.97 780.317 t 0 r /Helvetica findfont 73.2695 sf 0 0 m (4500) show NC gr 
 gsave  2268 1546 0 833 C 2073.27 780.317 t 0 r /Helvetica findfont 73.2695 sf 0 0 m (5000) show NC gr  363 2302 m 1791 X s 363 2265 m 37 Y s 399 2283 m 19 Y s 434 2283 m 19 Y s 470 2283 m 19 Y s 506 2283 m 19 Y s 542 2265 m 37 Y s 578 2283 m 19 Y s
 614 2283 m 19 Y s 649 2283 m 19 Y s 685 2283 m 19 Y s 721 2265 m 37 Y s 757 2283 m 19 Y s 793 2283 m 19 Y s 829 2283 m 19 Y s 864 2283 m 19 Y s 900 2265 m 37 Y s 936 2283 m 19 Y s 972 2283 m 19 Y s 1008 2283 m 19 Y s 1044 2283 m 19 Y s 1079 2265 m
 37 Y s 1115 2283 m 19 Y s 1151 2283 m 19 Y s 1187 2283 m 19 Y s 1223 2283 m 19 Y s 1259 2265 m 37 Y s 1294 2283 m 19 Y s 1330 2283 m 19 Y s 1366 2283 m 19 Y s 1402 2283 m 19 Y s 1438 2265 m 37 Y s 1474 2283 m 19 Y s 1509 2283 m 19 Y s 1545 2283 m 19
 Y s 1581 2283 m 19 Y s 1617 2265 m 37 Y s 1653 2283 m 19 Y s 1689 2283 m 19 Y s 1724 2283 m 19 Y s 1760 2283 m 19 Y s 1796 2265 m 37 Y s 1832 2283 m 19 Y s 1868 2283 m 19 Y s 1904 2283 m 19 Y s 1939 2283 m 19 Y s 1975 2265 m 37 Y s 2011 2283 m 19 Y
 s 2047 2283 m 19 Y s 2083 2283 m 19 Y s 2119 2283 m 19 Y s 2154 2265 m 37 Y s 363 848 m 1454 Y s 395 863 m -32 X s 395 880 m -32 X s 395 894 m -32 X s 395 907 m -32 X s 427 919 m -64 X s
 gsave  2268 1546 0 833 C 315.662 919.208 t 0 r /Helvetica findfont 48.0042 sf 0 0 m (6) show NC gr 
 gsave  2268 1546 0 833 C 287.884 919.208 t 0 r /Symbol findfont 48.0042 sf 0 0 m (-) show NC gr 
 gsave  2268 1546 0 833 C 209.6 886.379 t 0 r /Helvetica findfont 73.2695 sf 0 0 m (10) show NC gr  395 994 m -32 X s 395 1038 m -32 X s 395 1069 m -32 X s 395 1093 m -32 X s 395 1113 m -32 X s 395 1130 m -32 X s 395 1144 m -32 X s 395 1157 m -32 X s
 427 1169 m -64 X s
 gsave  2268 1546 0 833 C 315.662 1169.21 t 0 r /Helvetica findfont 48.0042 sf 0 0 m (5) show NC gr 
 gsave  2268 1546 0 833 C 287.884 1169.21 t 0 r /Symbol findfont 48.0042 sf 0 0 m (-) show NC gr 
 gsave  2268 1546 0 833 C 209.6 1136.38 t 0 r /Helvetica findfont 73.2695 sf 0 0 m (10) show NC gr  395 1244 m -32 X s 395 1288 m -32 X s 395 1319 m -32 X s 395 1343 m -32 X s 395 1363 m -32 X s 395 1380 m -32 X s 395 1394 m -32 X s 395 1407 m -32 X
 s 427 1419 m -64 X s
 gsave  2268 1546 0 833 C 315.662 1416.69 t 0 r /Helvetica findfont 48.0042 sf 0 0 m (4) show NC gr 
 gsave  2268 1546 0 833 C 287.884 1416.69 t 0 r /Symbol findfont 48.0042 sf 0 0 m (-) show NC gr 
 gsave  2268 1546 0 833 C 209.6 1386.39 t 0 r /Helvetica findfont 73.2695 sf 0 0 m (10) show NC gr  395 1494 m -32 X s 395 1538 m -32 X s 395 1569 m -32 X s 395 1593 m -32 X s 395 1613 m -32 X s 395 1630 m -32 X s 395 1645 m -32 X s 395 1657 m -32 X
 s 427 1669 m -64 X s
 gsave  2268 1546 0 833 C 315.662 1669.22 t 0 r /Helvetica findfont 48.0042 sf 0 0 m (3) show NC gr 
 gsave  2268 1546 0 833 C 287.884 1669.22 t 0 r /Symbol findfont 48.0042 sf 0 0 m (-) show NC gr 
 gsave  2268 1546 0 833 C 209.6 1636.39 t 0 r /Helvetica findfont 73.2695 sf 0 0 m (10) show NC gr  395 1744 m -32 X s 395 1788 m -32 X s 395 1819 m -32 X s 395 1844 m -32 X s 395 1863 m -32 X s 395 1880 m -32 X s 395 1895 m -32 X s 395 1907 m -32 X
 s 427 1919 m -64 X s
 gsave  2268 1546 0 833 C 315.662 1916.7 t 0 r /Helvetica findfont 48.0042 sf 0 0 m (2) show NC gr 
 gsave  2268 1546 0 833 C 287.884 1916.7 t 0 r /Symbol findfont 48.0042 sf 0 0 m (-) show NC gr 
 gsave  2268 1546 0 833 C 209.6 1886.4 t 0 r /Helvetica findfont 73.2695 sf 0 0 m (10) show NC gr  395 1994 m -32 X s 395 2038 m -32 X s 395 2069 m -32 X s 395 2094 m -32 X s 395 2113 m -32 X s 395 2130 m -32 X s 395 2145 m -32 X s 395 2157 m -32 X s
 427 2169 m -64 X s
 gsave  2268 1546 0 833 C 323.238 2166.7 t 0 r /Helvetica findfont 48.0042 sf 0 0 m (1) show NC gr 
 gsave  2268 1546 0 833 C 295.46 2166.7 t 0 r /Symbol findfont 48.0042 sf 0 0 m (-) show NC gr 
 gsave  2268 1546 0 833 C 217.176 2136.4 t 0 r /Helvetica findfont 73.2695 sf 0 0 m (10) show NC gr  395 2244 m -32 X s 395 2288 m -32 X s 2154 848 m 1454 Y s 2122 863 m 32 X s 2122 880 m 32 X s 2122 894 m 32 X s 2122 907 m 32 X s 2090 919 m 64 X s
 2122 994 m 32 X s 2122 1038 m 32 X s 2122 1069 m 32 X s 2122 1093 m 32 X s 2122 1113 m 32 X s 2122 1130 m 32 X s 2122 1144 m 32 X s 2122 1157 m 32 X s 2090 1169 m 64 X s 2122 1244 m 32 X s 2122 1288 m 32 X s 2122 1319 m 32 X s 2122 1343 m 32 X s
 2122 1363 m 32 X s 2122 1380 m 32 X s 2122 1394 m 32 X s 2122 1407 m 32 X s 2090 1419 m 64 X s 2122 1494 m 32 X s 2122 1538 m 32 X s 2122 1569 m 32 X s 2122 1593 m 32 X s 2122 1613 m 32 X s 2122 1630 m 32 X s 2122 1645 m 32 X s 2122 1657 m 32 X s
 2090 1669 m 64 X s 2122 1744 m 32 X s 2122 1788 m 32 X s 2122 1819 m 32 X s 2122 1844 m 32 X s 2122 1863 m 32 X s 2122 1880 m 32 X s 2122 1895 m 32 X s 2122 1907 m 32 X s 2090 1919 m 64 X s 2122 1994 m 32 X s 2122 2038 m 32 X s 2122 2069 m 32 X s
 2122 2094 m 32 X s 2122 2113 m 32 X s 2122 2130 m 32 X s 2122 2145 m 32 X s 2122 2157 m 32 X s 2090 2169 m 64 X s 2122 2244 m 32 X s 2122 2288 m 32 X s
 gsave  2268 1546 0 833 C 1244.97 2116.2 t 0 r /Helvetica findfont 58.1103 sf 0 0 m (factorization scale variation) show NC gr  1 0 0 c 6 lw 1 1 1 c 1 0 0 c 381 1663 m 14 Y s 381 1697 m 10 Y s 363 1687 m 8 X s 391 1687 m 8 X s 3 lw 381 1687 m20 6 lw
 417 1676 m 7 Y s 417 1704 m 4 Y s 399 1693 m 7 X s 427 1693 m 7 X s 3 lw 417 1693 m20 6 lw 452 1758 m 3 Y s 452 1781 m 2 Y s 434 1771 m 8 X s 463 1771 m 7 X s 3 lw 452 1771 m20 6 lw 470 1881 m 8 X s 498 1881 m 8 X s 3 lw 488 1881 m20 6 lw 506 2001 m
 8 X s 534 2001 m 8 X s 3 lw 524 2001 m20 6 lw 542 2095 m 8 X s 570 2095 m 8 X s 3 lw 560 2095 m20 6 lw 578 2214 m 8 X s 606 2214 m 8 X s 3 lw 596 2214 m20 6 lw 614 2231 m 7 X s 642 2231 m 7 X s 3 lw 632 2231 m20 6 lw 649 2216 m 8 X s 677 2216 m 8 X
 s 3 lw 667 2216 m20 6 lw 685 2193 m 8 X s 713 2193 m 8 X s 3 lw 703 2193 m20 6 lw 721 2161 m 8 X s 749 2161 m 8 X s 3 lw 739 2161 m20 6 lw 757 2127 m 8 X s 785 2127 m 8 X s 3 lw 775 2127 m20 6 lw 793 2084 m 8 X s 821 2084 m 8 X s 3 lw 811 2084 m20 6
 lw 829 2042 m 7 X s 857 2042 m 7 X s 3 lw 847 2042 m20 6 lw 864 2000 m 8 X s 892 2000 m 8 X s 3 lw 882 2000 m20 6 lw 900 1959 m 8 X s 928 1959 m 8 X s 3 lw 918 1959 m20 6 lw 936 1916 m 8 X s 964 1916 m 8 X s 3 lw 954 1916 m20 6 lw 972 1882 m 8 X s
 1000 1882 m 8 X s 3 lw 990 1882 m20 6 lw 1008 1843 m 8 X s 1036 1843 m 8 X s 3 lw 1026 1843 m20 6 lw 1044 1808 m 7 X s 1072 1808 m 7 X s 3 lw 1062 1808 m20 6 lw 1079 1774 m 8 X s 1107 1774 m 8 X s 3 lw 1097 1774 m20 6 lw 1115 1734 m 8 X s 1143 1734
 m 8 X s 3 lw 1133 1734 m20 6 lw 1151 1709 m 8 X s 1179 1709 m 8 X s 3 lw 1169 1709 m20 6 lw 1187 1665 m 8 X s 1215 1665 m 8 X s 3 lw 1205 1665 m20 6 lw 1223 1632 m 8 X s 1251 1632 m 8 X s 3 lw 1241 1632 m20 6 lw 1259 1607 m 7 X s 1287 1607 m 7 X s 3
 lw 1276 1607 m20 6 lw 1312 1542 m 3 Y s 1312 1565 m 1 Y s 1294 1555 m 8 X s 1322 1555 m 8 X s 3 lw 1312 1555 m20 6 lw 1348 1534 m 3 Y s 1348 1557 m 1 Y s 1330 1547 m 8 X s 1358 1547 m 8 X s 3 lw 1348 1547 m20 6 lw 1384 1514 m 4 Y s 1384 1538 m 2 Y s
 1366 1528 m 8 X s 1394 1528 m 8 X s 3 lw 1384 1528 m20 6 lw 1420 1460 m 7 Y s 1420 1488 m 5 Y s 1402 1478 m 8 X s 1430 1478 m 8 X s 3 lw 1420 1478 m20 6 lw 1456 1469 m 7 Y s 1456 1496 m 5 Y s 1438 1486 m 8 X s 1466 1486 m 8 X s 3 lw 1456 1486 m20 6
 lw 1491 1422 m 11 Y s 1491 1453 m 8 Y s 1474 1443 m 7 X s 1502 1443 m 7 X s 3 lw 1491 1443 m20 6 lw 1527 1394 m 14 Y s 1527 1428 m 9 Y s 1509 1418 m 8 X s 1537 1418 m 8 X s 3 lw 1527 1418 m20 6 lw 1563 1347 m 19 Y s 1563 1387 m 13 Y s 1545 1376 m 8
 X s 1573 1376 m 8 X s 3 lw 1563 1376 m20 6 lw 1599 1251 m 34 Y s 1599 1306 m 21 Y s 1581 1295 m 8 X s 1609 1295 m 8 X s 3 lw 1599 1295 m20 6 lw 1635 1288 m 29 Y s 1635 1337 m 19 Y s 1617 1327 m 8 X s 1645 1327 m 8 X s 3 lw 1635 1327 m20 6 lw 1671
 1080 m 84 Y s 1671 1184 m 39 Y s 1653 1174 m 8 X s 1681 1174 m 8 X s 3 lw 1671 1174 m20 6 lw 1706 1138 m 67 Y s 1706 1225 m 34 Y s 1689 1215 m 7 X s 1717 1215 m 7 X s 3 lw 1706 1215 m20 6 lw 1778 848 m 201 Y s 1778 1069 m 66 Y s 1760 1059 m 8 X s
 1788 1059 m 8 X s 3 lw 1778 1059 m20 6 lw 1886 848 m 201 Y s 1886 1069 m 66 Y s 1868 1059 m 8 X s 1896 1059 m 8 X s 3 lw 1886 1059 m20 6 lw 0 0 1 c 1 1 1 c 0 0 1 c 381 1659 m 2 Y s 381 1681 m 1 Y s 363 1671 m 8 X s 391 1671 m 8 X s 3 lw 381 1671 m20
 6 lw 417 1688 m s 399 1698 m 7 X s 427 1698 m 7 X s 3 lw 417 1698 m20 6 lw 434 1777 m 8 X s 463 1777 m 7 X s 3 lw 452 1777 m20 6 lw 470 1898 m 8 X s 498 1898 m 8 X s 3 lw 488 1898 m20 6 lw 506 1999 m 8 X s 534 1999 m 8 X s 3 lw 524 1999 m20 6 lw 542
 2092 m 8 X s 570 2092 m 8 X s 3 lw 560 2092 m20 6 lw 578 2215 m 8 X s 606 2215 m 8 X s 3 lw 596 2215 m20 6 lw 614 2230 m 7 X s 642 2230 m 7 X s 3 lw 632 2230 m20 6 lw 649 2217 m 8 X s 677 2217 m 8 X s 3 lw 667 2217 m20 6 lw 685 2194 m 8 X s 713 2194
 m 8 X s 3 lw 703 2194 m20 6 lw 721 2163 m 8 X s 749 2163 m 8 X s 3 lw 739 2163 m20 6 lw 757 2122 m 8 X s 785 2122 m 8 X s 3 lw 775 2122 m20 6 lw 793 2082 m 8 X s 821 2082 m 8 X s 3 lw 811 2082 m20 6 lw 829 2040 m 7 X s 857 2040 m 7 X s 3 lw 847 2040
 m20 6 lw 864 1998 m 8 X s 892 1998 m 8 X s 3 lw 882 1998 m20 6 lw 900 1962 m 8 X s 928 1962 m 8 X s 3 lw 918 1962 m20 6 lw 936 1914 m 8 X s 964 1914 m 8 X s 3 lw 954 1914 m20 6 lw 972 1884 m 8 X s 1000 1884 m 8 X s 3 lw 990 1884 m20 6 lw 1008 1843 m
 8 X s 1036 1843 m 8 X s 3 lw 1026 1843 m20 6 lw 1044 1809 m 7 X s 1072 1809 m 7 X s 3 lw 1062 1809 m20 6 lw 1079 1764 m 8 X s 1107 1764 m 8 X s 3 lw 1097 1764 m20 6 lw 1115 1737 m 8 X s 1143 1737 m 8 X s 3 lw 1133 1737 m20 6 lw 1151 1713 m 8 X s
 1179 1713 m 8 X s 3 lw 1169 1713 m20 6 lw 1187 1661 m 8 X s 1215 1661 m 8 X s 3 lw 1205 1661 m20 6 lw 1223 1637 m 8 X s 1251 1637 m 8 X s 3 lw 1241 1637 m20 6 lw 1259 1620 m 7 X s 1287 1620 m 7 X s 3 lw 1276 1620 m20 6 lw 1294 1580 m 8 X s 1322 1580
 m 8 X s 3 lw 1312 1580 m20 6 lw 1348 1524 m 2 Y s 1348 1546 m s 1330 1536 m 8 X s 1358 1536 m 8 X s 3 lw 1348 1536 m20 6 lw 1384 1523 m 1 Y s 1384 1545 m s 1366 1534 m 8 X s 1394 1534 m 8 X s 3 lw 1384 1534 m20 6 lw 1420 1465 m 5 Y s 1420 1490 m 3 Y
 s 1402 1480 m 8 X s 1430 1480 m 8 X s 3 lw 1420 1480 m20 6 lw 1456 1436 m 7 Y s 1456 1463 m 5 Y s 1438 1453 m 8 X s 1466 1453 m 8 X s 3 lw 1456 1453 m20 6 lw 1491 1413 m 8 Y s 1491 1442 m 5 Y s 1474 1432 m 7 X s 1502 1432 m 7 X s 3 lw 1491 1432 m20
 6 lw 1527 1422 m 8 Y s 1527 1450 m 5 Y s 1509 1440 m 8 X s 1537 1440 m 8 X s 3 lw 1527 1440 m20 6 lw 1563 1366 m 14 Y s 1563 1400 m 9 Y s 1545 1390 m 8 X s 1573 1390 m 8 X s 3 lw 1563 1390 m20 6 lw 1599 1314 m 20 Y s 1599 1354 m 14 Y s 1581 1344 m 8
 X s 1609 1344 m 8 X s 3 lw 1599 1344 m20 6 lw 1635 1195 m 42 Y s 1635 1257 m 25 Y s 1617 1247 m 8 X s 1645 1247 m 8 X s 3 lw 1635 1247 m20 6 lw 1671 1172 m 44 Y s 1671 1236 m 25 Y s 1653 1226 m 8 X s 1681 1226 m 8 X s 3 lw 1671 1226 m20 6 lw 1706
 1142 m 55 Y s 1706 1218 m 30 Y s 1689 1207 m 7 X s 1717 1207 m 7 X s 3 lw 1706 1207 m20 6 lw 1742 848 m 182 Y s 1742 1050 m 65 Y s 1724 1040 m 8 X s 1752 1040 m 8 X s 3 lw 1742 1040 m20 6 lw 1778 1050 m 87 Y s 1778 1157 m 40 Y s 1760 1147 m 8 X s
 1788 1147 m 8 X s 3 lw 1778 1147 m20 6 lw black 3 lw 1 1 1 c 2268 833 0 0 bf black 1 1 1 c 1791 582 363 250 bf black 1791 582 363 250 bl 1 0 0 c 6 lw 1 1 1 c 1 0 0 c 381 466 m 135 Y s 381 621 m 135 Y s 363 611 m 8 X s 391 611 m 8 X s 3 lw 381 611
 m20 6 lw 417 393 m 78 Y s 417 492 m 78 Y s 399 482 m 7 X s 427 482 m 7 X s 3 lw 417 482 m20 6 lw 452 428 m 61 Y s 452 509 m 61 Y s 434 499 m 8 X s 463 499 m 7 X s 3 lw 452 499 m20 6 lw 488 418 m 31 Y s 488 469 m 31 Y s 470 459 m 8 X s 498 459 m 8 X
 s 3 lw 488 459 m20 6 lw 524 535 m 22 Y s 524 577 m 21 Y s 506 567 m 8 X s 534 567 m 8 X s 3 lw 524 567 m20 6 lw 560 549 m 10 Y s 560 579 m 10 Y s 542 569 m 8 X s 570 569 m 8 X s 3 lw 560 569 m20 6 lw 596 520 m s 596 540 m 1 Y s 578 530 m 8 X s 606
 530 m 8 X s 3 lw 596 530 m20 6 lw 614 538 m 7 X s 642 538 m 7 X s 3 lw 632 538 m20 6 lw 667 524 m 1 Y s 667 545 m s 649 535 m 8 X s 677 535 m 8 X s 3 lw 667 535 m20 6 lw 703 528 m 2 Y s 703 550 m 2 Y s 685 540 m 8 X s 713 540 m 8 X s 3 lw 703 540
 m20 6 lw 739 523 m 2 Y s 739 545 m 3 Y s 721 535 m 8 X s 749 535 m 8 X s 3 lw 739 535 m20 6 lw 775 546 m 5 Y s 775 571 m 5 Y s 757 561 m 8 X s 785 561 m 8 X s 3 lw 775 561 m20 6 lw 811 528 m 6 Y s 811 554 m 6 Y s 793 544 m 8 X s 821 544 m 8 X s 3 lw
 811 544 m20 6 lw 847 537 m 7 Y s 847 564 m 8 Y s 829 554 m 7 X s 857 554 m 7 X s 3 lw 847 554 m20 6 lw 882 542 m 9 Y s 882 572 m 9 Y s 864 562 m 8 X s 892 562 m 8 X s 3 lw 882 562 m20 6 lw 918 543 m 13 Y s 918 576 m 13 Y s 900 566 m 8 X s 928 566 m
 8 X s 3 lw 918 566 m20 6 lw 954 487 m 11 Y s 954 518 m 11 Y s 936 508 m 8 X s 964 508 m 8 X s 3 lw 954 508 m20 6 lw 990 507 m 15 Y s 990 542 m 15 Y s 972 532 m 8 X s 1000 532 m 8 X s 3 lw 990 532 m20 6 lw 1026 534 m 21 Y s 1026 575 m 22 Y s 1008 565
 m 8 X s 1036 565 m 8 X s 3 lw 1026 565 m20 6 lw 1062 490 m 21 Y s 1062 531 m 20 Y s 1044 521 m 7 X s 1072 521 m 7 X s 3 lw 1062 521 m20 6 lw 1097 542 m 29 Y s 1097 591 m 30 Y s 1079 581 m 8 X s 1107 581 m 8 X s 3 lw 1097 581 m20 6 lw 1133 514 m 33 Y
 s 1133 568 m 34 Y s 1115 558 m 8 X s 1143 558 m 8 X s 3 lw 1133 558 m20 6 lw 1169 614 m 51 Y s 1169 686 m 51 Y s 1151 675 m 8 X s 1179 675 m 8 X s 3 lw 1169 675 m20 6 lw 1205 549 m 54 Y s 1205 623 m 54 Y s 1187 613 m 8 X s 1215 613 m 8 X s 3 lw 1205
 613 m20 6 lw 1241 471 m 53 Y s 1241 545 m 53 Y s 1223 535 m 8 X s 1251 535 m 8 X s 3 lw 1241 535 m20 6 lw 1276 455 m 61 Y s 1276 536 m 61 Y s 1259 526 m 7 X s 1287 526 m 7 X s 3 lw 1276 526 m20 6 lw 1312 329 m 55 Y s 1312 404 m 56 Y s 1294 394 m 8 X
 s 1322 394 m 8 X s 3 lw 1312 394 m20 6 lw 1348 474 m 93 Y s 1348 587 m 93 Y s 1330 577 m 8 X s 1358 577 m 8 X s 3 lw 1348 577 m20 6 lw 1384 550 m 131 Y s 1384 702 m 130 Y s 1366 691 m 8 X s 1394 691 m 8 X s 3 lw 1384 691 m20 6 lw 1420 309 m 84 Y s
 1420 413 m 85 Y s 1402 403 m 8 X s 1430 403 m 8 X s 3 lw 1420 403 m20 6 lw 1456 592 m 186 Y s 1456 798 m 34 Y s 1438 788 m 8 X s 1466 788 m 8 X s 3 lw 1456 788 m20 6 lw 1491 358 m 130 Y s 1491 508 m 129 Y s 1474 498 m 7 X s 1502 498 m 7 X s 3 lw
 1491 498 m20 6 lw 1527 310 m 133 Y s 1527 464 m 132 Y s 1509 453 m 8 X s 1537 453 m 8 X s 3 lw 1527 453 m20 6 lw 1563 282 m 154 Y s 1563 456 m 154 Y s 1545 446 m 8 X s 1573 446 m 8 X s 3 lw 1563 446 m20 6 lw 1635 250 m 210 Y s 1635 480 m 223 Y s
 1617 470 m 8 X s 1645 470 m 8 X s 3 lw 1635 470 m20 6 lw black 9 lw 0.95 0.95 0.95 c black 443 543 m 17 X 17 -1 d 121 X 17 -1 d 103 X 17 -1 d 121 X 17 -1 d 103 X 17 -1 d 121 X 17 -1 d 103 X 17 -1 d 35 X s 1286 536 m 86 X 17 -1 d 103 X 17 -1 d 121 X
 17 -1 d 103 X 17 -1 d 104 X 17 -1 d 120 X 17 -1 d 104 X s 2129 530 m 17 -1 d s 3 lw 363 250 m 1791 X s
 gsave  2268 833 0 0 C 1936.9 45.4553 t 0 r /Helvetica findfont 78.4508 sf 0 0 m ( [GeV]) show NC gr 
 gsave  2268 833 0 0 C 1899.02 22.7277 t 0 r /Helvetica findfont 50.6134 sf 0 0 m ( J) show NC gr 
 gsave  2268 833 0 0 C 1871.24 22.7277 t 0 r /Symbol findfont 50.6134 sf 0 0 m (n) show NC gr 
 gsave  2268 833 0 0 C 1853.57 22.7277 t 0 r /Helvetica findfont 50.6134 sf 0 0 m ( ) show NC gr 
 gsave  2268 833 0 0 C 1825.79 22.7277 t 0 r /Symbol findfont 50.6134 sf 0 0 m (n) show NC gr 
 gsave  2268 833 0 0 C 1825.79 70.7083 t 0 r /Helvetica findfont 50.6134 sf 0 0 m (T) show NC gr 
 gsave  2268 833 0 0 C 1765.18 45.4553 t 0 r /Helvetica findfont 78.4508 sf 0 0 m (m) show NC gr  363 270 m -20 Y s 399 260 m -10 Y s 434 260 m -10 Y s 470 260 m -10 Y s 506 260 m -10 Y s 542 270 m -20 Y s 578 260 m -10 Y s 614 260 m -10 Y s 649 260
 m -10 Y s 685 260 m -10 Y s 721 270 m -20 Y s 757 260 m -10 Y s 793 260 m -10 Y s 829 260 m -10 Y s 864 260 m -10 Y s 900 270 m -20 Y s 936 260 m -10 Y s 972 260 m -10 Y s 1008 260 m -10 Y s 1044 260 m -10 Y s 1079 270 m -20 Y s 1115 260 m -10 Y s
 1151 260 m -10 Y s 1187 260 m -10 Y s 1223 260 m -10 Y s 1259 270 m -20 Y s 1294 260 m -10 Y s 1330 260 m -10 Y s 1366 260 m -10 Y s 1402 260 m -10 Y s 1438 270 m -20 Y s 1474 260 m -10 Y s 1509 260 m -10 Y s 1545 260 m -10 Y s 1581 260 m -10 Y s
 1617 270 m -20 Y s 1653 260 m -10 Y s 1689 260 m -10 Y s 1724 260 m -10 Y s 1760 260 m -10 Y s 1796 270 m -20 Y s 1832 260 m -10 Y s 1868 260 m -10 Y s 1904 260 m -10 Y s 1939 260 m -10 Y s 1975 270 m -20 Y s 2011 260 m -10 Y s 2047 260 m -10 Y s
 2083 260 m -10 Y s 2119 260 m -10 Y s 2154 270 m -20 Y s
 gsave  2268 833 0 0 C 351.016 214.65 t 0 r /Helvetica findfont 37.96 sf 0 0 m (0) show NC gr 
 gsave  2268 833 0 0 C 507.585 214.65 t 0 r /Helvetica findfont 37.96 sf 0 0 m (500) show NC gr 
 gsave  2268 833 0 0 C 676.78 214.65 t 0 r /Helvetica findfont 37.96 sf 0 0 m (1000) show NC gr 
 gsave  2268 833 0 0 C 856.076 214.65 t 0 r /Helvetica findfont 37.96 sf 0 0 m (1500) show NC gr 
 gsave  2268 833 0 0 C 1035.37 214.65 t 0 r /Helvetica findfont 37.96 sf 0 0 m (2000) show NC gr 
 gsave  2268 833 0 0 C 1214.67 214.65 t 0 r /Helvetica findfont 37.96 sf 0 0 m (2500) show NC gr 
 gsave  2268 833 0 0 C 1393.96 214.65 t 0 r /Helvetica findfont 37.96 sf 0 0 m (3000) show NC gr 
 gsave  2268 833 0 0 C 1573.26 214.65 t 0 r /Helvetica findfont 37.96 sf 0 0 m (3500) show NC gr 
 gsave  2268 833 0 0 C 1752.56 214.65 t 0 r /Helvetica findfont 37.96 sf 0 0 m (4000) show NC gr 
 gsave  2268 833 0 0 C 1931.85 214.65 t 0 r /Helvetica findfont 37.96 sf 0 0 m (4500) show NC gr 
 gsave  2268 833 0 0 C 2111.15 214.65 t 0 r /Helvetica findfont 37.96 sf 0 0 m (5000) show NC gr  363 832 m 1791 X s 363 812 m 20 Y s 399 822 m 10 Y s 434 822 m 10 Y s 470 822 m 10 Y s 506 822 m 10 Y s 542 812 m 20 Y s 578 822 m 10 Y s 614 822 m 10 Y
 s 649 822 m 10 Y s 685 822 m 10 Y s 721 812 m 20 Y s 757 822 m 10 Y s 793 822 m 10 Y s 829 822 m 10 Y s 864 822 m 10 Y s 900 812 m 20 Y s 936 822 m 10 Y s 972 822 m 10 Y s 1008 822 m 10 Y s 1044 822 m 10 Y s 1079 812 m 20 Y s 1115 822 m 10 Y s 1151
 822 m 10 Y s 1187 822 m 10 Y s 1223 822 m 10 Y s 1259 812 m 20 Y s 1294 822 m 10 Y s 1330 822 m 10 Y s 1366 822 m 10 Y s 1402 822 m 10 Y s 1438 812 m 20 Y s 1474 822 m 10 Y s 1509 822 m 10 Y s 1545 822 m 10 Y s 1581 822 m 10 Y s 1617 812 m 20 Y s
 1653 822 m 10 Y s 1689 822 m 10 Y s 1724 822 m 10 Y s 1760 822 m 10 Y s 1796 812 m 20 Y s 1832 822 m 10 Y s 1868 822 m 10 Y s 1904 822 m 10 Y s 1939 822 m 10 Y s 1975 812 m 20 Y s 2011 822 m 10 Y s 2047 822 m 10 Y s 2083 822 m 10 Y s 2119 822 m 10 Y
 s 2154 812 m 20 Y s 363 250 m 582 Y s 410 250 m -47 X s 387 261 m -24 X s 387 273 m -24 X s 387 285 m -24 X s 387 296 m -24 X s 410 308 m -47 X s 387 320 m -24 X s 387 331 m -24 X s 387 343 m -24 X s 387 355 m -24 X s 410 366 m -47 X s 387 378 m -24
 X s 387 389 m -24 X s 387 401 m -24 X s 387 413 m -24 X s 410 424 m -47 X s 387 436 m -24 X s 387 448 m -24 X s 387 459 m -24 X s 387 471 m -24 X s 410 483 m -47 X s 387 494 m -24 X s 387 506 m -24 X s 387 517 m -24 X s 387 529 m -24 X s 410 541 m
 -47 X s 387 552 m -24 X s 387 564 m -24 X s 387 576 m -24 X s 387 587 m -24 X s 410 599 m -47 X s 387 611 m -24 X s 387 622 m -24 X s 387 634 m -24 X s 387 646 m -24 X s 410 657 m -47 X s 387 669 m -24 X s 387 680 m -24 X s 387 692 m -24 X s 387 704
 m -24 X s 410 715 m -47 X s 387 727 m -24 X s 387 739 m -24 X s 387 750 m -24 X s 387 762 m -24 X s 410 774 m -47 X s 387 785 m -24 X s 387 797 m -24 X s 387 808 m -24 X s 387 820 m -24 X s 410 832 m -47 X s
 gsave  2268 833 0 0 C 297.985 234.853 t 0 r /Helvetica findfont 37.96 sf 0 0 m (0.5) show NC gr 
 gsave  2268 833 0 0 C 297.985 292.934 t 0 r /Helvetica findfont 37.96 sf 0 0 m (0.6) show NC gr 
 gsave  2268 833 0 0 C 297.985 353.542 t 0 r /Helvetica findfont 37.96 sf 0 0 m (0.7) show NC gr 
 gsave  2268 833 0 0 C 297.985 411.623 t 0 r /Helvetica findfont 37.96 sf 0 0 m (0.8) show NC gr 
 gsave  2268 833 0 0 C 297.985 469.705 t 0 r /Helvetica findfont 37.96 sf 0 0 m (0.9) show NC gr 
 gsave  2268 833 0 0 C 335.864 527.787 t 0 r /Helvetica findfont 37.96 sf 0 0 m (1) show NC gr 
 gsave  2268 833 0 0 C 305.561 585.869 t 0 r /Helvetica findfont 37.96 sf 0 0 m (1.1) show NC gr 
 gsave  2268 833 0 0 C 297.985 643.951 t 0 r /Helvetica findfont 37.96 sf 0 0 m (1.2) show NC gr 
 gsave  2268 833 0 0 C 297.985 702.033 t 0 r /Helvetica findfont 37.96 sf 0 0 m (1.3) show NC gr 
 gsave  2268 833 0 0 C 297.985 760.114 t 0 r /Helvetica findfont 37.96 sf 0 0 m (1.4) show NC gr 
 gsave  2268 833 0 0 C 297.985 818.196 t 0 r /Helvetica findfont 37.96 sf 0 0 m (1.5) show NC gr  2154 250 m 582 Y s 2107 250 m 47 X s 2131 261 m 23 X s 2131 273 m 23 X s 2131 285 m 23 X s 2131 296 m 23 X s 2107 308 m 47 X s 2131 320 m 23 X s 2131
 331 m 23 X s 2131 343 m 23 X s 2131 355 m 23 X s 2107 366 m 47 X s 2131 378 m 23 X s 2131 389 m 23 X s 2131 401 m 23 X s 2131 413 m 23 X s 2107 424 m 47 X s 2131 436 m 23 X s 2131 448 m 23 X s 2131 459 m 23 X s 2131 471 m 23 X s 2107 483 m 47 X s
 2131 494 m 23 X s 2131 506 m 23 X s 2131 517 m 23 X s 2131 529 m 23 X s 2107 541 m 47 X s 2131 552 m 23 X s 2131 564 m 23 X s 2131 576 m 23 X s 2131 587 m 23 X s 2107 599 m 47 X s 2131 611 m 23 X s 2131 622 m 23 X s 2131 634 m 23 X s 2131 646 m 23 X
 s 2107 657 m 47 X s 2131 669 m 23 X s 2131 680 m 23 X s 2131 692 m 23 X s 2131 704 m 23 X s 2107 715 m 47 X s 2131 727 m 23 X s 2131 739 m 23 X s 2131 750 m 23 X s 2131 762 m 23 X s 2107 774 m 47 X s 2131 785 m 23 X s 2131 797 m 23 X s 2131 808 m 23
 X s 2131 820 m 23 X s 2107 832 m 47 X s 0 0 1 c 6 lw 1 1 1 c 0 0 1 c 381 442 m 71 Y s 381 534 m 71 Y s 363 524 m 8 X s 391 524 m 8 X s 3 lw 381 524 m20 6 lw 417 437 m 56 Y s 417 513 m 56 Y s 399 503 m 7 X s 427 503 m 7 X s 3 lw 417 503 m20 6 lw 452
 481 m 39 Y s 452 540 m 39 Y s 434 530 m 8 X s 463 530 m 7 X s 3 lw 452 530 m20 6 lw 488 517 m 19 Y s 488 557 m 19 Y s 470 547 m 8 X s 498 547 m 8 X s 3 lw 488 547 m20 6 lw 524 536 m 10 Y s 524 566 m 10 Y s 506 556 m 8 X s 534 556 m 8 X s 3 lw 524
 556 m20 6 lw 560 538 m 3 Y s 560 561 m 3 Y s 542 551 m 8 X s 570 551 m 8 X s 3 lw 560 551 m20 6 lw 578 535 m 8 X s 606 535 m 8 X s 3 lw 596 535 m20 6 lw 614 535 m 7 X s 642 535 m 7 X s 3 lw 632 535 m20 6 lw 649 539 m 8 X s 677 539 m 8 X s 3 lw 667
 539 m20 6 lw 685 547 m 8 X s 713 547 m 8 X s 3 lw 703 547 m20 6 lw 721 545 m 8 X s 749 545 m 8 X s 3 lw 739 545 m20 6 lw 775 526 m s 775 547 m s 757 537 m 8 X s 785 537 m 8 X s 3 lw 775 537 m20 6 lw 811 524 m 2 Y s 811 547 m 2 Y s 793 537 m 8 X s
 821 537 m 8 X s 3 lw 811 537 m20 6 lw 847 528 m 5 Y s 847 554 m 5 Y s 829 543 m 7 X s 857 543 m 7 X s 3 lw 847 543 m20 6 lw 882 531 m 9 Y s 882 560 m 8 Y s 864 550 m 8 X s 892 550 m 8 X s 3 lw 882 550 m20 6 lw 918 561 m 12 Y s 918 594 m 12 Y s 900
 584 m 8 X s 928 584 m 8 X s 3 lw 918 584 m20 6 lw 954 475 m 13 Y s 954 508 m 13 Y s 936 498 m 8 X s 964 498 m 8 X s 3 lw 954 498 m20 6 lw 990 515 m 17 Y s 990 552 m 17 Y s 972 542 m 8 X s 1000 542 m 8 X s 3 lw 990 542 m20 6 lw 1026 533 m 22 Y s 1026
 575 m 22 Y s 1008 565 m 8 X s 1036 565 m 8 X s 3 lw 1026 565 m20 6 lw 1062 493 m 23 Y s 1062 536 m 24 Y s 1044 526 m 7 X s 1072 526 m 7 X s 3 lw 1062 526 m20 6 lw 1097 487 m 28 Y s 1097 535 m 29 Y s 1079 525 m 8 X s 1107 525 m 8 X s 3 lw 1097 525
 m20 6 lw 1133 526 m 37 Y s 1133 583 m 37 Y s 1115 573 m 8 X s 1143 573 m 8 X s 3 lw 1133 573 m20 6 lw 1169 640 m 54 Y s 1169 714 m 54 Y s 1151 704 m 8 X s 1179 704 m 8 X s 3 lw 1169 704 m20 6 lw 1205 527 m 52 Y s 1205 599 m 52 Y s 1187 589 m 8 X s
 1215 589 m 8 X s 3 lw 1205 589 m20 6 lw 1241 498 m 53 Y s 1241 571 m 53 Y s 1223 561 m 8 X s 1251 561 m 8 X s 3 lw 1241 561 m20 6 lw 1276 525 m 64 Y s 1276 609 m 64 Y s 1259 599 m 7 X s 1287 599 m 7 X s 3 lw 1276 599 m20 6 lw 1312 436 m 62 Y s 1312
 518 m 62 Y s 1294 508 m 8 X s 1322 508 m 8 X s 3 lw 1312 508 m20 6 lw 1348 428 m 78 Y s 1348 527 m 78 Y s 1330 516 m 8 X s 1358 516 m 8 X s 3 lw 1348 516 m20 6 lw 1384 596 m 132 Y s 1384 748 m 84 Y s 1366 738 m 8 X s 1394 738 m 8 X s 3 lw 1384 738
 m20 6 lw 1420 322 m 80 Y s 1420 422 m 80 Y s 1402 412 m 8 X s 1430 412 m 8 X s 3 lw 1420 412 m20 6 lw 1456 428 m 134 Y s 1456 582 m 134 Y s 1438 572 m 8 X s 1466 572 m 8 X s 3 lw 1456 572 m20 6 lw 1491 323 m 110 Y s 1491 453 m 109 Y s 1474 443 m 7 X
 s 1502 443 m 7 X s 3 lw 1491 443 m20 6 lw 1527 406 m 148 Y s 1527 574 m 148 Y s 1509 564 m 8 X s 1537 564 m 8 X s 3 lw 1527 564 m20 6 lw 1563 340 m 159 Y s 1563 520 m 159 Y s 1545 509 m 8 X s 1573 509 m 8 X s 3 lw 1563 509 m20 6 lw 1599 250 m 103 Y
 s 1599 373 m 138 Y s 1581 363 m 8 X s 1609 363 m 8 X s 3 lw 1599 363 m20 6 lw black 9 lw 0.95 0.95 0.95 c black 443 542 m 17 X 17 -1 d 241 X 17 -1 d 258 X 18 -1 d 240 X 18 -1 d 17 X s 1286 538 m 223 X 18 -1 d 258 X 17 -1 d 241 X 17 -1 d 69 X s 2129
 535 m 17 X s
 gr  gr showpage
end
%%EOF
