%!PS-Adobe-2.0 EPSF-2.0
%%BoundingBox:  0 0 567 595
%%Title: QSF_nominal.eps: c2
%%Creator: ROOT Version 6.04/08
%%CreationDate: Sat Jan 21 10:42:01 2017
%%DocumentNeededResources: ProcSet (FontSetInit)
%%EndComments
%%BeginProlog
80 dict begin
/s {stroke} def /l {lineto} def /m {moveto} def /t {translate} def
/r {rotate} def /rl {roll}  def /R {repeat} def
/d {rlineto} def /rm {rmoveto} def /gr {grestore} def /f {eofill} def
/c {setrgbcolor} def /black {0 setgray} def /sd {setdash} def
/cl {closepath} def /sf {scalefont setfont} def /lw {setlinewidth} def
/box {m dup 0 exch d exch 0 d 0 exch neg d cl} def
/NC{systemdict begin initclip end}def/C{NC box clip newpath}def
/bl {box s} def /bf {gsave box gsave f grestore 1 lw [] 0 sd s grestore} def /Y { 0 exch d} def /X { 0 d} def 
/K {{pop pop 0 moveto} exch kshow} bind def
/ita {/ang 15 def gsave [1 0 ang dup sin exch cos div 1 0 0] concat} def 
/mp {newpath /y exch def /x exch def} def
/side {[w .77 mul w .23 mul] .385 w mul sd w 0 l currentpoint t -144 r} def
/mr {mp x y w2 0 360 arc} def /m24 {mr s} def /m20 {mr f} def
/mb {mp x y w2 add m w2 neg 0 d 0 w neg d w 0 d 0 w d cl} def
/mt {mp x y w2 add m w2 neg w neg d w 0 d cl} def
/m21 {mb f} def /m25 {mb s} def /m22 {mt f} def /m26{mt s} def
/m23 {mp x y w2 sub m w2 w d w neg 0 d cl f} def
/m27 {mp x y w2 add m w3 neg w2 neg d w3 w2 neg d w3 w2 d cl s} def
/m28 {mp x w2 sub y w2 sub w3 add m w3 0 d  0 w3 neg d w3 0 d 0 w3 d w3 0 d  0 w3 d w3 neg 0 d 0 w3 d w3 neg 0 d 0 w3 neg d w3 neg 0 d cl s } def
/m29 {mp gsave x w2 sub y w2 add w3 sub m currentpoint t 4 {side} repeat cl fill gr} def
/m30 {mp gsave x w2 sub y w2 add w3 sub m currentpoint t 4 {side} repeat cl s gr} def
/m31 {mp x y w2 sub m 0 w d x w2 sub y m w 0 d x w2 sub y w2 add m w w neg d x w2 sub y w2 sub m w w d s} def
/m32 {mp x y w2 sub m w2 w d w neg 0 d cl s} def
/m33 {mp x y w2 add m w3 neg w2 neg d w3 w2 neg d w3 w2 d cl f} def
/m34 {mp x w2 sub y w2 sub w3 add m w3 0 d  0 w3 neg d w3 0 d 0 w3 d w3 0 d  0 w3 d w3 neg 0 d 0 w3 d w3 neg 0 d 0 w3 neg d w3 neg 0 d cl f } def
/m2 {mp x y w2 sub m 0 w d x w2 sub y m w 0 d s} def
/m5 {mp x w2 sub y w2 sub m w w d x w2 sub y w2 add m w w neg d s} def
%%IncludeResource: ProcSet (FontSetInit)
%%IncludeResource: font Times-Roman
%%IncludeResource: font Times-Italic
%%IncludeResource: font Times-Bold
%%IncludeResource: font Times-BoldItalic
%%IncludeResource: font Helvetica
%%IncludeResource: font Helvetica-Oblique
%%IncludeResource: font Helvetica-Bold
%%IncludeResource: font Helvetica-BoldOblique
%%IncludeResource: font Courier
%%IncludeResource: font Courier-Oblique
%%IncludeResource: font Courier-Bold
%%IncludeResource: font Courier-BoldOblique
%%IncludeResource: font Symbol
%%IncludeResource: font ZapfDingbats
/reEncode {exch findfont dup length dict begin {1 index /FID eq  {pop pop} {def} ifelse } forall /Encoding exch def currentdict end dup /FontName get exch definefont pop } def [/Times-Bold /Times-Italic /Times-BoldItalic /Helvetica /Helvetica-Oblique
 /Helvetica-Bold /Helvetica-BoldOblique /Courier /Courier-Oblique /Courier-Bold /Courier-BoldOblique /Times-Roman /AvantGarde-Book /AvantGarde-BookOblique /AvantGarde-Demi /AvantGarde-DemiOblique /Bookman-Demi /Bookman-DemiItalic /Bookman-Light
 /Bookman-LightItalic /Helvetica-Narrow /Helvetica-Narrow-Bold /Helvetica-Narrow-BoldOblique /Helvetica-Narrow-Oblique /NewCenturySchlbk-Roman /NewCenturySchlbk-Bold /NewCenturySchlbk-BoldItalic /NewCenturySchlbk-Italic /Palatino-Bold
 /Palatino-BoldItalic /Palatino-Italic /Palatino-Roman ] {ISOLatin1Encoding reEncode } forall
%%EndProlog
%%BeginSetup
%%EndSetup
newpath  gsave  .25 .25 scale  gsave  0 0 t black[  ] 0 sd 3 lw 1 1 1 c 2268 2379 0 0 bf black 1 1 1 c 2268 1546 0 833 bf black 1 1 1 c 1791 1454 363 848 bf black 1791 1454 363 848 bl 1 1 1 c 1791 1454 363 848 bf black 1791 1454 363 848 bl 6 lw 1 1 1
 c black 381 1664 m 1 Y s 363 1675 m 8 X s 391 1675 m 8 X s 3 lw /w 20 def /w2 {w 2 div} def /w3 {w 3 div} def 381 1675 m20 6 lw 399 1705 m 7 X s 427 1705 m 7 X s 3 lw 417 1705 m20 6 lw 434 1779 m 8 X s 463 1779 m 7 X s 3 lw 452 1779 m20 6 lw 470
 1897 m 8 X s 498 1897 m 8 X s 3 lw 488 1897 m20 6 lw 506 1996 m 8 X s 534 1996 m 8 X s 3 lw 524 1996 m20 6 lw 542 2090 m 8 X s 570 2090 m 8 X s 3 lw 560 2090 m20 6 lw 578 2216 m 8 X s 606 2216 m 8 X s 3 lw 596 2216 m20 6 lw 614 2231 m 7 X s 642 2231
 m 7 X s 3 lw 632 2231 m20 6 lw 649 2217 m 8 X s 677 2217 m 8 X s 3 lw 667 2217 m20 6 lw 685 2193 m 8 X s 713 2193 m 8 X s 3 lw 703 2193 m20 6 lw 721 2162 m 8 X s 749 2162 m 8 X s 3 lw 739 2162 m20 6 lw 757 2123 m 8 X s 785 2123 m 8 X s 3 lw 775 2123
 m20 6 lw 793 2083 m 8 X s 821 2083 m 8 X s 3 lw 811 2083 m20 6 lw 829 2040 m 7 X s 857 2040 m 7 X s 3 lw 847 2040 m20 6 lw 864 1996 m 8 X s 892 1996 m 8 X s 3 lw 882 1996 m20 6 lw 900 1954 m 8 X s 928 1954 m 8 X s 3 lw 918 1954 m20 6 lw 936 1923 m 8
 X s 964 1923 m 8 X s 3 lw 954 1923 m20 6 lw 972 1884 m 8 X s 1000 1884 m 8 X s 3 lw 990 1884 m20 6 lw 1008 1839 m 8 X s 1036 1839 m 8 X s 3 lw 1026 1839 m20 6 lw 1044 1812 m 7 X s 1072 1812 m 7 X s 3 lw 1062 1812 m20 6 lw 1079 1767 m 8 X s 1107 1767
 m 8 X s 3 lw 1097 1767 m20 6 lw 1115 1731 m 8 X s 1143 1731 m 8 X s 3 lw 1133 1731 m20 6 lw 1151 1686 m 8 X s 1179 1686 m 8 X s 3 lw 1169 1686 m20 6 lw 1187 1652 m 8 X s 1215 1652 m 8 X s 3 lw 1205 1652 m20 6 lw 1223 1634 m 8 X s 1251 1634 m 8 X s 3
 lw 1241 1634 m20 6 lw 1276 1599 m 1 Y s 1259 1610 m 7 X s 1287 1610 m 7 X s 3 lw 1276 1610 m20 6 lw 1312 1574 m 2 Y s 1312 1596 m 1 Y s 1294 1586 m 8 X s 1322 1586 m 8 X s 3 lw 1312 1586 m20 6 lw 1348 1526 m 4 Y s 1348 1550 m 3 Y s 1330 1540 m 8 X s
 1358 1540 m 8 X s 3 lw 1348 1540 m20 6 lw 1384 1485 m 8 Y s 1384 1513 m 5 Y s 1366 1503 m 8 X s 1394 1503 m 8 X s 3 lw 1384 1503 m20 6 lw 1420 1489 m 8 Y s 1420 1517 m 5 Y s 1402 1507 m 8 X s 1430 1507 m 8 X s 3 lw 1420 1507 m20 6 lw 1456 1425 m 13
 Y s 1456 1458 m 8 Y s 1438 1448 m 8 X s 1466 1448 m 8 X s 3 lw 1456 1448 m20 6 lw 1491 1429 m 13 Y s 1491 1462 m 8 Y s 1474 1452 m 7 X s 1502 1452 m 7 X s 3 lw 1491 1452 m20 6 lw 1527 1410 m 15 Y s 1527 1446 m 10 Y s 1509 1436 m 8 X s 1537 1436 m 8
 X s 3 lw 1527 1436 m20 6 lw 1563 1366 m 20 Y s 1563 1406 m 13 Y s 1545 1396 m 8 X s 1573 1396 m 8 X s 3 lw 1563 1396 m20 6 lw 1599 1349 m 25 Y s 1599 1394 m 16 Y s 1581 1384 m 8 X s 1609 1384 m 8 X s 3 lw 1599 1384 m20 6 lw 1635 1296 m 35 Y s 1635
 1351 m 22 Y s 1617 1341 m 8 X s 1645 1341 m 8 X s 3 lw 1635 1341 m20 6 lw 1671 1243 m 49 Y s 1671 1313 m 28 Y s 1653 1303 m 8 X s 1681 1303 m 8 X s 3 lw 1671 1303 m20 6 lw 1706 923 m 124 Y s 1706 1067 m 48 Y s 1689 1057 m 7 X s 1717 1057 m 7 X s 3
 lw 1706 1057 m20 6 lw 1814 848 m 180 Y s 1814 1048 m 65 Y s 1796 1038 m 8 X s 1824 1038 m 8 X s 3 lw 1814 1038 m20 6 lw 1921 848 m 271 Y s 1921 1139 m 65 Y s 1904 1129 m 7 X s 1932 1129 m 7 X s 3 lw 1921 1129 m20 6 lw 3 lw 363 848 m 1791 X s 363 885
 m -37 Y s 399 866 m -18 Y s 434 866 m -18 Y s 470 866 m -18 Y s 506 866 m -18 Y s 542 885 m -37 Y s 578 866 m -18 Y s 614 866 m -18 Y s 649 866 m -18 Y s 685 866 m -18 Y s 721 885 m -37 Y s 757 866 m -18 Y s 793 866 m -18 Y s 829 866 m -18 Y s 864
 866 m -18 Y s 900 885 m -37 Y s 936 866 m -18 Y s 972 866 m -18 Y s 1008 866 m -18 Y s 1044 866 m -18 Y s 1079 885 m -37 Y s 1115 866 m -18 Y s 1151 866 m -18 Y s 1187 866 m -18 Y s 1223 866 m -18 Y s 1259 885 m -37 Y s 1294 866 m -18 Y s 1330 866 m
 -18 Y s 1366 866 m -18 Y s 1402 866 m -18 Y s 1438 885 m -37 Y s 1474 866 m -18 Y s 1509 866 m -18 Y s 1545 866 m -18 Y s 1581 866 m -18 Y s 1617 885 m -37 Y s 1653 866 m -18 Y s 1689 866 m -18 Y s 1724 866 m -18 Y s 1760 866 m -18 Y s 1796 885 m
 -37 Y s 1832 866 m -18 Y s 1868 866 m -18 Y s 1904 866 m -18 Y s 1939 866 m -18 Y s 1975 885 m -37 Y s 2011 866 m -18 Y s 2047 866 m -18 Y s 2083 866 m -18 Y s 2119 866 m -18 Y s 2154 885 m -37 Y s
 gsave  2268 1546 0 833 C 340.915 780.317 t 0 r /Helvetica findfont 73.2695 sf 0 0 m (0) show NC gr 
 gsave  2268 1546 0 833 C 479.806 780.317 t 0 r /Helvetica findfont 73.2695 sf 0 0 m (500) show NC gr 
 gsave  2268 1546 0 833 C 638.9 780.317 t 0 r /Helvetica findfont 73.2695 sf 0 0 m (1000) show NC gr 
 gsave  2268 1546 0 833 C 818.196 780.317 t 0 r /Helvetica findfont 73.2695 sf 0 0 m (1500) show NC gr 
 gsave  2268 1546 0 833 C 997.492 780.317 t 0 r /Helvetica findfont 73.2695 sf 0 0 m (2000) show NC gr 
 gsave  2268 1546 0 833 C 1176.79 780.317 t 0 r /Helvetica findfont 73.2695 sf 0 0 m (2500) show NC gr 
 gsave  2268 1546 0 833 C 1356.08 780.317 t 0 r /Helvetica findfont 73.2695 sf 0 0 m (3000) show NC gr 
 gsave  2268 1546 0 833 C 1535.38 780.317 t 0 r /Helvetica findfont 73.2695 sf 0 0 m (3500) show NC gr 
 gsave  2268 1546 0 833 C 1714.68 780.317 t 0 r /Helvetica findfont 73.2695 sf 0 0 m (4000) show NC gr 
 gsave  2268 1546 0 833 C 1893.97 780.317 t 0 r /Helvetica findfont 73.2695 sf 0 0 m (4500) show NC gr 
 gsave  2268 1546 0 833 C 2073.27 780.317 t 0 r /Helvetica findfont 73.2695 sf 0 0 m (5000) show NC gr  363 2302 m 1791 X s 363 2265 m 37 Y s 399 2283 m 19 Y s 434 2283 m 19 Y s 470 2283 m 19 Y s 506 2283 m 19 Y s 542 2265 m 37 Y s 578 2283 m 19 Y s
 614 2283 m 19 Y s 649 2283 m 19 Y s 685 2283 m 19 Y s 721 2265 m 37 Y s 757 2283 m 19 Y s 793 2283 m 19 Y s 829 2283 m 19 Y s 864 2283 m 19 Y s 900 2265 m 37 Y s 936 2283 m 19 Y s 972 2283 m 19 Y s 1008 2283 m 19 Y s 1044 2283 m 19 Y s 1079 2265 m
 37 Y s 1115 2283 m 19 Y s 1151 2283 m 19 Y s 1187 2283 m 19 Y s 1223 2283 m 19 Y s 1259 2265 m 37 Y s 1294 2283 m 19 Y s 1330 2283 m 19 Y s 1366 2283 m 19 Y s 1402 2283 m 19 Y s 1438 2265 m 37 Y s 1474 2283 m 19 Y s 1509 2283 m 19 Y s 1545 2283 m 19
 Y s 1581 2283 m 19 Y s 1617 2265 m 37 Y s 1653 2283 m 19 Y s 1689 2283 m 19 Y s 1724 2283 m 19 Y s 1760 2283 m 19 Y s 1796 2265 m 37 Y s 1832 2283 m 19 Y s 1868 2283 m 19 Y s 1904 2283 m 19 Y s 1939 2283 m 19 Y s 1975 2265 m 37 Y s 2011 2283 m 19 Y
 s 2047 2283 m 19 Y s 2083 2283 m 19 Y s 2119 2283 m 19 Y s 2154 2265 m 37 Y s 363 848 m 1454 Y s 395 863 m -32 X s 395 880 m -32 X s 395 894 m -32 X s 395 907 m -32 X s 427 919 m -64 X s
 gsave  2268 1546 0 833 C 315.662 919.208 t 0 r /Helvetica findfont 48.0042 sf 0 0 m (6) show NC gr 
 gsave  2268 1546 0 833 C 287.884 919.208 t 0 r /Symbol findfont 48.0042 sf 0 0 m (-) show NC gr 
 gsave  2268 1546 0 833 C 209.6 886.379 t 0 r /Helvetica findfont 73.2695 sf 0 0 m (10) show NC gr  395 994 m -32 X s 395 1038 m -32 X s 395 1069 m -32 X s 395 1093 m -32 X s 395 1113 m -32 X s 395 1130 m -32 X s 395 1144 m -32 X s 395 1157 m -32 X s
 427 1169 m -64 X s
 gsave  2268 1546 0 833 C 315.662 1169.21 t 0 r /Helvetica findfont 48.0042 sf 0 0 m (5) show NC gr 
 gsave  2268 1546 0 833 C 287.884 1169.21 t 0 r /Symbol findfont 48.0042 sf 0 0 m (-) show NC gr 
 gsave  2268 1546 0 833 C 209.6 1136.38 t 0 r /Helvetica findfont 73.2695 sf 0 0 m (10) show NC gr  395 1244 m -32 X s 395 1288 m -32 X s 395 1319 m -32 X s 395 1343 m -32 X s 395 1363 m -32 X s 395 1380 m -32 X s 395 1394 m -32 X s 395 1407 m -32 X
 s 427 1419 m -64 X s
 gsave  2268 1546 0 833 C 315.662 1416.69 t 0 r /Helvetica findfont 48.0042 sf 0 0 m (4) show NC gr 
 gsave  2268 1546 0 833 C 287.884 1416.69 t 0 r /Symbol findfont 48.0042 sf 0 0 m (-) show NC gr 
 gsave  2268 1546 0 833 C 209.6 1386.39 t 0 r /Helvetica findfont 73.2695 sf 0 0 m (10) show NC gr  395 1494 m -32 X s 395 1538 m -32 X s 395 1569 m -32 X s 395 1593 m -32 X s 395 1613 m -32 X s 395 1630 m -32 X s 395 1645 m -32 X s 395 1657 m -32 X
 s 427 1669 m -64 X s
 gsave  2268 1546 0 833 C 315.662 1669.22 t 0 r /Helvetica findfont 48.0042 sf 0 0 m (3) show NC gr 
 gsave  2268 1546 0 833 C 287.884 1669.22 t 0 r /Symbol findfont 48.0042 sf 0 0 m (-) show NC gr 
 gsave  2268 1546 0 833 C 209.6 1636.39 t 0 r /Helvetica findfont 73.2695 sf 0 0 m (10) show NC gr  395 1744 m -32 X s 395 1788 m -32 X s 395 1819 m -32 X s 395 1844 m -32 X s 395 1863 m -32 X s 395 1880 m -32 X s 395 1895 m -32 X s 395 1907 m -32 X
 s 427 1919 m -64 X s
 gsave  2268 1546 0 833 C 315.662 1916.7 t 0 r /Helvetica findfont 48.0042 sf 0 0 m (2) show NC gr 
 gsave  2268 1546 0 833 C 287.884 1916.7 t 0 r /Symbol findfont 48.0042 sf 0 0 m (-) show NC gr 
 gsave  2268 1546 0 833 C 209.6 1886.4 t 0 r /Helvetica findfont 73.2695 sf 0 0 m (10) show NC gr  395 1994 m -32 X s 395 2038 m -32 X s 395 2069 m -32 X s 395 2094 m -32 X s 395 2113 m -32 X s 395 2130 m -32 X s 395 2145 m -32 X s 395 2157 m -32 X s
 427 2169 m -64 X s
 gsave  2268 1546 0 833 C 323.238 2166.7 t 0 r /Helvetica findfont 48.0042 sf 0 0 m (1) show NC gr 
 gsave  2268 1546 0 833 C 295.46 2166.7 t 0 r /Symbol findfont 48.0042 sf 0 0 m (-) show NC gr 
 gsave  2268 1546 0 833 C 217.176 2136.4 t 0 r /Helvetica findfont 73.2695 sf 0 0 m (10) show NC gr  395 2244 m -32 X s 395 2288 m -32 X s 2154 848 m 1454 Y s 2122 863 m 32 X s 2122 880 m 32 X s 2122 894 m 32 X s 2122 907 m 32 X s 2090 919 m 64 X s
 2122 994 m 32 X s 2122 1038 m 32 X s 2122 1069 m 32 X s 2122 1093 m 32 X s 2122 1113 m 32 X s 2122 1130 m 32 X s 2122 1144 m 32 X s 2122 1157 m 32 X s 2090 1169 m 64 X s 2122 1244 m 32 X s 2122 1288 m 32 X s 2122 1319 m 32 X s 2122 1343 m 32 X s
 2122 1363 m 32 X s 2122 1380 m 32 X s 2122 1394 m 32 X s 2122 1407 m 32 X s 2090 1419 m 64 X s 2122 1494 m 32 X s 2122 1538 m 32 X s 2122 1569 m 32 X s 2122 1593 m 32 X s 2122 1613 m 32 X s 2122 1630 m 32 X s 2122 1645 m 32 X s 2122 1657 m 32 X s
 2090 1669 m 64 X s 2122 1744 m 32 X s 2122 1788 m 32 X s 2122 1819 m 32 X s 2122 1844 m 32 X s 2122 1863 m 32 X s 2122 1880 m 32 X s 2122 1895 m 32 X s 2122 1907 m 32 X s 2090 1919 m 64 X s 2122 1994 m 32 X s 2122 2038 m 32 X s 2122 2069 m 32 X s
 2122 2094 m 32 X s 2122 2113 m 32 X s 2122 2130 m 32 X s 2122 2145 m 32 X s 2122 2157 m 32 X s 2090 2169 m 64 X s 2122 2244 m 32 X s 2122 2288 m 32 X s 1 0 0 c 6 lw 1 1 1 c 1 0 0 c 381 1629 m 6 Y s 381 1655 m 4 Y s 363 1645 m 8 X s 391 1645 m 8 X s
 3 lw 381 1645 m20 6 lw 417 1690 m 2 Y s 417 1712 m 1 Y s 399 1702 m 7 X s 427 1702 m 7 X s 3 lw 417 1702 m20 6 lw 434 1760 m 8 X s 463 1760 m 7 X s 3 lw 452 1760 m20 6 lw 470 1883 m 8 X s 498 1883 m 8 X s 3 lw 488 1883 m20 6 lw 506 1989 m 8 X s 534
 1989 m 8 X s 3 lw 524 1989 m20 6 lw 542 2083 m 8 X s 570 2083 m 8 X s 3 lw 560 2083 m20 6 lw 578 2217 m 8 X s 606 2217 m 8 X s 3 lw 596 2217 m20 6 lw 614 2232 m 7 X s 642 2232 m 7 X s 3 lw 632 2232 m20 6 lw 649 2218 m 8 X s 677 2218 m 8 X s 3 lw 667
 2218 m20 6 lw 685 2192 m 8 X s 713 2192 m 8 X s 3 lw 703 2192 m20 6 lw 721 2161 m 8 X s 749 2161 m 8 X s 3 lw 739 2161 m20 6 lw 757 2124 m 8 X s 785 2124 m 8 X s 3 lw 775 2124 m20 6 lw 793 2086 m 8 X s 821 2086 m 8 X s 3 lw 811 2086 m20 6 lw 829
 2043 m 7 X s 857 2043 m 7 X s 3 lw 847 2043 m20 6 lw 864 1997 m 8 X s 892 1997 m 8 X s 3 lw 882 1997 m20 6 lw 900 1964 m 8 X s 928 1964 m 8 X s 3 lw 918 1964 m20 6 lw 936 1924 m 8 X s 964 1924 m 8 X s 3 lw 954 1924 m20 6 lw 972 1879 m 8 X s 1000
 1879 m 8 X s 3 lw 990 1879 m20 6 lw 1008 1846 m 8 X s 1036 1846 m 8 X s 3 lw 1026 1846 m20 6 lw 1044 1804 m 7 X s 1072 1804 m 7 X s 3 lw 1062 1804 m20 6 lw 1079 1776 m 8 X s 1107 1776 m 8 X s 3 lw 1097 1776 m20 6 lw 1115 1739 m 8 X s 1143 1739 m 8 X
 s 3 lw 1133 1739 m20 6 lw 1151 1719 m 8 X s 1179 1719 m 8 X s 3 lw 1169 1719 m20 6 lw 1187 1661 m 8 X s 1215 1661 m 8 X s 3 lw 1205 1661 m20 6 lw 1223 1634 m 8 X s 1251 1634 m 8 X s 3 lw 1241 1634 m20 6 lw 1276 1586 m 1 Y s 1259 1597 m 7 X s 1287
 1597 m 7 X s 3 lw 1276 1597 m20 6 lw 1312 1565 m 2 Y s 1312 1587 m s 1294 1577 m 8 X s 1322 1577 m 8 X s 3 lw 1312 1577 m20 6 lw 1348 1543 m 3 Y s 1348 1566 m 1 Y s 1330 1556 m 8 X s 1358 1556 m 8 X s 3 lw 1348 1556 m20 6 lw 1384 1483 m 6 Y s 1384
 1509 m 4 Y s 1366 1499 m 8 X s 1394 1499 m 8 X s 3 lw 1384 1499 m20 6 lw 1420 1436 m 11 Y s 1420 1467 m 7 Y s 1402 1457 m 8 X s 1430 1457 m 8 X s 3 lw 1420 1457 m20 6 lw 1456 1444 m 9 Y s 1456 1473 m 7 Y s 1438 1463 m 8 X s 1466 1463 m 8 X s 3 lw
 1456 1463 m20 6 lw 1491 1392 m 17 Y s 1491 1429 m 11 Y s 1474 1419 m 7 X s 1502 1419 m 7 X s 3 lw 1491 1419 m20 6 lw 1527 1391 m 15 Y s 1527 1426 m 11 Y s 1509 1416 m 8 X s 1537 1416 m 8 X s 3 lw 1527 1416 m20 6 lw 1563 1308 m 26 Y s 1563 1355 m 17
 Y s 1545 1345 m 8 X s 1573 1345 m 8 X s 3 lw 1563 1345 m20 6 lw 1599 1294 m 31 Y s 1599 1345 m 19 Y s 1581 1335 m 8 X s 1609 1335 m 8 X s 3 lw 1599 1335 m20 6 lw 1635 1184 m 52 Y s 1635 1256 m 30 Y s 1617 1246 m 8 X s 1645 1246 m 8 X s 3 lw 1635
 1246 m20 6 lw 1671 1146 m 69 Y s 1671 1235 m 36 Y s 1653 1225 m 8 X s 1681 1225 m 8 X s 3 lw 1671 1225 m20 6 lw 1706 1180 m 61 Y s 1706 1261 m 32 Y s 1689 1251 m 7 X s 1717 1251 m 7 X s 3 lw 1706 1251 m20 6 lw 1742 1089 m 93 Y s 1742 1202 m 42 Y s
 1724 1192 m 8 X s 1752 1192 m 8 X s 3 lw 1742 1192 m20 6 lw 1814 848 m 198 Y s 1814 1066 m 65 Y s 1796 1056 m 8 X s 1824 1056 m 8 X s 3 lw 1814 1056 m20 6 lw 0 0 1 c 1 1 1 c 0 0 1 c 381 1662 m 3 Y s 381 1686 m 2 Y s 363 1675 m 8 X s 391 1675 m 8 X s
 3 lw 381 1675 m20 6 lw 417 1690 m 1 Y s 417 1712 m s 399 1701 m 7 X s 427 1701 m 7 X s 3 lw 417 1701 m20 6 lw 434 1787 m 8 X s 463 1787 m 7 X s 3 lw 452 1787 m20 6 lw 470 1895 m 8 X s 498 1895 m 8 X s 3 lw 488 1895 m20 6 lw 506 2002 m 8 X s 534 2002
 m 8 X s 3 lw 524 2002 m20 6 lw 542 2098 m 8 X s 570 2098 m 8 X s 3 lw 560 2098 m20 6 lw 578 2216 m 8 X s 606 2216 m 8 X s 3 lw 596 2216 m20 6 lw 614 2230 m 7 X s 642 2230 m 7 X s 3 lw 632 2230 m20 6 lw 649 2218 m 8 X s 677 2218 m 8 X s 3 lw 667 2218
 m20 6 lw 685 2191 m 8 X s 713 2191 m 8 X s 3 lw 703 2191 m20 6 lw 721 2160 m 8 X s 749 2160 m 8 X s 3 lw 739 2160 m20 6 lw 757 2125 m 8 X s 785 2125 m 8 X s 3 lw 775 2125 m20 6 lw 793 2081 m 8 X s 821 2081 m 8 X s 3 lw 811 2081 m20 6 lw 829 2038 m 7
 X s 857 2038 m 7 X s 3 lw 847 2038 m20 6 lw 864 1999 m 8 X s 892 1999 m 8 X s 3 lw 882 1999 m20 6 lw 900 1955 m 8 X s 928 1955 m 8 X s 3 lw 918 1955 m20 6 lw 936 1922 m 8 X s 964 1922 m 8 X s 3 lw 954 1922 m20 6 lw 972 1885 m 8 X s 1000 1885 m 8 X s
 3 lw 990 1885 m20 6 lw 1008 1844 m 8 X s 1036 1844 m 8 X s 3 lw 1026 1844 m20 6 lw 1044 1806 m 7 X s 1072 1806 m 7 X s 3 lw 1062 1806 m20 6 lw 1079 1768 m 8 X s 1107 1768 m 8 X s 3 lw 1097 1768 m20 6 lw 1115 1727 m 8 X s 1143 1727 m 8 X s 3 lw 1133
 1727 m20 6 lw 1169 1680 m s 1151 1690 m 8 X s 1179 1690 m 8 X s 3 lw 1169 1690 m20 6 lw 1205 1641 m 2 Y s 1205 1663 m s 1187 1653 m 8 X s 1215 1653 m 8 X s 3 lw 1205 1653 m20 6 lw 1241 1612 m 1 Y s 1241 1634 m s 1223 1624 m 8 X s 1251 1624 m 8 X s 3
 lw 1241 1624 m20 6 lw 1276 1606 m 4 Y s 1276 1630 m 2 Y s 1259 1620 m 7 X s 1287 1620 m 7 X s 3 lw 1276 1620 m20 6 lw 1312 1572 m 4 Y s 1312 1596 m 3 Y s 1294 1586 m 8 X s 1322 1586 m 8 X s 3 lw 1312 1586 m20 6 lw 1348 1532 m 7 Y s 1348 1559 m 5 Y s
 1330 1549 m 8 X s 1358 1549 m 8 X s 3 lw 1348 1549 m20 6 lw 1384 1526 m 12 Y s 1384 1558 m 9 Y s 1366 1548 m 8 X s 1394 1548 m 8 X s 3 lw 1384 1548 m20 6 lw 1420 1475 m 11 Y s 1420 1506 m 8 Y s 1402 1496 m 8 X s 1430 1496 m 8 X s 3 lw 1420 1496 m20
 6 lw 1456 1406 m 18 Y s 1456 1444 m 12 Y s 1438 1434 m 8 X s 1466 1434 m 8 X s 3 lw 1456 1434 m20 6 lw 1491 1428 m 16 Y s 1491 1464 m 11 Y s 1474 1454 m 7 X s 1502 1454 m 7 X s 3 lw 1491 1454 m20 6 lw 1527 1384 m 23 Y s 1527 1427 m 15 Y s 1509 1417
 m 8 X s 1537 1417 m 8 X s 3 lw 1527 1417 m20 6 lw 1563 1338 m 30 Y s 1563 1389 m 19 Y s 1545 1378 m 8 X s 1573 1378 m 8 X s 3 lw 1563 1378 m20 6 lw 1599 1360 m 27 Y s 1599 1408 m 18 Y s 1581 1397 m 8 X s 1609 1397 m 8 X s 3 lw 1599 1397 m20 6 lw
 1635 1342 m 27 Y s 1635 1389 m 18 Y s 1617 1379 m 8 X s 1645 1379 m 8 X s 3 lw 1635 1379 m20 6 lw 1671 1294 m 43 Y s 1671 1357 m 25 Y s 1653 1347 m 8 X s 1681 1347 m 8 X s 3 lw 1671 1347 m20 6 lw 1778 1036 m 123 Y s 1778 1179 m 48 Y s 1760 1169 m 8
 X s 1788 1169 m 8 X s 3 lw 1778 1169 m20 6 lw 1921 848 m 270 Y s 1921 1138 m 65 Y s 1904 1128 m 7 X s 1932 1128 m 7 X s 3 lw 1921 1128 m20 6 lw black
 gsave  2268 1546 0 833 C 1244.97 2116.2 t 0 r /Helvetica findfont 58.1103 sf 0 0 m (QSF variation) show NC gr  3 lw 1 1 1 c 2268 833 0 0 bf black 1 1 1 c 1791 582 363 250 bf black 1791 582 363 250 bl 1 0 0 c 6 lw 1 1 1 c 1 0 0 c 381 329 m 64 Y s 381
 413 m 64 Y s 363 403 m 8 X s 391 403 m 8 X s 3 lw 381 403 m20 6 lw 417 448 m 66 Y s 417 534 m 65 Y s 399 524 m 7 X s 427 524 m 7 X s 3 lw 417 524 m20 6 lw 452 397 m 39 Y s 452 456 m 40 Y s 434 446 m 8 X s 463 446 m 7 X s 3 lw 452 446 m20 6 lw 488
 440 m 20 Y s 488 481 m 20 Y s 470 471 m 8 X s 498 471 m 8 X s 3 lw 488 471 m20 6 lw 524 481 m 10 Y s 524 511 m 10 Y s 506 501 m 8 X s 534 501 m 8 X s 3 lw 524 501 m20 6 lw 560 488 m 3 Y s 560 511 m 3 Y s 542 501 m 8 X s 570 501 m 8 X s 3 lw 560 501
 m20 6 lw 578 550 m 8 X s 606 550 m 8 X s 3 lw 596 550 m20 6 lw 614 545 m 7 X s 642 545 m 7 X s 3 lw 632 545 m20 6 lw 649 544 m 8 X s 677 544 m 8 X s 3 lw 667 544 m20 6 lw 685 535 m 8 X s 713 535 m 8 X s 3 lw 703 535 m20 6 lw 721 532 m 8 X s 749 532
 m 8 X s 3 lw 739 532 m20 6 lw 775 534 m 1 Y s 775 555 m 2 Y s 757 545 m 8 X s 785 545 m 8 X s 3 lw 775 545 m20 6 lw 811 542 m 3 Y s 811 565 m 4 Y s 793 555 m 8 X s 821 555 m 8 X s 3 lw 811 555 m20 6 lw 847 545 m 5 Y s 847 571 m 5 Y s 829 560 m 7 X s
 857 560 m 7 X s 3 lw 847 560 m20 6 lw 882 527 m 8 Y s 882 555 m 8 Y s 864 545 m 8 X s 892 545 m 8 X s 3 lw 882 545 m20 6 lw 918 571 m 13 Y s 918 604 m 12 Y s 900 594 m 8 X s 928 594 m 8 X s 3 lw 918 594 m20 6 lw 954 523 m 14 Y s 954 557 m 13 Y s 936
 547 m 8 X s 964 547 m 8 X s 3 lw 954 547 m20 6 lw 990 490 m 15 Y s 990 525 m 16 Y s 972 515 m 8 X s 1000 515 m 8 X s 3 lw 990 515 m20 6 lw 1026 547 m 22 Y s 1026 589 m 23 Y s 1008 579 m 8 X s 1036 579 m 8 X s 3 lw 1026 579 m20 6 lw 1062 469 m 21 Y s
 1062 511 m 21 Y s 1044 500 m 7 X s 1072 500 m 7 X s 3 lw 1062 500 m20 6 lw 1097 550 m 32 Y s 1097 602 m 33 Y s 1079 592 m 8 X s 1107 592 m 8 X s 3 lw 1097 592 m20 6 lw 1133 536 m 38 Y s 1133 594 m 38 Y s 1115 584 m 8 X s 1143 584 m 8 X s 3 lw 1133
 584 m20 6 lw 1169 679 m 57 Y s 1169 757 m 57 Y s 1151 747 m 8 X s 1179 747 m 8 X s 3 lw 1169 747 m20 6 lw 1205 524 m 55 Y s 1205 599 m 55 Y s 1187 589 m 8 X s 1215 589 m 8 X s 3 lw 1205 589 m20 6 lw 1241 475 m 56 Y s 1241 551 m 57 Y s 1223 541 m 8 X
 s 1251 541 m 8 X s 3 lw 1241 541 m20 6 lw 1276 407 m 58 Y s 1276 485 m 57 Y s 1259 475 m 7 X s 1287 475 m 7 X s 3 lw 1276 475 m20 6 lw 1312 415 m 67 Y s 1312 502 m 67 Y s 1294 492 m 8 X s 1322 492 m 8 X s 3 lw 1312 492 m20 6 lw 1348 521 m 101 Y s
 1348 642 m 101 Y s 1330 632 m 8 X s 1358 632 m 8 X s 3 lw 1348 632 m20 6 lw 1384 406 m 105 Y s 1384 531 m 105 Y s 1366 521 m 8 X s 1394 521 m 8 X s 3 lw 1384 521 m20 6 lw 1420 250 m 66 Y s 1420 336 m 74 Y s 1402 326 m 8 X s 1430 326 m 8 X s 3 lw
 1420 326 m20 6 lw 1456 464 m 157 Y s 1456 641 m 158 Y s 1438 631 m 8 X s 1466 631 m 8 X s 3 lw 1456 631 m20 6 lw 1491 265 m 115 Y s 1491 400 m 114 Y s 1474 390 m 7 X s 1502 390 m 7 X s 3 lw 1491 390 m20 6 lw 1527 301 m 134 Y s 1527 455 m 135 Y s
 1509 445 m 8 X s 1537 445 m 8 X s 3 lw 1527 445 m20 6 lw 1563 250 m 62 Y s 1563 332 m 125 Y s 1545 322 m 8 X s 1573 322 m 8 X s 3 lw 1563 322 m20 6 lw 1599 250 m 69 Y s 1599 339 m 144 Y s 1581 329 m 8 X s 1609 329 m 8 X s 3 lw 1599 329 m20 6 lw 1814
 250 m 384 Y s 1814 654 m 178 Y s 1796 644 m 8 X s 1824 644 m 8 X s 3 lw 1814 644 m20 6 lw black 9 lw 0.95 0.95 0.95 c black 443 534 m 17 1 d 35 X 17 1 d 17 X 17 1 d 35 X 17 1 d 34 X 17 1 d 18 X 17 1 d 34 X 17 1 d 35 X 17 1 d 17 X 17 1 d 35 X 17 1 d
 34 X 18 1 d 17 X 17 1 d 34 X 18 1 d 34 X 17 1 d 17 X 18 1 d 34 X 17 1 d 35 X 17 1 d 17 X 17 1 d 35 X 17 1 d s 1286 553 m 34 X 17 1 d 18 X 17 1 d 34 X 17 1 d 35 X 17 1 d 17 X 17 1 d 35 X 17 1 d 34 X 18 1 d 17 X 17 1 d 34 X 18 1 d 34 X 17 1 d 17 X 18
 1 d 34 X 17 1 d 35 X 17 1 d 17 X 17 1 d 35 X 17 1 d 34 X 17 1 d 18 X 17 1 d 34 X 17 1 d 18 X s 2129 571 m 17 X s 3 lw 363 250 m 1791 X s
 gsave  2268 833 0 0 C 1936.9 45.4553 t 0 r /Helvetica findfont 78.4508 sf 0 0 m ( [GeV]) show NC gr 
 gsave  2268 833 0 0 C 1899.02 22.7277 t 0 r /Helvetica findfont 50.6134 sf 0 0 m ( J) show NC gr 
 gsave  2268 833 0 0 C 1871.24 22.7277 t 0 r /Symbol findfont 50.6134 sf 0 0 m (n) show NC gr 
 gsave  2268 833 0 0 C 1853.57 22.7277 t 0 r /Helvetica findfont 50.6134 sf 0 0 m ( ) show NC gr 
 gsave  2268 833 0 0 C 1825.79 22.7277 t 0 r /Symbol findfont 50.6134 sf 0 0 m (n) show NC gr 
 gsave  2268 833 0 0 C 1825.79 70.7083 t 0 r /Helvetica findfont 50.6134 sf 0 0 m (T) show NC gr 
 gsave  2268 833 0 0 C 1765.18 45.4553 t 0 r /Helvetica findfont 78.4508 sf 0 0 m (m) show NC gr  363 270 m -20 Y s 399 260 m -10 Y s 434 260 m -10 Y s 470 260 m -10 Y s 506 260 m -10 Y s 542 270 m -20 Y s 578 260 m -10 Y s 614 260 m -10 Y s 649 260
 m -10 Y s 685 260 m -10 Y s 721 270 m -20 Y s 757 260 m -10 Y s 793 260 m -10 Y s 829 260 m -10 Y s 864 260 m -10 Y s 900 270 m -20 Y s 936 260 m -10 Y s 972 260 m -10 Y s 1008 260 m -10 Y s 1044 260 m -10 Y s 1079 270 m -20 Y s 1115 260 m -10 Y s
 1151 260 m -10 Y s 1187 260 m -10 Y s 1223 260 m -10 Y s 1259 270 m -20 Y s 1294 260 m -10 Y s 1330 260 m -10 Y s 1366 260 m -10 Y s 1402 260 m -10 Y s 1438 270 m -20 Y s 1474 260 m -10 Y s 1509 260 m -10 Y s 1545 260 m -10 Y s 1581 260 m -10 Y s
 1617 270 m -20 Y s 1653 260 m -10 Y s 1689 260 m -10 Y s 1724 260 m -10 Y s 1760 260 m -10 Y s 1796 270 m -20 Y s 1832 260 m -10 Y s 1868 260 m -10 Y s 1904 260 m -10 Y s 1939 260 m -10 Y s 1975 270 m -20 Y s 2011 260 m -10 Y s 2047 260 m -10 Y s
 2083 260 m -10 Y s 2119 260 m -10 Y s 2154 270 m -20 Y s
 gsave  2268 833 0 0 C 351.016 214.65 t 0 r /Helvetica findfont 37.96 sf 0 0 m (0) show NC gr 
 gsave  2268 833 0 0 C 507.585 214.65 t 0 r /Helvetica findfont 37.96 sf 0 0 m (500) show NC gr 
 gsave  2268 833 0 0 C 676.78 214.65 t 0 r /Helvetica findfont 37.96 sf 0 0 m (1000) show NC gr 
 gsave  2268 833 0 0 C 856.076 214.65 t 0 r /Helvetica findfont 37.96 sf 0 0 m (1500) show NC gr 
 gsave  2268 833 0 0 C 1035.37 214.65 t 0 r /Helvetica findfont 37.96 sf 0 0 m (2000) show NC gr 
 gsave  2268 833 0 0 C 1214.67 214.65 t 0 r /Helvetica findfont 37.96 sf 0 0 m (2500) show NC gr 
 gsave  2268 833 0 0 C 1393.96 214.65 t 0 r /Helvetica findfont 37.96 sf 0 0 m (3000) show NC gr 
 gsave  2268 833 0 0 C 1573.26 214.65 t 0 r /Helvetica findfont 37.96 sf 0 0 m (3500) show NC gr 
 gsave  2268 833 0 0 C 1752.56 214.65 t 0 r /Helvetica findfont 37.96 sf 0 0 m (4000) show NC gr 
 gsave  2268 833 0 0 C 1931.85 214.65 t 0 r /Helvetica findfont 37.96 sf 0 0 m (4500) show NC gr 
 gsave  2268 833 0 0 C 2111.15 214.65 t 0 r /Helvetica findfont 37.96 sf 0 0 m (5000) show NC gr  363 832 m 1791 X s 363 812 m 20 Y s 399 822 m 10 Y s 434 822 m 10 Y s 470 822 m 10 Y s 506 822 m 10 Y s 542 812 m 20 Y s 578 822 m 10 Y s 614 822 m 10 Y
 s 649 822 m 10 Y s 685 822 m 10 Y s 721 812 m 20 Y s 757 822 m 10 Y s 793 822 m 10 Y s 829 822 m 10 Y s 864 822 m 10 Y s 900 812 m 20 Y s 936 822 m 10 Y s 972 822 m 10 Y s 1008 822 m 10 Y s 1044 822 m 10 Y s 1079 812 m 20 Y s 1115 822 m 10 Y s 1151
 822 m 10 Y s 1187 822 m 10 Y s 1223 822 m 10 Y s 1259 812 m 20 Y s 1294 822 m 10 Y s 1330 822 m 10 Y s 1366 822 m 10 Y s 1402 822 m 10 Y s 1438 812 m 20 Y s 1474 822 m 10 Y s 1509 822 m 10 Y s 1545 822 m 10 Y s 1581 822 m 10 Y s 1617 812 m 20 Y s
 1653 822 m 10 Y s 1689 822 m 10 Y s 1724 822 m 10 Y s 1760 822 m 10 Y s 1796 812 m 20 Y s 1832 822 m 10 Y s 1868 822 m 10 Y s 1904 822 m 10 Y s 1939 822 m 10 Y s 1975 812 m 20 Y s 2011 822 m 10 Y s 2047 822 m 10 Y s 2083 822 m 10 Y s 2119 822 m 10 Y
 s 2154 812 m 20 Y s 363 250 m 582 Y s 410 250 m -47 X s 387 261 m -24 X s 387 273 m -24 X s 387 285 m -24 X s 387 296 m -24 X s 410 308 m -47 X s 387 320 m -24 X s 387 331 m -24 X s 387 343 m -24 X s 387 355 m -24 X s 410 366 m -47 X s 387 378 m -24
 X s 387 389 m -24 X s 387 401 m -24 X s 387 413 m -24 X s 410 424 m -47 X s 387 436 m -24 X s 387 448 m -24 X s 387 459 m -24 X s 387 471 m -24 X s 410 483 m -47 X s 387 494 m -24 X s 387 506 m -24 X s 387 517 m -24 X s 387 529 m -24 X s 410 541 m
 -47 X s 387 552 m -24 X s 387 564 m -24 X s 387 576 m -24 X s 387 587 m -24 X s 410 599 m -47 X s 387 611 m -24 X s 387 622 m -24 X s 387 634 m -24 X s 387 646 m -24 X s 410 657 m -47 X s 387 669 m -24 X s 387 680 m -24 X s 387 692 m -24 X s 387 704
 m -24 X s 410 715 m -47 X s 387 727 m -24 X s 387 739 m -24 X s 387 750 m -24 X s 387 762 m -24 X s 410 774 m -47 X s 387 785 m -24 X s 387 797 m -24 X s 387 808 m -24 X s 387 820 m -24 X s 410 832 m -47 X s
 gsave  2268 833 0 0 C 297.985 234.853 t 0 r /Helvetica findfont 37.96 sf 0 0 m (0.5) show NC gr 
 gsave  2268 833 0 0 C 297.985 292.934 t 0 r /Helvetica findfont 37.96 sf 0 0 m (0.6) show NC gr 
 gsave  2268 833 0 0 C 297.985 353.542 t 0 r /Helvetica findfont 37.96 sf 0 0 m (0.7) show NC gr 
 gsave  2268 833 0 0 C 297.985 411.623 t 0 r /Helvetica findfont 37.96 sf 0 0 m (0.8) show NC gr 
 gsave  2268 833 0 0 C 297.985 469.705 t 0 r /Helvetica findfont 37.96 sf 0 0 m (0.9) show NC gr 
 gsave  2268 833 0 0 C 335.864 527.787 t 0 r /Helvetica findfont 37.96 sf 0 0 m (1) show NC gr 
 gsave  2268 833 0 0 C 305.561 585.869 t 0 r /Helvetica findfont 37.96 sf 0 0 m (1.1) show NC gr 
 gsave  2268 833 0 0 C 297.985 643.951 t 0 r /Helvetica findfont 37.96 sf 0 0 m (1.2) show NC gr 
 gsave  2268 833 0 0 C 297.985 702.033 t 0 r /Helvetica findfont 37.96 sf 0 0 m (1.3) show NC gr 
 gsave  2268 833 0 0 C 297.985 760.114 t 0 r /Helvetica findfont 37.96 sf 0 0 m (1.4) show NC gr 
 gsave  2268 833 0 0 C 297.985 818.196 t 0 r /Helvetica findfont 37.96 sf 0 0 m (1.5) show NC gr  2154 250 m 582 Y s 2107 250 m 47 X s 2131 261 m 23 X s 2131 273 m 23 X s 2131 285 m 23 X s 2131 296 m 23 X s 2107 308 m 47 X s 2131 320 m 23 X s 2131
 331 m 23 X s 2131 343 m 23 X s 2131 355 m 23 X s 2107 366 m 47 X s 2131 378 m 23 X s 2131 389 m 23 X s 2131 401 m 23 X s 2131 413 m 23 X s 2107 424 m 47 X s 2131 436 m 23 X s 2131 448 m 23 X s 2131 459 m 23 X s 2131 471 m 23 X s 2107 483 m 47 X s
 2131 494 m 23 X s 2131 506 m 23 X s 2131 517 m 23 X s 2131 529 m 23 X s 2107 541 m 47 X s 2131 552 m 23 X s 2131 564 m 23 X s 2131 576 m 23 X s 2131 587 m 23 X s 2107 599 m 47 X s 2131 611 m 23 X s 2131 622 m 23 X s 2131 634 m 23 X s 2131 646 m 23 X
 s 2107 657 m 47 X s 2131 669 m 23 X s 2131 680 m 23 X s 2131 692 m 23 X s 2131 704 m 23 X s 2107 715 m 47 X s 2131 727 m 23 X s 2131 739 m 23 X s 2131 750 m 23 X s 2131 762 m 23 X s 2107 774 m 47 X s 2131 785 m 23 X s 2131 797 m 23 X s 2131 808 m 23
 X s 2131 820 m 23 X s 2107 832 m 47 X s 0 0 1 c 6 lw 1 1 1 c 0 0 1 c 381 457 m 78 Y s 381 555 m 79 Y s 363 545 m 8 X s 391 545 m 8 X s 3 lw 381 545 m20 6 lw 417 449 m 62 Y s 417 532 m 62 Y s 399 522 m 7 X s 427 522 m 7 X s 3 lw 417 522 m20 6 lw 452
 530 m 44 Y s 452 594 m 45 Y s 434 584 m 8 X s 463 584 m 7 X s 3 lw 452 584 m20 6 lw 488 501 m 20 Y s 488 541 m 20 Y s 470 531 m 8 X s 498 531 m 8 X s 3 lw 488 531 m20 6 lw 524 555 m 10 Y s 524 585 m 11 Y s 506 575 m 8 X s 534 575 m 8 X s 3 lw 524
 575 m20 6 lw 560 569 m 3 Y s 560 592 m 4 Y s 542 582 m 8 X s 570 582 m 8 X s 3 lw 560 582 m20 6 lw 578 541 m 8 X s 606 541 m 8 X s 3 lw 596 541 m20 6 lw 614 533 m 7 X s 642 533 m 7 X s 3 lw 632 533 m20 6 lw 649 545 m 8 X s 677 545 m 8 X s 3 lw 667
 545 m20 6 lw 685 530 m 8 X s 713 530 m 8 X s 3 lw 703 530 m20 6 lw 721 529 m 8 X s 749 529 m 8 X s 3 lw 739 529 m20 6 lw 775 537 m 2 Y s 775 560 m 2 Y s 757 549 m 8 X s 785 549 m 8 X s 3 lw 775 549 m20 6 lw 811 514 m 5 Y s 811 539 m 5 Y s 793 529 m
 8 X s 821 529 m 8 X s 3 lw 811 529 m20 6 lw 847 515 m 8 Y s 847 543 m 9 Y s 829 533 m 7 X s 857 533 m 7 X s 3 lw 847 533 m20 6 lw 882 533 m 14 Y s 882 567 m 13 Y s 864 557 m 8 X s 892 557 m 8 X s 3 lw 882 557 m20 6 lw 918 516 m 18 Y s 918 555 m 18 Y
 s 900 544 m 8 X s 928 544 m 8 X s 3 lw 918 544 m20 6 lw 954 504 m 21 Y s 954 545 m 21 Y s 936 535 m 8 X s 964 535 m 8 X s 3 lw 954 535 m20 6 lw 990 513 m 26 Y s 990 560 m 26 Y s 972 549 m 8 X s 1000 549 m 8 X s 3 lw 990 549 m20 6 lw 1026 529 m 32 Y
 s 1026 582 m 32 Y s 1008 571 m 8 X s 1036 571 m 8 X s 3 lw 1026 571 m20 6 lw 1062 465 m 33 Y s 1062 518 m 33 Y s 1044 508 m 7 X s 1072 508 m 7 X s 3 lw 1062 508 m20 6 lw 1097 495 m 42 Y s 1097 558 m 42 Y s 1079 548 m 8 X s 1107 548 m 8 X s 3 lw 1097
 548 m20 6 lw 1133 463 m 47 Y s 1133 531 m 47 Y s 1115 520 m 8 X s 1143 520 m 8 X s 3 lw 1133 520 m20 6 lw 1169 494 m 57 Y s 1169 571 m 57 Y s 1151 561 m 8 X s 1179 561 m 8 X s 3 lw 1169 561 m20 6 lw 1205 469 m 64 Y s 1205 553 m 64 Y s 1187 543 m 8 X
 s 1215 543 m 8 X s 3 lw 1205 543 m20 6 lw 1241 421 m 58 Y s 1241 499 m 58 Y s 1223 489 m 8 X s 1251 489 m 8 X s 3 lw 1241 489 m20 6 lw 1276 501 m 87 Y s 1276 608 m 87 Y s 1259 598 m 7 X s 1287 598 m 7 X s 3 lw 1276 598 m20 6 lw 1312 445 m 84 Y s
 1312 549 m 84 Y s 1294 539 m 8 X s 1322 539 m 8 X s 3 lw 1312 539 m20 6 lw 1348 468 m 112 Y s 1348 600 m 112 Y s 1330 590 m 8 X s 1358 590 m 8 X s 3 lw 1348 590 m20 6 lw 1420 363 m 112 Y s 1420 495 m 112 Y s 1402 485 m 8 X s 1430 485 m 8 X s 3 lw
 1420 485 m20 6 lw 1456 322 m 141 Y s 1456 483 m 141 Y s 1438 473 m 8 X s 1466 473 m 8 X s 3 lw 1456 473 m20 6 lw 1491 385 m 159 Y s 1491 565 m 159 Y s 1474 555 m 7 X s 1502 555 m 7 X s 3 lw 1491 555 m20 6 lw 1527 284 m 155 Y s 1527 459 m 155 Y s
 1509 449 m 8 X s 1537 449 m 8 X s 3 lw 1527 449 m20 6 lw 1563 262 m 183 Y s 1563 465 m 183 Y s 1545 455 m 8 X s 1573 455 m 8 X s 3 lw 1563 455 m20 6 lw 1599 353 m 255 Y s 1599 629 m 203 Y s 1581 619 m 8 X s 1609 619 m 8 X s 3 lw 1599 619 m20 6 lw
 1635 414 m 360 Y s 1635 794 m 38 Y s 1617 784 m 8 X s 1645 784 m 8 X s 3 lw 1635 784 m20 6 lw 1921 250 m 275 Y s 1921 546 m 286 Y s 1904 536 m 7 X s 1932 536 m 7 X s 3 lw 1921 536 m20 6 lw black 9 lw 0.95 0.95 0.95 c black 443 547 m 34 X 18 -1 d 17
 X 17 -1 d 17 X 17 -1 d 18 X 17 -1 d 17 X 17 -1 d 17 X 18 -1 d 17 X 17 -1 d 17 X 17 -1 d 18 X 17 -1 d 17 X 17 -1 d 17 X 18 -1 d 17 X 17 -1 d 34 X 18 -1 d 17 X 17 -1 d 17 X 17 -1 d 18 X 17 -1 d 17 X 17 -1 d 17 X 18 -1 d 17 X 17 -1 d 17 X 17 -1 d 18 X
 17 -1 d 17 X 17 -1 d 17 X 18 -1 d 17 X s 1286 524 m 17 -1 d 34 X 18 -1 d 17 X 17 -1 d 17 X 17 -1 d 18 X 17 -1 d 17 X 17 -1 d 17 X 18 -1 d 17 X 17 -1 d 17 X 17 -1 d 18 X 17 -1 d 17 X 17 -1 d 17 X 18 -1 d 17 X 17 -1 d 34 X 18 -1 d 17 X 17 -1 d 17 X 17
 -1 d 18 X 17 -1 d 17 X 17 -1 d 17 X 18 -1 d 17 X 17 -1 d 17 X 17 -1 d 18 X 17 -1 d 17 X 17 -1 d 17 X 18 -1 d s 2129 500 m 17 X s
 gr  gr showpage
end
%%EOF
