%!PS-Adobe-2.0 EPSF-2.0
%%BoundingBox:  0 0 561 737
%%Title: radttbar_nominal.eps: c1
%%Creator: ROOT Version 5.34/36
%%CreationDate: Fri May 19 16:41:25 2017
%%EndComments
%%BeginProlog
80 dict begin
/s {stroke} def /l {lineto} def /m {moveto} def /t {translate} def
/r {rotate} def /rl {roll}  def /R {repeat} def
/d {rlineto} def /rm {rmoveto} def /gr {grestore} def /f {eofill} def
/c {setrgbcolor} def /black {0 setgray} def /sd {setdash} def
/cl {closepath} def /sf {scalefont setfont} def /lw {setlinewidth} def
/box {m dup 0 exch d exch 0 d 0 exch neg d cl} def
/NC{systemdict begin initclip end}def/C{NC box clip newpath}def
/bl {box s} def /bf {gsave box gsave f grestore 1 lw [] 0 sd s grestore} def /Y { 0 exch d} def /X { 0 d} def 
/K {{pop pop 0 moveto} exch kshow} bind def
/ita {/ang 15 def gsave [1 0 ang dup sin exch cos div 1 0 0] concat} def 
/mp {newpath /y exch def /x exch def} def
/side {[w .77 mul w .23 mul] .385 w mul sd w 0 l currentpoint t -144 r} def
/mr {mp x y w2 0 360 arc} def /m24 {mr s} def /m20 {mr f} def
/mb {mp x y w2 add m w2 neg 0 d 0 w neg d w 0 d 0 w d cl} def
/mt {mp x y w2 add m w2 neg w neg d w 0 d cl} def
/m21 {mb f} def /m25 {mb s} def /m22 {mt f} def /m26{mt s} def
/m23 {mp x y w2 sub m w2 w d w neg 0 d cl f} def
/m27 {mp x y w2 add m w3 neg w2 neg d w3 w2 neg d w3 w2 d cl s} def
/m28 {mp x w2 sub y w2 sub w3 add m w3 0 d  0 w3 neg d w3 0 d 0 w3 d w3 0 d  0 w3 d w3 neg 0 d 0 w3 d w3 neg 0 d 0 w3 neg d w3 neg 0 d cl s } def
/m29 {mp gsave x w2 sub y w2 add w3 sub m currentpoint t 4 {side} repeat cl fill gr} def
/m30 {mp gsave x w2 sub y w2 add w3 sub m currentpoint t 4 {side} repeat cl s gr} def
/m31 {mp x y w2 sub m 0 w d x w2 sub y m w 0 d x w2 sub y w2 add m w w neg d x w2 sub y w2 sub m w w d s} def
/m32 {mp x y w2 sub m w2 w d w neg 0 d cl s} def
/m33 {mp x y w2 add m w3 neg w2 neg d w3 w2 neg d w3 w2 d cl f} def
/m34 {mp x w2 sub y w2 sub w3 add m w3 0 d  0 w3 neg d w3 0 d 0 w3 d w3 0 d  0 w3 d w3 neg 0 d 0 w3 d w3 neg 0 d 0 w3 neg d w3 neg 0 d cl f } def
/m2 {mp x y w2 sub m 0 w d x w2 sub y m w 0 d s} def
/m5 {mp x w2 sub y w2 sub m w w d x w2 sub y w2 add m w w neg d s} def
/reEncode {exch findfont dup length dict begin {1 index /FID eq  {pop pop} {def} ifelse } forall /Encoding exch def currentdict end dup /FontName get exch definefont pop } def [/Times-Bold /Times-Italic /Times-BoldItalic /Helvetica /Helvetica-Oblique
 /Helvetica-Bold /Helvetica-BoldOblique /Courier /Courier-Oblique /Courier-Bold /Courier-BoldOblique /Times-Roman /AvantGarde-Book /AvantGarde-BookOblique /AvantGarde-Demi /AvantGarde-DemiOblique /Bookman-Demi /Bookman-DemiItalic /Bookman-Light
 /Bookman-LightItalic /Helvetica-Narrow /Helvetica-Narrow-Bold /Helvetica-Narrow-BoldOblique /Helvetica-Narrow-Oblique /NewCenturySchlbk-Roman /NewCenturySchlbk-Bold /NewCenturySchlbk-BoldItalic /NewCenturySchlbk-Italic /Palatino-Bold
 /Palatino-BoldItalic /Palatino-Italic /Palatino-Roman ] {ISOLatin1Encoding reEncode } forall
%%EndProlog
%%BeginSetup
%%EndSetup
newpath  gsave  .25 .25 scale  gsave  0 0 t black[  ] 0 sd 3 lw 1 1 1 c 2245 2948 0 0 bf black 1 1 1 c 2245 1916 0 1032 bf black 1 1 1 c 1774 1801 359 1051 bf black 1774 1801 359 1051 bl 1 1 1 c 1774 1801 359 1051 bf black 1774 1801 359 1051 bl 6 lw
 1 1 1 c black 389 1357 m 112 Y s 389 1489 m 62 Y s 359 1479 m 20 X s 399 1479 m 19 X s 3 lw /w 20 def /w2 {w 2 div} def /w3 {w 3 div} def 389 1479 m20 6 lw 448 1609 m 60 Y s 448 1689 m 41 Y s 418 1679 m 20 X s 458 1679 m 20 X s 3 lw 448 1679 m20 6
 lw 507 1520 m 77 Y s 507 1617 m 48 Y s 478 1607 m 19 X s 517 1607 m 20 X s 3 lw 507 1607 m20 6 lw 566 1755 m 39 Y s 566 1814 m 28 Y s 537 1804 m 19 X s 576 1804 m 20 X s 3 lw 566 1804 m20 6 lw 596 2591 m 19 X s 635 2591 m 20 X s 3 lw 625 2591 m20 6
 lw 655 2736 m 19 X s 694 2736 m 20 X s 3 lw 684 2736 m20 6 lw 714 2598 m 20 X s 754 2598 m 19 X s 3 lw 744 2598 m20 6 lw 773 2413 m 20 X s 813 2413 m 19 X s 3 lw 803 2413 m20 6 lw 862 2228 m 3 Y s 862 2251 m 1 Y s 832 2241 m 20 X s 872 2241 m 19 X s
 3 lw 862 2241 m20 6 lw 921 2019 m 11 Y s 921 2050 m 9 Y s 891 2040 m 20 X s 931 2040 m 20 X s 3 lw 921 2040 m20 6 lw 980 1921 m 31 Y s 980 1972 m 24 Y s 951 1962 m 19 X s 990 1962 m 20 X s 3 lw 980 1962 m20 6 lw 1039 1649 m 53 Y s 1039 1722 m 36 Y s
 1010 1712 m 19 X s 1049 1712 m 20 X s 3 lw 1039 1712 m20 6 lw 1098 1489 m 88 Y s 1098 1597 m 52 Y s 1069 1587 m 19 X s 1108 1587 m 20 X s 3 lw 1098 1587 m20 6 lw 1158 1173 m 209 Y s 1158 1402 m 84 Y s 1128 1392 m 20 X s 1168 1392 m 19 X s 3 lw 1158
 1392 m20 6 lw 1217 1302 m 149 Y s 1217 1471 m 72 Y s 1187 1461 m 20 X s 1227 1461 m 19 X s 3 lw 1217 1461 m20 6 lw 1335 1051 m 388 Y s 1335 1459 m 112 Y s 1305 1449 m 20 X s 1345 1449 m 19 X s 3 lw 1335 1449 m20 6 lw 1394 1051 m 186 Y s 1394 1257 m
 113 Y s 1364 1247 m 20 X s 1404 1247 m 20 X s 3 lw 1394 1247 m20 6 lw 3 lw 359 1051 m 1774 X s 359 1096 m -45 Y s 418 1074 m -23 Y s 478 1074 m -23 Y s 537 1074 m -23 Y s 596 1074 m -23 Y s 655 1096 m -45 Y s 714 1074 m -23 Y s 773 1074 m -23 Y s
 832 1074 m -23 Y s 891 1074 m -23 Y s 951 1096 m -45 Y s 1010 1074 m -23 Y s 1069 1074 m -23 Y s 1128 1074 m -23 Y s 1187 1074 m -23 Y s 1246 1096 m -45 Y s 1305 1074 m -23 Y s 1364 1074 m -23 Y s 1424 1074 m -23 Y s 1483 1074 m -23 Y s 1542 1096 m
 -45 Y s 1601 1074 m -23 Y s 1660 1074 m -23 Y s 1719 1074 m -23 Y s 1778 1074 m -23 Y s 1837 1096 m -45 Y s 1897 1074 m -23 Y s 1956 1074 m -23 Y s 2015 1074 m -23 Y s 2074 1074 m -23 Y s 2133 1096 m -45 Y s
 gsave  2245 1916 0 1032 C 332.56 965.174 t 0 r /Helvetica findfont 90.0574 sf 0 0 m (0) show NC gr 
 gsave  2245 1916 0 1032 C 577.604 965.174 t 0 r /Helvetica findfont 90.0574 sf 0 0 m (500) show NC gr 
 gsave  2245 1916 0 1032 C 850.153 965.174 t 0 r /Helvetica findfont 90.0574 sf 0 0 m (1000) show NC gr 
 gsave  2245 1916 0 1032 C 1145.21 965.174 t 0 r /Helvetica findfont 90.0574 sf 0 0 m (1500) show NC gr 
 gsave  2245 1916 0 1032 C 1440.26 965.174 t 0 r /Helvetica findfont 90.0574 sf 0 0 m (2000) show NC gr 
 gsave  2245 1916 0 1032 C 1735.31 965.174 t 0 r /Helvetica findfont 90.0574 sf 0 0 m (2500) show NC gr 
 gsave  2245 1916 0 1032 C 2032.87 965.174 t 0 r /Helvetica findfont 90.0574 sf 0 0 m (3000) show NC gr  359 2852 m 1774 X s 359 2807 m 45 Y s 418 2830 m 22 Y s 478 2830 m 22 Y s 537 2830 m 22 Y s 596 2830 m 22 Y s 655 2807 m 45 Y s 714 2830 m 22 Y s
 773 2830 m 22 Y s 832 2830 m 22 Y s 891 2830 m 22 Y s 951 2807 m 45 Y s 1010 2830 m 22 Y s 1069 2830 m 22 Y s 1128 2830 m 22 Y s 1187 2830 m 22 Y s 1246 2807 m 45 Y s 1305 2830 m 22 Y s 1364 2830 m 22 Y s 1424 2830 m 22 Y s 1483 2830 m 22 Y s 1542
 2807 m 45 Y s 1601 2830 m 22 Y s 1660 2830 m 22 Y s 1719 2830 m 22 Y s 1778 2830 m 22 Y s 1837 2807 m 45 Y s 1897 2830 m 22 Y s 1956 2830 m 22 Y s 2015 2830 m 22 Y s 2074 2830 m 22 Y s 2133 2807 m 45 Y s 359 1051 m 1801 Y s 391 1088 m -32 X s 391
 1127 m -32 X s 391 1159 m -32 X s 391 1187 m -32 X s 391 1210 m -32 X s 391 1231 m -32 X s 423 1249 m -64 X s
 gsave  2245 1916 0 1032 C 305.055 1247.72 t 0 r /Helvetica findfont 60.0382 sf 0 0 m (4) show NC gr 
 gsave  2245 1916 0 1032 C 272.549 1247.72 t 0 r /Symbol findfont 60.0382 sf 0 0 m (-) show NC gr 
 gsave  2245 1916 0 1032 C 175.032 1207.72 t 0 r /Helvetica findfont 90.0574 sf 0 0 m (10) show NC gr  391 1372 m -32 X s 391 1443 m -32 X s 391 1494 m -32 X s 391 1533 m -32 X s 391 1565 m -32 X s 391 1592 m -32 X s 391 1616 m -32 X s 391 1637 m -32
 X s 423 1655 m -64 X s
 gsave  2245 1916 0 1032 C 305.055 1655.3 t 0 r /Helvetica findfont 60.0382 sf 0 0 m (3) show NC gr 
 gsave  2245 1916 0 1032 C 272.549 1655.3 t 0 r /Symbol findfont 60.0382 sf 0 0 m (-) show NC gr 
 gsave  2245 1916 0 1032 C 175.032 1612.79 t 0 r /Helvetica findfont 90.0574 sf 0 0 m (10) show NC gr  391 1777 m -32 X s 391 1849 m -32 X s 391 1899 m -32 X s 391 1939 m -32 X s 391 1971 m -32 X s 391 1998 m -32 X s 391 2022 m -32 X s 391 2042 m -32
 X s 423 2061 m -64 X s
 gsave  2245 1916 0 1032 C 305.055 2060.37 t 0 r /Helvetica findfont 60.0382 sf 0 0 m (2) show NC gr 
 gsave  2245 1916 0 1032 C 272.549 2060.37 t 0 r /Symbol findfont 60.0382 sf 0 0 m (-) show NC gr 
 gsave  2245 1916 0 1032 C 175.032 2020.36 t 0 r /Helvetica findfont 90.0574 sf 0 0 m (10) show NC gr  391 2183 m -32 X s 391 2254 m -32 X s 391 2305 m -32 X s 391 2344 m -32 X s 391 2377 m -32 X s 391 2404 m -32 X s 391 2427 m -32 X s 391 2448 m -32
 X s 423 2467 m -64 X s
 gsave  2245 1916 0 1032 C 315.057 2465.44 t 0 r /Helvetica findfont 60.0382 sf 0 0 m (1) show NC gr 
 gsave  2245 1916 0 1032 C 282.551 2465.44 t 0 r /Symbol findfont 60.0382 sf 0 0 m (-) show NC gr 
 gsave  2245 1916 0 1032 C 185.033 2425.44 t 0 r /Helvetica findfont 90.0574 sf 0 0 m (10) show NC gr  391 2589 m -32 X s 391 2660 m -32 X s 391 2711 m -32 X s 391 2750 m -32 X s 391 2782 m -32 X s 391 2809 m -32 X s 391 2833 m -32 X s 2133 1051 m
 1801 Y s 2101 1088 m 32 X s 2101 1127 m 32 X s 2101 1159 m 32 X s 2101 1187 m 32 X s 2101 1210 m 32 X s 2101 1231 m 32 X s 2070 1249 m 63 X s 2101 1372 m 32 X s 2101 1443 m 32 X s 2101 1494 m 32 X s 2101 1533 m 32 X s 2101 1565 m 32 X s 2101 1592 m
 32 X s 2101 1616 m 32 X s 2101 1637 m 32 X s 2070 1655 m 63 X s 2101 1777 m 32 X s 2101 1849 m 32 X s 2101 1899 m 32 X s 2101 1939 m 32 X s 2101 1971 m 32 X s 2101 1998 m 32 X s 2101 2022 m 32 X s 2101 2042 m 32 X s 2070 2061 m 63 X s 2101 2183 m 32
 X s 2101 2254 m 32 X s 2101 2305 m 32 X s 2101 2344 m 32 X s 2101 2377 m 32 X s 2101 2404 m 32 X s 2101 2427 m 32 X s 2101 2448 m 32 X s 2070 2467 m 63 X s 2101 2589 m 32 X s 2101 2660 m 32 X s 2101 2711 m 32 X s 2101 2750 m 32 X s 2101 2782 m 32 X
 s 2101 2809 m 32 X s 2101 2833 m 32 X s 1 0 0 c 6 lw 1 1 1 c 1 0 0 c 389 1051 m 306 Y s 389 1377 m 112 Y s 359 1367 m 20 X s 399 1367 m 19 X s 3 lw 389 1367 m20 6 lw 448 1619 m 83 Y s 448 1722 m 50 Y s 418 1712 m 20 X s 458 1712 m 20 X s 3 lw 448
 1712 m20 6 lw 507 1620 m 84 Y s 507 1724 m 51 Y s 478 1714 m 19 X s 517 1714 m 20 X s 3 lw 507 1714 m20 6 lw 566 1731 m 122 Y s 566 1873 m 65 Y s 537 1863 m 19 X s 576 1863 m 20 X s 3 lw 566 1863 m20 6 lw 596 2589 m 19 X s 635 2589 m 20 X s 3 lw 625
 2589 m20 6 lw 655 2735 m 19 X s 694 2735 m 20 X s 3 lw 684 2735 m20 6 lw 714 2599 m 20 X s 754 2599 m 19 X s 3 lw 744 2599 m20 6 lw 803 2393 m 4 Y s 803 2417 m 2 Y s 773 2407 m 20 X s 813 2407 m 19 X s 3 lw 803 2407 m20 6 lw 862 2249 m 16 Y s 862
 2285 m 14 Y s 832 2275 m 20 X s 872 2275 m 19 X s 3 lw 862 2275 m20 6 lw 921 1991 m 30 Y s 921 2041 m 23 Y s 891 2031 m 20 X s 931 2031 m 20 X s 3 lw 921 2031 m20 6 lw 980 1851 m 51 Y s 980 1922 m 35 Y s 951 1912 m 19 X s 990 1912 m 20 X s 3 lw 980
 1912 m20 6 lw 1039 1752 m 60 Y s 1039 1832 m 40 Y s 1010 1822 m 19 X s 1049 1822 m 20 X s 3 lw 1039 1822 m20 6 lw 1098 1685 m 79 Y s 1098 1784 m 48 Y s 1069 1774 m 19 X s 1108 1774 m 20 X s 3 lw 1098 1774 m20 6 lw 1158 1051 m 332 Y s 1158 1403 m 112
 Y s 1128 1393 m 20 X s 1168 1393 m 19 X s 3 lw 1158 1393 m20 6 lw 1217 1051 m 454 Y s 1217 1525 m 112 Y s 1187 1515 m 20 X s 1227 1515 m 19 X s 3 lw 1217 1515 m20 6 lw 1335 1051 m 388 Y s 1335 1459 m 112 Y s 1305 1449 m 20 X s 1345 1449 m 19 X s 3
 lw 1335 1449 m20 6 lw 1453 1051 m 291 Y s 1453 1362 m 112 Y s 1424 1352 m 19 X s 1463 1352 m 20 X s 3 lw 1453 1352 m20 6 lw 0 0 1 c 1 1 1 c 0 0 1 c 389 1051 m 470 Y s 389 1541 m 112 Y s 359 1531 m 20 X s 399 1531 m 19 X s 3 lw 389 1531 m20 6 lw 448
 1600 m 96 Y s 448 1716 m 56 Y s 418 1706 m 20 X s 458 1706 m 20 X s 3 lw 448 1706 m20 6 lw 507 1549 m 115 Y s 507 1684 m 62 Y s 478 1674 m 19 X s 517 1674 m 20 X s 3 lw 507 1674 m20 6 lw 566 1546 m 118 Y s 566 1684 m 64 Y s 537 1674 m 19 X s 576
 1674 m 20 X s 3 lw 566 1674 m20 6 lw 596 2588 m 19 X s 635 2588 m 20 X s 3 lw 625 2588 m20 6 lw 655 2736 m 19 X s 694 2736 m 20 X s 3 lw 684 2736 m20 6 lw 714 2598 m 20 X s 754 2598 m 19 X s 3 lw 744 2598 m20 6 lw 803 2400 m 4 Y s 803 2424 m 3 Y s
 773 2414 m 20 X s 813 2414 m 19 X s 3 lw 803 2414 m20 6 lw 862 2221 m 13 Y s 862 2254 m 10 Y s 832 2244 m 20 X s 872 2244 m 19 X s 3 lw 862 2244 m20 6 lw 921 2073 m 22 Y s 921 2115 m 17 Y s 891 2105 m 20 X s 931 2105 m 20 X s 3 lw 921 2105 m20 6 lw
 980 1907 m 48 Y s 980 1975 m 33 Y s 951 1965 m 19 X s 990 1965 m 20 X s 3 lw 980 1965 m20 6 lw 1039 1690 m 78 Y s 1039 1788 m 48 Y s 1010 1778 m 19 X s 1049 1778 m 20 X s 3 lw 1039 1778 m20 6 lw 1098 1582 m 95 Y s 1098 1697 m 55 Y s 1069 1687 m 19 X
 s 1108 1687 m 20 X s 3 lw 1098 1687 m20 6 lw 1158 1051 m 455 Y s 1158 1526 m 112 Y s 1128 1516 m 20 X s 1168 1516 m 19 X s 3 lw 1158 1516 m20 6 lw 1276 1051 m 358 Y s 1276 1429 m 113 Y s 1246 1419 m 20 X s 1286 1419 m 19 X s 3 lw 1276 1419 m20 6 lw
 1453 1051 m 323 Y s 1453 1394 m 112 Y s 1424 1384 m 19 X s 1463 1384 m 20 X s 3 lw 1453 1384 m20 6 lw 1749 1051 m 357 Y s 1749 1428 m 112 Y s 1719 1418 m 20 X s 1759 1418 m 19 X s 3 lw 1749 1418 m20 6 lw black
 gsave  2245 1916 0 1032 C 1232.72 2622.97 t 0 r /Helvetica findfont 72.5462 sf 0 0 m (ttbar ISR/FSR) show NC gr  3 lw 1 1 1 c 2245 1032 0 0 bf black 1 1 1 c 1774 721 359 310 bf black 1774 721 359 310 bl 1 0 0 c 6 lw 1 1 1 c 1 0 0 c 389 310 m 10 Y s
 389 340 m 417 Y s 359 330 m 20 X s 399 330 m 19 X s 3 lw 389 330 m20 6 lw 448 360 m 445 Y s 448 825 m 206 Y s 418 815 m 20 X s 458 815 m 20 X s 3 lw 448 815 m20 6 lw 566 373 m 575 Y s 566 968 m 63 Y s 537 958 m 19 X s 576 958 m 20 X s 3 lw 566 958
 m20 6 lw 625 624 m 25 Y s 625 669 m 24 Y s 596 659 m 19 X s 635 659 m 20 X s 3 lw 625 659 m20 6 lw 684 638 m 15 Y s 684 673 m 15 Y s 655 663 m 19 X s 694 663 m 20 X s 3 lw 684 663 m20 6 lw 744 641 m 27 Y s 744 688 m 26 Y s 714 678 m 20 X s 754 678 m
 19 X s 3 lw 744 678 m20 6 lw 803 585 m 50 Y s 803 655 m 50 Y s 773 645 m 20 X s 813 645 m 19 X s 3 lw 803 645 m20 6 lw 862 691 m 127 Y s 862 838 m 127 Y s 832 828 m 20 X s 872 828 m 19 X s 3 lw 862 828 m20 6 lw 921 476 m 149 Y s 921 645 m 149 Y s
 891 635 m 20 X s 931 635 m 20 X s 3 lw 921 635 m20 6 lw 980 310 m 171 Y s 980 501 m 186 Y s 951 491 m 19 X s 990 491 m 20 X s 3 lw 980 491 m20 6 lw 1158 310 m 356 Y s 1158 686 m 345 Y s 1128 676 m 20 X s 1168 676 m 19 X s 3 lw 1158 676 m20 6 lw 1217
 310 m 608 Y s 1217 938 m 93 Y s 1187 928 m 20 X s 1227 928 m 19 X s 3 lw 1217 928 m20 6 lw 1335 310 m 351 Y s 1335 681 m 350 Y s 1305 671 m 20 X s 1345 671 m 19 X s 3 lw 1335 671 m20 6 lw black 9 lw 0.95 0.95 0.95 c black 662 663 m 15 1 d 15 1 d 15
 1 d 14 1 d 15 1 d 15 1 d 15 1 d 15 1 d 14 1 d 15 1 d 15 1 d 15 1 d 14 1 d 15 1 d 15 2 d 15 1 d 15 1 d 14 1 d 15 1 d 15 1 d 15 1 d 15 1 d 14 1 d 15 1 d 15 1 d 15 1 d 14 1 d 15 1 d 15 1 d 15 1 d 15 1 d 14 1 d 15 1 d 15 1 d 15 2 d 14 1 d 15 1 d 15 1 d
 15 1 d 15 1 d 14 1 d 15 1 d 15 1 d 15 1 d 15 1 d 14 1 d 15 1 d 15 1 d 15 1 d s 1387 714 m 14 1 d 15 1 d 15 1 d 15 1 d 15 1 d 14 1 d 15 2 d 15 1 d 15 1 d 14 1 d 15 1 d 15 1 d 15 1 d 15 1 d 14 1 d 15 1 d 15 1 d 15 1 d 14 1 d 15 1 d 15 1 d 15 1 d 15 1
 d 14 1 d 15 1 d 15 1 d 15 2 d 15 1 d 14 1 d 15 1 d 15 1 d 15 1 d 14 1 d 15 1 d 15 1 d 15 1 d 15 1 d 14 1 d 15 1 d 15 1 d 15 1 d 14 1 d 15 1 d 15 1 d 15 1 d 15 1 d 14 2 d 15 1 d 15 1 d s 2111 766 m 15 1 d s 3 lw 359 310 m 1774 X s
 gsave  2245 1032 0 0 C 1867.84 55.0099 t 0 r /Helvetica findfont 95.167 sf 0 0 m ( [GeV]) show NC gr 
 gsave  2245 1032 0 0 C 1820.33 25.0045 t 0 r /Helvetica findfont 65.1143 sf 0 0 m ( J) show NC gr 
 gsave  2245 1032 0 0 C 1785.32 25.0045 t 0 r /Symbol findfont 65.1143 sf 0 0 m (n) show NC gr 
 gsave  2245 1032 0 0 C 1767.82 25.0045 t 0 r /Helvetica findfont 65.1143 sf 0 0 m ( ) show NC gr 
 gsave  2245 1032 0 0 C 1732.81 25.0045 t 0 r /Symbol findfont 65.1143 sf 0 0 m (n) show NC gr 
 gsave  2245 1032 0 0 C 1732.81 85.0153 t 0 r /Helvetica findfont 65.1143 sf 0 0 m (T) show NC gr 
 gsave  2245 1032 0 0 C 1660.3 55.0099 t 0 r /Helvetica findfont 95.167 sf 0 0 m (m) show NC gr  359 334 m -24 Y s 418 322 m -12 Y s 478 322 m -12 Y s 537 322 m -12 Y s 596 322 m -12 Y s 655 334 m -24 Y s 714 322 m -12 Y s 773 322 m -12 Y s 832 322 m
 -12 Y s 891 322 m -12 Y s 951 334 m -24 Y s 1010 322 m -12 Y s 1069 322 m -12 Y s 1128 322 m -12 Y s 1187 322 m -12 Y s 1246 334 m -24 Y s 1305 322 m -12 Y s 1364 322 m -12 Y s 1424 322 m -12 Y s 1483 322 m -12 Y s 1542 334 m -24 Y s 1601 322 m -12
 Y s 1660 322 m -12 Y s 1719 322 m -12 Y s 1778 322 m -12 Y s 1837 334 m -24 Y s 1897 322 m -12 Y s 1956 322 m -12 Y s 2015 322 m -12 Y s 2074 322 m -12 Y s 2133 334 m -24 Y s
 gsave  2245 1032 0 0 C 345.062 265.048 t 0 r /Helvetica findfont 47.5835 sf 0 0 m (0) show NC gr 
 gsave  2245 1032 0 0 C 612.61 265.048 t 0 r /Helvetica findfont 47.5835 sf 0 0 m (500) show NC gr 
 gsave  2245 1032 0 0 C 897.662 265.048 t 0 r /Helvetica findfont 47.5835 sf 0 0 m (1000) show NC gr 
 gsave  2245 1032 0 0 C 1192.71 265.048 t 0 r /Helvetica findfont 47.5835 sf 0 0 m (1500) show NC gr 
 gsave  2245 1032 0 0 C 1487.77 265.048 t 0 r /Helvetica findfont 47.5835 sf 0 0 m (2000) show NC gr 
 gsave  2245 1032 0 0 C 1782.82 265.048 t 0 r /Helvetica findfont 47.5835 sf 0 0 m (2500) show NC gr 
 gsave  2245 1032 0 0 C 2080.38 265.048 t 0 r /Helvetica findfont 47.5835 sf 0 0 m (3000) show NC gr  359 1031 m 1774 X s 359 1006 m 25 Y s 418 1019 m 12 Y s 478 1019 m 12 Y s 537 1019 m 12 Y s 596 1019 m 12 Y s 655 1006 m 25 Y s 714 1019 m 12 Y s
 773 1019 m 12 Y s 832 1019 m 12 Y s 891 1019 m 12 Y s 951 1006 m 25 Y s 1010 1019 m 12 Y s 1069 1019 m 12 Y s 1128 1019 m 12 Y s 1187 1019 m 12 Y s 1246 1006 m 25 Y s 1305 1019 m 12 Y s 1364 1019 m 12 Y s 1424 1019 m 12 Y s 1483 1019 m 12 Y s 1542
 1006 m 25 Y s 1601 1019 m 12 Y s 1660 1019 m 12 Y s 1719 1019 m 12 Y s 1778 1019 m 12 Y s 1837 1006 m 25 Y s 1897 1019 m 12 Y s 1956 1019 m 12 Y s 2015 1019 m 12 Y s 2074 1019 m 12 Y s 2133 1006 m 25 Y s 359 310 m 721 Y s 406 310 m -47 X s 383 324 m
 -24 X s 383 338 m -24 X s 383 353 m -24 X s 383 367 m -24 X s 406 382 m -47 X s 383 396 m -24 X s 383 411 m -24 X s 383 425 m -24 X s 383 439 m -24 X s 406 454 m -47 X s 383 468 m -24 X s 383 483 m -24 X s 383 497 m -24 X s 383 511 m -24 X s 406 526
 m -47 X s 383 540 m -24 X s 383 555 m -24 X s 383 569 m -24 X s 383 584 m -24 X s 406 598 m -47 X s 383 612 m -24 X s 383 627 m -24 X s 383 641 m -24 X s 383 656 m -24 X s 406 670 m -47 X s 383 685 m -24 X s 383 699 m -24 X s 383 713 m -24 X s 383
 728 m -24 X s 406 742 m -47 X s 383 757 m -24 X s 383 771 m -24 X s 383 786 m -24 X s 383 800 m -24 X s 406 814 m -47 X s 383 829 m -24 X s 383 843 m -24 X s 383 858 m -24 X s 383 872 m -24 X s 406 887 m -47 X s 383 901 m -24 X s 383 915 m -24 X s
 383 930 m -24 X s 383 944 m -24 X s 406 959 m -47 X s 383 973 m -24 X s 383 988 m -24 X s 383 1002 m -24 X s 383 1016 m -24 X s 406 1031 m -47 X s
 gsave  2245 1032 0 0 C 282.551 292.553 t 0 r /Helvetica findfont 47.5835 sf 0 0 m (0.5) show NC gr 
 gsave  2245 1032 0 0 C 282.551 365.066 t 0 r /Helvetica findfont 47.5835 sf 0 0 m (0.6) show NC gr 
 gsave  2245 1032 0 0 C 282.551 437.579 t 0 r /Helvetica findfont 47.5835 sf 0 0 m (0.7) show NC gr 
 gsave  2245 1032 0 0 C 282.551 510.092 t 0 r /Helvetica findfont 47.5835 sf 0 0 m (0.8) show NC gr 
 gsave  2245 1032 0 0 C 282.551 582.605 t 0 r /Helvetica findfont 47.5835 sf 0 0 m (0.9) show NC gr 
 gsave  2245 1032 0 0 C 330.06 652.618 t 0 r /Helvetica findfont 47.5835 sf 0 0 m (1) show NC gr 
 gsave  2245 1032 0 0 C 290.052 722.63 t 0 r /Helvetica findfont 47.5835 sf 0 0 m (1.1) show NC gr 
 gsave  2245 1032 0 0 C 282.551 795.143 t 0 r /Helvetica findfont 47.5835 sf 0 0 m (1.2) show NC gr 
 gsave  2245 1032 0 0 C 282.551 870.157 t 0 r /Helvetica findfont 47.5835 sf 0 0 m (1.3) show NC gr 
 gsave  2245 1032 0 0 C 282.551 940.169 t 0 r /Helvetica findfont 47.5835 sf 0 0 m (1.4) show NC gr 
 gsave  2245 1032 0 0 C 282.551 1015.18 t 0 r /Helvetica findfont 47.5835 sf 0 0 m (1.5) show NC gr  2133 310 m 721 Y s 2086 310 m 47 X s 2110 324 m 23 X s 2110 338 m 23 X s 2110 353 m 23 X s 2110 367 m 23 X s 2086 382 m 47 X s 2110 396 m 23 X s 2110
 411 m 23 X s 2110 425 m 23 X s 2110 439 m 23 X s 2086 454 m 47 X s 2110 468 m 23 X s 2110 483 m 23 X s 2110 497 m 23 X s 2110 511 m 23 X s 2086 526 m 47 X s 2110 540 m 23 X s 2110 555 m 23 X s 2110 569 m 23 X s 2110 584 m 23 X s 2086 598 m 47 X s
 2110 612 m 23 X s 2110 627 m 23 X s 2110 641 m 23 X s 2110 656 m 23 X s 2086 670 m 47 X s 2110 685 m 23 X s 2110 699 m 23 X s 2110 713 m 23 X s 2110 728 m 23 X s 2086 742 m 47 X s 2110 757 m 23 X s 2110 771 m 23 X s 2110 786 m 23 X s 2110 800 m 23 X
 s 2086 814 m 47 X s 2110 829 m 23 X s 2110 843 m 23 X s 2110 858 m 23 X s 2110 872 m 23 X s 2086 887 m 47 X s 2110 901 m 23 X s 2110 915 m 23 X s 2110 930 m 23 X s 2110 944 m 23 X s 2086 959 m 47 X s 2110 973 m 23 X s 2110 988 m 23 X s 2110 1002 m
 23 X s 2110 1016 m 23 X s 2086 1031 m 47 X s 0 0 1 c 6 lw 1 1 1 c 0 0 1 c 389 310 m 594 Y s 389 924 m 107 Y s 359 914 m 20 X s 399 914 m 19 X s 3 lw 389 914 m20 6 lw 448 319 m 458 Y s 448 797 m 234 Y s 418 787 m 20 X s 458 787 m 20 X s 3 lw 448 787
 m20 6 lw 507 329 m 664 Y s 507 1013 m 18 Y s 478 1003 m 19 X s 517 1003 m 20 X s 3 lw 507 1003 m20 6 lw 625 613 m 32 Y s 625 665 m 32 Y s 596 655 m 19 X s 635 655 m 20 X s 3 lw 625 655 m20 6 lw 684 642 m 16 Y s 684 678 m 15 Y s 655 668 m 19 X s 694
 668 m 20 X s 3 lw 684 668 m20 6 lw 744 633 m 28 Y s 744 681 m 28 Y s 714 671 m 20 X s 754 671 m 19 X s 3 lw 744 671 m20 6 lw 803 608 m 55 Y s 803 683 m 54 Y s 773 673 m 20 X s 813 673 m 19 X s 3 lw 803 673 m20 6 lw 862 580 m 93 Y s 862 693 m 92 Y s
 832 683 m 20 X s 872 683 m 19 X s 3 lw 862 683 m20 6 lw 921 782 m 199 Y s 921 1001 m 30 Y s 891 991 m 20 X s 931 991 m 20 X s 3 lw 921 991 m20 6 lw 980 425 m 247 Y s 980 692 m 247 Y s 951 682 m 19 X s 990 682 m 20 X s 3 lw 980 682 m20 6 lw 1039 480
 m 505 Y s 1039 1005 m 26 Y s 1010 995 m 19 X s 1049 995 m 20 X s 3 lw 1039 995 m20 6 lw black 9 lw 0.95 0.95 0.95 c black 662 654 m 15 5 d 15 5 d 15 4 d 14 5 d 15 5 d 15 5 d 15 4 d 15 5 d 14 5 d 15 4 d 15 5 d 15 5 d 14 5 d 15 4 d 15 5 d 15 5 d 15 4
 d 14 5 d 15 5 d 15 5 d 15 4 d 15 5 d 14 5 d 15 5 d 15 4 d 15 5 d 14 5 d 15 4 d 15 5 d 15 5 d 15 5 d 14 4 d 15 5 d 15 5 d 15 4 d 14 5 d 15 5 d 15 5 d 15 4 d 15 5 d 14 5 d 15 5 d 15 4 d 15 5 d 15 5 d 14 4 d 15 5 d 15 5 d 15 5 d s 1387 886 m 14 4 d 15
 5 d 15 5 d 15 4 d 15 5 d 14 5 d 15 5 d 15 4 d 15 5 d 14 5 d 15 5 d 15 4 d 15 5 d 15 5 d 14 4 d 15 5 d 15 5 d 15 5 d 14 4 d 15 5 d 15 5 d 15 4 d 15 5 d 14 5 d 15 5 d 15 4 d 15 5 d 15 5 d 14 5 d 15 4 d 15 4 d s
 gr  gr showpage
end
%%EOF
