%!PS-Adobe-2.0 EPSF-2.0
%%BoundingBox:  0 0 567 595
%%Title: renorm_nominal.eps: c3
%%Creator: ROOT Version 6.04/08
%%CreationDate: Sat Jan 21 10:42:01 2017
%%DocumentNeededResources: ProcSet (FontSetInit)
%%EndComments
%%BeginProlog
80 dict begin
/s {stroke} def /l {lineto} def /m {moveto} def /t {translate} def
/r {rotate} def /rl {roll}  def /R {repeat} def
/d {rlineto} def /rm {rmoveto} def /gr {grestore} def /f {eofill} def
/c {setrgbcolor} def /black {0 setgray} def /sd {setdash} def
/cl {closepath} def /sf {scalefont setfont} def /lw {setlinewidth} def
/box {m dup 0 exch d exch 0 d 0 exch neg d cl} def
/NC{systemdict begin initclip end}def/C{NC box clip newpath}def
/bl {box s} def /bf {gsave box gsave f grestore 1 lw [] 0 sd s grestore} def /Y { 0 exch d} def /X { 0 d} def 
/K {{pop pop 0 moveto} exch kshow} bind def
/ita {/ang 15 def gsave [1 0 ang dup sin exch cos div 1 0 0] concat} def 
/mp {newpath /y exch def /x exch def} def
/side {[w .77 mul w .23 mul] .385 w mul sd w 0 l currentpoint t -144 r} def
/mr {mp x y w2 0 360 arc} def /m24 {mr s} def /m20 {mr f} def
/mb {mp x y w2 add m w2 neg 0 d 0 w neg d w 0 d 0 w d cl} def
/mt {mp x y w2 add m w2 neg w neg d w 0 d cl} def
/m21 {mb f} def /m25 {mb s} def /m22 {mt f} def /m26{mt s} def
/m23 {mp x y w2 sub m w2 w d w neg 0 d cl f} def
/m27 {mp x y w2 add m w3 neg w2 neg d w3 w2 neg d w3 w2 d cl s} def
/m28 {mp x w2 sub y w2 sub w3 add m w3 0 d  0 w3 neg d w3 0 d 0 w3 d w3 0 d  0 w3 d w3 neg 0 d 0 w3 d w3 neg 0 d 0 w3 neg d w3 neg 0 d cl s } def
/m29 {mp gsave x w2 sub y w2 add w3 sub m currentpoint t 4 {side} repeat cl fill gr} def
/m30 {mp gsave x w2 sub y w2 add w3 sub m currentpoint t 4 {side} repeat cl s gr} def
/m31 {mp x y w2 sub m 0 w d x w2 sub y m w 0 d x w2 sub y w2 add m w w neg d x w2 sub y w2 sub m w w d s} def
/m32 {mp x y w2 sub m w2 w d w neg 0 d cl s} def
/m33 {mp x y w2 add m w3 neg w2 neg d w3 w2 neg d w3 w2 d cl f} def
/m34 {mp x w2 sub y w2 sub w3 add m w3 0 d  0 w3 neg d w3 0 d 0 w3 d w3 0 d  0 w3 d w3 neg 0 d 0 w3 d w3 neg 0 d 0 w3 neg d w3 neg 0 d cl f } def
/m2 {mp x y w2 sub m 0 w d x w2 sub y m w 0 d s} def
/m5 {mp x w2 sub y w2 sub m w w d x w2 sub y w2 add m w w neg d s} def
%%IncludeResource: ProcSet (FontSetInit)
%%IncludeResource: font Times-Roman
%%IncludeResource: font Times-Italic
%%IncludeResource: font Times-Bold
%%IncludeResource: font Times-BoldItalic
%%IncludeResource: font Helvetica
%%IncludeResource: font Helvetica-Oblique
%%IncludeResource: font Helvetica-Bold
%%IncludeResource: font Helvetica-BoldOblique
%%IncludeResource: font Courier
%%IncludeResource: font Courier-Oblique
%%IncludeResource: font Courier-Bold
%%IncludeResource: font Courier-BoldOblique
%%IncludeResource: font Symbol
%%IncludeResource: font ZapfDingbats
/reEncode {exch findfont dup length dict begin {1 index /FID eq  {pop pop} {def} ifelse } forall /Encoding exch def currentdict end dup /FontName get exch definefont pop } def [/Times-Bold /Times-Italic /Times-BoldItalic /Helvetica /Helvetica-Oblique
 /Helvetica-Bold /Helvetica-BoldOblique /Courier /Courier-Oblique /Courier-Bold /Courier-BoldOblique /Times-Roman /AvantGarde-Book /AvantGarde-BookOblique /AvantGarde-Demi /AvantGarde-DemiOblique /Bookman-Demi /Bookman-DemiItalic /Bookman-Light
 /Bookman-LightItalic /Helvetica-Narrow /Helvetica-Narrow-Bold /Helvetica-Narrow-BoldOblique /Helvetica-Narrow-Oblique /NewCenturySchlbk-Roman /NewCenturySchlbk-Bold /NewCenturySchlbk-BoldItalic /NewCenturySchlbk-Italic /Palatino-Bold
 /Palatino-BoldItalic /Palatino-Italic /Palatino-Roman ] {ISOLatin1Encoding reEncode } forall
%%EndProlog
%%BeginSetup
%%EndSetup
newpath  gsave  .25 .25 scale  gsave  0 0 t black[  ] 0 sd 3 lw 1 1 1 c 2268 2379 0 0 bf black 1 1 1 c 2268 1546 0 833 bf black 1 1 1 c 1791 1454 363 848 bf black 1791 1454 363 848 bl 1 1 1 c 1791 1454 363 848 bf black 1791 1454 363 848 bl 6 lw 1 1 1
 c black 381 1664 m 1 Y s 363 1675 m 8 X s 391 1675 m 8 X s 3 lw /w 20 def /w2 {w 2 div} def /w3 {w 3 div} def 381 1675 m20 6 lw 399 1705 m 7 X s 427 1705 m 7 X s 3 lw 417 1705 m20 6 lw 434 1779 m 8 X s 463 1779 m 7 X s 3 lw 452 1779 m20 6 lw 470
 1897 m 8 X s 498 1897 m 8 X s 3 lw 488 1897 m20 6 lw 506 1996 m 8 X s 534 1996 m 8 X s 3 lw 524 1996 m20 6 lw 542 2090 m 8 X s 570 2090 m 8 X s 3 lw 560 2090 m20 6 lw 578 2216 m 8 X s 606 2216 m 8 X s 3 lw 596 2216 m20 6 lw 614 2231 m 7 X s 642 2231
 m 7 X s 3 lw 632 2231 m20 6 lw 649 2217 m 8 X s 677 2217 m 8 X s 3 lw 667 2217 m20 6 lw 685 2193 m 8 X s 713 2193 m 8 X s 3 lw 703 2193 m20 6 lw 721 2162 m 8 X s 749 2162 m 8 X s 3 lw 739 2162 m20 6 lw 757 2123 m 8 X s 785 2123 m 8 X s 3 lw 775 2123
 m20 6 lw 793 2083 m 8 X s 821 2083 m 8 X s 3 lw 811 2083 m20 6 lw 829 2040 m 7 X s 857 2040 m 7 X s 3 lw 847 2040 m20 6 lw 864 1996 m 8 X s 892 1996 m 8 X s 3 lw 882 1996 m20 6 lw 900 1954 m 8 X s 928 1954 m 8 X s 3 lw 918 1954 m20 6 lw 936 1923 m 8
 X s 964 1923 m 8 X s 3 lw 954 1923 m20 6 lw 972 1884 m 8 X s 1000 1884 m 8 X s 3 lw 990 1884 m20 6 lw 1008 1839 m 8 X s 1036 1839 m 8 X s 3 lw 1026 1839 m20 6 lw 1044 1812 m 7 X s 1072 1812 m 7 X s 3 lw 1062 1812 m20 6 lw 1079 1767 m 8 X s 1107 1767
 m 8 X s 3 lw 1097 1767 m20 6 lw 1115 1731 m 8 X s 1143 1731 m 8 X s 3 lw 1133 1731 m20 6 lw 1151 1686 m 8 X s 1179 1686 m 8 X s 3 lw 1169 1686 m20 6 lw 1187 1652 m 8 X s 1215 1652 m 8 X s 3 lw 1205 1652 m20 6 lw 1223 1634 m 8 X s 1251 1634 m 8 X s 3
 lw 1241 1634 m20 6 lw 1276 1599 m 1 Y s 1259 1610 m 7 X s 1287 1610 m 7 X s 3 lw 1276 1610 m20 6 lw 1312 1574 m 2 Y s 1312 1596 m 1 Y s 1294 1586 m 8 X s 1322 1586 m 8 X s 3 lw 1312 1586 m20 6 lw 1348 1526 m 4 Y s 1348 1550 m 3 Y s 1330 1540 m 8 X s
 1358 1540 m 8 X s 3 lw 1348 1540 m20 6 lw 1384 1485 m 8 Y s 1384 1513 m 5 Y s 1366 1503 m 8 X s 1394 1503 m 8 X s 3 lw 1384 1503 m20 6 lw 1420 1489 m 8 Y s 1420 1517 m 5 Y s 1402 1507 m 8 X s 1430 1507 m 8 X s 3 lw 1420 1507 m20 6 lw 1456 1425 m 13
 Y s 1456 1458 m 8 Y s 1438 1448 m 8 X s 1466 1448 m 8 X s 3 lw 1456 1448 m20 6 lw 1491 1429 m 13 Y s 1491 1462 m 8 Y s 1474 1452 m 7 X s 1502 1452 m 7 X s 3 lw 1491 1452 m20 6 lw 1527 1410 m 15 Y s 1527 1446 m 10 Y s 1509 1436 m 8 X s 1537 1436 m 8
 X s 3 lw 1527 1436 m20 6 lw 1563 1366 m 20 Y s 1563 1406 m 13 Y s 1545 1396 m 8 X s 1573 1396 m 8 X s 3 lw 1563 1396 m20 6 lw 1599 1349 m 25 Y s 1599 1394 m 16 Y s 1581 1384 m 8 X s 1609 1384 m 8 X s 3 lw 1599 1384 m20 6 lw 1635 1296 m 35 Y s 1635
 1351 m 22 Y s 1617 1341 m 8 X s 1645 1341 m 8 X s 3 lw 1635 1341 m20 6 lw 1671 1243 m 49 Y s 1671 1313 m 28 Y s 1653 1303 m 8 X s 1681 1303 m 8 X s 3 lw 1671 1303 m20 6 lw 1706 923 m 124 Y s 1706 1067 m 48 Y s 1689 1057 m 7 X s 1717 1057 m 7 X s 3
 lw 1706 1057 m20 6 lw 1814 848 m 180 Y s 1814 1048 m 65 Y s 1796 1038 m 8 X s 1824 1038 m 8 X s 3 lw 1814 1038 m20 6 lw 1921 848 m 271 Y s 1921 1139 m 65 Y s 1904 1129 m 7 X s 1932 1129 m 7 X s 3 lw 1921 1129 m20 6 lw 3 lw 363 848 m 1791 X s 363 885
 m -37 Y s 399 866 m -18 Y s 434 866 m -18 Y s 470 866 m -18 Y s 506 866 m -18 Y s 542 885 m -37 Y s 578 866 m -18 Y s 614 866 m -18 Y s 649 866 m -18 Y s 685 866 m -18 Y s 721 885 m -37 Y s 757 866 m -18 Y s 793 866 m -18 Y s 829 866 m -18 Y s 864
 866 m -18 Y s 900 885 m -37 Y s 936 866 m -18 Y s 972 866 m -18 Y s 1008 866 m -18 Y s 1044 866 m -18 Y s 1079 885 m -37 Y s 1115 866 m -18 Y s 1151 866 m -18 Y s 1187 866 m -18 Y s 1223 866 m -18 Y s 1259 885 m -37 Y s 1294 866 m -18 Y s 1330 866 m
 -18 Y s 1366 866 m -18 Y s 1402 866 m -18 Y s 1438 885 m -37 Y s 1474 866 m -18 Y s 1509 866 m -18 Y s 1545 866 m -18 Y s 1581 866 m -18 Y s 1617 885 m -37 Y s 1653 866 m -18 Y s 1689 866 m -18 Y s 1724 866 m -18 Y s 1760 866 m -18 Y s 1796 885 m
 -37 Y s 1832 866 m -18 Y s 1868 866 m -18 Y s 1904 866 m -18 Y s 1939 866 m -18 Y s 1975 885 m -37 Y s 2011 866 m -18 Y s 2047 866 m -18 Y s 2083 866 m -18 Y s 2119 866 m -18 Y s 2154 885 m -37 Y s
 gsave  2268 1546 0 833 C 340.915 780.317 t 0 r /Helvetica findfont 73.2695 sf 0 0 m (0) show NC gr 
 gsave  2268 1546 0 833 C 479.806 780.317 t 0 r /Helvetica findfont 73.2695 sf 0 0 m (500) show NC gr 
 gsave  2268 1546 0 833 C 638.9 780.317 t 0 r /Helvetica findfont 73.2695 sf 0 0 m (1000) show NC gr 
 gsave  2268 1546 0 833 C 818.196 780.317 t 0 r /Helvetica findfont 73.2695 sf 0 0 m (1500) show NC gr 
 gsave  2268 1546 0 833 C 997.492 780.317 t 0 r /Helvetica findfont 73.2695 sf 0 0 m (2000) show NC gr 
 gsave  2268 1546 0 833 C 1176.79 780.317 t 0 r /Helvetica findfont 73.2695 sf 0 0 m (2500) show NC gr 
 gsave  2268 1546 0 833 C 1356.08 780.317 t 0 r /Helvetica findfont 73.2695 sf 0 0 m (3000) show NC gr 
 gsave  2268 1546 0 833 C 1535.38 780.317 t 0 r /Helvetica findfont 73.2695 sf 0 0 m (3500) show NC gr 
 gsave  2268 1546 0 833 C 1714.68 780.317 t 0 r /Helvetica findfont 73.2695 sf 0 0 m (4000) show NC gr 
 gsave  2268 1546 0 833 C 1893.97 780.317 t 0 r /Helvetica findfont 73.2695 sf 0 0 m (4500) show NC gr 
 gsave  2268 1546 0 833 C 2073.27 780.317 t 0 r /Helvetica findfont 73.2695 sf 0 0 m (5000) show NC gr  363 2302 m 1791 X s 363 2265 m 37 Y s 399 2283 m 19 Y s 434 2283 m 19 Y s 470 2283 m 19 Y s 506 2283 m 19 Y s 542 2265 m 37 Y s 578 2283 m 19 Y s
 614 2283 m 19 Y s 649 2283 m 19 Y s 685 2283 m 19 Y s 721 2265 m 37 Y s 757 2283 m 19 Y s 793 2283 m 19 Y s 829 2283 m 19 Y s 864 2283 m 19 Y s 900 2265 m 37 Y s 936 2283 m 19 Y s 972 2283 m 19 Y s 1008 2283 m 19 Y s 1044 2283 m 19 Y s 1079 2265 m
 37 Y s 1115 2283 m 19 Y s 1151 2283 m 19 Y s 1187 2283 m 19 Y s 1223 2283 m 19 Y s 1259 2265 m 37 Y s 1294 2283 m 19 Y s 1330 2283 m 19 Y s 1366 2283 m 19 Y s 1402 2283 m 19 Y s 1438 2265 m 37 Y s 1474 2283 m 19 Y s 1509 2283 m 19 Y s 1545 2283 m 19
 Y s 1581 2283 m 19 Y s 1617 2265 m 37 Y s 1653 2283 m 19 Y s 1689 2283 m 19 Y s 1724 2283 m 19 Y s 1760 2283 m 19 Y s 1796 2265 m 37 Y s 1832 2283 m 19 Y s 1868 2283 m 19 Y s 1904 2283 m 19 Y s 1939 2283 m 19 Y s 1975 2265 m 37 Y s 2011 2283 m 19 Y
 s 2047 2283 m 19 Y s 2083 2283 m 19 Y s 2119 2283 m 19 Y s 2154 2265 m 37 Y s 363 848 m 1454 Y s 395 863 m -32 X s 395 880 m -32 X s 395 894 m -32 X s 395 907 m -32 X s 427 919 m -64 X s
 gsave  2268 1546 0 833 C 315.662 919.208 t 0 r /Helvetica findfont 48.0042 sf 0 0 m (6) show NC gr 
 gsave  2268 1546 0 833 C 287.884 919.208 t 0 r /Symbol findfont 48.0042 sf 0 0 m (-) show NC gr 
 gsave  2268 1546 0 833 C 209.6 886.379 t 0 r /Helvetica findfont 73.2695 sf 0 0 m (10) show NC gr  395 994 m -32 X s 395 1038 m -32 X s 395 1069 m -32 X s 395 1093 m -32 X s 395 1113 m -32 X s 395 1130 m -32 X s 395 1144 m -32 X s 395 1157 m -32 X s
 427 1169 m -64 X s
 gsave  2268 1546 0 833 C 315.662 1169.21 t 0 r /Helvetica findfont 48.0042 sf 0 0 m (5) show NC gr 
 gsave  2268 1546 0 833 C 287.884 1169.21 t 0 r /Symbol findfont 48.0042 sf 0 0 m (-) show NC gr 
 gsave  2268 1546 0 833 C 209.6 1136.38 t 0 r /Helvetica findfont 73.2695 sf 0 0 m (10) show NC gr  395 1244 m -32 X s 395 1288 m -32 X s 395 1319 m -32 X s 395 1343 m -32 X s 395 1363 m -32 X s 395 1380 m -32 X s 395 1394 m -32 X s 395 1407 m -32 X
 s 427 1419 m -64 X s
 gsave  2268 1546 0 833 C 315.662 1416.69 t 0 r /Helvetica findfont 48.0042 sf 0 0 m (4) show NC gr 
 gsave  2268 1546 0 833 C 287.884 1416.69 t 0 r /Symbol findfont 48.0042 sf 0 0 m (-) show NC gr 
 gsave  2268 1546 0 833 C 209.6 1386.39 t 0 r /Helvetica findfont 73.2695 sf 0 0 m (10) show NC gr  395 1494 m -32 X s 395 1538 m -32 X s 395 1569 m -32 X s 395 1593 m -32 X s 395 1613 m -32 X s 395 1630 m -32 X s 395 1645 m -32 X s 395 1657 m -32 X
 s 427 1669 m -64 X s
 gsave  2268 1546 0 833 C 315.662 1669.22 t 0 r /Helvetica findfont 48.0042 sf 0 0 m (3) show NC gr 
 gsave  2268 1546 0 833 C 287.884 1669.22 t 0 r /Symbol findfont 48.0042 sf 0 0 m (-) show NC gr 
 gsave  2268 1546 0 833 C 209.6 1636.39 t 0 r /Helvetica findfont 73.2695 sf 0 0 m (10) show NC gr  395 1744 m -32 X s 395 1788 m -32 X s 395 1819 m -32 X s 395 1844 m -32 X s 395 1863 m -32 X s 395 1880 m -32 X s 395 1895 m -32 X s 395 1907 m -32 X
 s 427 1919 m -64 X s
 gsave  2268 1546 0 833 C 315.662 1916.7 t 0 r /Helvetica findfont 48.0042 sf 0 0 m (2) show NC gr 
 gsave  2268 1546 0 833 C 287.884 1916.7 t 0 r /Symbol findfont 48.0042 sf 0 0 m (-) show NC gr 
 gsave  2268 1546 0 833 C 209.6 1886.4 t 0 r /Helvetica findfont 73.2695 sf 0 0 m (10) show NC gr  395 1994 m -32 X s 395 2038 m -32 X s 395 2069 m -32 X s 395 2094 m -32 X s 395 2113 m -32 X s 395 2130 m -32 X s 395 2145 m -32 X s 395 2157 m -32 X s
 427 2169 m -64 X s
 gsave  2268 1546 0 833 C 323.238 2166.7 t 0 r /Helvetica findfont 48.0042 sf 0 0 m (1) show NC gr 
 gsave  2268 1546 0 833 C 295.46 2166.7 t 0 r /Symbol findfont 48.0042 sf 0 0 m (-) show NC gr 
 gsave  2268 1546 0 833 C 217.176 2136.4 t 0 r /Helvetica findfont 73.2695 sf 0 0 m (10) show NC gr  395 2244 m -32 X s 395 2288 m -32 X s 2154 848 m 1454 Y s 2122 863 m 32 X s 2122 880 m 32 X s 2122 894 m 32 X s 2122 907 m 32 X s 2090 919 m 64 X s
 2122 994 m 32 X s 2122 1038 m 32 X s 2122 1069 m 32 X s 2122 1093 m 32 X s 2122 1113 m 32 X s 2122 1130 m 32 X s 2122 1144 m 32 X s 2122 1157 m 32 X s 2090 1169 m 64 X s 2122 1244 m 32 X s 2122 1288 m 32 X s 2122 1319 m 32 X s 2122 1343 m 32 X s
 2122 1363 m 32 X s 2122 1380 m 32 X s 2122 1394 m 32 X s 2122 1407 m 32 X s 2090 1419 m 64 X s 2122 1494 m 32 X s 2122 1538 m 32 X s 2122 1569 m 32 X s 2122 1593 m 32 X s 2122 1613 m 32 X s 2122 1630 m 32 X s 2122 1645 m 32 X s 2122 1657 m 32 X s
 2090 1669 m 64 X s 2122 1744 m 32 X s 2122 1788 m 32 X s 2122 1819 m 32 X s 2122 1844 m 32 X s 2122 1863 m 32 X s 2122 1880 m 32 X s 2122 1895 m 32 X s 2122 1907 m 32 X s 2090 1919 m 64 X s 2122 1994 m 32 X s 2122 2038 m 32 X s 2122 2069 m 32 X s
 2122 2094 m 32 X s 2122 2113 m 32 X s 2122 2130 m 32 X s 2122 2145 m 32 X s 2122 2157 m 32 X s 2090 2169 m 64 X s 2122 2244 m 32 X s 2122 2288 m 32 X s 1 0 0 c 6 lw 1 1 1 c 1 0 0 c 381 1664 m 2 Y s 381 1686 m 1 Y s 363 1676 m 8 X s 391 1676 m 8 X s
 3 lw 381 1676 m20 6 lw 399 1729 m 7 X s 427 1729 m 7 X s 3 lw 417 1729 m20 6 lw 434 1787 m 8 X s 463 1787 m 7 X s 3 lw 452 1787 m20 6 lw 470 1905 m 8 X s 498 1905 m 8 X s 3 lw 488 1905 m20 6 lw 506 2003 m 8 X s 534 2003 m 8 X s 3 lw 524 2003 m20 6
 lw 542 2096 m 8 X s 570 2096 m 8 X s 3 lw 560 2096 m20 6 lw 578 2216 m 8 X s 606 2216 m 8 X s 3 lw 596 2216 m20 6 lw 614 2231 m 7 X s 642 2231 m 7 X s 3 lw 632 2231 m20 6 lw 649 2217 m 8 X s 677 2217 m 8 X s 3 lw 667 2217 m20 6 lw 685 2193 m 8 X s
 713 2193 m 8 X s 3 lw 703 2193 m20 6 lw 721 2160 m 8 X s 749 2160 m 8 X s 3 lw 739 2160 m20 6 lw 757 2123 m 8 X s 785 2123 m 8 X s 3 lw 775 2123 m20 6 lw 793 2080 m 8 X s 821 2080 m 8 X s 3 lw 811 2080 m20 6 lw 829 2038 m 7 X s 857 2038 m 7 X s 3 lw
 847 2038 m20 6 lw 864 1997 m 8 X s 892 1997 m 8 X s 3 lw 882 1997 m20 6 lw 900 1955 m 8 X s 928 1955 m 8 X s 3 lw 918 1955 m20 6 lw 936 1917 m 8 X s 964 1917 m 8 X s 3 lw 954 1917 m20 6 lw 972 1884 m 8 X s 1000 1884 m 8 X s 3 lw 990 1884 m20 6 lw
 1008 1849 m 8 X s 1036 1849 m 8 X s 3 lw 1026 1849 m20 6 lw 1044 1806 m 7 X s 1072 1806 m 7 X s 3 lw 1062 1806 m20 6 lw 1079 1770 m 8 X s 1107 1770 m 8 X s 3 lw 1097 1770 m20 6 lw 1115 1729 m 8 X s 1143 1729 m 8 X s 3 lw 1133 1729 m20 6 lw 1151 1696
 m 8 X s 1179 1696 m 8 X s 3 lw 1169 1696 m20 6 lw 1187 1671 m 8 X s 1215 1671 m 8 X s 3 lw 1205 1671 m20 6 lw 1223 1644 m 8 X s 1251 1644 m 8 X s 3 lw 1241 1644 m20 6 lw 1259 1612 m 7 X s 1287 1612 m 7 X s 3 lw 1276 1612 m20 6 lw 1294 1574 m 8 X s
 1322 1574 m 8 X s 3 lw 1312 1574 m20 6 lw 1330 1562 m 8 X s 1358 1562 m 8 X s 3 lw 1348 1562 m20 6 lw 1384 1513 m 2 Y s 1384 1536 m 1 Y s 1366 1525 m 8 X s 1394 1525 m 8 X s 3 lw 1384 1525 m20 6 lw 1420 1478 m 4 Y s 1420 1503 m 2 Y s 1402 1493 m 8 X
 s 1430 1493 m 8 X s 3 lw 1420 1493 m20 6 lw 1456 1429 m 7 Y s 1456 1456 m 5 Y s 1438 1446 m 8 X s 1466 1446 m 8 X s 3 lw 1456 1446 m20 6 lw 1491 1407 m 9 Y s 1491 1436 m 7 Y s 1474 1426 m 7 X s 1502 1426 m 7 X s 3 lw 1491 1426 m20 6 lw 1527 1367 m
 13 Y s 1527 1400 m 9 Y s 1509 1390 m 8 X s 1537 1390 m 8 X s 3 lw 1527 1390 m20 6 lw 1563 1360 m 14 Y s 1563 1394 m 10 Y s 1545 1384 m 8 X s 1573 1384 m 8 X s 3 lw 1563 1384 m20 6 lw 1599 1340 m 16 Y s 1599 1376 m 11 Y s 1581 1366 m 8 X s 1609 1366
 m 8 X s 3 lw 1599 1366 m20 6 lw 1635 1306 m 21 Y s 1635 1347 m 15 Y s 1617 1337 m 8 X s 1645 1337 m 8 X s 3 lw 1635 1337 m20 6 lw 1671 1172 m 47 Y s 1671 1240 m 27 Y s 1653 1230 m 8 X s 1681 1230 m 8 X s 3 lw 1671 1230 m20 6 lw 1706 1056 m 84 Y s
 1706 1160 m 40 Y s 1689 1150 m 7 X s 1717 1150 m 7 X s 3 lw 1706 1150 m20 6 lw 1742 965 m 126 Y s 1742 1111 m 49 Y s 1724 1101 m 8 X s 1752 1101 m 8 X s 3 lw 1742 1101 m20 6 lw 1814 848 m 178 Y s 1814 1046 m 65 Y s 1796 1036 m 8 X s 1824 1036 m 8 X
 s 3 lw 1814 1036 m20 6 lw 1850 848 m 151 Y s 1850 1020 m 65 Y s 1832 1010 m 8 X s 1860 1010 m 8 X s 3 lw 1850 1010 m20 6 lw 0 0 1 c 1 1 1 c 0 0 1 c 381 1627 m 12 Y s 381 1659 m 9 Y s 363 1649 m 8 X s 391 1649 m 8 X s 3 lw 381 1649 m20 6 lw 417 1685
 m 9 Y s 417 1714 m 7 Y s 399 1704 m 7 X s 427 1704 m 7 X s 3 lw 417 1704 m20 6 lw 452 1755 m 5 Y s 452 1780 m 3 Y s 434 1770 m 8 X s 463 1770 m 7 X s 3 lw 452 1770 m20 6 lw 470 1880 m 8 X s 498 1880 m 8 X s 3 lw 488 1880 m20 6 lw 506 1991 m 8 X s
 534 1991 m 8 X s 3 lw 524 1991 m20 6 lw 542 2088 m 8 X s 570 2088 m 8 X s 3 lw 560 2088 m20 6 lw 578 2213 m 8 X s 606 2213 m 8 X s 3 lw 596 2213 m20 6 lw 614 2233 m 7 X s 642 2233 m 7 X s 3 lw 632 2233 m20 6 lw 649 2220 m 8 X s 677 2220 m 8 X s 3 lw
 667 2220 m20 6 lw 685 2192 m 8 X s 713 2192 m 8 X s 3 lw 703 2192 m20 6 lw 721 2161 m 8 X s 749 2161 m 8 X s 3 lw 739 2161 m20 6 lw 757 2127 m 8 X s 785 2127 m 8 X s 3 lw 775 2127 m20 6 lw 793 2082 m 8 X s 821 2082 m 8 X s 3 lw 811 2082 m20 6 lw 829
 2037 m 7 X s 857 2037 m 7 X s 3 lw 847 2037 m20 6 lw 864 1997 m 8 X s 892 1997 m 8 X s 3 lw 882 1997 m20 6 lw 900 1958 m 8 X s 928 1958 m 8 X s 3 lw 918 1958 m20 6 lw 936 1924 m 8 X s 964 1924 m 8 X s 3 lw 954 1924 m20 6 lw 972 1886 m 8 X s 1000
 1886 m 8 X s 3 lw 990 1886 m20 6 lw 1008 1841 m 8 X s 1036 1841 m 8 X s 3 lw 1026 1841 m20 6 lw 1044 1811 m 7 X s 1072 1811 m 7 X s 3 lw 1062 1811 m20 6 lw 1079 1780 m 8 X s 1107 1780 m 8 X s 3 lw 1097 1780 m20 6 lw 1115 1739 m 8 X s 1143 1739 m 8 X
 s 3 lw 1133 1739 m20 6 lw 1151 1689 m 8 X s 1179 1689 m 8 X s 3 lw 1169 1689 m20 6 lw 1187 1675 m 8 X s 1215 1675 m 8 X s 3 lw 1205 1675 m20 6 lw 1223 1636 m 8 X s 1251 1636 m 8 X s 3 lw 1241 1636 m20 6 lw 1259 1616 m 7 X s 1287 1616 m 7 X s 3 lw
 1276 1616 m20 6 lw 1312 1557 m 1 Y s 1312 1578 m 1 Y s 1294 1568 m 8 X s 1322 1568 m 8 X s 3 lw 1312 1568 m20 6 lw 1348 1533 m 3 Y s 1348 1556 m 2 Y s 1330 1546 m 8 X s 1358 1546 m 8 X s 3 lw 1348 1546 m20 6 lw 1384 1518 m 4 Y s 1384 1542 m 3 Y s
 1366 1532 m 8 X s 1394 1532 m 8 X s 3 lw 1384 1532 m20 6 lw 1420 1466 m 8 Y s 1420 1494 m 5 Y s 1402 1484 m 8 X s 1430 1484 m 8 X s 3 lw 1420 1484 m20 6 lw 1456 1434 m 9 Y s 1456 1463 m 7 Y s 1438 1453 m 8 X s 1466 1453 m 8 X s 3 lw 1456 1453 m20 6
 lw 1491 1426 m 11 Y s 1491 1458 m 7 Y s 1474 1447 m 7 X s 1502 1447 m 7 X s 3 lw 1491 1447 m20 6 lw 1527 1413 m 13 Y s 1527 1446 m 9 Y s 1509 1436 m 8 X s 1537 1436 m 8 X s 3 lw 1527 1436 m20 6 lw 1563 1360 m 17 Y s 1563 1398 m 12 Y s 1545 1388 m 8
 X s 1573 1388 m 8 X s 3 lw 1563 1388 m20 6 lw 1599 1327 m 24 Y s 1599 1371 m 16 Y s 1581 1361 m 8 X s 1609 1361 m 8 X s 3 lw 1599 1361 m20 6 lw 1635 1298 m 29 Y s 1635 1347 m 19 Y s 1617 1337 m 8 X s 1645 1337 m 8 X s 3 lw 1635 1337 m20 6 lw 1671
 1106 m 87 Y s 1671 1213 m 41 Y s 1653 1203 m 8 X s 1681 1203 m 8 X s 3 lw 1671 1203 m20 6 lw 1706 1159 m 68 Y s 1706 1247 m 35 Y s 1689 1237 m 7 X s 1717 1237 m 7 X s 3 lw 1706 1237 m20 6 lw 1742 1000 m 136 Y s 1742 1156 m 50 Y s 1724 1146 m 8 X s
 1752 1146 m 8 X s 3 lw 1742 1146 m20 6 lw 1814 848 m 183 Y s 1814 1051 m 65 Y s 1796 1041 m 8 X s 1824 1041 m 8 X s 3 lw 1814 1041 m20 6 lw 1850 848 m 173 Y s 1850 1041 m 65 Y s 1832 1031 m 8 X s 1860 1031 m 8 X s 3 lw 1850 1031 m20 6 lw 1886 848 m
 242 Y s 1886 1110 m 65 Y s 1868 1100 m 8 X s 1896 1100 m 8 X s 3 lw 1886 1100 m20 6 lw black
 gsave  2268 1546 0 833 C 1244.97 2116.2 t 0 r /Helvetica findfont 58.1103 sf 0 0 m (renormalization scale variation) show NC gr  3 lw 1 1 1 c 2268 833 0 0 bf black 1 1 1 c 1791 582 363 250 bf black 1791 582 363 250 bl 1 0 0 c 6 lw 1 1 1 c 1 0 0 c
 381 466 m 74 Y s 381 560 m 73 Y s 363 550 m 8 X s 391 550 m 8 X s 3 lw 381 550 m20 6 lw 417 598 m 74 Y s 417 692 m 73 Y s 399 682 m 7 X s 427 682 m 7 X s 3 lw 417 682 m20 6 lw 452 533 m 43 Y s 452 596 m 43 Y s 434 586 m 8 X s 463 586 m 7 X s 3 lw
 452 586 m20 6 lw 488 554 m 22 Y s 488 597 m 22 Y s 470 587 m 8 X s 498 587 m 8 X s 3 lw 488 587 m20 6 lw 524 556 m 11 Y s 524 587 m 10 Y s 506 577 m 8 X s 534 577 m 8 X s 3 lw 524 577 m20 6 lw 560 559 m 3 Y s 560 582 m 3 Y s 542 572 m 8 X s 570 572
 m 8 X s 3 lw 560 572 m20 6 lw 578 540 m 8 X s 606 540 m 8 X s 3 lw 596 540 m20 6 lw 614 538 m 7 X s 642 538 m 7 X s 3 lw 632 538 m20 6 lw 649 539 m 8 X s 677 539 m 8 X s 3 lw 667 539 m20 6 lw 685 538 m 8 X s 713 538 m 8 X s 3 lw 703 538 m20 6 lw 721
 531 m 8 X s 749 531 m 8 X s 3 lw 739 531 m20 6 lw 775 529 m s 775 549 m 1 Y s 757 539 m 8 X s 785 539 m 8 X s 3 lw 775 539 m20 6 lw 811 514 m 2 Y s 811 536 m 2 Y s 793 526 m 8 X s 821 526 m 8 X s 3 lw 811 526 m20 6 lw 847 520 m 3 Y s 847 544 m 3 Y s
 829 533 m 7 X s 857 533 m 7 X s 3 lw 847 533 m20 6 lw 882 529 m 7 Y s 882 556 m 6 Y s 864 546 m 8 X s 892 546 m 8 X s 3 lw 882 546 m20 6 lw 918 523 m 9 Y s 918 552 m 9 Y s 900 542 m 8 X s 928 542 m 8 X s 3 lw 918 542 m20 6 lw 954 490 m 10 Y s 954
 520 m 10 Y s 936 510 m 8 X s 964 510 m 8 X s 3 lw 954 510 m20 6 lw 990 522 m 13 Y s 990 556 m 13 Y s 972 545 m 8 X s 1000 545 m 8 X s 3 lw 990 545 m20 6 lw 1026 569 m 20 Y s 1026 609 m 20 Y s 1008 599 m 8 X s 1036 599 m 8 X s 3 lw 1026 599 m20 6 lw
 1062 481 m 18 Y s 1062 520 m 19 Y s 1044 510 m 7 X s 1072 510 m 7 X s 3 lw 1062 510 m20 6 lw 1097 520 m 27 Y s 1097 567 m 27 Y s 1079 557 m 8 X s 1107 557 m 8 X s 3 lw 1097 557 m20 6 lw 1133 487 m 31 Y s 1133 538 m 31 Y s 1115 528 m 8 X s 1143 528 m
 8 X s 3 lw 1133 528 m20 6 lw 1169 540 m 44 Y s 1169 604 m 43 Y s 1151 594 m 8 X s 1179 594 m 8 X s 3 lw 1169 594 m20 6 lw 1205 584 m 54 Y s 1205 658 m 54 Y s 1187 648 m 8 X s 1215 648 m 8 X s 3 lw 1205 648 m20 6 lw 1241 531 m 56 Y s 1241 607 m 56 Y
 s 1223 597 m 8 X s 1251 597 m 8 X s 3 lw 1241 597 m20 6 lw 1276 484 m 59 Y s 1276 564 m 59 Y s 1259 554 m 7 X s 1287 554 m 7 X s 3 lw 1276 554 m20 6 lw 1312 411 m 60 Y s 1312 491 m 60 Y s 1294 481 m 8 X s 1322 481 m 8 X s 3 lw 1312 481 m20 6 lw 1348
 565 m 98 Y s 1348 683 m 98 Y s 1330 673 m 8 X s 1358 673 m 8 X s 3 lw 1348 673 m20 6 lw 1384 544 m 122 Y s 1384 686 m 123 Y s 1366 676 m 8 X s 1394 676 m 8 X s 3 lw 1384 676 m20 6 lw 1420 370 m 89 Y s 1420 479 m 88 Y s 1402 469 m 8 X s 1430 469 m 8
 X s 3 lw 1420 469 m20 6 lw 1456 397 m 127 Y s 1456 544 m 127 Y s 1438 534 m 8 X s 1466 534 m 8 X s 3 lw 1456 534 m20 6 lw 1491 303 m 106 Y s 1491 429 m 106 Y s 1474 419 m 7 X s 1502 419 m 7 X s 3 lw 1491 419 m20 6 lw 1527 250 m 82 Y s 1527 353 m 99
 Y s 1509 342 m 8 X s 1537 342 m 8 X s 3 lw 1527 342 m20 6 lw 1563 320 m 153 Y s 1563 493 m 153 Y s 1545 483 m 8 X s 1573 483 m 8 X s 3 lw 1563 483 m20 6 lw 1599 281 m 162 Y s 1599 463 m 162 Y s 1581 453 m 8 X s 1609 453 m 8 X s 3 lw 1599 453 m20 6
 lw 1635 282 m 227 Y s 1635 529 m 226 Y s 1617 519 m 8 X s 1645 519 m 8 X s 3 lw 1635 519 m20 6 lw 1671 266 m 164 Y s 1653 256 m 8 X s 1681 256 m 8 X s 3 lw 1671 256 m20 6 lw 1814 250 m 269 Y s 1814 539 m 293 Y s 1796 529 m 8 X s 1824 529 m 8 X s 3
 lw 1814 529 m20 6 lw black 9 lw 0.95 0.95 0.95 c black 443 548 m 17 X 17 -1 d 18 X 17 -1 d 17 X 17 -1 d 17 X 18 -1 d 17 X 17 -1 d 17 X 17 -1 d 18 X 17 -1 d 17 X 17 -1 d 17 -1 d 18 X 17 -1 d 17 X 17 -1 d 17 X 18 -1 d 17 X 17 -1 d 17 X 17 -1 d 18 X 17
 -1 d 17 X 17 -1 d 17 X 18 -1 d 17 X 17 -1 d 17 X 17 -1 d 18 X 17 -1 d 17 X 17 -1 d 17 -1 d 18 X 17 -1 d 17 X 17 -1 d 17 X 18 -1 d 17 X s 1286 523 m 17 -1 d 17 X 17 -1 d 18 X 17 -1 d 17 X 17 -1 d 17 X 18 -1 d 17 X 17 -1 d 17 X 17 -1 d 18 X 17 -1 d 17
 X 17 -1 d 17 -1 d 18 X 17 -1 d 17 X 17 -1 d 17 X 18 -1 d 17 X 17 -1 d 17 X 17 -1 d 18 X 17 -1 d 17 X 17 -1 d 17 X 18 -1 d 17 X 17 -1 d 17 X 17 -1 d 18 X 17 -1 d 17 X 17 -1 d 17 -1 d 18 X 17 -1 d 17 X 17 -1 d 17 X 18 -1 d s 2129 497 m 17 X s 3 lw 363
 250 m 1791 X s
 gsave  2268 833 0 0 C 1936.9 45.4553 t 0 r /Helvetica findfont 78.4508 sf 0 0 m ( [GeV]) show NC gr 
 gsave  2268 833 0 0 C 1899.02 22.7277 t 0 r /Helvetica findfont 50.6134 sf 0 0 m ( J) show NC gr 
 gsave  2268 833 0 0 C 1871.24 22.7277 t 0 r /Symbol findfont 50.6134 sf 0 0 m (n) show NC gr 
 gsave  2268 833 0 0 C 1853.57 22.7277 t 0 r /Helvetica findfont 50.6134 sf 0 0 m ( ) show NC gr 
 gsave  2268 833 0 0 C 1825.79 22.7277 t 0 r /Symbol findfont 50.6134 sf 0 0 m (n) show NC gr 
 gsave  2268 833 0 0 C 1825.79 70.7083 t 0 r /Helvetica findfont 50.6134 sf 0 0 m (T) show NC gr 
 gsave  2268 833 0 0 C 1765.18 45.4553 t 0 r /Helvetica findfont 78.4508 sf 0 0 m (m) show NC gr  363 270 m -20 Y s 399 260 m -10 Y s 434 260 m -10 Y s 470 260 m -10 Y s 506 260 m -10 Y s 542 270 m -20 Y s 578 260 m -10 Y s 614 260 m -10 Y s 649 260
 m -10 Y s 685 260 m -10 Y s 721 270 m -20 Y s 757 260 m -10 Y s 793 260 m -10 Y s 829 260 m -10 Y s 864 260 m -10 Y s 900 270 m -20 Y s 936 260 m -10 Y s 972 260 m -10 Y s 1008 260 m -10 Y s 1044 260 m -10 Y s 1079 270 m -20 Y s 1115 260 m -10 Y s
 1151 260 m -10 Y s 1187 260 m -10 Y s 1223 260 m -10 Y s 1259 270 m -20 Y s 1294 260 m -10 Y s 1330 260 m -10 Y s 1366 260 m -10 Y s 1402 260 m -10 Y s 1438 270 m -20 Y s 1474 260 m -10 Y s 1509 260 m -10 Y s 1545 260 m -10 Y s 1581 260 m -10 Y s
 1617 270 m -20 Y s 1653 260 m -10 Y s 1689 260 m -10 Y s 1724 260 m -10 Y s 1760 260 m -10 Y s 1796 270 m -20 Y s 1832 260 m -10 Y s 1868 260 m -10 Y s 1904 260 m -10 Y s 1939 260 m -10 Y s 1975 270 m -20 Y s 2011 260 m -10 Y s 2047 260 m -10 Y s
 2083 260 m -10 Y s 2119 260 m -10 Y s 2154 270 m -20 Y s
 gsave  2268 833 0 0 C 351.016 214.65 t 0 r /Helvetica findfont 37.96 sf 0 0 m (0) show NC gr 
 gsave  2268 833 0 0 C 507.585 214.65 t 0 r /Helvetica findfont 37.96 sf 0 0 m (500) show NC gr 
 gsave  2268 833 0 0 C 676.78 214.65 t 0 r /Helvetica findfont 37.96 sf 0 0 m (1000) show NC gr 
 gsave  2268 833 0 0 C 856.076 214.65 t 0 r /Helvetica findfont 37.96 sf 0 0 m (1500) show NC gr 
 gsave  2268 833 0 0 C 1035.37 214.65 t 0 r /Helvetica findfont 37.96 sf 0 0 m (2000) show NC gr 
 gsave  2268 833 0 0 C 1214.67 214.65 t 0 r /Helvetica findfont 37.96 sf 0 0 m (2500) show NC gr 
 gsave  2268 833 0 0 C 1393.96 214.65 t 0 r /Helvetica findfont 37.96 sf 0 0 m (3000) show NC gr 
 gsave  2268 833 0 0 C 1573.26 214.65 t 0 r /Helvetica findfont 37.96 sf 0 0 m (3500) show NC gr 
 gsave  2268 833 0 0 C 1752.56 214.65 t 0 r /Helvetica findfont 37.96 sf 0 0 m (4000) show NC gr 
 gsave  2268 833 0 0 C 1931.85 214.65 t 0 r /Helvetica findfont 37.96 sf 0 0 m (4500) show NC gr 
 gsave  2268 833 0 0 C 2111.15 214.65 t 0 r /Helvetica findfont 37.96 sf 0 0 m (5000) show NC gr  363 832 m 1791 X s 363 812 m 20 Y s 399 822 m 10 Y s 434 822 m 10 Y s 470 822 m 10 Y s 506 822 m 10 Y s 542 812 m 20 Y s 578 822 m 10 Y s 614 822 m 10 Y
 s 649 822 m 10 Y s 685 822 m 10 Y s 721 812 m 20 Y s 757 822 m 10 Y s 793 822 m 10 Y s 829 822 m 10 Y s 864 822 m 10 Y s 900 812 m 20 Y s 936 822 m 10 Y s 972 822 m 10 Y s 1008 822 m 10 Y s 1044 822 m 10 Y s 1079 812 m 20 Y s 1115 822 m 10 Y s 1151
 822 m 10 Y s 1187 822 m 10 Y s 1223 822 m 10 Y s 1259 812 m 20 Y s 1294 822 m 10 Y s 1330 822 m 10 Y s 1366 822 m 10 Y s 1402 822 m 10 Y s 1438 812 m 20 Y s 1474 822 m 10 Y s 1509 822 m 10 Y s 1545 822 m 10 Y s 1581 822 m 10 Y s 1617 812 m 20 Y s
 1653 822 m 10 Y s 1689 822 m 10 Y s 1724 822 m 10 Y s 1760 822 m 10 Y s 1796 812 m 20 Y s 1832 822 m 10 Y s 1868 822 m 10 Y s 1904 822 m 10 Y s 1939 822 m 10 Y s 1975 812 m 20 Y s 2011 822 m 10 Y s 2047 822 m 10 Y s 2083 822 m 10 Y s 2119 822 m 10 Y
 s 2154 812 m 20 Y s 363 250 m 582 Y s 410 250 m -47 X s 387 261 m -24 X s 387 273 m -24 X s 387 285 m -24 X s 387 296 m -24 X s 410 308 m -47 X s 387 320 m -24 X s 387 331 m -24 X s 387 343 m -24 X s 387 355 m -24 X s 410 366 m -47 X s 387 378 m -24
 X s 387 389 m -24 X s 387 401 m -24 X s 387 413 m -24 X s 410 424 m -47 X s 387 436 m -24 X s 387 448 m -24 X s 387 459 m -24 X s 387 471 m -24 X s 410 483 m -47 X s 387 494 m -24 X s 387 506 m -24 X s 387 517 m -24 X s 387 529 m -24 X s 410 541 m
 -47 X s 387 552 m -24 X s 387 564 m -24 X s 387 576 m -24 X s 387 587 m -24 X s 410 599 m -47 X s 387 611 m -24 X s 387 622 m -24 X s 387 634 m -24 X s 387 646 m -24 X s 410 657 m -47 X s 387 669 m -24 X s 387 680 m -24 X s 387 692 m -24 X s 387 704
 m -24 X s 410 715 m -47 X s 387 727 m -24 X s 387 739 m -24 X s 387 750 m -24 X s 387 762 m -24 X s 410 774 m -47 X s 387 785 m -24 X s 387 797 m -24 X s 387 808 m -24 X s 387 820 m -24 X s 410 832 m -47 X s
 gsave  2268 833 0 0 C 297.985 234.853 t 0 r /Helvetica findfont 37.96 sf 0 0 m (0.5) show NC gr 
 gsave  2268 833 0 0 C 297.985 292.934 t 0 r /Helvetica findfont 37.96 sf 0 0 m (0.6) show NC gr 
 gsave  2268 833 0 0 C 297.985 353.542 t 0 r /Helvetica findfont 37.96 sf 0 0 m (0.7) show NC gr 
 gsave  2268 833 0 0 C 297.985 411.623 t 0 r /Helvetica findfont 37.96 sf 0 0 m (0.8) show NC gr 
 gsave  2268 833 0 0 C 297.985 469.705 t 0 r /Helvetica findfont 37.96 sf 0 0 m (0.9) show NC gr 
 gsave  2268 833 0 0 C 335.864 527.787 t 0 r /Helvetica findfont 37.96 sf 0 0 m (1) show NC gr 
 gsave  2268 833 0 0 C 305.561 585.869 t 0 r /Helvetica findfont 37.96 sf 0 0 m (1.1) show NC gr 
 gsave  2268 833 0 0 C 297.985 643.951 t 0 r /Helvetica findfont 37.96 sf 0 0 m (1.2) show NC gr 
 gsave  2268 833 0 0 C 297.985 702.033 t 0 r /Helvetica findfont 37.96 sf 0 0 m (1.3) show NC gr 
 gsave  2268 833 0 0 C 297.985 760.114 t 0 r /Helvetica findfont 37.96 sf 0 0 m (1.4) show NC gr 
 gsave  2268 833 0 0 C 297.985 818.196 t 0 r /Helvetica findfont 37.96 sf 0 0 m (1.5) show NC gr  2154 250 m 582 Y s 2107 250 m 47 X s 2131 261 m 23 X s 2131 273 m 23 X s 2131 285 m 23 X s 2131 296 m 23 X s 2107 308 m 47 X s 2131 320 m 23 X s 2131
 331 m 23 X s 2131 343 m 23 X s 2131 355 m 23 X s 2107 366 m 47 X s 2131 378 m 23 X s 2131 389 m 23 X s 2131 401 m 23 X s 2131 413 m 23 X s 2107 424 m 47 X s 2131 436 m 23 X s 2131 448 m 23 X s 2131 459 m 23 X s 2131 471 m 23 X s 2107 483 m 47 X s
 2131 494 m 23 X s 2131 506 m 23 X s 2131 517 m 23 X s 2131 529 m 23 X s 2107 541 m 47 X s 2131 552 m 23 X s 2131 564 m 23 X s 2131 576 m 23 X s 2131 587 m 23 X s 2107 599 m 47 X s 2131 611 m 23 X s 2131 622 m 23 X s 2131 634 m 23 X s 2131 646 m 23 X
 s 2107 657 m 47 X s 2131 669 m 23 X s 2131 680 m 23 X s 2131 692 m 23 X s 2131 704 m 23 X s 2107 715 m 47 X s 2131 727 m 23 X s 2131 739 m 23 X s 2131 750 m 23 X s 2131 762 m 23 X s 2107 774 m 47 X s 2131 785 m 23 X s 2131 797 m 23 X s 2131 808 m 23
 X s 2131 820 m 23 X s 2107 832 m 47 X s 0 0 1 c 6 lw 1 1 1 c 0 0 1 c 381 325 m 85 Y s 381 430 m 85 Y s 363 420 m 8 X s 391 420 m 8 X s 3 lw 381 420 m20 6 lw 417 431 m 96 Y s 417 547 m 96 Y s 399 537 m 7 X s 427 537 m 7 X s 3 lw 417 537 m20 6 lw 452
 418 m 63 Y s 452 501 m 64 Y s 434 491 m 8 X s 463 491 m 7 X s 3 lw 452 491 m20 6 lw 488 416 m 31 Y s 488 467 m 30 Y s 470 457 m 8 X s 498 457 m 8 X s 3 lw 488 457 m20 6 lw 524 484 m 18 Y s 524 523 m 18 Y s 506 512 m 8 X s 534 512 m 8 X s 3 lw 524
 512 m20 6 lw 560 510 m 10 Y s 560 540 m 10 Y s 542 530 m 8 X s 570 530 m 8 X s 3 lw 560 530 m20 6 lw 596 517 m 2 Y s 596 539 m 2 Y s 578 529 m 8 X s 606 529 m 8 X s 3 lw 596 529 m20 6 lw 632 536 m 2 Y s 632 558 m 1 Y s 614 548 m 7 X s 642 548 m 7 X
 s 3 lw 632 548 m20 6 lw 667 542 m 2 Y s 667 565 m 2 Y s 649 555 m 8 X s 677 555 m 8 X s 3 lw 667 555 m20 6 lw 703 521 m 3 Y s 703 544 m 3 Y s 685 534 m 8 X s 713 534 m 8 X s 3 lw 703 534 m20 6 lw 739 522 m 4 Y s 739 546 m 4 Y s 721 536 m 8 X s 749
 536 m 8 X s 3 lw 739 536 m20 6 lw 775 546 m 7 Y s 775 573 m 6 Y s 757 563 m 8 X s 785 563 m 8 X s 3 lw 775 563 m20 6 lw 811 520 m 7 Y s 811 547 m 8 Y s 793 537 m 8 X s 821 537 m 8 X s 3 lw 811 537 m20 6 lw 847 509 m 8 Y s 847 538 m 8 Y s 829 528 m 7
 X s 857 528 m 7 X s 3 lw 847 528 m20 6 lw 882 523 m 10 Y s 882 553 m 10 Y s 864 543 m 8 X s 892 543 m 8 X s 3 lw 882 543 m20 6 lw 918 537 m 14 Y s 918 571 m 14 Y s 900 561 m 8 X s 928 561 m 8 X s 3 lw 918 561 m20 6 lw 954 521 m 15 Y s 954 557 m 14 Y
 s 936 546 m 8 X s 964 546 m 8 X s 3 lw 954 546 m20 6 lw 990 526 m 16 Y s 990 562 m 16 Y s 972 552 m 8 X s 1000 552 m 8 X s 3 lw 990 552 m20 6 lw 1026 523 m 19 Y s 1026 563 m 19 Y s 1008 553 m 8 X s 1036 553 m 8 X s 3 lw 1026 553 m20 6 lw 1062 507 m
 22 Y s 1062 549 m 22 Y s 1044 539 m 7 X s 1072 539 m 7 X s 3 lw 1062 539 m20 6 lw 1097 570 m 37 Y s 1097 627 m 37 Y s 1079 617 m 8 X s 1107 617 m 8 X s 3 lw 1097 617 m20 6 lw 1133 537 m 36 Y s 1133 593 m 36 Y s 1115 583 m 8 X s 1143 583 m 8 X s 3 lw
 1133 583 m20 6 lw 1169 500 m 43 Y s 1169 564 m 43 Y s 1151 554 m 8 X s 1179 554 m 8 X s 3 lw 1169 554 m20 6 lw 1205 605 m 60 Y s 1205 686 m 60 Y s 1187 676 m 8 X s 1215 676 m 8 X s 3 lw 1205 676 m20 6 lw 1241 485 m 56 Y s 1241 561 m 56 Y s 1223 551
 m 8 X s 1251 551 m 8 X s 3 lw 1241 551 m20 6 lw 1276 497 m 66 Y s 1276 583 m 67 Y s 1259 573 m 7 X s 1287 573 m 7 X s 3 lw 1276 573 m20 6 lw 1312 381 m 61 Y s 1312 463 m 61 Y s 1294 452 m 8 X s 1322 452 m 8 X s 3 lw 1312 452 m20 6 lw 1348 472 m 92 Y
 s 1348 584 m 92 Y s 1330 574 m 8 X s 1358 574 m 8 X s 3 lw 1348 574 m20 6 lw 1384 572 m 139 Y s 1384 732 m 100 Y s 1366 721 m 8 X s 1394 721 m 8 X s 3 lw 1384 721 m20 6 lw 1420 330 m 90 Y s 1420 440 m 89 Y s 1402 430 m 8 X s 1430 430 m 8 X s 3 lw
 1420 430 m20 6 lw 1456 420 m 142 Y s 1456 582 m 142 Y s 1438 572 m 8 X s 1466 572 m 8 X s 3 lw 1456 572 m20 6 lw 1491 374 m 135 Y s 1491 529 m 135 Y s 1474 519 m 7 X s 1502 519 m 7 X s 3 lw 1491 519 m20 6 lw 1527 378 m 156 Y s 1527 554 m 156 Y s
 1509 544 m 8 X s 1537 544 m 8 X s 3 lw 1527 544 m20 6 lw 1563 321 m 167 Y s 1563 509 m 167 Y s 1545 499 m 8 X s 1573 499 m 8 X s 3 lw 1563 499 m20 6 lw 1599 250 m 169 Y s 1599 439 m 171 Y s 1581 429 m 8 X s 1609 429 m 8 X s 3 lw 1599 429 m20 6 lw
 1635 264 m 243 Y s 1635 527 m 244 Y s 1617 517 m 8 X s 1645 517 m 8 X s 3 lw 1635 517 m20 6 lw 1814 250 m 294 Y s 1814 564 m 268 Y s 1796 554 m 8 X s 1824 554 m 8 X s 3 lw 1814 554 m20 6 lw black 9 lw 0.95 0.95 0.95 c black 443 531 m 17 1 d 17 X 18
 1 d 17 1 d 17 X 17 1 d 17 X 18 1 d 17 X 17 1 d 17 1 d 17 X 18 1 d 17 X 17 1 d 17 1 d 17 X 18 1 d 17 X 17 1 d 17 X 17 1 d 18 1 d 17 X 17 1 d 17 X 17 1 d 18 1 d 17 X 17 1 d 17 X 17 1 d 18 X 17 1 d 17 1 d 17 X 17 1 d 18 X 17 1 d 17 1 d 17 X 17 1 d 18 X
 17 1 d 17 1 d 17 X 17 1 d 18 X 17 1 d s 1286 560 m 17 X 17 1 d 17 1 d 18 X 17 1 d 17 X 17 1 d 17 1 d 18 X 17 1 d 17 X 17 1 d 17 X 18 1 d 17 1 d 17 X 17 1 d 17 X 18 1 d 17 1 d 17 X 17 1 d 17 X 18 1 d 17 X 17 1 d 17 1 d 17 X 18 1 d 17 X 17 1 d 17 1 d
 17 X 18 1 d 17 X 17 1 d 17 1 d 17 X 18 1 d 17 X 17 1 d 17 X 17 1 d 18 1 d 17 X 17 1 d 17 X 17 1 d 18 1 d s 2129 589 m 17 X s
 gr  gr showpage
end
%%EOF
