%!PS-Adobe-2.0 EPSF-2.0
%%BoundingBox:  0 0 567 473
%%Title: : c1
%%Creator: ROOT Version 6.04/08
%%CreationDate: Sat Jan 21 11:03:40 2017
%%DocumentNeededResources: ProcSet (FontSetInit)
%%EndComments
%%BeginProlog
80 dict begin
/s {stroke} def /l {lineto} def /m {moveto} def /t {translate} def
/r {rotate} def /rl {roll}  def /R {repeat} def
/d {rlineto} def /rm {rmoveto} def /gr {grestore} def /f {eofill} def
/c {setrgbcolor} def /black {0 setgray} def /sd {setdash} def
/cl {closepath} def /sf {scalefont setfont} def /lw {setlinewidth} def
/box {m dup 0 exch d exch 0 d 0 exch neg d cl} def
/NC{systemdict begin initclip end}def/C{NC box clip newpath}def
/bl {box s} def /bf {gsave box gsave f grestore 1 lw [] 0 sd s grestore} def /Y { 0 exch d} def /X { 0 d} def 
/K {{pop pop 0 moveto} exch kshow} bind def
/ita {/ang 15 def gsave [1 0 ang dup sin exch cos div 1 0 0] concat} def 
/mp {newpath /y exch def /x exch def} def
/side {[w .77 mul w .23 mul] .385 w mul sd w 0 l currentpoint t -144 r} def
/mr {mp x y w2 0 360 arc} def /m24 {mr s} def /m20 {mr f} def
/mb {mp x y w2 add m w2 neg 0 d 0 w neg d w 0 d 0 w d cl} def
/mt {mp x y w2 add m w2 neg w neg d w 0 d cl} def
/m21 {mb f} def /m25 {mb s} def /m22 {mt f} def /m26{mt s} def
/m23 {mp x y w2 sub m w2 w d w neg 0 d cl f} def
/m27 {mp x y w2 add m w3 neg w2 neg d w3 w2 neg d w3 w2 d cl s} def
/m28 {mp x w2 sub y w2 sub w3 add m w3 0 d  0 w3 neg d w3 0 d 0 w3 d w3 0 d  0 w3 d w3 neg 0 d 0 w3 d w3 neg 0 d 0 w3 neg d w3 neg 0 d cl s } def
/m29 {mp gsave x w2 sub y w2 add w3 sub m currentpoint t 4 {side} repeat cl fill gr} def
/m30 {mp gsave x w2 sub y w2 add w3 sub m currentpoint t 4 {side} repeat cl s gr} def
/m31 {mp x y w2 sub m 0 w d x w2 sub y m w 0 d x w2 sub y w2 add m w w neg d x w2 sub y w2 sub m w w d s} def
/m32 {mp x y w2 sub m w2 w d w neg 0 d cl s} def
/m33 {mp x y w2 add m w3 neg w2 neg d w3 w2 neg d w3 w2 d cl f} def
/m34 {mp x w2 sub y w2 sub w3 add m w3 0 d  0 w3 neg d w3 0 d 0 w3 d w3 0 d  0 w3 d w3 neg 0 d 0 w3 d w3 neg 0 d 0 w3 neg d w3 neg 0 d cl f } def
/m2 {mp x y w2 sub m 0 w d x w2 sub y m w 0 d s} def
/m5 {mp x w2 sub y w2 sub m w w d x w2 sub y w2 add m w w neg d s} def
%%IncludeResource: ProcSet (FontSetInit)
%%IncludeResource: font Times-Roman
%%IncludeResource: font Times-Italic
%%IncludeResource: font Times-Bold
%%IncludeResource: font Times-BoldItalic
%%IncludeResource: font Helvetica
%%IncludeResource: font Helvetica-Oblique
%%IncludeResource: font Helvetica-Bold
%%IncludeResource: font Helvetica-BoldOblique
%%IncludeResource: font Courier
%%IncludeResource: font Courier-Oblique
%%IncludeResource: font Courier-Bold
%%IncludeResource: font Courier-BoldOblique
%%IncludeResource: font Symbol
%%IncludeResource: font ZapfDingbats
/reEncode {exch findfont dup length dict begin {1 index /FID eq  {pop pop} {def} ifelse } forall /Encoding exch def currentdict end dup /FontName get exch definefont pop } def [/Times-Bold /Times-Italic /Times-BoldItalic /Helvetica /Helvetica-Oblique
 /Helvetica-Bold /Helvetica-BoldOblique /Courier /Courier-Oblique /Courier-Bold /Courier-BoldOblique /Times-Roman /AvantGarde-Book /AvantGarde-BookOblique /AvantGarde-Demi /AvantGarde-DemiOblique /Bookman-Demi /Bookman-DemiItalic /Bookman-Light
 /Bookman-LightItalic /Helvetica-Narrow /Helvetica-Narrow-Bold /Helvetica-Narrow-BoldOblique /Helvetica-Narrow-Oblique /NewCenturySchlbk-Roman /NewCenturySchlbk-Bold /NewCenturySchlbk-BoldItalic /NewCenturySchlbk-Italic /Palatino-Bold
 /Palatino-BoldItalic /Palatino-Italic /Palatino-Roman ] {ISOLatin1Encoding reEncode } forall
%%EndProlog
%%BeginSetup
%%EndSetup
newpath  gsave  .25 .25 scale  gsave  0 0 t black[  ] 0 sd 3 lw 1 1 1 c 2268 1891 0 0 bf black 1 1 1 c 1814 1513 227 189 bf black 1814 1513 227 189 bl 1 1 1 c 1814 1513 227 189 bf black 1814 1513 227 189 bl 1 1 1 c black 249 463 m 130 Y s 249 617 m
 50 Y s 227 605 m 10 X s 261 605 m 10 X s /w 25 def /w2 {w 2 div} def /w3 {w 3 div} def 249 605 m20 293 770 m 16 Y s 293 811 m 10 Y s 271 798 m 10 X s 305 798 m 10 X s 293 798 m20 337 791 m 19 Y s 337 834 m 12 Y s 315 822 m 10 X s 350 822 m 10 X s
 337 822 m20 382 995 m 3 Y s 382 1023 m 2 Y s 360 1011 m 9 X s 394 1011 m 10 X s 382 1011 m20 404 1478 m 10 X s 438 1478 m 10 X s 426 1478 m20 448 1625 m 10 X s 482 1625 m 10 X s 470 1625 m20 492 1549 m 10 X s 527 1549 m 10 X s 514 1549 m20 537 1458
 m 9 X s 571 1458 m 10 X s 559 1458 m20 581 1383 m 10 X s 615 1383 m 10 X s 603 1383 m20 625 1289 m 10 X s 659 1289 m 10 X s 647 1289 m20 669 1212 m 10 X s 704 1212 m 10 X s 691 1212 m20 714 1141 m 9 X s 748 1141 m 10 X s 736 1141 m20 780 1072 m 1 Y
 s 758 1086 m 10 X s 792 1086 m 10 X s 780 1086 m20 824 1028 m 1 Y s 824 1054 m s 802 1042 m 10 X s 836 1042 m 10 X s 824 1042 m20 868 929 m 11 Y s 868 965 m 7 Y s 846 952 m 10 X s 881 952 m 9 X s 868 952 m20 913 860 m 15 Y s 913 900 m 10 Y s 890 888
 m 10 X s 925 888 m 10 X s 913 888 m20 957 842 m 18 Y s 957 885 m 12 Y s 935 873 m 10 X s 969 873 m 10 X s 957 873 m20 1001 758 m 33 Y s 1001 816 m 20 Y s 979 803 m 10 X s 1013 803 m 10 X s 1001 803 m20 1045 735 m 30 Y s 1045 789 m 19 Y s 1023 777 m
 10 X s 1058 777 m 9 X s 1045 777 m20 1090 557 m 127 Y s 1090 709 m 49 Y s 1067 696 m 10 X s 1102 696 m 10 X s 1090 696 m20 1134 189 m 268 Y s 1134 482 m 67 Y s 1112 469 m 10 X s 1146 469 m 10 X s 1134 469 m20 1178 536 m 75 Y s 1178 636 m 36 Y s 1156
 623 m 10 X s 1190 623 m 10 X s 1178 623 m20 1222 514 m 66 Y s 1222 605 m 34 Y s 1200 592 m 10 X s 1235 592 m 9 X s 1222 592 m20 1267 413 m 131 Y s 1267 568 m 50 Y s 1244 556 m 10 X s 1279 556 m 10 X s 1267 556 m20 1444 189 m 67 Y s 1444 281 m 67 Y s
 1421 269 m 10 X s 1456 269 m 10 X s 1444 269 m20 1576 189 m 155 Y s 1576 368 m 68 Y s 1554 356 m 10 X s 1589 356 m 9 X s 1576 356 m20 1 1 1 c 453 303 1769 1465 bf black 1769 1465 m 453 X s 2222 1465 m 303 Y s 2222 1768 m -453 X s 1769 1768 m -303 Y
 s 1 1 1 c black
 gsave  2268 1891 0 0 C 1777.4 1725.3 t 0 r /Helvetica findfont 12.2579 sf 0 0 m (MadWtaunu_0ptag0pjet_0ptv_HZZvvqq_Final_ggF_lowpurity_ZCR_noTag_MT) show NC gr  1769 1692 m 453 X s
 gsave  2268 1891 0 0 C 1789.66 1633.37 t 0 r /Helvetica findfont 52.0962 sf 0 0 m (Entries ) show NC gr 
 gsave  2268 1891 0 0 C 2037.88 1633.37 t 0 r /Helvetica findfont 52.0962 sf 0 0 m ( 29039) show NC gr 
 gsave  2268 1891 0 0 C 1789.66 1559.82 t 0 r /Helvetica findfont 52.0962 sf 0 0 m (Mean  ) show NC gr 
 gsave  2268 1891 0 0 C 2037.88 1559.82 t 0 r /Helvetica findfont 52.0962 sf 0 0 m (  624.4) show NC gr 
 gsave  2268 1891 0 0 C 1789.66 1483.21 t 0 r /Helvetica findfont 52.0962 sf 0 0 m (Std Dev   ) show NC gr 
 gsave  2268 1891 0 0 C 2037.88 1483.21 t 0 r /Helvetica findfont 52.0962 sf 0 0 m (  155.4) show NC gr  227 189 m 1814 X s
 gsave  2268 1891 0 0 C 1982.72 52.0962 t 0 r /Helvetica findfont 39.8383 sf 0 0 m (vvJ) show NC gr 
 gsave  2268 1891 0 0 C 1893.85 70.4831 t 0 r /Helvetica findfont 61.2896 sf 0 0 m (mT) show NC gr  227 234 m -45 Y s 271 212 m -23 Y s 315 212 m -23 Y s 360 212 m -23 Y s 404 212 m -23 Y s 448 234 m -45 Y s 492 212 m -23 Y s 537 212 m -23 Y s 581
 212 m -23 Y s 625 212 m -23 Y s 669 234 m -45 Y s 714 212 m -23 Y s 758 212 m -23 Y s 802 212 m -23 Y s 846 212 m -23 Y s 890 234 m -45 Y s 935 212 m -23 Y s 979 212 m -23 Y s 1023 212 m -23 Y s 1067 212 m -23 Y s 1112 234 m -45 Y s 1156 212 m -23 Y
 s 1200 212 m -23 Y s 1244 212 m -23 Y s 1289 212 m -23 Y s 1333 234 m -45 Y s 1377 212 m -23 Y s 1421 212 m -23 Y s 1466 212 m -23 Y s 1510 212 m -23 Y s 1554 234 m -45 Y s 1598 212 m -23 Y s 1643 212 m -23 Y s 1687 212 m -23 Y s 1731 212 m -23 Y s
 1775 234 m -45 Y s 1820 212 m -23 Y s 1864 212 m -23 Y s 1908 212 m -23 Y s 1952 212 m -23 Y s 1997 234 m -45 Y s 1997 234 m -45 Y s
 gsave  2268 1891 0 0 C 208.385 128.708 t 0 r /Helvetica findfont 61.2896 sf 0 0 m (0) show NC gr 
 gsave  2268 1891 0 0 C 395.318 128.708 t 0 r /Helvetica findfont 61.2896 sf 0 0 m (500) show NC gr 
 gsave  2268 1891 0 0 C 600.638 128.708 t 0 r /Helvetica findfont 61.2896 sf 0 0 m (1000) show NC gr 
 gsave  2268 1891 0 0 C 821.281 128.708 t 0 r /Helvetica findfont 61.2896 sf 0 0 m (1500) show NC gr 
 gsave  2268 1891 0 0 C 1041.92 128.708 t 0 r /Helvetica findfont 61.2896 sf 0 0 m (2000) show NC gr 
 gsave  2268 1891 0 0 C 1262.57 128.708 t 0 r /Helvetica findfont 61.2896 sf 0 0 m (2500) show NC gr 
 gsave  2268 1891 0 0 C 1486.27 128.708 t 0 r /Helvetica findfont 61.2896 sf 0 0 m (3000) show NC gr 
 gsave  2268 1891 0 0 C 1706.92 128.708 t 0 r /Helvetica findfont 61.2896 sf 0 0 m (3500) show NC gr 
 gsave  2268 1891 0 0 C 1927.56 128.708 t 0 r /Helvetica findfont 61.2896 sf 0 0 m (4000) show NC gr  227 189 m 1513 Y s 254 212 m -27 X s 254 259 m -27 X s 254 292 m -27 X s 254 318 m -27 X s 254 339 m -27 X s 254 356 m -27 X s 254 372 m -27 X s 254
 385 m -27 X s 281 397 m -54 X s
 gsave  2268 1891 0 0 C 186.933 398.383 t 0 r /Helvetica findfont 39.8383 sf 0 0 m (5) show NC gr 
 gsave  2268 1891 0 0 C 162.418 398.383 t 0 r /Symbol findfont 39.8383 sf 0 0 m (-) show NC gr 
 gsave  2268 1891 0 0 C 94.9989 367.738 t 0 r /Helvetica findfont 61.2896 sf 0 0 m (10) show NC gr  254 477 m -27 X s 254 523 m -27 X s 254 557 m -27 X s 254 582 m -27 X s 254 603 m -27 X s 254 621 m -27 X s 254 636 m -27 X s 254 650 m -27 X s 281
 662 m -54 X s
 gsave  2268 1891 0 0 C 186.933 658.864 t 0 r /Helvetica findfont 39.8383 sf 0 0 m (4) show NC gr 
 gsave  2268 1891 0 0 C 162.418 658.864 t 0 r /Symbol findfont 39.8383 sf 0 0 m (-) show NC gr 
 gsave  2268 1891 0 0 C 94.9989 631.283 t 0 r /Helvetica findfont 61.2896 sf 0 0 m (10) show NC gr  254 741 m -27 X s 254 788 m -27 X s 254 821 m -27 X s 254 847 m -27 X s 254 868 m -27 X s 254 885 m -27 X s 254 901 m -27 X s 254 914 m -27 X s 281
 926 m -54 X s
 gsave  2268 1891 0 0 C 186.933 928.538 t 0 r /Helvetica findfont 39.8383 sf 0 0 m (3) show NC gr 
 gsave  2268 1891 0 0 C 162.418 928.538 t 0 r /Symbol findfont 39.8383 sf 0 0 m (-) show NC gr 
 gsave  2268 1891 0 0 C 94.9989 897.893 t 0 r /Helvetica findfont 61.2896 sf 0 0 m (10) show NC gr  254 1006 m -27 X s 254 1052 m -27 X s 254 1085 m -27 X s 254 1111 m -27 X s 254 1132 m -27 X s 254 1150 m -27 X s 254 1165 m -27 X s 254 1179 m -27 X
 s 281 1191 m -54 X s
 gsave  2268 1891 0 0 C 186.933 1189.02 t 0 r /Helvetica findfont 39.8383 sf 0 0 m (2) show NC gr 
 gsave  2268 1891 0 0 C 162.418 1189.02 t 0 r /Symbol findfont 39.8383 sf 0 0 m (-) show NC gr 
 gsave  2268 1891 0 0 C 94.9989 1161.44 t 0 r /Helvetica findfont 61.2896 sf 0 0 m (10) show NC gr  254 1270 m -27 X s 254 1317 m -27 X s 254 1350 m -27 X s 254 1376 m -27 X s 254 1396 m -27 X s 254 1414 m -27 X s 254 1430 m -27 X s 254 1443 m -27 X
 s 281 1455 m -54 X s
 gsave  2268 1891 0 0 C 193.062 1452.56 t 0 r /Helvetica findfont 39.8383 sf 0 0 m (1) show NC gr 
 gsave  2268 1891 0 0 C 168.546 1452.56 t 0 r /Symbol findfont 39.8383 sf 0 0 m (-) show NC gr 
 gsave  2268 1891 0 0 C 101.128 1424.98 t 0 r /Helvetica findfont 61.2896 sf 0 0 m (10) show NC gr  254 1535 m -27 X s 254 1581 m -27 X s 254 1614 m -27 X s 254 1640 m -27 X s 254 1661 m -27 X s 254 1679 m -27 X s 254 1694 m -27 X s 1 1 1 c 453 303
 1769 1465 bf black 1769 1465 m 453 X s 2222 1465 m 303 Y s 2222 1768 m -453 X s 1769 1768 m -303 Y s 1 1 1 c black
 gsave  2268 1891 0 0 C 1777.4 1725.3 t 0 r /Helvetica findfont 12.2579 sf 0 0 m (MadWtaunu_0ptag0pjet_0ptv_HZZvvqq_Final_ggF_lowpurity_ZCR_noTag_MT) show NC gr  1769 1692 m 453 X s
 gsave  2268 1891 0 0 C 1789.66 1633.37 t 0 r /Helvetica findfont 52.0962 sf 0 0 m (Entries ) show NC gr 
 gsave  2268 1891 0 0 C 2037.88 1633.37 t 0 r /Helvetica findfont 52.0962 sf 0 0 m ( 29039) show NC gr 
 gsave  2268 1891 0 0 C 1789.66 1559.82 t 0 r /Helvetica findfont 52.0962 sf 0 0 m (Mean  ) show NC gr 
 gsave  2268 1891 0 0 C 2037.88 1559.82 t 0 r /Helvetica findfont 52.0962 sf 0 0 m (  624.4) show NC gr 
 gsave  2268 1891 0 0 C 1789.66 1483.21 t 0 r /Helvetica findfont 52.0962 sf 0 0 m (Std Dev   ) show NC gr 
 gsave  2268 1891 0 0 C 2037.88 1483.21 t 0 r /Helvetica findfont 52.0962 sf 0 0 m (  155.4) show NC gr  1 0 0 c 1 1 1 c 1 0 0 c 249 515 m 65 Y s 249 605 m 34 Y s 227 593 m 10 X s 261 593 m 10 X s 249 593 m20 293 783 m 9 Y s 293 817 m 5 Y s 271 804 m
 10 X s 305 804 m 10 X s 293 804 m20 315 862 m 10 X s 350 862 m 10 X s 337 862 m20 360 992 m 9 X s 394 992 m 10 X s 382 992 m20 404 1500 m 10 X s 438 1500 m 10 X s 426 1500 m20 448 1625 m 10 X s 482 1625 m 10 X s 470 1625 m20 492 1545 m 10 X s 527
 1545 m 10 X s 514 1545 m20 537 1450 m 9 X s 571 1450 m 10 X s 559 1450 m20 581 1369 m 10 X s 615 1369 m 10 X s 603 1369 m20 625 1275 m 10 X s 659 1275 m 10 X s 647 1275 m20 669 1207 m 10 X s 704 1207 m 10 X s 691 1207 m20 714 1134 m 9 X s 748 1134 m
 10 X s 736 1134 m20 758 1076 m 10 X s 792 1076 m 10 X s 780 1076 m20 802 1004 m 10 X s 836 1004 m 10 X s 824 1004 m20 846 936 m 10 X s 881 936 m 9 X s 868 936 m20 890 874 m 10 X s 925 874 m 10 X s 913 874 m20 957 809 m 2 Y s 957 835 m 1 Y s 935 823
 m 10 X s 969 823 m 10 X s 957 823 m20 1001 747 m 6 Y s 1001 777 m 4 Y s 979 765 m 10 X s 1013 765 m 10 X s 1001 765 m20 1045 743 m 4 Y s 1045 771 m 2 Y s 1023 759 m 10 X s 1058 759 m 9 X s 1045 759 m20 1090 689 m 5 Y s 1090 718 m 3 Y s 1067 706 m 10
 X s 1102 706 m 10 X s 1090 706 m20 1134 657 m 2 Y s 1134 684 m 1 Y s 1112 672 m 10 X s 1146 672 m 10 X s 1134 672 m20 1178 627 m 4 Y s 1178 655 m 2 Y s 1156 643 m 10 X s 1190 643 m 10 X s 1178 643 m20 1222 530 m 13 Y s 1222 567 m 8 Y s 1200 555 m 10
 X s 1235 555 m 9 X s 1222 555 m20 1267 477 m 13 Y s 1267 514 m 8 Y s 1244 502 m 10 X s 1279 502 m 10 X s 1267 502 m20 1311 491 m 10 Y s 1311 526 m 6 Y s 1289 513 m 10 X s 1323 513 m 10 X s 1311 513 m20 1355 389 m 31 Y s 1355 444 m 19 Y s 1333 432 m
 10 X s 1367 432 m 10 X s 1355 432 m20 1399 368 m 17 Y s 1399 410 m 11 Y s 1377 398 m 10 X s 1412 398 m 9 X s 1399 398 m20 1444 342 m 39 Y s 1444 406 m 23 Y s 1421 394 m 10 X s 1456 394 m 10 X s 1444 394 m20 1488 295 m 72 Y s 1488 392 m 36 Y s 1466
 380 m 10 X s 1500 380 m 10 X s 1488 380 m20 1532 281 m 29 Y s 1532 334 m 18 Y s 1510 322 m 10 X s 1544 322 m 10 X s 1532 322 m20 1621 189 m 12 Y s 1621 225 m 41 Y s 1598 213 m 10 X s 1633 213 m 10 X s 1621 213 m20 1665 211 m 44 Y s 1643 198 m 10 X s
 1677 198 m 10 X s 1665 198 m20 1975 214 m 52 Y s 1975 291 m 29 Y s 1952 279 m 10 X s 1987 279 m 10 X s 1975 279 m20 black
 gsave  2268 1891 0 0 C 1072.57 1526.11 t 0 r /Helvetica-Bold findfont 88.87 sf 0 0 m (Sherpa) show NC gr  1 0 0 c black 1 0 0 c
 gsave  2268 1891 0 0 C 1072.57 1394.34 t 0 r /Helvetica-Bold findfont 88.87 sf 0 0 m (Madgraph) show NC gr 
 gr  gr showpage
end
%%EOF
