%!PS-Adobe-2.0 EPSF-2.0
%%BoundingBox:  0 0 567 386
%%Title: : c1
%%Creator: ROOT Version 6.04/08
%%CreationDate: Sat Jan 21 11:06:31 2017
%%DocumentNeededResources: ProcSet (FontSetInit)
%%EndComments
%%BeginProlog
80 dict begin
/s {stroke} def /l {lineto} def /m {moveto} def /t {translate} def
/r {rotate} def /rl {roll}  def /R {repeat} def
/d {rlineto} def /rm {rmoveto} def /gr {grestore} def /f {eofill} def
/c {setrgbcolor} def /black {0 setgray} def /sd {setdash} def
/cl {closepath} def /sf {scalefont setfont} def /lw {setlinewidth} def
/box {m dup 0 exch d exch 0 d 0 exch neg d cl} def
/NC{systemdict begin initclip end}def/C{NC box clip newpath}def
/bl {box s} def /bf {gsave box gsave f grestore 1 lw [] 0 sd s grestore} def /Y { 0 exch d} def /X { 0 d} def 
/K {{pop pop 0 moveto} exch kshow} bind def
/ita {/ang 15 def gsave [1 0 ang dup sin exch cos div 1 0 0] concat} def 
/mp {newpath /y exch def /x exch def} def
/side {[w .77 mul w .23 mul] .385 w mul sd w 0 l currentpoint t -144 r} def
/mr {mp x y w2 0 360 arc} def /m24 {mr s} def /m20 {mr f} def
/mb {mp x y w2 add m w2 neg 0 d 0 w neg d w 0 d 0 w d cl} def
/mt {mp x y w2 add m w2 neg w neg d w 0 d cl} def
/m21 {mb f} def /m25 {mb s} def /m22 {mt f} def /m26{mt s} def
/m23 {mp x y w2 sub m w2 w d w neg 0 d cl f} def
/m27 {mp x y w2 add m w3 neg w2 neg d w3 w2 neg d w3 w2 d cl s} def
/m28 {mp x w2 sub y w2 sub w3 add m w3 0 d  0 w3 neg d w3 0 d 0 w3 d w3 0 d  0 w3 d w3 neg 0 d 0 w3 d w3 neg 0 d 0 w3 neg d w3 neg 0 d cl s } def
/m29 {mp gsave x w2 sub y w2 add w3 sub m currentpoint t 4 {side} repeat cl fill gr} def
/m30 {mp gsave x w2 sub y w2 add w3 sub m currentpoint t 4 {side} repeat cl s gr} def
/m31 {mp x y w2 sub m 0 w d x w2 sub y m w 0 d x w2 sub y w2 add m w w neg d x w2 sub y w2 sub m w w d s} def
/m32 {mp x y w2 sub m w2 w d w neg 0 d cl s} def
/m33 {mp x y w2 add m w3 neg w2 neg d w3 w2 neg d w3 w2 d cl f} def
/m34 {mp x w2 sub y w2 sub w3 add m w3 0 d  0 w3 neg d w3 0 d 0 w3 d w3 0 d  0 w3 d w3 neg 0 d 0 w3 d w3 neg 0 d 0 w3 neg d w3 neg 0 d cl f } def
/m2 {mp x y w2 sub m 0 w d x w2 sub y m w 0 d s} def
/m5 {mp x w2 sub y w2 sub m w w d x w2 sub y w2 add m w w neg d s} def
%%IncludeResource: ProcSet (FontSetInit)
%%IncludeResource: font Times-Roman
%%IncludeResource: font Times-Italic
%%IncludeResource: font Times-Bold
%%IncludeResource: font Times-BoldItalic
%%IncludeResource: font Helvetica
%%IncludeResource: font Helvetica-Oblique
%%IncludeResource: font Helvetica-Bold
%%IncludeResource: font Helvetica-BoldOblique
%%IncludeResource: font Courier
%%IncludeResource: font Courier-Oblique
%%IncludeResource: font Courier-Bold
%%IncludeResource: font Courier-BoldOblique
%%IncludeResource: font Symbol
%%IncludeResource: font ZapfDingbats
/reEncode {exch findfont dup length dict begin {1 index /FID eq  {pop pop} {def} ifelse } forall /Encoding exch def currentdict end dup /FontName get exch definefont pop } def [/Times-Bold /Times-Italic /Times-BoldItalic /Helvetica /Helvetica-Oblique
 /Helvetica-Bold /Helvetica-BoldOblique /Courier /Courier-Oblique /Courier-Bold /Courier-BoldOblique /Times-Roman /AvantGarde-Book /AvantGarde-BookOblique /AvantGarde-Demi /AvantGarde-DemiOblique /Bookman-Demi /Bookman-DemiItalic /Bookman-Light
 /Bookman-LightItalic /Helvetica-Narrow /Helvetica-Narrow-Bold /Helvetica-Narrow-BoldOblique /Helvetica-Narrow-Oblique /NewCenturySchlbk-Roman /NewCenturySchlbk-Bold /NewCenturySchlbk-BoldItalic /NewCenturySchlbk-Italic /Palatino-Bold
 /Palatino-BoldItalic /Palatino-Italic /Palatino-Roman ] {ISOLatin1Encoding reEncode } forall
%%EndProlog
%%BeginSetup
%%EndSetup
newpath  gsave  .25 .25 scale  gsave  0 0 t 1 0 0 c[  ] 0 sd 3 lw 1 1 1 c 2268 1543 0 0 bf black 1 1 1 c 1814 1235 227 154 bf black 1814 1235 227 154 bl 1 1 1 c 1814 1235 227 154 bf black 1814 1235 227 154 bl 1 1 1 c black 249 257 m 182 Y s 249 465 m
 183 Y s 227 452 m 9 X s 262 452 m 10 X s /w 26 def /w2 {w 2 div} def /w3 {w 3 div} def 249 452 m20 295 418 m 61 Y s 295 505 m 60 Y s 272 492 m 10 X s 308 492 m 9 X s 295 492 m20 340 494 m 76 Y s 340 596 m 77 Y s 317 583 m 10 X s 353 583 m 10 X s 340
 583 m20 386 408 m 19 Y s 386 453 m 19 Y s 363 440 m 10 X s 399 440 m 9 X s 386 440 m20 431 515 m 3 Y s 431 544 m 4 Y s 408 531 m 10 X s 444 531 m 10 X s 431 531 m20 454 478 m 9 X s 489 478 m 10 X s 476 478 m20 499 469 m 10 X s 535 469 m 9 X s 522
 469 m20 544 463 m 10 X s 580 463 m 10 X s 567 463 m20 590 448 m 9 X s 625 448 m 10 X s 612 448 m20 658 430 m 7 Y s 658 463 m 7 Y s 635 450 m 10 X s 671 450 m 9 X s 658 450 m20 703 451 m 3 Y s 703 480 m 4 Y s 680 467 m 10 X s 716 467 m 10 X s 703 467
 m20 748 442 m 8 Y s 748 476 m 8 Y s 726 463 m 9 X s 761 463 m 10 X s 748 463 m20 794 431 m 15 Y s 794 472 m 15 Y s 771 459 m 10 X s 807 459 m 9 X s 794 459 m20 839 384 m 11 Y s 839 421 m 11 Y s 816 408 m 10 X s 852 408 m 10 X s 839 408 m20 884 399 m
 33 Y s 884 458 m 32 Y s 862 445 m 9 X s 897 445 m 10 X s 884 445 m20 930 396 m 40 Y s 930 462 m 40 Y s 907 449 m 10 X s 943 449 m 9 X s 930 449 m20 975 347 m 30 Y s 975 403 m 30 Y s 952 390 m 10 X s 988 390 m 10 X s 975 390 m20 1020 341 m 52 Y s
 1020 419 m 53 Y s 998 406 m 9 X s 1033 406 m 10 X s 1020 406 m20 1066 370 m 59 Y s 1066 455 m 59 Y s 1043 442 m 10 X s 1079 442 m 10 X s 1066 442 m20 1111 304 m 183 Y s 1111 513 m 184 Y s 1089 500 m 9 X s 1124 500 m 10 X s 1111 500 m20 1202 361 m
 151 Y s 1202 538 m 150 Y s 1179 525 m 10 X s 1215 525 m 10 X s 1202 525 m20 1247 311 m 84 Y s 1247 421 m 84 Y s 1225 408 m 9 X s 1260 408 m 10 X s 1247 408 m20 1293 267 m 103 Y s 1293 396 m 103 Y s 1270 383 m 10 X s 1306 383 m 9 X s 1293 383 m20
 1474 178 m 784 Y s 1474 988 m 401 Y s 1451 975 m 10 X s 1487 975 m 10 X s 1474 975 m20 1610 198 m 59 Y s 1610 283 m 58 Y s 1587 270 m 10 X s 1623 270 m 10 X s 1610 270 m20 1 1 1 c 453 247 1769 1196 bf black 1769 1196 m 453 X s 2222 1196 m 247 Y s
 2222 1443 m -453 X s 1769 1443 m -247 Y s 1 1 1 c black
 gsave  2268 1543 0 0 C 1793.38 1406.76 t 0 r /Helvetica findfont 12.9955 sf 0 0 m (W_0ptag0pjet_0ptv_HZZvvqq_Final_ggF_lowpurity_ZCR_noTag_MT) show NC gr  1769 1381 m 453 X s
 gsave  2268 1543 0 0 C 1790.13 1332.04 t 0 r /Helvetica findfont 51.982 sf 0 0 m (Entries ) show NC gr 
 gsave  2268 1543 0 0 C 2128.01 1332.04 t 0 r /Helvetica findfont 51.982 sf 0 0 m ( 19) show NC gr 
 gsave  2268 1543 0 0 C 1790.13 1270.31 t 0 r /Helvetica findfont 51.982 sf 0 0 m (Mean  ) show NC gr 
 gsave  2268 1543 0 0 C 2040.3 1270.31 t 0 r /Helvetica findfont 51.982 sf 0 0 m (   1457) show NC gr 
 gsave  2268 1543 0 0 C 1790.13 1208.58 t 0 r /Helvetica findfont 51.982 sf 0 0 m (Std Dev   ) show NC gr 
 gsave  2268 1543 0 0 C 2040.3 1208.58 t 0 r /Helvetica findfont 51.982 sf 0 0 m (  816.6) show NC gr  1 0 0 c 6 lw 0.95 0.95 0.95 c black 1 0 0 c 236 510 m 18 -2 d 18 -2 d 18 -3 d 18 -2 d 19 -3 d 18 -2 d 18 -3 d 18 -2 d 18 -2 d 18 -3 d 18 -2 d 19 -3
 d 18 -2 d 18 -3 d 18 -2 d 18 -2 d 18 -3 d 18 -2 d 19 -3 d 18 -2 d 18 -3 d 18 -2 d 18 -2 d 18 -3 d 18 -2 d 19 -3 d 18 -2 d 18 -3 d 18 -2 d 18 -2 d 18 -3 d 18 -2 d 19 -3 d 18 -2 d 18 -3 d 18 -2 d 18 -2 d 18 -3 d 18 -2 d 19 -3 d 18 -2 d 18 -3 d 18 -2 d
 18 -2 d 18 -3 d 18 -2 d 19 -3 d 18 -2 d 18 -3 d s 1125 391 m 18 -2 d 18 -2 d 18 -3 d 18 -2 d 18 -3 d 19 -2 d 18 -3 d 18 -2 d 18 -2 d 18 -3 d 18 -2 d 18 -3 d 19 -2 d 18 -3 d 18 -2 d 18 -2 d 18 -3 d 18 -2 d 18 -3 d 19 -2 d 18 -3 d 18 -2 d 18 -2 d 18
 -3 d 18 -2 d 18 -3 d 19 -2 d 18 -3 d 18 -2 d 18 -2 d 18 -3 d 18 -2 d 18 -3 d 19 -2 d 18 -3 d 18 -2 d 18 -2 d 18 -3 d 18 -2 d 18 -3 d 19 -2 d 18 -2 d 18 -3 d 18 -2 d 18 -3 d 18 -2 d 18 -3 d 19 -2 d 18 -2 d s 2014 273 m 18 -3 d s black 3 lw 227 154 m
 1814 X s
 gsave  2268 1543 0 0 C 1822.62 51.982 t 0 r /Helvetica findfont 51.982 sf 0 0 m (m_T{vvJ}) show NC gr  227 191 m -37 Y s 272 173 m -19 Y s 317 173 m -19 Y s 363 173 m -19 Y s 408 173 m -19 Y s 454 191 m -37 Y s 499 173 m -19 Y s 544 173 m -19 Y s
 590 173 m -19 Y s 635 173 m -19 Y s 680 191 m -37 Y s 726 173 m -19 Y s 771 173 m -19 Y s 816 173 m -19 Y s 862 173 m -19 Y s 907 191 m -37 Y s 952 173 m -19 Y s 998 173 m -19 Y s 1043 173 m -19 Y s 1089 173 m -19 Y s 1134 191 m -37 Y s 1179 173 m
 -19 Y s 1225 173 m -19 Y s 1270 173 m -19 Y s 1315 173 m -19 Y s 1361 191 m -37 Y s 1406 173 m -19 Y s 1451 173 m -19 Y s 1497 173 m -19 Y s 1542 173 m -19 Y s 1587 191 m -37 Y s 1633 173 m -19 Y s 1678 173 m -19 Y s 1723 173 m -19 Y s 1769 173 m
 -19 Y s 1814 191 m -37 Y s 1860 173 m -19 Y s 1905 173 m -19 Y s 1950 173 m -19 Y s 1996 173 m -19 Y s 2041 191 m -37 Y s
 gsave  2268 1543 0 0 C 207.928 103.964 t 0 r /Helvetica findfont 51.982 sf 0 0 m (0) show NC gr 
 gsave  2268 1543 0 0 C 409.359 103.964 t 0 r /Helvetica findfont 51.982 sf 0 0 m (500) show NC gr 
 gsave  2268 1543 0 0 C 620.536 103.964 t 0 r /Helvetica findfont 51.982 sf 0 0 m (1000) show NC gr 
 gsave  2268 1543 0 0 C 847.957 103.964 t 0 r /Helvetica findfont 51.982 sf 0 0 m (1500) show NC gr 
 gsave  2268 1543 0 0 C 1075.38 103.964 t 0 r /Helvetica findfont 51.982 sf 0 0 m (2000) show NC gr 
 gsave  2268 1543 0 0 C 1299.55 103.964 t 0 r /Helvetica findfont 51.982 sf 0 0 m (2500) show NC gr 
 gsave  2268 1543 0 0 C 1526.97 103.964 t 0 r /Helvetica findfont 51.982 sf 0 0 m (3000) show NC gr 
 gsave  2268 1543 0 0 C 1754.39 103.964 t 0 r /Helvetica findfont 51.982 sf 0 0 m (3500) show NC gr 
 gsave  2268 1543 0 0 C 1981.82 103.964 t 0 r /Helvetica findfont 51.982 sf 0 0 m (4000) show NC gr  227 154 m 1235 Y s 281 226 m -54 X s 254 251 m -27 X s 254 276 m -27 X s 254 301 m -27 X s 254 327 m -27 X s 281 352 m -54 X s 254 377 m -27 X s 254
 402 m -27 X s 254 428 m -27 X s 254 453 m -27 X s 281 478 m -54 X s 254 503 m -27 X s 254 529 m -27 X s 254 554 m -27 X s 254 579 m -27 X s 281 604 m -54 X s 254 630 m -27 X s 254 655 m -27 X s 254 680 m -27 X s 254 705 m -27 X s 281 731 m -54 X s
 254 756 m -27 X s 254 781 m -27 X s 254 807 m -27 X s 254 832 m -27 X s 281 857 m -54 X s 254 882 m -27 X s 254 908 m -27 X s 254 933 m -27 X s 254 958 m -27 X s 281 983 m -54 X s 254 1009 m -27 X s 254 1034 m -27 X s 254 1059 m -27 X s 254 1084 m
 -27 X s 281 1110 m -54 X s 254 1135 m -27 X s 254 1160 m -27 X s 254 1185 m -27 X s 254 1211 m -27 X s 281 1236 m -54 X s 254 1261 m -27 X s 254 1286 m -27 X s 254 1312 m -27 X s 254 1337 m -27 X s 281 1362 m -54 X s 281 226 m -54 X s 254 200 m -27
 X s 254 175 m -27 X s 281 1362 m -54 X s 254 1387 m -27 X s
 gsave  2268 1543 0 0 C 185.186 207.928 t 0 r /Helvetica findfont 51.982 sf 0 0 m (0) show NC gr 
 gsave  2268 1543 0 0 C 142.951 334.634 t 0 r /Helvetica findfont 51.982 sf 0 0 m (0.5) show NC gr 
 gsave  2268 1543 0 0 C 194.933 458.092 t 0 r /Helvetica findfont 51.982 sf 0 0 m (1) show NC gr 
 gsave  2268 1543 0 0 C 142.951 588.047 t 0 r /Helvetica findfont 51.982 sf 0 0 m (1.5) show NC gr 
 gsave  2268 1543 0 0 C 185.186 708.255 t 0 r /Helvetica findfont 51.982 sf 0 0 m (2) show NC gr 
 gsave  2268 1543 0 0 C 142.951 838.21 t 0 r /Helvetica findfont 51.982 sf 0 0 m (2.5) show NC gr 
 gsave  2268 1543 0 0 C 185.186 964.917 t 0 r /Helvetica findfont 51.982 sf 0 0 m (3) show NC gr 
 gsave  2268 1543 0 0 C 142.951 1091.62 t 0 r /Helvetica findfont 51.982 sf 0 0 m (3.5) show NC gr 
 gsave  2268 1543 0 0 C 185.186 1215.08 t 0 r /Helvetica findfont 51.982 sf 0 0 m (4) show NC gr 
 gsave  2268 1543 0 0 C 142.951 1345.04 t 0 r /Helvetica findfont 51.982 sf 0 0 m (4.5) show NC gr  1 1 1 c 453 247 1769 1196 bf black 1769 1196 m 453 X s 2222 1196 m 247 Y s 2222 1443 m -453 X s 1769 1443 m -247 Y s 1 1 1 c black
 gsave  2268 1543 0 0 C 1793.38 1406.76 t 0 r /Helvetica findfont 12.9955 sf 0 0 m (W_0ptag0pjet_0ptv_HZZvvqq_Final_ggF_lowpurity_ZCR_noTag_MT) show NC gr  1769 1381 m 453 X s
 gsave  2268 1543 0 0 C 1790.13 1332.04 t 0 r /Helvetica findfont 51.982 sf 0 0 m (Entries ) show NC gr 
 gsave  2268 1543 0 0 C 2128.01 1332.04 t 0 r /Helvetica findfont 51.982 sf 0 0 m ( 19) show NC gr 
 gsave  2268 1543 0 0 C 1790.13 1270.31 t 0 r /Helvetica findfont 51.982 sf 0 0 m (Mean  ) show NC gr 
 gsave  2268 1543 0 0 C 2040.3 1270.31 t 0 r /Helvetica findfont 51.982 sf 0 0 m (   1457) show NC gr 
 gsave  2268 1543 0 0 C 1790.13 1208.58 t 0 r /Helvetica findfont 51.982 sf 0 0 m (Std Dev   ) show NC gr 
 gsave  2268 1543 0 0 C 2040.3 1208.58 t 0 r /Helvetica findfont 51.982 sf 0 0 m (  816.6) show NC gr 
 gr  gr showpage
end
%%EOF
