%!PS-Adobe-2.0 EPSF-2.0
%%BoundingBox:  0 0 567 385
%%Title: plots/0lep/p_0ptag0pjet_0ptv_HZZvvqq_Merged_FatJetsRequirement_MET.eps: c1
%%Creator: ROOT Version 6.04/16
%%CreationDate: Fri Jan 13 16:39:52 2017
%%DocumentNeededResources: ProcSet (FontSetInit)
%%EndComments
%%BeginProlog
80 dict begin
/s {stroke} def /l {lineto} def /m {moveto} def /t {translate} def
/r {rotate} def /rl {roll}  def /R {repeat} def
/d {rlineto} def /rm {rmoveto} def /gr {grestore} def /f {eofill} def
/c {setrgbcolor} def /black {0 setgray} def /sd {setdash} def
/cl {closepath} def /sf {scalefont setfont} def /lw {setlinewidth} def
/box {m dup 0 exch d exch 0 d 0 exch neg d cl} def
/NC{systemdict begin initclip end}def/C{NC box clip newpath}def
/bl {box s} def /bf {gsave box gsave f grestore 1 lw [] 0 sd s grestore} def /Y { 0 exch d} def /X { 0 d} def 
/K {{pop pop 0 moveto} exch kshow} bind def
/ita {/ang 15 def gsave [1 0 ang dup sin exch cos div 1 0 0] concat} def 
/mp {newpath /y exch def /x exch def} def
/side {[w .77 mul w .23 mul] .385 w mul sd w 0 l currentpoint t -144 r} def
/mr {mp x y w2 0 360 arc} def /m24 {mr s} def /m20 {mr f} def
/mb {mp x y w2 add m w2 neg 0 d 0 w neg d w 0 d 0 w d cl} def
/mt {mp x y w2 add m w2 neg w neg d w 0 d cl} def
/m21 {mb f} def /m25 {mb s} def /m22 {mt f} def /m26{mt s} def
/m23 {mp x y w2 sub m w2 w d w neg 0 d cl f} def
/m27 {mp x y w2 add m w3 neg w2 neg d w3 w2 neg d w3 w2 d cl s} def
/m28 {mp x w2 sub y w2 sub w3 add m w3 0 d  0 w3 neg d w3 0 d 0 w3 d w3 0 d  0 w3 d w3 neg 0 d 0 w3 d w3 neg 0 d 0 w3 neg d w3 neg 0 d cl s } def
/m29 {mp gsave x w2 sub y w2 add w3 sub m currentpoint t 4 {side} repeat cl fill gr} def
/m30 {mp gsave x w2 sub y w2 add w3 sub m currentpoint t 4 {side} repeat cl s gr} def
/m31 {mp x y w2 sub m 0 w d x w2 sub y m w 0 d x w2 sub y w2 add m w w neg d x w2 sub y w2 sub m w w d s} def
/m32 {mp x y w2 sub m w2 w d w neg 0 d cl s} def
/m33 {mp x y w2 add m w3 neg w2 neg d w3 w2 neg d w3 w2 d cl f} def
/m34 {mp x w2 sub y w2 sub w3 add m w3 0 d  0 w3 neg d w3 0 d 0 w3 d w3 0 d  0 w3 d w3 neg 0 d 0 w3 d w3 neg 0 d 0 w3 neg d w3 neg 0 d cl f } def
/m2 {mp x y w2 sub m 0 w d x w2 sub y m w 0 d s} def
/m5 {mp x w2 sub y w2 sub m w w d x w2 sub y w2 add m w w neg d s} def
%%IncludeResource: ProcSet (FontSetInit)
%%IncludeResource: font Times-Roman
%%IncludeResource: font Times-Italic
%%IncludeResource: font Times-Bold
%%IncludeResource: font Times-BoldItalic
%%IncludeResource: font Helvetica
%%IncludeResource: font Helvetica-Oblique
%%IncludeResource: font Helvetica-Bold
%%IncludeResource: font Helvetica-BoldOblique
%%IncludeResource: font Courier
%%IncludeResource: font Courier-Oblique
%%IncludeResource: font Courier-Bold
%%IncludeResource: font Courier-BoldOblique
%%IncludeResource: font Symbol
%%IncludeResource: font ZapfDingbats
/reEncode {exch findfont dup length dict begin {1 index /FID eq  {pop pop} {def} ifelse } forall /Encoding exch def currentdict end dup /FontName get exch definefont pop } def [/Times-Bold /Times-Italic /Times-BoldItalic /Helvetica /Helvetica-Oblique
 /Helvetica-Bold /Helvetica-BoldOblique /Courier /Courier-Oblique /Courier-Bold /Courier-BoldOblique /Times-Roman /AvantGarde-Book /AvantGarde-BookOblique /AvantGarde-Demi /AvantGarde-DemiOblique /Bookman-Demi /Bookman-DemiItalic /Bookman-Light
 /Bookman-LightItalic /Helvetica-Narrow /Helvetica-Narrow-Bold /Helvetica-Narrow-BoldOblique /Helvetica-Narrow-Oblique /NewCenturySchlbk-Roman /NewCenturySchlbk-Bold /NewCenturySchlbk-BoldItalic /NewCenturySchlbk-Italic /Palatino-Bold
 /Palatino-BoldItalic /Palatino-Italic /Palatino-Roman ] {ISOLatin1Encoding reEncode } forall
%%EndProlog
%%BeginSetup
%%EndSetup
newpath  gsave  .25 .25 scale  gsave  0 0 t black[  ] 0 sd 3 lw 1 1 1 c 2268 1540 0 0 bf black 1 1 1 c 2268 1155 0 385 bf black 1 1 1 c 1814 1039 227 385 bf black 1814 1039 227 385 bl 0 0 0.6 c 1 1 1 c black 0 0 0.6 c 227 385 m 1814 X s black 227 385
 m 1814 X s 227 413 m -28 Y s 263 399 m -14 Y s 299 399 m -14 Y s 336 399 m -14 Y s 372 399 m -14 Y s 408 413 m -28 Y s 444 399 m -14 Y s 481 399 m -14 Y s 517 399 m -14 Y s 553 399 m -14 Y s 590 413 m -28 Y s 626 399 m -14 Y s 662 399 m -14 Y s 698
 399 m -14 Y s 735 399 m -14 Y s 771 413 m -28 Y s 807 399 m -14 Y s 844 399 m -14 Y s 880 399 m -14 Y s 916 399 m -14 Y s 952 413 m -28 Y s 989 399 m -14 Y s 1025 399 m -14 Y s 1061 399 m -14 Y s 1098 399 m -14 Y s 1134 413 m -28 Y s 1170 399 m -14
 Y s 1206 399 m -14 Y s 1243 399 m -14 Y s 1279 399 m -14 Y s 1315 413 m -28 Y s 1352 399 m -14 Y s 1388 399 m -14 Y s 1424 399 m -14 Y s 1460 399 m -14 Y s 1497 413 m -28 Y s 1533 399 m -14 Y s 1569 399 m -14 Y s 1606 399 m -14 Y s 1642 399 m -14 Y
 s 1678 413 m -28 Y s 1714 399 m -14 Y s 1751 399 m -14 Y s 1787 399 m -14 Y s 1823 399 m -14 Y s 1860 413 m -28 Y s 1896 399 m -14 Y s 1932 399 m -14 Y s 1968 399 m -14 Y s 2005 399 m -14 Y s 2041 413 m -28 Y s
 gsave  2268 1155 0 385 C 211.177 347.63 t 0 r /Helvetica findfont 39.0414 sf 0 0 m (0) show NC gr 
 gsave  2268 1155 0 385 C 373.621 347.63 t 0 r /Helvetica findfont 39.0414 sf 0 0 m (100) show NC gr 
 gsave  2268 1155 0 385 C 555.558 347.63 t 0 r /Helvetica findfont 39.0414 sf 0 0 m (200) show NC gr 
 gsave  2268 1155 0 385 C 737.495 347.63 t 0 r /Helvetica findfont 39.0414 sf 0 0 m (300) show NC gr 
 gsave  2268 1155 0 385 C 919.432 347.63 t 0 r /Helvetica findfont 39.0414 sf 0 0 m (400) show NC gr 
 gsave  2268 1155 0 385 C 1101.37 347.63 t 0 r /Helvetica findfont 39.0414 sf 0 0 m (500) show NC gr 
 gsave  2268 1155 0 385 C 1280.06 347.63 t 0 r /Helvetica findfont 39.0414 sf 0 0 m (600) show NC gr 
 gsave  2268 1155 0 385 C 1461.99 347.63 t 0 r /Helvetica findfont 39.0414 sf 0 0 m (700) show NC gr 
 gsave  2268 1155 0 385 C 1643.93 347.63 t 0 r /Helvetica findfont 39.0414 sf 0 0 m (800) show NC gr 
 gsave  2268 1155 0 385 C 1825.87 347.63 t 0 r /Helvetica findfont 39.0414 sf 0 0 m (900) show NC gr 
 gsave  2268 1155 0 385 C 1994.81 347.63 t 0 r /Helvetica findfont 39.0414 sf 0 0 m (1000) show NC gr  227 385 m 1039 Y s 257 397 m -30 X s 257 416 m -30 X s 257 430 m -30 X s 257 442 m -30 X s 257 452 m -30 X s 257 461 m -30 X s 257 468 m -30 X s
 288 475 m -61 X s
 gsave  2268 1155 0 385 C 198.182 477.585 t 0 r /Helvetica findfont 26.0276 sf 0 0 m (1) show NC gr 
 gsave  2268 1155 0 385 C 181.937 477.585 t 0 r /Symbol findfont 26.0276 sf 0 0 m (-) show NC gr 
 gsave  2268 1155 0 385 C 139.702 458.092 t 0 r /Helvetica findfont 39.0414 sf 0 0 m (10) show NC gr  257 520 m -30 X s 257 547 m -30 X s 257 565 m -30 X s 257 580 m -30 X s 257 592 m -30 X s 257 602 m -30 X s 257 610 m -30 X s 257 618 m -30 X s 288
 625 m -61 X s
 gsave  2268 1155 0 385 C 209.083 609.167 t 0 r  -20 0 t /Helvetica findfont 39.0414 sf 0 0 m (1) show NC gr  257 670 m -30 X s 257 696 m -30 X s 257 715 m -30 X s 257 729 m -30 X s 257 741 m -30 X s 257 751 m -30 X s 257 760 m -30 X s 257 768 m -30
 X s 288 774 m -61 X s
 gsave  2268 1155 0 385 C 209.083 758.825 t 0 r  -41 0 t /Helvetica findfont 39.0414 sf 0 0 m (10) show NC gr  257 819 m -30 X s 257 846 m -30 X s 257 865 m -30 X s 257 879 m -30 X s 257 891 m -30 X s 257 901 m -30 X s 257 910 m -30 X s 257 917 m -30
 X s 288 924 m -61 X s
 gsave  2268 1155 0 385 C 191.684 925.93 t 0 r /Helvetica findfont 26.0276 sf 0 0 m (2) show NC gr 
 gsave  2268 1155 0 385 C 149.448 906.437 t 0 r /Helvetica findfont 39.0414 sf 0 0 m (10) show NC gr  257 969 m -30 X s 257 995 m -30 X s 257 1014 m -30 X s 257 1029 m -30 X s 257 1041 m -30 X s 257 1051 m -30 X s 257 1059 m -30 X s 257 1067 m -30 X
 s 288 1074 m -61 X s
 gsave  2268 1155 0 385 C 191.684 1078.63 t 0 r /Helvetica findfont 26.0276 sf 0 0 m (3) show NC gr 
 gsave  2268 1155 0 385 C 149.448 1055.89 t 0 r /Helvetica findfont 39.0414 sf 0 0 m (10) show NC gr  257 1119 m -30 X s 257 1145 m -30 X s 257 1164 m -30 X s 257 1178 m -30 X s 257 1190 m -30 X s 257 1200 m -30 X s 257 1209 m -30 X s 257 1217 m -30
 X s 288 1223 m -61 X s
 gsave  2268 1155 0 385 C 191.684 1224.83 t 0 r /Helvetica findfont 26.0276 sf 0 0 m (4) show NC gr 
 gsave  2268 1155 0 385 C 149.448 1205.33 t 0 r /Helvetica findfont 39.0414 sf 0 0 m (10) show NC gr  257 1268 m -30 X s 257 1295 m -30 X s 257 1313 m -30 X s 257 1328 m -30 X s 257 1340 m -30 X s 257 1350 m -30 X s 257 1359 m -30 X s 257 1366 m -30
 X s 288 1373 m -61 X s
 gsave  2268 1155 0 385 C 191.684 1377.52 t 0 r /Helvetica findfont 26.0276 sf 0 0 m (5) show NC gr 
 gsave  2268 1155 0 385 C 149.448 1354.78 t 0 r /Helvetica findfont 39.0414 sf 0 0 m (10) show NC gr  257 1418 m -30 X s 0 0.6 0 c black 0 0.6 0 c 227 385 m 453 X 972 Y 46 X -23 Y 45 X -24 Y 45 X -25 Y 46 X -25 Y 45 X -23 Y 45 X -20 Y 46 X -21 Y 45 X
 -21 Y 46 X -17 Y 45 X -23 Y 45 X -16 Y 46 X -18 Y 45 X -23 Y 45 X -12 Y 46 X -17 Y 45 X -15 Y 45 X -17 Y 46 X -13 Y 45 X -15 Y 45 X -11 Y 46 X -23 Y 45 X -5 Y 45 X -16 Y 46 X -15 Y 45 X -7 Y 46 X -19 Y 45 X -6 Y 45 X -13 Y 46 X -11 Y 45 X -478 Y f
 227 385 m 453 X 972 Y 46 X -23 Y 45 X -24 Y 45 X -25 Y 46 X -25 Y 45 X -23 Y 45 X -20 Y 46 X -21 Y 45 X -21 Y 46 X -17 Y 45 X -23 Y 45 X -16 Y 46 X -18 Y 45 X -23 Y 45 X -12 Y 46 X -17 Y 45 X -15 Y 45 X -17 Y 46 X -13 Y 45 X -15 Y 45 X -11 Y 46 X
 -23 Y 45 X -5 Y 45 X -16 Y 46 X -15 Y 45 X -7 Y 46 X -19 Y 45 X -6 Y 45 X -13 Y 46 X -11 Y 45 X s 0.4 0.8 1 c 0.999 0.999 0.999 c black 0.999 0.999 0.999 c 227 385 m 453 X 940 Y 46 X -21 Y 45 X -23 Y 45 X -23 Y 46 X -24 Y 45 X -22 Y 45 X -20 Y 46 X
 -20 Y 45 X -20 Y 46 X -18 Y 45 X -23 Y 45 X -14 Y 46 X -19 Y 45 X -18 Y 45 X -15 Y 46 X -16 Y 45 X -15 Y 45 X -12 Y 46 X -17 Y 45 X -16 Y 45 X -13 Y 46 X -18 Y 45 X -5 Y 45 X -17 Y 46 X -17 Y 45 X -6 Y 46 X -20 Y 45 X -5 Y 45 X -13 Y 46 X -11 Y 45 X
 -459 Y f 0.4 0.8 1 c 0.999 0.999 0.999 c 0.4 0.8 1 c 227 385 m 453 X 940 Y 46 X -21 Y 45 X -23 Y 45 X -23 Y 46 X -24 Y 45 X -22 Y 45 X -20 Y 46 X -20 Y 45 X -20 Y 46 X -18 Y 45 X -23 Y 45 X -14 Y 46 X -19 Y 45 X -18 Y 45 X -15 Y 46 X -16 Y 45 X -15
 Y 45 X -12 Y 46 X -17 Y 45 X -16 Y 45 X -13 Y 46 X -18 Y 45 X -5 Y 45 X -17 Y 46 X -17 Y 45 X -6 Y 46 X -20 Y 45 X -5 Y 45 X -13 Y 46 X -11 Y 45 X s 1 1 1 c black 0.4 0.8 1 c 227 385 m 453 X 940 Y 46 X -21 Y 45 X -23 Y 45 X -23 Y 46 X -24 Y 45 X -22
 Y 45 X -20 Y 46 X -20 Y 45 X -20 Y 46 X -18 Y 45 X -23 Y 45 X -14 Y 46 X -19 Y 45 X -18 Y 45 X -15 Y 46 X -16 Y 45 X -15 Y 45 X -12 Y 46 X -17 Y 45 X -16 Y 45 X -13 Y 46 X -18 Y 45 X -5 Y 45 X -17 Y 46 X -17 Y 45 X -6 Y 46 X -20 Y 45 X -5 Y 45 X -13
 Y 46 X -11 Y 45 X s black 0.4 0.8 1 c 227 385 m 453 X 940 Y 46 X -21 Y 45 X -23 Y 45 X -23 Y 46 X -24 Y 45 X -22 Y 45 X -20 Y 46 X -20 Y 45 X -20 Y 46 X -18 Y 45 X -23 Y 45 X -14 Y 46 X -19 Y 45 X -18 Y 45 X -15 Y 46 X -16 Y 45 X -15 Y 45 X -12 Y 46
 X -17 Y 45 X -16 Y 45 X -13 Y 46 X -18 Y 45 X -5 Y 45 X -17 Y 46 X -17 Y 45 X -6 Y 46 X -20 Y 45 X -5 Y 45 X -13 Y 46 X -11 Y 45 X -459 Y f 227 385 m 453 X 940 Y 46 X -21 Y 45 X -23 Y 45 X -23 Y 46 X -24 Y 45 X -22 Y 45 X -20 Y 46 X -20 Y 45 X -20 Y
 46 X -18 Y 45 X -23 Y 45 X -14 Y 46 X -19 Y 45 X -18 Y 45 X -15 Y 46 X -16 Y 45 X -15 Y 45 X -12 Y 46 X -17 Y 45 X -16 Y 45 X -13 Y 46 X -18 Y 45 X -5 Y 45 X -17 Y 46 X -17 Y 45 X -6 Y 46 X -20 Y 45 X -5 Y 45 X -13 Y 46 X -11 Y 45 X s 1 0.8 0 c
 0.999 0.999 0.999 c black 0.999 0.999 0.999 c 227 385 m 453 X 802 Y 46 X -25 Y 45 X -26 Y 45 X -28 Y 46 X -32 Y 45 X -29 Y 45 X -22 Y 46 X -29 Y 45 X -23 Y 46 X -23 Y 45 X -25 Y 45 X -19 Y 46 X -45 Y 45 X -4 Y 45 X -29 Y 46 X -20 Y 45 X -29 Y 45 X
 -8 Y 46 X -15 Y 45 X -39 Y 45 X 26 Y 46 X -58 Y 45 X 1 Y 45 X -52 Y 46 X -86 Y 45 X 71 Y 46 X -53 Y 45 X 50 Y 45 X -168 Y 46 X 62 Y 45 X -125 Y f 1 0.8 0 c 0.999 0.999 0.999 c 1 0.8 0 c 227 385 m 453 X 802 Y 46 X -25 Y 45 X -26 Y 45 X -28 Y 46 X -32
 Y 45 X -29 Y 45 X -22 Y 46 X -29 Y 45 X -23 Y 46 X -23 Y 45 X -25 Y 45 X -19 Y 46 X -45 Y 45 X -4 Y 45 X -29 Y 46 X -20 Y 45 X -29 Y 45 X -8 Y 46 X -15 Y 45 X -39 Y 45 X 26 Y 46 X -58 Y 45 X 1 Y 45 X -52 Y 46 X -86 Y 45 X 71 Y 46 X -53 Y 45 X 50 Y
 45 X -168 Y 46 X 62 Y 45 X s 1 1 1 c black 1 0.8 0 c 227 385 m 453 X 802 Y 46 X -25 Y 45 X -26 Y 45 X -28 Y 46 X -32 Y 45 X -29 Y 45 X -22 Y 46 X -29 Y 45 X -23 Y 46 X -23 Y 45 X -25 Y 45 X -19 Y 46 X -45 Y 45 X -4 Y 45 X -29 Y 46 X -20 Y 45 X -29 Y
 45 X -8 Y 46 X -15 Y 45 X -39 Y 45 X 26 Y 46 X -58 Y 45 X 1 Y 45 X -52 Y 46 X -86 Y 45 X 71 Y 46 X -53 Y 45 X 50 Y 45 X -168 Y 46 X 62 Y 45 X s black 1 0.8 0 c 227 385 m 453 X 802 Y 46 X -25 Y 45 X -26 Y 45 X -28 Y 46 X -32 Y 45 X -29 Y 45 X -22 Y
 46 X -29 Y 45 X -23 Y 46 X -23 Y 45 X -25 Y 45 X -19 Y 46 X -45 Y 45 X -4 Y 45 X -29 Y 46 X -20 Y 45 X -29 Y 45 X -8 Y 46 X -15 Y 45 X -39 Y 45 X 26 Y 46 X -58 Y 45 X 1 Y 45 X -52 Y 46 X -86 Y 45 X 71 Y 46 X -53 Y 45 X 50 Y 45 X -168 Y 46 X 62 Y 45
 X -125 Y f 227 385 m 453 X 802 Y 46 X -25 Y 45 X -26 Y 45 X -28 Y 46 X -32 Y 45 X -29 Y 45 X -22 Y 46 X -29 Y 45 X -23 Y 46 X -23 Y 45 X -25 Y 45 X -19 Y 46 X -45 Y 45 X -4 Y 45 X -29 Y 46 X -20 Y 45 X -29 Y 45 X -8 Y 46 X -15 Y 45 X -39 Y 45 X 26 Y
 46 X -58 Y 45 X 1 Y 45 X -52 Y 46 X -86 Y 45 X 71 Y 46 X -53 Y 45 X 50 Y 45 X -168 Y 46 X 62 Y 45 X s 1 0.6 0 c 0.999 0.999 0.999 c black 0.999 0.999 0.999 c 227 385 m 453 X 599 Y 46 X -21 Y 45 X -21 Y 45 X -24 Y 46 X -23 Y 45 X -22 Y 45 X -16 Y 46
 X -24 Y 45 X -39 Y 46 X -10 Y 45 X 9 Y 45 X -21 Y 46 X -24 Y 45 X -18 Y 45 X 2 Y 46 X -53 Y 45 X -1 Y 45 X -18 Y 46 X 22 Y 45 X -46 Y 45 X 11 Y 46 X -68 Y 45 X 34 Y 45 X -68 Y 46 X 3 Y 45 X 43 Y 46 X -112 Y 45 X 67 Y 45 X -98 Y 46 X 62 Y 45 X -125 Y
 f 1 0.6 0 c 0.999 0.999 0.999 c 1 0.6 0 c 227 385 m 453 X 599 Y 46 X -21 Y 45 X -21 Y 45 X -24 Y 46 X -23 Y 45 X -22 Y 45 X -16 Y 46 X -24 Y 45 X -39 Y 46 X -10 Y 45 X 9 Y 45 X -21 Y 46 X -24 Y 45 X -18 Y 45 X 2 Y 46 X -53 Y 45 X -1 Y 45 X -18 Y 46
 X 22 Y 45 X -46 Y 45 X 11 Y 46 X -68 Y 45 X 34 Y 45 X -68 Y 46 X 3 Y 45 X 43 Y 46 X -112 Y 45 X 67 Y 45 X -98 Y 46 X 62 Y 45 X s 1 1 1 c black 1 0.6 0 c 227 385 m 453 X 599 Y 46 X -21 Y 45 X -21 Y 45 X -24 Y 46 X -23 Y 45 X -22 Y 45 X -16 Y 46 X -24
 Y 45 X -39 Y 46 X -10 Y 45 X 9 Y 45 X -21 Y 46 X -24 Y 45 X -18 Y 45 X 2 Y 46 X -53 Y 45 X -1 Y 45 X -18 Y 46 X 22 Y 45 X -46 Y 45 X 11 Y 46 X -68 Y 45 X 34 Y 45 X -68 Y 46 X 3 Y 45 X 43 Y 46 X -112 Y 45 X 67 Y 45 X -98 Y 46 X 62 Y 45 X s black 1
 0.6 0 c 227 385 m 453 X 599 Y 46 X -21 Y 45 X -21 Y 45 X -24 Y 46 X -23 Y 45 X -22 Y 45 X -16 Y 46 X -24 Y 45 X -39 Y 46 X -10 Y 45 X 9 Y 45 X -21 Y 46 X -24 Y 45 X -18 Y 45 X 2 Y 46 X -53 Y 45 X -1 Y 45 X -18 Y 46 X 22 Y 45 X -46 Y 45 X 11 Y 46 X
 -68 Y 45 X 34 Y 45 X -68 Y 46 X 3 Y 45 X 43 Y 46 X -112 Y 45 X 67 Y 45 X -98 Y 46 X 62 Y 45 X -125 Y f 227 385 m 453 X 599 Y 46 X -21 Y 45 X -21 Y 45 X -24 Y 46 X -23 Y 45 X -22 Y 45 X -16 Y 46 X -24 Y 45 X -39 Y 46 X -10 Y 45 X 9 Y 45 X -21 Y 46 X
 -24 Y 45 X -18 Y 45 X 2 Y 46 X -53 Y 45 X -1 Y 45 X -18 Y 46 X 22 Y 45 X -46 Y 45 X 11 Y 46 X -68 Y 45 X 34 Y 45 X -68 Y 46 X 3 Y 45 X 43 Y 46 X -112 Y 45 X 67 Y 45 X -98 Y 46 X 62 Y 45 X s 0.999 0.999 0.999 c black 0.999 0.999 0.999 c 227 385 m 453
 X 236 Y 46 X -30 Y 45 X -28 Y 45 X -37 Y 46 X -17 Y 45 X -37 Y 45 X -15 Y 46 X -25 Y 45 X -42 Y 46 X 5 Y 45 X -10 Y 907 X f 1 0.6 0 c 0.999 0.999 0.999 c 1 0.6 0 c 227 385 m 453 X 236 Y 46 X -30 Y 45 X -28 Y 45 X -37 Y 46 X -17 Y 45 X -37 Y 45 X -15
 Y 46 X -25 Y 45 X -42 Y 46 X 5 Y 45 X -10 Y 907 X s 1 1 1 c black 1 0.6 0 c 227 385 m 453 X 236 Y 46 X -30 Y 45 X -28 Y 45 X -37 Y 46 X -17 Y 45 X -37 Y 45 X -15 Y 46 X -25 Y 45 X -42 Y 46 X 5 Y 45 X -10 Y 907 X s black 1 0.6 0 c 227 385 m 453 X 236
 Y 46 X -30 Y 45 X -28 Y 45 X -37 Y 46 X -17 Y 45 X -37 Y 45 X -15 Y 46 X -25 Y 45 X -42 Y 46 X 5 Y 45 X -10 Y 907 X f 227 385 m 453 X 236 Y 46 X -30 Y 45 X -28 Y 45 X -37 Y 46 X -17 Y 45 X -37 Y 45 X -15 Y 46 X -25 Y 45 X -42 Y 46 X 5 Y 45 X -10 Y
 907 X s black 227 385 m 1814 X s 227 413 m -28 Y s 263 399 m -14 Y s 299 399 m -14 Y s 336 399 m -14 Y s 372 399 m -14 Y s 408 413 m -28 Y s 444 399 m -14 Y s 481 399 m -14 Y s 517 399 m -14 Y s 553 399 m -14 Y s 590 413 m -28 Y s 626 399 m -14 Y s
 662 399 m -14 Y s 698 399 m -14 Y s 735 399 m -14 Y s 771 413 m -28 Y s 807 399 m -14 Y s 844 399 m -14 Y s 880 399 m -14 Y s 916 399 m -14 Y s 952 413 m -28 Y s 989 399 m -14 Y s 1025 399 m -14 Y s 1061 399 m -14 Y s 1098 399 m -14 Y s 1134 413 m
 -28 Y s 1170 399 m -14 Y s 1206 399 m -14 Y s 1243 399 m -14 Y s 1279 399 m -14 Y s 1315 413 m -28 Y s 1352 399 m -14 Y s 1388 399 m -14 Y s 1424 399 m -14 Y s 1460 399 m -14 Y s 1497 413 m -28 Y s 1533 399 m -14 Y s 1569 399 m -14 Y s 1606 399 m
 -14 Y s 1642 399 m -14 Y s 1678 413 m -28 Y s 1714 399 m -14 Y s 1751 399 m -14 Y s 1787 399 m -14 Y s 1823 399 m -14 Y s 1860 413 m -28 Y s 1896 399 m -14 Y s 1932 399 m -14 Y s 1968 399 m -14 Y s 2005 399 m -14 Y s 2041 413 m -28 Y s 227 385 m
 1039 Y s 257 397 m -30 X s 257 416 m -30 X s 257 430 m -30 X s 257 442 m -30 X s 257 452 m -30 X s 257 461 m -30 X s 257 468 m -30 X s 288 475 m -61 X s 257 520 m -30 X s 257 547 m -30 X s 257 565 m -30 X s 257 580 m -30 X s 257 592 m -30 X s 257
 602 m -30 X s 257 610 m -30 X s 257 618 m -30 X s 288 625 m -61 X s 257 670 m -30 X s 257 696 m -30 X s 257 715 m -30 X s 257 729 m -30 X s 257 741 m -30 X s 257 751 m -30 X s 257 760 m -30 X s 257 768 m -30 X s 288 774 m -61 X s 257 819 m -30 X s
 257 846 m -30 X s 257 865 m -30 X s 257 879 m -30 X s 257 891 m -30 X s 257 901 m -30 X s 257 910 m -30 X s 257 917 m -30 X s 288 924 m -61 X s 257 969 m -30 X s 257 995 m -30 X s 257 1014 m -30 X s 257 1029 m -30 X s 257 1041 m -30 X s 257 1051 m
 -30 X s 257 1059 m -30 X s 257 1067 m -30 X s 288 1074 m -61 X s 257 1119 m -30 X s 257 1145 m -30 X s 257 1164 m -30 X s 257 1178 m -30 X s 257 1190 m -30 X s 257 1200 m -30 X s 257 1209 m -30 X s 257 1217 m -30 X s 288 1223 m -61 X s 257 1268 m
 -30 X s 257 1295 m -30 X s 257 1313 m -30 X s 257 1328 m -30 X s 257 1340 m -30 X s 257 1350 m -30 X s 257 1359 m -30 X s 257 1366 m -30 X s 288 1373 m -61 X s 257 1418 m -30 X s 0 0 0.6 c 1 1 1 c black 0 0 0.6 c 680 1361 m 10 X s 716 1361 m 10 X s
 black /w 26 def /w2 {w 2 div} def /w3 {w 3 div} def 703 1361 m20 0 0 0.6 c 726 1338 m 9 X s 761 1338 m 10 X s black 748 1338 m20 0 0 0.6 c 771 1315 m 10 X s 807 1315 m 9 X s black 794 1315 m20 0 0 0.6 c 816 1291 m 10 X s 852 1291 m 10 X s black 839
 1291 m20 0 0 0.6 c 862 1268 m 9 X s 897 1268 m 10 X s black 884 1268 m20 0 0 0.6 c 907 1245 m 10 X s 943 1245 m 9 X s black 930 1245 m20 0 0 0.6 c 952 1223 m 10 X s 988 1223 m 10 X s black 975 1223 m20 0 0 0.6 c 998 1203 m 9 X s 1033 1203 m 10 X s
 black 1020 1203 m20 0 0 0.6 c 1043 1180 m 10 X s 1079 1180 m 10 X s black 1066 1180 m20 0 0 0.6 c 1089 1160 m 9 X s 1124 1160 m 10 X s black 1111 1160 m20 0 0 0.6 c 1134 1144 m 10 X s 1170 1144 m 9 X s black 1157 1144 m20 0 0 0.6 c 1179 1125 m 10 X
 s 1215 1125 m 10 X s black 1202 1125 m20 0 0 0.6 c 1225 1104 m 9 X s 1260 1104 m 10 X s black 1247 1104 m20 0 0 0.6 c 1270 1092 m 10 X s 1306 1092 m 9 X s black 1293 1092 m20 0 0 0.6 c 1315 1071 m 10 X s 1351 1071 m 10 X s black 1338 1071 m20 0 0
 0.6 c 1361 1056 m 9 X s 1396 1056 m 10 X s black 1383 1056 m20 0 0 0.6 c 1406 1039 m 10 X s 1442 1039 m 9 X s black 1429 1039 m20 0 0 0.6 c 1451 1026 m 10 X s 1487 1026 m 10 X s black 1474 1026 m20 0 0 0.6 c 1497 1006 m 9 X s 1532 1006 m 10 X s
 black 1519 1006 m20 0 0 0.6 c 1542 998 m 10 X s 1578 998 m 9 X s black 1565 998 m20 0 0 0.6 c 1587 983 m 10 X s 1623 983 m 10 X s black 1610 983 m20 0 0 0.6 c 1633 966 m 9 X s 1668 966 m 10 X s black 1655 966 m20 0 0 0.6 c 1678 954 m 10 X s 1714 954
 m 9 X s black 1701 954 m20 0 0 0.6 c 1723 948 m 10 X s 1759 948 m 10 X s black 1746 948 m20 0 0 0.6 c 1769 930 m 10 X s 1804 930 m 10 X s black 1791 930 m20 0 0 0.6 c 1814 900 m 10 X s 1850 900 m 10 X s black 1837 900 m20 0 0 0.6 c 1860 915 m 9 X s
 1895 915 m 10 X s black 1882 915 m20 0 0 0.6 c 1905 891 m 10 X s 1941 891 m 9 X s black 1928 891 m20 0 0 0.6 c 1950 876 m 10 X s 1986 876 m 10 X s black 1973 876 m20 0 0 0.6 c 1996 872 m 9 X s 2031 872 m 10 X s black 2018 872 m20 1 0 0 c 6 lw 1 1 1
 c black 1 0 0 c 227 385 m 453 X 403 Y 46 X 18 Y 45 X 6 Y 45 X 38 Y 46 X -6 Y 45 X 35 Y 45 X 24 Y 46 X 24 Y 45 X 15 Y 46 X -1 Y 45 X 23 Y 45 X 7 Y 46 X 5 Y 45 X 14 Y 45 X 16 Y 46 X 11 Y 45 X 9 Y 45 X 10 Y 46 X 9 Y 45 X 11 Y 45 X 5 Y 46 X 7 Y 45 X 11
 Y 45 X 10 Y 46 X 18 Y 45 X 2 Y 46 X 10 Y 45 X 15 Y 45 X 6 Y 91 X s black 3 lw 1 1 1 c 680 346 1361 1078 bf black 1361 1078 m 680 X s 2041 1078 m 346 Y s 2041 1424 m -680 X s 1361 1424 m -346 Y s
 gsave  2268 1155 0 385 C 1530.22 1384.02 t 0 r /Helvetica findfont 45.5484 sf 0 0 m (stopt) show NC gr  1 0.6 0 c 1386 1375 m 119 X 41 Y -119 X f 1386 1396 m 119 X s black /w 2 def /w2 {w 2 div} def /w3 {w 3 div} def 1446 1396 m20
 gsave  2268 1155 0 385 C 1530.22 1325.54 t 0 r /Helvetica findfont 45.5484 sf 0 0 m (stopWt) show NC gr  1 0.6 0 c 1386 1318 m 119 X 40 Y -119 X f 1386 1338 m 119 X s black 1446 1338 m20
 gsave  2268 1155 0 385 C 1530.22 1270.31 t 0 r /Helvetica findfont 45.5484 sf 0 0 m (ttbar) show NC gr  1 0.8 0 c 1386 1260 m 119 X 40 Y -119 X f 1386 1280 m 119 X s black 1446 1280 m20
 gsave  2268 1155 0 385 C 1530.22 1211.83 t 0 r /Helvetica findfont 45.5484 sf 0 0 m (Z) show NC gr  0.4 0.8 1 c 1386 1202 m 119 X 41 Y -119 X f 1386 1222 m 119 X s black 1446 1222 m20
 gsave  2268 1155 0 385 C 1530.22 1153.35 t 0 r /Helvetica findfont 45.5484 sf 0 0 m (W) show NC gr  0 0.6 0 c 1386 1144 m 119 X 41 Y -119 X f 1386 1165 m 119 X s black 1446 1165 m20
 gsave  2268 1155 0 385 C 1530.22 1094.87 t 0 r /Helvetica findfont 45.5484 sf 0 0 m (HVTWZvvqq2000) show NC gr  1 1 1 c 1386 1087 m 119 X 40 Y -119 X f 1 0 0 c 6 lw 1386 1107 m 119 X s black 3 lw 1446 1107 m20 6 lw 3 lw 1 1 1 c 2268 385 0 0 bf black
 1 1 1 c 1814 270 227 115 bf black 1814 270 227 115 bl 1 0.6 0 c 1 0.8 0 c black 1 0.8 0 c 46 4 680 248 bf black 703 250 m20 1 0.8 0 c 45 4 726 248 bf black 748 250 m20 1 0.8 0 c 45 8 771 246 bf black 794 250 m20 1 0.8 0 c 46 5 816 248 bf black 839
 250 m20 1 0.8 0 c 45 5 862 248 bf black 884 250 m20 1 0.8 0 c 45 8 907 246 bf black 930 250 m20 1 0.8 0 c 46 6 952 247 bf black 975 250 m20 1 0.8 0 c 45 8 998 246 bf black 1020 250 m20 1 0.8 0 c 46 10 1043 245 bf black 1066 250 m20 1 0.8 0 c 45 8
 1089 246 bf black 1111 250 m20 1 0.8 0 c 45 32 1134 234 bf black 1157 250 m20 1 0.8 0 c 46 13 1179 244 bf black 1202 250 m20 1 0.8 0 c 45 8 1225 246 bf black 1247 250 m20 1 0.8 0 c 45 49 1270 226 bf black 1293 250 m20 1 0.8 0 c 46 10 1315 245 bf
 black 1338 250 m20 1 0.8 0 c 45 12 1361 244 bf black 1383 250 m20 1 0.8 0 c 45 15 1406 243 bf black 1429 250 m20 1 0.8 0 c 46 60 1451 220 bf black 1474 250 m20 1 0.8 0 c 45 40 1497 230 bf black 1519 250 m20 1 0.8 0 c 45 18 1542 241 bf black 1565 250
 m20 1 0.8 0 c 46 26 1587 237 bf black 1610 250 m20 1 0.8 0 c 45 51 1633 225 bf black 1655 250 m20 1 0.8 0 c 45 24 1678 238 bf black 1701 250 m20 1 0.8 0 c 46 24 1723 238 bf black 1746 250 m20 1 0.8 0 c 45 30 1769 235 bf black 1791 250 m20 1 0.8 0 c
 46 30 1814 235 bf black 1837 250 m20 1 0.8 0 c 45 29 1860 236 bf black 1882 250 m20 1 0.8 0 c 45 27 1905 237 bf black 1928 250 m20 1 0.8 0 c 46 32 1950 234 bf black 1973 250 m20 1 0.8 0 c 45 35 1996 233 bf black 2018 250 m20 227 115 m 1814 X s
 gsave  2268 385 0 0 C 1832.37 29.2399 t 0 r /Helvetica findfont 42.4144 sf 0 0 m (MET [GeV]) show NC gr  227 125 m -10 Y s 263 120 m -5 Y s 299 120 m -5 Y s 336 120 m -5 Y s 372 120 m -5 Y s 408 125 m -10 Y s 444 120 m -5 Y s 481 120 m -5 Y s 517
 120 m -5 Y s 553 120 m -5 Y s 590 125 m -10 Y s 626 120 m -5 Y s 662 120 m -5 Y s 698 120 m -5 Y s 735 120 m -5 Y s 771 125 m -10 Y s 807 120 m -5 Y s 844 120 m -5 Y s 880 120 m -5 Y s 916 120 m -5 Y s 952 125 m -10 Y s 989 120 m -5 Y s 1025 120 m
 -5 Y s 1061 120 m -5 Y s 1098 120 m -5 Y s 1134 125 m -10 Y s 1170 120 m -5 Y s 1206 120 m -5 Y s 1243 120 m -5 Y s 1279 120 m -5 Y s 1315 125 m -10 Y s 1352 120 m -5 Y s 1388 120 m -5 Y s 1424 120 m -5 Y s 1460 120 m -5 Y s 1497 125 m -10 Y s 1533
 120 m -5 Y s 1569 120 m -5 Y s 1606 120 m -5 Y s 1642 120 m -5 Y s 1678 125 m -10 Y s 1714 120 m -5 Y s 1751 120 m -5 Y s 1787 120 m -5 Y s 1823 120 m -5 Y s 1860 125 m -10 Y s 1896 120 m -5 Y s 1932 120 m -5 Y s 1968 120 m -5 Y s 2005 120 m -5 Y s
 2041 125 m -10 Y s
 gsave  2268 385 0 0 C 211.177 77.9731 t 0 r /Helvetica findfont 42.4144 sf 0 0 m (0) show NC gr 
 gsave  2268 385 0 0 C 370.372 77.9731 t 0 r /Helvetica findfont 42.4144 sf 0 0 m (100) show NC gr 
 gsave  2268 385 0 0 C 552.309 77.9731 t 0 r /Helvetica findfont 42.4144 sf 0 0 m (200) show NC gr 
 gsave  2268 385 0 0 C 734.246 77.9731 t 0 r /Helvetica findfont 42.4144 sf 0 0 m (300) show NC gr 
 gsave  2268 385 0 0 C 916.183 77.9731 t 0 r /Helvetica findfont 42.4144 sf 0 0 m (400) show NC gr 
 gsave  2268 385 0 0 C 1098.12 77.9731 t 0 r /Helvetica findfont 42.4144 sf 0 0 m (500) show NC gr 
 gsave  2268 385 0 0 C 1276.81 77.9731 t 0 r /Helvetica findfont 42.4144 sf 0 0 m (600) show NC gr 
 gsave  2268 385 0 0 C 1458.75 77.9731 t 0 r /Helvetica findfont 42.4144 sf 0 0 m (700) show NC gr 
 gsave  2268 385 0 0 C 1640.68 77.9731 t 0 r /Helvetica findfont 42.4144 sf 0 0 m (800) show NC gr 
 gsave  2268 385 0 0 C 1822.62 77.9731 t 0 r /Helvetica findfont 42.4144 sf 0 0 m (900) show NC gr 
 gsave  2268 385 0 0 C 1991.56 77.9731 t 0 r /Helvetica findfont 42.4144 sf 0 0 m (1000) show NC gr  227 115 m 270 Y s 274 115 m -47 X s 251 121 m -24 X s 251 126 m -24 X s 251 132 m -24 X s 251 137 m -24 X s 274 142 m -47 X s 251 148 m -24 X s 251
 153 m -24 X s 251 159 m -24 X s 251 164 m -24 X s 274 169 m -47 X s 251 175 m -24 X s 251 180 m -24 X s 251 186 m -24 X s 251 191 m -24 X s 274 196 m -47 X s 251 202 m -24 X s 251 207 m -24 X s 251 213 m -24 X s 251 218 m -24 X s 274 223 m -47 X s
 251 229 m -24 X s 251 234 m -24 X s 251 239 m -24 X s 251 245 m -24 X s 274 250 m -47 X s 251 256 m -24 X s 251 261 m -24 X s 251 266 m -24 X s 251 272 m -24 X s 274 277 m -47 X s 251 283 m -24 X s 251 288 m -24 X s 251 293 m -24 X s 251 299 m -24 X
 s 274 304 m -47 X s 251 310 m -24 X s 251 315 m -24 X s 251 320 m -24 X s 251 326 m -24 X s 274 331 m -47 X s 251 336 m -24 X s 251 342 m -24 X s 251 347 m -24 X s 251 353 m -24 X s 274 358 m -47 X s 251 363 m -24 X s 251 369 m -24 X s 251 374 m -24
 X s 251 380 m -24 X s 274 385 m -47 X s
 gsave  2268 385 0 0 C 155.946 100.715 t 0 r /Helvetica findfont 42.4144 sf 0 0 m (0.5) show NC gr 
 gsave  2268 385 0 0 C 155.946 126.706 t 0 r /Helvetica findfont 42.4144 sf 0 0 m (0.6) show NC gr 
 gsave  2268 385 0 0 C 155.946 155.946 t 0 r /Helvetica findfont 42.4144 sf 0 0 m (0.7) show NC gr 
 gsave  2268 385 0 0 C 155.946 181.937 t 0 r /Helvetica findfont 42.4144 sf 0 0 m (0.8) show NC gr 
 gsave  2268 385 0 0 C 155.946 207.928 t 0 r /Helvetica findfont 42.4144 sf 0 0 m (0.9) show NC gr 
 gsave  2268 385 0 0 C 198.182 233.919 t 0 r /Helvetica findfont 42.4144 sf 0 0 m (1) show NC gr 
 gsave  2268 385 0 0 C 162.444 259.91 t 0 r /Helvetica findfont 42.4144 sf 0 0 m (1.1) show NC gr 
 gsave  2268 385 0 0 C 155.946 285.901 t 0 r /Helvetica findfont 42.4144 sf 0 0 m (1.2) show NC gr 
 gsave  2268 385 0 0 C 155.946 315.141 t 0 r /Helvetica findfont 42.4144 sf 0 0 m (1.3) show NC gr 
 gsave  2268 385 0 0 C 155.946 341.132 t 0 r /Helvetica findfont 42.4144 sf 0 0 m (1.4) show NC gr 
 gsave  2268 385 0 0 C 155.946 370.372 t 0 r /Helvetica findfont 42.4144 sf 0 0 m (1.5) show NC gr  0 0 0.6 c 1 1 1 c black 0 0 0.6 c 680 269 m 10 X s 716 269 m 10 X s black /w 26 def /w2 {w 2 div} def /w3 {w 3 div} def 703 269 m20 0 0 0.6 c 726 269
 m 9 X s 761 269 m 10 X s black 748 269 m20 0 0 0.6 c 771 272 m 10 X s 807 272 m 9 X s black 794 272 m20 0 0 0.6 c 816 276 m 10 X s 852 276 m 10 X s black 839 276 m20 0 0 0.6 c 862 286 m 9 X s 897 286 m 10 X s black 884 286 m20 0 0 0.6 c 907 283 m 10
 X s 943 283 m 9 X s black 930 283 m20 0 0 0.6 c 952 276 m 10 X s 988 276 m 10 X s black 975 276 m20 0 0 0.6 c 998 280 m 9 X s 1033 280 m 10 X s black 1020 280 m20 0 0 0.6 c 1043 273 m 10 X s 1079 273 m 10 X s black 1066 273 m20 0 0 0.6 c 1089 260 m
 9 X s 1124 260 m 10 X s black 1111 260 m20 0 0 0.6 c 1157 273 m 1 Y s 1157 300 m 1 Y s 1134 287 m 10 X s 1170 287 m 9 X s black 1157 287 m20 0 0 0.6 c 1179 277 m 10 X s 1215 277 m 10 X s black 1202 277 m20 0 0 0.6 c 1225 262 m 9 X s 1260 262 m 10 X
 s black 1247 262 m20 0 0 0.6 c 1293 290 m 10 Y s 1293 326 m 11 Y s 1270 313 m 10 X s 1306 313 m 9 X s black 1293 313 m20 0 0 0.6 c 1315 272 m 10 X s 1351 272 m 10 X s black 1338 272 m20 0 0 0.6 c 1361 282 m 9 X s 1396 282 m 10 X s black 1383 282 m20
 0 0 0.6 c 1429 257 m s 1429 283 m 1 Y s 1406 270 m 10 X s 1442 270 m 9 X s black 1429 270 m20 0 0 0.6 c 1474 263 m 16 Y s 1474 305 m 15 Y s 1451 292 m 10 X s 1487 292 m 10 X s black 1474 292 m20 0 0 0.6 c 1519 241 m 8 Y s 1519 275 m 8 Y s 1497 262 m
 9 X s 1532 262 m 10 X s black 1519 262 m20 0 0 0.6 c 1565 271 m 6 Y s 1565 303 m 6 Y s 1542 290 m 10 X s 1578 290 m 9 X s black 1565 290 m20 0 0 0.6 c 1610 252 m 8 Y s 1610 286 m 8 Y s 1587 273 m 10 X s 1623 273 m 10 X s black 1610 273 m20 0 0 0.6 c
 1655 269 m 19 Y s 1655 314 m 19 Y s 1633 301 m 9 X s 1668 301 m 10 X s black 1655 301 m20 0 0 0.6 c 1701 242 m 11 Y s 1701 279 m 12 Y s 1678 266 m 10 X s 1714 266 m 9 X s black 1701 266 m20 0 0 0.6 c 1746 283 m 17 Y s 1746 326 m 16 Y s 1723 313 m 10
 X s 1759 313 m 10 X s black 1746 313 m20 0 0 0.6 c 1791 264 m 20 Y s 1791 310 m 20 Y s 1769 297 m 10 X s 1804 297 m 10 X s black 1791 297 m20 0 0 0.6 c 1837 176 m 16 Y s 1837 218 m 15 Y s 1814 205 m 10 X s 1850 205 m 10 X s black 1837 205 m20 0 0
 0.6 c 1882 314 m 30 Y s 1882 370 m 15 Y s 1860 357 m 9 X s 1895 357 m 10 X s black 1882 357 m20 0 0 0.6 c 1928 228 m 26 Y s 1928 280 m 25 Y s 1905 267 m 10 X s 1941 267 m 9 X s black 1928 267 m20 0 0 0.6 c 1973 218 m 29 Y s 1973 273 m 29 Y s 1950
 260 m 10 X s 1986 260 m 10 X s black 1973 260 m20 0 0 0.6 c 2018 244 m 36 Y s 2018 306 m 36 Y s 1996 293 m 9 X s 2031 293 m 10 X s black 2018 293 m20 1 0 0 c[ 12 12] 0 sd 227 250 m 1814 X s
 gr  gr showpage
end
%%EOF
