%!PS-Adobe-2.0 EPSF-2.0
%%BoundingBox:  0 0 567 385
%%Title: : c1
%%Creator: ROOT Version 6.04/16
%%CreationDate: Fri Jan 13 16:39:53 2017
%%DocumentNeededResources: ProcSet (FontSetInit)
%%EndComments
%%BeginProlog
80 dict begin
/s {stroke} def /l {lineto} def /m {moveto} def /t {translate} def
/r {rotate} def /rl {roll}  def /R {repeat} def
/d {rlineto} def /rm {rmoveto} def /gr {grestore} def /f {eofill} def
/c {setrgbcolor} def /black {0 setgray} def /sd {setdash} def
/cl {closepath} def /sf {scalefont setfont} def /lw {setlinewidth} def
/box {m dup 0 exch d exch 0 d 0 exch neg d cl} def
/NC{systemdict begin initclip end}def/C{NC box clip newpath}def
/bl {box s} def /bf {gsave box gsave f grestore 1 lw [] 0 sd s grestore} def /Y { 0 exch d} def /X { 0 d} def 
/K {{pop pop 0 moveto} exch kshow} bind def
/ita {/ang 15 def gsave [1 0 ang dup sin exch cos div 1 0 0] concat} def 
/mp {newpath /y exch def /x exch def} def
/side {[w .77 mul w .23 mul] .385 w mul sd w 0 l currentpoint t -144 r} def
/mr {mp x y w2 0 360 arc} def /m24 {mr s} def /m20 {mr f} def
/mb {mp x y w2 add m w2 neg 0 d 0 w neg d w 0 d 0 w d cl} def
/mt {mp x y w2 add m w2 neg w neg d w 0 d cl} def
/m21 {mb f} def /m25 {mb s} def /m22 {mt f} def /m26{mt s} def
/m23 {mp x y w2 sub m w2 w d w neg 0 d cl f} def
/m27 {mp x y w2 add m w3 neg w2 neg d w3 w2 neg d w3 w2 d cl s} def
/m28 {mp x w2 sub y w2 sub w3 add m w3 0 d  0 w3 neg d w3 0 d 0 w3 d w3 0 d  0 w3 d w3 neg 0 d 0 w3 d w3 neg 0 d 0 w3 neg d w3 neg 0 d cl s } def
/m29 {mp gsave x w2 sub y w2 add w3 sub m currentpoint t 4 {side} repeat cl fill gr} def
/m30 {mp gsave x w2 sub y w2 add w3 sub m currentpoint t 4 {side} repeat cl s gr} def
/m31 {mp x y w2 sub m 0 w d x w2 sub y m w 0 d x w2 sub y w2 add m w w neg d x w2 sub y w2 sub m w w d s} def
/m32 {mp x y w2 sub m w2 w d w neg 0 d cl s} def
/m33 {mp x y w2 add m w3 neg w2 neg d w3 w2 neg d w3 w2 d cl f} def
/m34 {mp x w2 sub y w2 sub w3 add m w3 0 d  0 w3 neg d w3 0 d 0 w3 d w3 0 d  0 w3 d w3 neg 0 d 0 w3 d w3 neg 0 d 0 w3 neg d w3 neg 0 d cl f } def
/m2 {mp x y w2 sub m 0 w d x w2 sub y m w 0 d s} def
/m5 {mp x w2 sub y w2 sub m w w d x w2 sub y w2 add m w w neg d s} def
%%IncludeResource: ProcSet (FontSetInit)
%%IncludeResource: font Times-Roman
%%IncludeResource: font Times-Italic
%%IncludeResource: font Times-Bold
%%IncludeResource: font Times-BoldItalic
%%IncludeResource: font Helvetica
%%IncludeResource: font Helvetica-Oblique
%%IncludeResource: font Helvetica-Bold
%%IncludeResource: font Helvetica-BoldOblique
%%IncludeResource: font Courier
%%IncludeResource: font Courier-Oblique
%%IncludeResource: font Courier-Bold
%%IncludeResource: font Courier-BoldOblique
%%IncludeResource: font Symbol
%%IncludeResource: font ZapfDingbats
/reEncode {exch findfont dup length dict begin {1 index /FID eq  {pop pop} {def} ifelse } forall /Encoding exch def currentdict end dup /FontName get exch definefont pop } def [/Times-Bold /Times-Italic /Times-BoldItalic /Helvetica /Helvetica-Oblique
 /Helvetica-Bold /Helvetica-BoldOblique /Courier /Courier-Oblique /Courier-Bold /Courier-BoldOblique /Times-Roman /AvantGarde-Book /AvantGarde-BookOblique /AvantGarde-Demi /AvantGarde-DemiOblique /Bookman-Demi /Bookman-DemiItalic /Bookman-Light
 /Bookman-LightItalic /Helvetica-Narrow /Helvetica-Narrow-Bold /Helvetica-Narrow-BoldOblique /Helvetica-Narrow-Oblique /NewCenturySchlbk-Roman /NewCenturySchlbk-Bold /NewCenturySchlbk-BoldItalic /NewCenturySchlbk-Italic /Palatino-Bold
 /Palatino-BoldItalic /Palatino-Italic /Palatino-Roman ] {ISOLatin1Encoding reEncode } forall
%%EndProlog
%%BeginSetup
%%EndSetup
newpath  gsave  .25 .25 scale  gsave  0 0 t black[  ] 0 sd 3 lw 1 1 1 c 2268 1540 0 0 bf black 1 1 1 c 2268 1155 0 385 bf black 1 1 1 c 1814 1039 227 385 bf black 1814 1039 227 385 bl 0 0 0.6 c 1 1 1 c black 0 0 0.6 c 227 385 m 1814 X s black 227 385
 m 1814 X s 227 413 m -28 Y s 272 399 m -14 Y s 317 399 m -14 Y s 363 399 m -14 Y s 408 413 m -28 Y s 454 399 m -14 Y s 499 399 m -14 Y s 544 399 m -14 Y s 590 413 m -28 Y s 635 399 m -14 Y s 680 399 m -14 Y s 726 399 m -14 Y s 771 413 m -28 Y s 816
 399 m -14 Y s 862 399 m -14 Y s 907 399 m -14 Y s 952 413 m -28 Y s 998 399 m -14 Y s 1043 399 m -14 Y s 1089 399 m -14 Y s 1134 413 m -28 Y s 1179 399 m -14 Y s 1225 399 m -14 Y s 1270 399 m -14 Y s 1315 413 m -28 Y s 1361 399 m -14 Y s 1406 399 m
 -14 Y s 1451 399 m -14 Y s 1497 413 m -28 Y s 1542 399 m -14 Y s 1587 399 m -14 Y s 1633 399 m -14 Y s 1678 413 m -28 Y s 1723 399 m -14 Y s 1769 399 m -14 Y s 1814 399 m -14 Y s 1860 413 m -28 Y s 1905 399 m -14 Y s 1950 399 m -14 Y s 1996 399 m
 -14 Y s 2041 413 m -28 Y s
 gsave  2268 1155 0 385 C 211.177 347.63 t 0 r /Helvetica findfont 39.0414 sf 0 0 m (0) show NC gr 
 gsave  2268 1155 0 385 C 383.368 347.63 t 0 r /Helvetica findfont 39.0414 sf 0 0 m (20) show NC gr 
 gsave  2268 1155 0 385 C 565.305 347.63 t 0 r /Helvetica findfont 39.0414 sf 0 0 m (40) show NC gr 
 gsave  2268 1155 0 385 C 747.242 347.63 t 0 r /Helvetica findfont 39.0414 sf 0 0 m (60) show NC gr 
 gsave  2268 1155 0 385 C 929.179 347.63 t 0 r /Helvetica findfont 39.0414 sf 0 0 m (80) show NC gr 
 gsave  2268 1155 0 385 C 1101.37 347.63 t 0 r /Helvetica findfont 39.0414 sf 0 0 m (100) show NC gr 
 gsave  2268 1155 0 385 C 1280.06 347.63 t 0 r /Helvetica findfont 39.0414 sf 0 0 m (120) show NC gr 
 gsave  2268 1155 0 385 C 1461.99 347.63 t 0 r /Helvetica findfont 39.0414 sf 0 0 m (140) show NC gr 
 gsave  2268 1155 0 385 C 1643.93 347.63 t 0 r /Helvetica findfont 39.0414 sf 0 0 m (160) show NC gr 
 gsave  2268 1155 0 385 C 1825.87 347.63 t 0 r /Helvetica findfont 39.0414 sf 0 0 m (180) show NC gr 
 gsave  2268 1155 0 385 C 2007.81 347.63 t 0 r /Helvetica findfont 39.0414 sf 0 0 m (200) show NC gr  227 385 m 1039 Y s 257 396 m -30 X s 257 415 m -30 X s 257 430 m -30 X s 257 442 m -30 X s 257 452 m -30 X s 257 461 m -30 X s 257 469 m -30 X s 288
 476 m -61 X s
 gsave  2268 1155 0 385 C 198.182 477.585 t 0 r /Helvetica findfont 26.0276 sf 0 0 m (1) show NC gr 
 gsave  2268 1155 0 385 C 181.937 477.585 t 0 r /Symbol findfont 26.0276 sf 0 0 m (-) show NC gr 
 gsave  2268 1155 0 385 C 139.702 458.092 t 0 r /Helvetica findfont 39.0414 sf 0 0 m (10) show NC gr  257 521 m -30 X s 257 548 m -30 X s 257 567 m -30 X s 257 582 m -30 X s 257 594 m -30 X s 257 604 m -30 X s 257 612 m -30 X s 257 620 m -30 X s 288
 627 m -61 X s
 gsave  2268 1155 0 385 C 209.083 611.563 t 0 r  -20 0 t /Helvetica findfont 39.0414 sf 0 0 m (1) show NC gr  257 673 m -30 X s 257 699 m -30 X s 257 718 m -30 X s 257 733 m -30 X s 257 745 m -30 X s 257 755 m -30 X s 257 764 m -30 X s 257 772 m -30
 X s 288 779 m -61 X s
 gsave  2268 1155 0 385 C 209.083 763.129 t 0 r  -41 0 t /Helvetica findfont 39.0414 sf 0 0 m (10) show NC gr  257 824 m -30 X s 257 851 m -30 X s 257 870 m -30 X s 257 885 m -30 X s 257 897 m -30 X s 257 907 m -30 X s 257 916 m -30 X s 257 923 m -30
 X s 288 930 m -61 X s
 gsave  2268 1155 0 385 C 191.684 932.428 t 0 r /Helvetica findfont 26.0276 sf 0 0 m (2) show NC gr 
 gsave  2268 1155 0 385 C 149.448 912.935 t 0 r /Helvetica findfont 39.0414 sf 0 0 m (10) show NC gr  257 976 m -30 X s 257 1003 m -30 X s 257 1022 m -30 X s 257 1036 m -30 X s 257 1048 m -30 X s 257 1058 m -30 X s 257 1067 m -30 X s 257 1075 m -30 X
 s 288 1082 m -61 X s
 gsave  2268 1155 0 385 C 191.684 1085.13 t 0 r /Helvetica findfont 26.0276 sf 0 0 m (3) show NC gr 
 gsave  2268 1155 0 385 C 149.448 1062.38 t 0 r /Helvetica findfont 39.0414 sf 0 0 m (10) show NC gr  257 1127 m -30 X s 257 1154 m -30 X s 257 1173 m -30 X s 257 1188 m -30 X s 257 1200 m -30 X s 257 1210 m -30 X s 257 1219 m -30 X s 257 1226 m -30
 X s 288 1233 m -61 X s
 gsave  2268 1155 0 385 C 191.684 1234.57 t 0 r /Helvetica findfont 26.0276 sf 0 0 m (4) show NC gr 
 gsave  2268 1155 0 385 C 149.448 1215.08 t 0 r /Helvetica findfont 39.0414 sf 0 0 m (10) show NC gr  257 1279 m -30 X s 257 1306 m -30 X s 257 1325 m -30 X s 257 1339 m -30 X s 257 1351 m -30 X s 257 1362 m -30 X s 257 1370 m -30 X s 257 1378 m -30
 X s 288 1385 m -61 X s
 gsave  2268 1155 0 385 C 191.684 1390.52 t 0 r /Helvetica findfont 26.0276 sf 0 0 m (5) show NC gr 
 gsave  2268 1155 0 385 C 149.448 1367.78 t 0 r /Helvetica findfont 39.0414 sf 0 0 m (10) show NC gr  0 0.6 0 c black 0 0.6 0 c 227 385 m 877 Y 90 X 90 Y 91 X -25 Y 91 X -29 Y 91 X -20 Y 90 X -16 Y 91 X -10 Y 91 X -8 Y 90 X -5 Y 91 X -12 Y 91 X -13 Y
 91 X -12 Y 90 X -13 Y 91 X -15 Y 91 X -14 Y 90 X -12 Y 91 X -11 Y 91 X -16 Y 91 X -23 Y 90 X -29 Y 91 X -684 Y f 227 1262 m 90 X 90 Y 91 X -25 Y 91 X -29 Y 91 X -20 Y 90 X -16 Y 91 X -10 Y 91 X -8 Y 90 X -5 Y 91 X -12 Y 91 X -13 Y 91 X -12 Y 90 X
 -13 Y 91 X -15 Y 91 X -14 Y 90 X -12 Y 91 X -11 Y 91 X -16 Y 91 X -23 Y 90 X -29 Y 91 X s 0.4 0.8 1 c 0.999 0.999 0.999 c black 0.999 0.999 0.999 c 227 385 m 847 Y 90 X 89 Y 91 X -24 Y 91 X -30 Y 91 X -20 Y 90 X -15 Y 91 X -9 Y 91 X -6 Y 90 X -4 Y
 91 X -12 Y 91 X -13 Y 91 X -12 Y 90 X -13 Y 91 X -14 Y 91 X -12 Y 90 X -10 Y 91 X -7 Y 91 X -16 Y 91 X -24 Y 90 X -32 Y 91 X -663 Y f 0.4 0.8 1 c 0.999 0.999 0.999 c 0.4 0.8 1 c 227 1232 m 90 X 89 Y 91 X -24 Y 91 X -30 Y 91 X -20 Y 90 X -15 Y 91 X
 -9 Y 91 X -6 Y 90 X -4 Y 91 X -12 Y 91 X -13 Y 91 X -12 Y 90 X -13 Y 91 X -14 Y 91 X -12 Y 90 X -10 Y 91 X -7 Y 91 X -16 Y 91 X -24 Y 90 X -32 Y 91 X s 1 1 1 c black 0.4 0.8 1 c 227 1232 m 90 X 89 Y 91 X -24 Y 91 X -30 Y 91 X -20 Y 90 X -15 Y 91 X
 -9 Y 91 X -6 Y 90 X -4 Y 91 X -12 Y 91 X -13 Y 91 X -12 Y 90 X -13 Y 91 X -14 Y 91 X -12 Y 90 X -10 Y 91 X -7 Y 91 X -16 Y 91 X -24 Y 90 X -32 Y 91 X s black 0.4 0.8 1 c 227 385 m 847 Y 90 X 89 Y 91 X -24 Y 91 X -30 Y 91 X -20 Y 90 X -15 Y 91 X -9 Y
 91 X -6 Y 90 X -4 Y 91 X -12 Y 91 X -13 Y 91 X -12 Y 90 X -13 Y 91 X -14 Y 91 X -12 Y 90 X -10 Y 91 X -7 Y 91 X -16 Y 91 X -24 Y 90 X -32 Y 91 X -663 Y f 227 1232 m 90 X 89 Y 91 X -24 Y 91 X -30 Y 91 X -20 Y 90 X -15 Y 91 X -9 Y 91 X -6 Y 90 X -4 Y
 91 X -12 Y 91 X -13 Y 91 X -12 Y 90 X -13 Y 91 X -14 Y 91 X -12 Y 90 X -10 Y 91 X -7 Y 91 X -16 Y 91 X -24 Y 90 X -32 Y 91 X s 1 0.8 0 c 0.999 0.999 0.999 c black 0.999 0.999 0.999 c 227 385 m 576 Y 90 X 111 Y 91 X -4 Y 91 X -17 Y 91 X -6 Y 90 X 9 Y
 91 X 19 Y 91 X 30 Y 90 X 16 Y 91 X -21 Y 91 X -19 Y 91 X -3 Y 90 X -4 Y 91 X -2 Y 181 X 1 Y 91 X 5 Y 91 X -10 Y 91 X -31 Y 90 X -46 Y 91 X -604 Y f 1 0.8 0 c 0.999 0.999 0.999 c 1 0.8 0 c 227 961 m 90 X 111 Y 91 X -4 Y 91 X -17 Y 91 X -6 Y 90 X 9 Y
 91 X 19 Y 91 X 30 Y 90 X 16 Y 91 X -21 Y 91 X -19 Y 91 X -3 Y 90 X -4 Y 91 X -2 Y 181 X 1 Y 91 X 5 Y 91 X -10 Y 91 X -31 Y 90 X -46 Y 91 X s 1 1 1 c black 1 0.8 0 c 227 961 m 90 X 111 Y 91 X -4 Y 91 X -17 Y 91 X -6 Y 90 X 9 Y 91 X 19 Y 91 X 30 Y 90
 X 16 Y 91 X -21 Y 91 X -19 Y 91 X -3 Y 90 X -4 Y 91 X -2 Y 181 X 1 Y 91 X 5 Y 91 X -10 Y 91 X -31 Y 90 X -46 Y 91 X s black 1 0.8 0 c 227 385 m 576 Y 90 X 111 Y 91 X -4 Y 91 X -17 Y 91 X -6 Y 90 X 9 Y 91 X 19 Y 91 X 30 Y 90 X 16 Y 91 X -21 Y 91 X
 -19 Y 91 X -3 Y 90 X -4 Y 91 X -2 Y 181 X 1 Y 91 X 5 Y 91 X -10 Y 91 X -31 Y 90 X -46 Y 91 X -604 Y f 227 961 m 90 X 111 Y 91 X -4 Y 91 X -17 Y 91 X -6 Y 90 X 9 Y 91 X 19 Y 91 X 30 Y 90 X 16 Y 91 X -21 Y 91 X -19 Y 91 X -3 Y 90 X -4 Y 91 X -2 Y 181
 X 1 Y 91 X 5 Y 91 X -10 Y 91 X -31 Y 90 X -46 Y 91 X s 1 0.6 0 c 0.999 0.999 0.999 c black 0.999 0.999 0.999 c 227 385 m 417 Y 90 X 110 Y 91 X -16 Y 91 X -27 Y 91 X -2 Y 90 X 1 Y 91 X 17 Y 91 X 35 Y 90 X 21 Y 91 X -36 Y 91 X -28 Y 91 X -5 Y 90 X -8
 Y 91 X -2 Y 91 X -9 Y 90 X -7 Y 91 X 1 Y 91 X -7 Y 91 X -31 Y 90 X -39 Y 91 X -385 Y f 1 0.6 0 c 0.999 0.999 0.999 c 1 0.6 0 c 227 802 m 90 X 110 Y 91 X -16 Y 91 X -27 Y 91 X -2 Y 90 X 1 Y 91 X 17 Y 91 X 35 Y 90 X 21 Y 91 X -36 Y 91 X -28 Y 91 X -5
 Y 90 X -8 Y 91 X -2 Y 91 X -9 Y 90 X -7 Y 91 X 1 Y 91 X -7 Y 91 X -31 Y 90 X -39 Y 91 X s 1 1 1 c black 1 0.6 0 c 227 802 m 90 X 110 Y 91 X -16 Y 91 X -27 Y 91 X -2 Y 90 X 1 Y 91 X 17 Y 91 X 35 Y 90 X 21 Y 91 X -36 Y 91 X -28 Y 91 X -5 Y 90 X -8 Y
 91 X -2 Y 91 X -9 Y 90 X -7 Y 91 X 1 Y 91 X -7 Y 91 X -31 Y 90 X -39 Y 91 X s black 1 0.6 0 c 227 385 m 417 Y 90 X 110 Y 91 X -16 Y 91 X -27 Y 91 X -2 Y 90 X 1 Y 91 X 17 Y 91 X 35 Y 90 X 21 Y 91 X -36 Y 91 X -28 Y 91 X -5 Y 90 X -8 Y 91 X -2 Y 91 X
 -9 Y 90 X -7 Y 91 X 1 Y 91 X -7 Y 91 X -31 Y 90 X -39 Y 91 X -385 Y f 227 802 m 90 X 110 Y 91 X -16 Y 91 X -27 Y 91 X -2 Y 90 X 1 Y 91 X 17 Y 91 X 35 Y 90 X 21 Y 91 X -36 Y 91 X -28 Y 91 X -5 Y 90 X -8 Y 91 X -2 Y 91 X -9 Y 90 X -7 Y 91 X 1 Y 91 X
 -7 Y 91 X -31 Y 90 X -39 Y 91 X s 0.999 0.999 0.999 c black 0.999 0.999 0.999 c 227 385 m 107 Y 90 X 120 Y 91 X -26 Y 91 X -49 Y 91 X -17 Y 90 X -25 Y 91 X -19 Y 91 X -24 Y 90 X -1 Y 91 X 6 Y 91 X -13 Y 91 X -30 Y 90 X 24 Y 91 X -53 Y 635 X f 1 0.6
 0 c 0.999 0.999 0.999 c 1 0.6 0 c 227 492 m 90 X 120 Y 91 X -26 Y 91 X -49 Y 91 X -17 Y 90 X -25 Y 91 X -19 Y 91 X -24 Y 90 X -1 Y 91 X 6 Y 91 X -13 Y 91 X -30 Y 90 X 24 Y 91 X -53 Y 635 X s 1 1 1 c black 1 0.6 0 c 227 492 m 90 X 120 Y 91 X -26 Y 91
 X -49 Y 91 X -17 Y 90 X -25 Y 91 X -19 Y 91 X -24 Y 90 X -1 Y 91 X 6 Y 91 X -13 Y 91 X -30 Y 90 X 24 Y 91 X -53 Y 635 X s black 1 0.6 0 c 227 385 m 107 Y 90 X 120 Y 91 X -26 Y 91 X -49 Y 91 X -17 Y 90 X -25 Y 91 X -19 Y 91 X -24 Y 90 X -1 Y 91 X 6 Y
 91 X -13 Y 91 X -30 Y 90 X 24 Y 91 X -53 Y 635 X f 227 492 m 90 X 120 Y 91 X -26 Y 91 X -49 Y 91 X -17 Y 90 X -25 Y 91 X -19 Y 91 X -24 Y 90 X -1 Y 91 X 6 Y 91 X -13 Y 91 X -30 Y 90 X 24 Y 91 X -53 Y 635 X s black 227 385 m 1814 X s 227 413 m -28 Y
 s 272 399 m -14 Y s 317 399 m -14 Y s 363 399 m -14 Y s 408 413 m -28 Y s 454 399 m -14 Y s 499 399 m -14 Y s 544 399 m -14 Y s 590 413 m -28 Y s 635 399 m -14 Y s 680 399 m -14 Y s 726 399 m -14 Y s 771 413 m -28 Y s 816 399 m -14 Y s 862 399 m -14
 Y s 907 399 m -14 Y s 952 413 m -28 Y s 998 399 m -14 Y s 1043 399 m -14 Y s 1089 399 m -14 Y s 1134 413 m -28 Y s 1179 399 m -14 Y s 1225 399 m -14 Y s 1270 399 m -14 Y s 1315 413 m -28 Y s 1361 399 m -14 Y s 1406 399 m -14 Y s 1451 399 m -14 Y s
 1497 413 m -28 Y s 1542 399 m -14 Y s 1587 399 m -14 Y s 1633 399 m -14 Y s 1678 413 m -28 Y s 1723 399 m -14 Y s 1769 399 m -14 Y s 1814 399 m -14 Y s 1860 413 m -28 Y s 1905 399 m -14 Y s 1950 399 m -14 Y s 1996 399 m -14 Y s 2041 413 m -28 Y s
 227 385 m 1039 Y s 257 396 m -30 X s 257 415 m -30 X s 257 430 m -30 X s 257 442 m -30 X s 257 452 m -30 X s 257 461 m -30 X s 257 469 m -30 X s 288 476 m -61 X s 257 521 m -30 X s 257 548 m -30 X s 257 567 m -30 X s 257 582 m -30 X s 257 594 m -30
 X s 257 604 m -30 X s 257 612 m -30 X s 257 620 m -30 X s 288 627 m -61 X s 257 673 m -30 X s 257 699 m -30 X s 257 718 m -30 X s 257 733 m -30 X s 257 745 m -30 X s 257 755 m -30 X s 257 764 m -30 X s 257 772 m -30 X s 288 779 m -61 X s 257 824 m
 -30 X s 257 851 m -30 X s 257 870 m -30 X s 257 885 m -30 X s 257 897 m -30 X s 257 907 m -30 X s 257 916 m -30 X s 257 923 m -30 X s 288 930 m -61 X s 257 976 m -30 X s 257 1003 m -30 X s 257 1022 m -30 X s 257 1036 m -30 X s 257 1048 m -30 X s 257
 1058 m -30 X s 257 1067 m -30 X s 257 1075 m -30 X s 288 1082 m -61 X s 257 1127 m -30 X s 257 1154 m -30 X s 257 1173 m -30 X s 257 1188 m -30 X s 257 1200 m -30 X s 257 1210 m -30 X s 257 1219 m -30 X s 257 1226 m -30 X s 288 1233 m -61 X s 257
 1279 m -30 X s 257 1306 m -30 X s 257 1325 m -30 X s 257 1339 m -30 X s 257 1351 m -30 X s 257 1362 m -30 X s 257 1370 m -30 X s 257 1378 m -30 X s 288 1385 m -61 X s 0 0 0.6 c 1 1 1 c black 0 0 0.6 c 227 1272 m 32 X s 285 1272 m 32 X s black /w 26
 def /w2 {w 2 div} def /w3 {w 3 div} def 272 1272 m20 0 0 0.6 c 317 1361 m 33 X s 376 1361 m 32 X s black 363 1361 m20 0 0 0.6 c 408 1335 m 33 X s 467 1335 m 32 X s black 454 1335 m20 0 0 0.6 c 499 1303 m 32 X s 557 1303 m 33 X s black 544 1303 m20 0
 0 0.6 c 590 1280 m 32 X s 648 1280 m 32 X s black 635 1280 m20 0 0 0.6 c 680 1265 m 33 X s 739 1265 m 32 X s black 726 1265 m20 0 0 0.6 c 771 1254 m 32 X s 829 1254 m 33 X s black 816 1254 m20 0 0 0.6 c 862 1247 m 32 X s 920 1247 m 32 X s black 907
 1247 m20 0 0 0.6 c 952 1242 m 33 X s 1011 1242 m 32 X s black 998 1242 m20 0 0 0.6 c 1043 1228 m 33 X s 1101 1228 m 33 X s black 1089 1228 m20 0 0 0.6 c 1134 1216 m 32 X s 1192 1216 m 33 X s black 1179 1216 m20 0 0 0.6 c 1225 1205 m 32 X s 1283 1205
 m 32 X s black 1270 1205 m20 0 0 0.6 c 1315 1190 m 33 X s 1374 1190 m 32 X s black 1361 1190 m20 0 0 0.6 c 1406 1175 m 32 X s 1464 1175 m 33 X s black 1451 1175 m20 0 0 0.6 c 1497 1160 m 32 X s 1555 1160 m 32 X s black 1542 1160 m20 0 0 0.6 c 1587
 1149 m 33 X s 1646 1149 m 32 X s black 1633 1149 m20 0 0 0.6 c 1678 1133 m 32 X s 1736 1133 m 33 X s black 1723 1133 m20 0 0 0.6 c 1769 1115 m 32 X s 1827 1115 m 33 X s black 1814 1115 m20 0 0 0.6 c 1860 1092 m 32 X s 1918 1092 m 32 X s black 1905
 1092 m20 0 0 0.6 c 1950 1065 m 33 X s 2009 1065 m 32 X s black 1996 1065 m20 1 0 0 c 6 lw 1 1 1 c black 1 0 0 c 227 852 m 90 X 85 Y 91 X 31 Y 91 X 18 Y 91 X -2 Y 90 X 76 Y 91 X 78 Y 91 X 79 Y 90 X 24 Y 91 X -74 Y 91 X -110 Y 91 X -73 Y 90 X -67 Y 91
 X -20 Y 91 X -7 Y 90 X -8 Y 91 X -5 Y 91 X -4 Y 91 X 38 Y 90 X 5 Y 91 X s black 3 lw 1 1 1 c 680 346 1361 1078 bf black 1361 1078 m 680 X s 2041 1078 m 346 Y s 2041 1424 m -680 X s 1361 1424 m -346 Y s
 gsave  2268 1155 0 385 C 1530.22 1384.02 t 0 r /Helvetica findfont 45.5484 sf 0 0 m (stopt) show NC gr  1 0.6 0 c 1386 1375 m 119 X 41 Y -119 X f 1386 1396 m 119 X s black /w 2 def /w2 {w 2 div} def /w3 {w 3 div} def 1446 1396 m20
 gsave  2268 1155 0 385 C 1530.22 1325.54 t 0 r /Helvetica findfont 45.5484 sf 0 0 m (stopWt) show NC gr  1 0.6 0 c 1386 1318 m 119 X 40 Y -119 X f 1386 1338 m 119 X s black 1446 1338 m20
 gsave  2268 1155 0 385 C 1530.22 1270.31 t 0 r /Helvetica findfont 45.5484 sf 0 0 m (ttbar) show NC gr  1 0.8 0 c 1386 1260 m 119 X 40 Y -119 X f 1386 1280 m 119 X s black 1446 1280 m20
 gsave  2268 1155 0 385 C 1530.22 1211.83 t 0 r /Helvetica findfont 45.5484 sf 0 0 m (Z) show NC gr  0.4 0.8 1 c 1386 1202 m 119 X 41 Y -119 X f 1386 1222 m 119 X s black 1446 1222 m20
 gsave  2268 1155 0 385 C 1530.22 1153.35 t 0 r /Helvetica findfont 45.5484 sf 0 0 m (W) show NC gr  0 0.6 0 c 1386 1144 m 119 X 41 Y -119 X f 1386 1165 m 119 X s black 1446 1165 m20
 gsave  2268 1155 0 385 C 1530.22 1094.87 t 0 r /Helvetica findfont 45.5484 sf 0 0 m (HVTWZvvqq2000) show NC gr  1 1 1 c 1386 1087 m 119 X 40 Y -119 X f 1 0 0 c 6 lw 1386 1107 m 119 X s black 3 lw 1446 1107 m20 6 lw 3 lw 1 1 1 c 2268 385 0 0 bf black
 1 1 1 c 1814 270 227 115 bf black 1814 270 227 115 bl 1 0.6 0 c 1 0.8 0 c black 1 0.8 0 c 90 11 227 245 bf black 272 250 m20 1 0.8 0 c 91 5 317 248 bf black 363 250 m20 1 0.8 0 c 91 5 408 248 bf black 454 250 m20 1 0.8 0 c 91 6 499 247 bf black 544
 250 m20 1 0.8 0 c 90 5 590 248 bf black 635 250 m20 1 0.8 0 c 91 6 680 247 bf black 726 250 m20 1 0.8 0 c 91 6 771 247 bf black 816 250 m20 1 0.8 0 c 90 7 862 247 bf black 907 250 m20 1 0.8 0 c 91 6 952 247 bf black 998 250 m20 1 0.8 0 c 91 9 1043
 246 bf black 1089 250 m20 1 0.8 0 c 91 9 1134 246 bf black 1179 250 m20 1 0.8 0 c 90 15 1225 243 bf black 1270 250 m20 1 0.8 0 c 91 8 1315 246 bf black 1361 250 m20 1 0.8 0 c 91 9 1406 246 bf black 1451 250 m20 1 0.8 0 c 90 11 1497 245 bf black 1542
 250 m20 1 0.8 0 c 91 10 1587 245 bf black 1633 250 m20 1 0.8 0 c 91 10 1678 245 bf black 1723 250 m20 1 0.8 0 c 91 11 1769 245 bf black 1814 250 m20 1 0.8 0 c 90 14 1860 243 bf black 1905 250 m20 1 0.8 0 c 91 21 1950 240 bf black 1996 250 m20 227
 115 m 1814 X s
 gsave  2268 385 0 0 C 1838.86 29.2399 t 0 r /Helvetica findfont 42.4144 sf 0 0 m (m\(J\) [GeV]) show NC gr  227 125 m -10 Y s 272 120 m -5 Y s 317 120 m -5 Y s 363 120 m -5 Y s 408 125 m -10 Y s 454 120 m -5 Y s 499 120 m -5 Y s 544 120 m -5 Y s 590
 125 m -10 Y s 635 120 m -5 Y s 680 120 m -5 Y s 726 120 m -5 Y s 771 125 m -10 Y s 816 120 m -5 Y s 862 120 m -5 Y s 907 120 m -5 Y s 952 125 m -10 Y s 998 120 m -5 Y s 1043 120 m -5 Y s 1089 120 m -5 Y s 1134 125 m -10 Y s 1179 120 m -5 Y s 1225
 120 m -5 Y s 1270 120 m -5 Y s 1315 125 m -10 Y s 1361 120 m -5 Y s 1406 120 m -5 Y s 1451 120 m -5 Y s 1497 125 m -10 Y s 1542 120 m -5 Y s 1587 120 m -5 Y s 1633 120 m -5 Y s 1678 125 m -10 Y s 1723 120 m -5 Y s 1769 120 m -5 Y s 1814 120 m -5 Y s
 1860 125 m -10 Y s 1905 120 m -5 Y s 1950 120 m -5 Y s 1996 120 m -5 Y s 2041 125 m -10 Y s
 gsave  2268 385 0 0 C 211.177 77.9731 t 0 r /Helvetica findfont 42.4144 sf 0 0 m (0) show NC gr 
 gsave  2268 385 0 0 C 383.368 77.9731 t 0 r /Helvetica findfont 42.4144 sf 0 0 m (20) show NC gr 
 gsave  2268 385 0 0 C 565.305 77.9731 t 0 r /Helvetica findfont 42.4144 sf 0 0 m (40) show NC gr 
 gsave  2268 385 0 0 C 747.242 77.9731 t 0 r /Helvetica findfont 42.4144 sf 0 0 m (60) show NC gr 
 gsave  2268 385 0 0 C 929.179 77.9731 t 0 r /Helvetica findfont 42.4144 sf 0 0 m (80) show NC gr 
 gsave  2268 385 0 0 C 1098.12 77.9731 t 0 r /Helvetica findfont 42.4144 sf 0 0 m (100) show NC gr 
 gsave  2268 385 0 0 C 1276.81 77.9731 t 0 r /Helvetica findfont 42.4144 sf 0 0 m (120) show NC gr 
 gsave  2268 385 0 0 C 1458.75 77.9731 t 0 r /Helvetica findfont 42.4144 sf 0 0 m (140) show NC gr 
 gsave  2268 385 0 0 C 1640.68 77.9731 t 0 r /Helvetica findfont 42.4144 sf 0 0 m (160) show NC gr 
 gsave  2268 385 0 0 C 1822.62 77.9731 t 0 r /Helvetica findfont 42.4144 sf 0 0 m (180) show NC gr 
 gsave  2268 385 0 0 C 2004.56 77.9731 t 0 r /Helvetica findfont 42.4144 sf 0 0 m (200) show NC gr  227 115 m 270 Y s 274 115 m -47 X s 251 121 m -24 X s 251 126 m -24 X s 251 132 m -24 X s 251 137 m -24 X s 274 142 m -47 X s 251 148 m -24 X s 251
 153 m -24 X s 251 159 m -24 X s 251 164 m -24 X s 274 169 m -47 X s 251 175 m -24 X s 251 180 m -24 X s 251 186 m -24 X s 251 191 m -24 X s 274 196 m -47 X s 251 202 m -24 X s 251 207 m -24 X s 251 213 m -24 X s 251 218 m -24 X s 274 223 m -47 X s
 251 229 m -24 X s 251 234 m -24 X s 251 239 m -24 X s 251 245 m -24 X s 274 250 m -47 X s 251 256 m -24 X s 251 261 m -24 X s 251 266 m -24 X s 251 272 m -24 X s 274 277 m -47 X s 251 283 m -24 X s 251 288 m -24 X s 251 293 m -24 X s 251 299 m -24 X
 s 274 304 m -47 X s 251 310 m -24 X s 251 315 m -24 X s 251 320 m -24 X s 251 326 m -24 X s 274 331 m -47 X s 251 336 m -24 X s 251 342 m -24 X s 251 347 m -24 X s 251 353 m -24 X s 274 358 m -47 X s 251 363 m -24 X s 251 369 m -24 X s 251 374 m -24
 X s 251 380 m -24 X s 274 385 m -47 X s
 gsave  2268 385 0 0 C 155.946 100.715 t 0 r /Helvetica findfont 42.4144 sf 0 0 m (0.5) show NC gr 
 gsave  2268 385 0 0 C 155.946 126.706 t 0 r /Helvetica findfont 42.4144 sf 0 0 m (0.6) show NC gr 
 gsave  2268 385 0 0 C 155.946 155.946 t 0 r /Helvetica findfont 42.4144 sf 0 0 m (0.7) show NC gr 
 gsave  2268 385 0 0 C 155.946 181.937 t 0 r /Helvetica findfont 42.4144 sf 0 0 m (0.8) show NC gr 
 gsave  2268 385 0 0 C 155.946 207.928 t 0 r /Helvetica findfont 42.4144 sf 0 0 m (0.9) show NC gr 
 gsave  2268 385 0 0 C 198.182 233.919 t 0 r /Helvetica findfont 42.4144 sf 0 0 m (1) show NC gr 
 gsave  2268 385 0 0 C 162.444 259.91 t 0 r /Helvetica findfont 42.4144 sf 0 0 m (1.1) show NC gr 
 gsave  2268 385 0 0 C 155.946 285.901 t 0 r /Helvetica findfont 42.4144 sf 0 0 m (1.2) show NC gr 
 gsave  2268 385 0 0 C 155.946 315.141 t 0 r /Helvetica findfont 42.4144 sf 0 0 m (1.3) show NC gr 
 gsave  2268 385 0 0 C 155.946 341.132 t 0 r /Helvetica findfont 42.4144 sf 0 0 m (1.4) show NC gr 
 gsave  2268 385 0 0 C 155.946 370.372 t 0 r /Helvetica findfont 42.4144 sf 0 0 m (1.5) show NC gr  0 0 0.6 c 1 1 1 c black 0 0 0.6 c 227 298 m 32 X s 285 298 m 32 X s black /w 26 def /w2 {w 2 div} def /w3 {w 3 div} def 272 298 m20 0 0 0.6 c 317 291
 m 33 X s 376 291 m 32 X s black 363 291 m20 0 0 0.6 c 408 282 m 33 X s 467 282 m 32 X s black 454 282 m20 0 0 0.6 c 499 273 m 32 X s 557 273 m 33 X s black 544 273 m20 0 0 0.6 c 590 259 m 32 X s 648 259 m 32 X s black 635 259 m20 0 0 0.6 c 680 263 m
 33 X s 739 263 m 32 X s black 726 263 m20 0 0 0.6 c 771 260 m 32 X s 829 260 m 33 X s black 816 260 m20 0 0 0.6 c 862 260 m 32 X s 920 260 m 32 X s black 907 260 m20 0 0 0.6 c 952 265 m 33 X s 1011 265 m 32 X s black 998 265 m20 0 0 0.6 c 1043 255 m
 33 X s 1101 255 m 33 X s black 1089 255 m20 0 0 0.6 c 1134 259 m 32 X s 1192 259 m 33 X s black 1179 259 m20 0 0 0.6 c 1225 260 m 32 X s 1283 260 m 32 X s black 1270 260 m20 0 0 0.6 c 1315 253 m 33 X s 1374 253 m 32 X s black 1361 253 m20 0 0 0.6 c
 1406 254 m 32 X s 1464 254 m 33 X s black 1451 254 m20 0 0 0.6 c 1497 251 m 32 X s 1555 251 m 32 X s black 1542 251 m20 0 0 0.6 c 1587 256 m 33 X s 1646 256 m 32 X s black 1633 256 m20 0 0 0.6 c 1678 234 m 32 X s 1736 234 m 33 X s black 1723 234 m20
 0 0 0.6 c 1769 228 m 32 X s 1827 228 m 33 X s black 1814 228 m20 0 0 0.6 c 1860 225 m 32 X s 1918 225 m 32 X s black 1905 225 m20 0 0 0.6 c 1950 233 m 33 X s 2009 233 m 32 X s black 1996 233 m20 1 0 0 c[ 12 12] 0 sd 227 250 m 1814 X s
 gr  gr showpage
end
%%EOF
