%!PS-Adobe-2.0 EPSF-2.0
%%BoundingBox:  0 0 567 385
%%Title: : c1
%%Creator: ROOT Version 6.04/16
%%CreationDate: Fri Jan 13 16:39:53 2017
%%DocumentNeededResources: ProcSet (FontSetInit)
%%EndComments
%%BeginProlog
80 dict begin
/s {stroke} def /l {lineto} def /m {moveto} def /t {translate} def
/r {rotate} def /rl {roll}  def /R {repeat} def
/d {rlineto} def /rm {rmoveto} def /gr {grestore} def /f {eofill} def
/c {setrgbcolor} def /black {0 setgray} def /sd {setdash} def
/cl {closepath} def /sf {scalefont setfont} def /lw {setlinewidth} def
/box {m dup 0 exch d exch 0 d 0 exch neg d cl} def
/NC{systemdict begin initclip end}def/C{NC box clip newpath}def
/bl {box s} def /bf {gsave box gsave f grestore 1 lw [] 0 sd s grestore} def /Y { 0 exch d} def /X { 0 d} def 
/K {{pop pop 0 moveto} exch kshow} bind def
/ita {/ang 15 def gsave [1 0 ang dup sin exch cos div 1 0 0] concat} def 
/mp {newpath /y exch def /x exch def} def
/side {[w .77 mul w .23 mul] .385 w mul sd w 0 l currentpoint t -144 r} def
/mr {mp x y w2 0 360 arc} def /m24 {mr s} def /m20 {mr f} def
/mb {mp x y w2 add m w2 neg 0 d 0 w neg d w 0 d 0 w d cl} def
/mt {mp x y w2 add m w2 neg w neg d w 0 d cl} def
/m21 {mb f} def /m25 {mb s} def /m22 {mt f} def /m26{mt s} def
/m23 {mp x y w2 sub m w2 w d w neg 0 d cl f} def
/m27 {mp x y w2 add m w3 neg w2 neg d w3 w2 neg d w3 w2 d cl s} def
/m28 {mp x w2 sub y w2 sub w3 add m w3 0 d  0 w3 neg d w3 0 d 0 w3 d w3 0 d  0 w3 d w3 neg 0 d 0 w3 d w3 neg 0 d 0 w3 neg d w3 neg 0 d cl s } def
/m29 {mp gsave x w2 sub y w2 add w3 sub m currentpoint t 4 {side} repeat cl fill gr} def
/m30 {mp gsave x w2 sub y w2 add w3 sub m currentpoint t 4 {side} repeat cl s gr} def
/m31 {mp x y w2 sub m 0 w d x w2 sub y m w 0 d x w2 sub y w2 add m w w neg d x w2 sub y w2 sub m w w d s} def
/m32 {mp x y w2 sub m w2 w d w neg 0 d cl s} def
/m33 {mp x y w2 add m w3 neg w2 neg d w3 w2 neg d w3 w2 d cl f} def
/m34 {mp x w2 sub y w2 sub w3 add m w3 0 d  0 w3 neg d w3 0 d 0 w3 d w3 0 d  0 w3 d w3 neg 0 d 0 w3 d w3 neg 0 d 0 w3 neg d w3 neg 0 d cl f } def
/m2 {mp x y w2 sub m 0 w d x w2 sub y m w 0 d s} def
/m5 {mp x w2 sub y w2 sub m w w d x w2 sub y w2 add m w w neg d s} def
%%IncludeResource: ProcSet (FontSetInit)
%%IncludeResource: font Times-Roman
%%IncludeResource: font Times-Italic
%%IncludeResource: font Times-Bold
%%IncludeResource: font Times-BoldItalic
%%IncludeResource: font Helvetica
%%IncludeResource: font Helvetica-Oblique
%%IncludeResource: font Helvetica-Bold
%%IncludeResource: font Helvetica-BoldOblique
%%IncludeResource: font Courier
%%IncludeResource: font Courier-Oblique
%%IncludeResource: font Courier-Bold
%%IncludeResource: font Courier-BoldOblique
%%IncludeResource: font Symbol
%%IncludeResource: font ZapfDingbats
/reEncode {exch findfont dup length dict begin {1 index /FID eq  {pop pop} {def} ifelse } forall /Encoding exch def currentdict end dup /FontName get exch definefont pop } def [/Times-Bold /Times-Italic /Times-BoldItalic /Helvetica /Helvetica-Oblique
 /Helvetica-Bold /Helvetica-BoldOblique /Courier /Courier-Oblique /Courier-Bold /Courier-BoldOblique /Times-Roman /AvantGarde-Book /AvantGarde-BookOblique /AvantGarde-Demi /AvantGarde-DemiOblique /Bookman-Demi /Bookman-DemiItalic /Bookman-Light
 /Bookman-LightItalic /Helvetica-Narrow /Helvetica-Narrow-Bold /Helvetica-Narrow-BoldOblique /Helvetica-Narrow-Oblique /NewCenturySchlbk-Roman /NewCenturySchlbk-Bold /NewCenturySchlbk-BoldItalic /NewCenturySchlbk-Italic /Palatino-Bold
 /Palatino-BoldItalic /Palatino-Italic /Palatino-Roman ] {ISOLatin1Encoding reEncode } forall
%%EndProlog
%%BeginSetup
%%EndSetup
newpath  gsave  .25 .25 scale  gsave  0 0 t black[  ] 0 sd 3 lw 1 1 1 c 2268 1540 0 0 bf black 1 1 1 c 2268 1155 0 385 bf black 1 1 1 c 1814 1039 227 385 bf black 1814 1039 227 385 bl 0 0 0.6 c 1 1 1 c black 0 0 0.6 c 227 385 m 1814 X s black 227 385
 m 1814 X s 227 413 m -28 Y s 263 399 m -14 Y s 299 399 m -14 Y s 336 399 m -14 Y s 372 399 m -14 Y s 408 413 m -28 Y s 444 399 m -14 Y s 481 399 m -14 Y s 517 399 m -14 Y s 553 399 m -14 Y s 590 413 m -28 Y s 626 399 m -14 Y s 662 399 m -14 Y s 698
 399 m -14 Y s 735 399 m -14 Y s 771 413 m -28 Y s 807 399 m -14 Y s 844 399 m -14 Y s 880 399 m -14 Y s 916 399 m -14 Y s 952 413 m -28 Y s 989 399 m -14 Y s 1025 399 m -14 Y s 1061 399 m -14 Y s 1098 399 m -14 Y s 1134 413 m -28 Y s 1170 399 m -14
 Y s 1206 399 m -14 Y s 1243 399 m -14 Y s 1279 399 m -14 Y s 1315 413 m -28 Y s 1352 399 m -14 Y s 1388 399 m -14 Y s 1424 399 m -14 Y s 1460 399 m -14 Y s 1497 413 m -28 Y s 1533 399 m -14 Y s 1569 399 m -14 Y s 1606 399 m -14 Y s 1642 399 m -14 Y
 s 1678 413 m -28 Y s 1714 399 m -14 Y s 1751 399 m -14 Y s 1787 399 m -14 Y s 1823 399 m -14 Y s 1860 413 m -28 Y s 1896 399 m -14 Y s 1932 399 m -14 Y s 1968 399 m -14 Y s 2005 399 m -14 Y s 2041 413 m -28 Y s 2041 413 m -28 Y s
 gsave  2268 1155 0 385 C 211.177 347.63 t 0 r /Helvetica findfont 39.0414 sf 0 0 m (0) show NC gr 
 gsave  2268 1155 0 385 C 376.87 347.63 t 0 r /Helvetica findfont 39.0414 sf 0 0 m (0.5) show NC gr 
 gsave  2268 1155 0 385 C 578.3 347.63 t 0 r /Helvetica findfont 39.0414 sf 0 0 m (1) show NC gr 
 gsave  2268 1155 0 385 C 740.744 347.63 t 0 r /Helvetica findfont 39.0414 sf 0 0 m (1.5) show NC gr 
 gsave  2268 1155 0 385 C 938.926 347.63 t 0 r /Helvetica findfont 39.0414 sf 0 0 m (2) show NC gr 
 gsave  2268 1155 0 385 C 1104.62 347.63 t 0 r /Helvetica findfont 39.0414 sf 0 0 m (2.5) show NC gr 
 gsave  2268 1155 0 385 C 1299.55 347.63 t 0 r /Helvetica findfont 39.0414 sf 0 0 m (3) show NC gr 
 gsave  2268 1155 0 385 C 1465.24 347.63 t 0 r /Helvetica findfont 39.0414 sf 0 0 m (3.5) show NC gr 
 gsave  2268 1155 0 385 C 1663.43 347.63 t 0 r /Helvetica findfont 39.0414 sf 0 0 m (4) show NC gr 
 gsave  2268 1155 0 385 C 1829.12 347.63 t 0 r /Helvetica findfont 39.0414 sf 0 0 m (4.5) show NC gr 
 gsave  2268 1155 0 385 C 2027.3 347.63 t 0 r /Helvetica findfont 39.0414 sf 0 0 m (5) show NC gr  227 385 m 1039 Y s 257 394 m -30 X s 257 414 m -30 X s 257 429 m -30 X s 257 442 m -30 X s 257 453 m -30 X s 257 462 m -30 X s 257 471 m -30 X s 288
 478 m -61 X s
 gsave  2268 1155 0 385 C 198.182 480.834 t 0 r /Helvetica findfont 26.0276 sf 0 0 m (1) show NC gr 
 gsave  2268 1155 0 385 C 181.937 480.834 t 0 r /Symbol findfont 26.0276 sf 0 0 m (-) show NC gr 
 gsave  2268 1155 0 385 C 139.702 461.341 t 0 r /Helvetica findfont 39.0414 sf 0 0 m (10) show NC gr  257 527 m -30 X s 257 555 m -30 X s 257 575 m -30 X s 257 591 m -30 X s 257 604 m -30 X s 257 615 m -30 X s 257 624 m -30 X s 257 632 m -30 X s 288
 640 m -61 X s
 gsave  2268 1155 0 385 C 209.083 624.095 t 0 r  -20 0 t /Helvetica findfont 39.0414 sf 0 0 m (1) show NC gr  257 688 m -30 X s 257 717 m -30 X s 257 737 m -30 X s 257 753 m -30 X s 257 765 m -30 X s 257 776 m -30 X s 257 786 m -30 X s 257 794 m -30
 X s 288 801 m -61 X s
 gsave  2268 1155 0 385 C 209.083 785.716 t 0 r  -41 0 t /Helvetica findfont 39.0414 sf 0 0 m (10) show NC gr  257 850 m -30 X s 257 878 m -30 X s 257 899 m -30 X s 257 914 m -30 X s 257 927 m -30 X s 257 938 m -30 X s 257 947 m -30 X s 257 956 m -30
 X s 288 963 m -61 X s
 gsave  2268 1155 0 385 C 191.684 964.917 t 0 r /Helvetica findfont 26.0276 sf 0 0 m (2) show NC gr 
 gsave  2268 1155 0 385 C 149.448 945.423 t 0 r /Helvetica findfont 39.0414 sf 0 0 m (10) show NC gr  257 1012 m -30 X s 257 1040 m -30 X s 257 1060 m -30 X s 257 1076 m -30 X s 257 1089 m -30 X s 257 1100 m -30 X s 257 1109 m -30 X s 257 1117 m -30
 X s 288 1125 m -61 X s
 gsave  2268 1155 0 385 C 191.684 1130.61 t 0 r /Helvetica findfont 26.0276 sf 0 0 m (3) show NC gr 
 gsave  2268 1155 0 385 C 149.448 1107.87 t 0 r /Helvetica findfont 39.0414 sf 0 0 m (10) show NC gr  257 1173 m -30 X s 257 1202 m -30 X s 257 1222 m -30 X s 257 1238 m -30 X s 257 1250 m -30 X s 257 1261 m -30 X s 257 1271 m -30 X s 257 1279 m -30
 X s 288 1286 m -61 X s
 gsave  2268 1155 0 385 C 191.684 1286.56 t 0 r /Helvetica findfont 26.0276 sf 0 0 m (4) show NC gr 
 gsave  2268 1155 0 385 C 149.448 1267.06 t 0 r /Helvetica findfont 39.0414 sf 0 0 m (10) show NC gr  257 1335 m -30 X s 257 1363 m -30 X s 257 1383 m -30 X s 257 1399 m -30 X s 257 1412 m -30 X s 257 1423 m -30 X s 0 0.6 0 c black 0 0.6 0 c 227 385
 m 853 Y 72 X -97 Y 73 X 78 Y 72 X 50 Y 73 X 34 Y 73 X 28 Y 72 X 16 Y 73 X 6 Y 72 X -1 Y 73 X -5 Y 72 X -9 Y 73 X -11 Y 73 X -12 Y 72 X -18 Y 73 X -15 Y 72 X -17 Y 73 X -20 Y 72 X -17 Y 73 X -19 Y 73 X -16 Y 72 X -20 Y 73 X -9 Y 72 X -18 Y 73 X -9 Y
 72 X -11 Y 73 X -741 Y f 227 1238 m 72 X -97 Y 73 X 78 Y 72 X 50 Y 73 X 34 Y 73 X 28 Y 72 X 16 Y 73 X 6 Y 72 X -1 Y 73 X -5 Y 72 X -9 Y 73 X -11 Y 73 X -12 Y 72 X -18 Y 73 X -15 Y 72 X -17 Y 73 X -20 Y 72 X -17 Y 73 X -19 Y 73 X -16 Y 72 X -20 Y 73
 X -9 Y 72 X -18 Y 73 X -9 Y 72 X -11 Y 73 X s 0.4 0.8 1 c 0.999 0.999 0.999 c black 0.999 0.999 0.999 c 227 385 m 822 Y 72 X -92 Y 73 X 77 Y 72 X 51 Y 73 X 32 Y 73 X 29 Y 72 X 14 Y 73 X 6 Y 72 X -2 Y 73 X -7 Y 72 X -9 Y 73 X -12 Y 73 X -12 Y 72 X
 -19 Y 73 X -14 Y 72 X -17 Y 73 X -20 Y 72 X -15 Y 73 X -21 Y 73 X -13 Y 72 X -21 Y 73 X -13 Y 72 X -18 Y 73 X -9 Y 72 X -11 Y 73 X -706 Y f 0.4 0.8 1 c 0.999 0.999 0.999 c 0.4 0.8 1 c 227 1207 m 72 X -92 Y 73 X 77 Y 72 X 51 Y 73 X 32 Y 73 X 29 Y 72
 X 14 Y 73 X 6 Y 72 X -2 Y 73 X -7 Y 72 X -9 Y 73 X -12 Y 73 X -12 Y 72 X -19 Y 73 X -14 Y 72 X -17 Y 73 X -20 Y 72 X -15 Y 73 X -21 Y 73 X -13 Y 72 X -21 Y 73 X -13 Y 72 X -18 Y 73 X -9 Y 72 X -11 Y 73 X s 1 1 1 c black 0.4 0.8 1 c 227 1207 m 72 X
 -92 Y 73 X 77 Y 72 X 51 Y 73 X 32 Y 73 X 29 Y 72 X 14 Y 73 X 6 Y 72 X -2 Y 73 X -7 Y 72 X -9 Y 73 X -12 Y 73 X -12 Y 72 X -19 Y 73 X -14 Y 72 X -17 Y 73 X -20 Y 72 X -15 Y 73 X -21 Y 73 X -13 Y 72 X -21 Y 73 X -13 Y 72 X -18 Y 73 X -9 Y 72 X -11 Y
 73 X s black 0.4 0.8 1 c 227 385 m 822 Y 72 X -92 Y 73 X 77 Y 72 X 51 Y 73 X 32 Y 73 X 29 Y 72 X 14 Y 73 X 6 Y 72 X -2 Y 73 X -7 Y 72 X -9 Y 73 X -12 Y 73 X -12 Y 72 X -19 Y 73 X -14 Y 72 X -17 Y 73 X -20 Y 72 X -15 Y 73 X -21 Y 73 X -13 Y 72 X -21
 Y 73 X -13 Y 72 X -18 Y 73 X -9 Y 72 X -11 Y 73 X -706 Y f 227 1207 m 72 X -92 Y 73 X 77 Y 72 X 51 Y 73 X 32 Y 73 X 29 Y 72 X 14 Y 73 X 6 Y 72 X -2 Y 73 X -7 Y 72 X -9 Y 73 X -12 Y 73 X -12 Y 72 X -19 Y 73 X -14 Y 72 X -17 Y 73 X -20 Y 72 X -15 Y 73
 X -21 Y 73 X -13 Y 72 X -21 Y 73 X -13 Y 72 X -18 Y 73 X -9 Y 72 X -11 Y 73 X s 1 0.8 0 c 0.999 0.999 0.999 c black 0.999 0.999 0.999 c 227 385 m 562 Y 72 X 47 Y 73 X 105 Y 72 X 53 Y 73 X 23 Y 73 X 27 Y 72 X -1 Y 73 X -29 Y 72 X -32 Y 73 X -24 Y 72
 X -28 Y 73 X -11 Y 73 X -24 Y 72 X -23 Y 73 X -24 Y 72 X -24 Y 73 X -26 Y 72 X -9 Y 73 X -26 Y 73 X -22 Y 72 X -13 Y 73 X -22 Y 72 X -5 Y 73 X -9 Y 72 X -35 Y 73 X -430 Y f 1 0.8 0 c 0.999 0.999 0.999 c 1 0.8 0 c 227 947 m 72 X 47 Y 73 X 105 Y 72 X
 53 Y 73 X 23 Y 73 X 27 Y 72 X -1 Y 73 X -29 Y 72 X -32 Y 73 X -24 Y 72 X -28 Y 73 X -11 Y 73 X -24 Y 72 X -23 Y 73 X -24 Y 72 X -24 Y 73 X -26 Y 72 X -9 Y 73 X -26 Y 73 X -22 Y 72 X -13 Y 73 X -22 Y 72 X -5 Y 73 X -9 Y 72 X -35 Y 73 X s 1 1 1 c
 black 1 0.8 0 c 227 947 m 72 X 47 Y 73 X 105 Y 72 X 53 Y 73 X 23 Y 73 X 27 Y 72 X -1 Y 73 X -29 Y 72 X -32 Y 73 X -24 Y 72 X -28 Y 73 X -11 Y 73 X -24 Y 72 X -23 Y 73 X -24 Y 72 X -24 Y 73 X -26 Y 72 X -9 Y 73 X -26 Y 73 X -22 Y 72 X -13 Y 73 X -22
 Y 72 X -5 Y 73 X -9 Y 72 X -35 Y 73 X s black 1 0.8 0 c 227 385 m 562 Y 72 X 47 Y 73 X 105 Y 72 X 53 Y 73 X 23 Y 73 X 27 Y 72 X -1 Y 73 X -29 Y 72 X -32 Y 73 X -24 Y 72 X -28 Y 73 X -11 Y 73 X -24 Y 72 X -23 Y 73 X -24 Y 72 X -24 Y 73 X -26 Y 72 X
 -9 Y 73 X -26 Y 73 X -22 Y 72 X -13 Y 73 X -22 Y 72 X -5 Y 73 X -9 Y 72 X -35 Y 73 X -430 Y f 227 947 m 72 X 47 Y 73 X 105 Y 72 X 53 Y 73 X 23 Y 73 X 27 Y 72 X -1 Y 73 X -29 Y 72 X -32 Y 73 X -24 Y 72 X -28 Y 73 X -11 Y 73 X -24 Y 72 X -23 Y 73 X
 -24 Y 72 X -24 Y 73 X -26 Y 72 X -9 Y 73 X -26 Y 73 X -22 Y 72 X -13 Y 73 X -22 Y 72 X -5 Y 73 X -9 Y 72 X -35 Y 73 X s 1 0.6 0 c 0.999 0.999 0.999 c black 0.999 0.999 0.999 c 227 385 m 380 Y 72 X 6 Y 73 X 117 Y 72 X 52 Y 73 X 28 Y 73 X 21 Y 72 X -8
 Y 73 X -21 Y 72 X -19 Y 73 X -21 Y 72 X -21 Y 73 X -15 Y 73 X -14 Y 72 X -22 Y 73 X -17 Y 72 X -24 Y 73 X -48 Y 72 X 24 Y 73 X -38 Y 73 X 1 Y 72 X -2 Y 73 X -56 Y 72 X 3 Y 73 X -58 Y 72 X 52 Y 73 X -300 Y f 1 0.6 0 c 0.999 0.999 0.999 c 1 0.6 0 c
 227 765 m 72 X 6 Y 73 X 117 Y 72 X 52 Y 73 X 28 Y 73 X 21 Y 72 X -8 Y 73 X -21 Y 72 X -19 Y 73 X -21 Y 72 X -21 Y 73 X -15 Y 73 X -14 Y 72 X -22 Y 73 X -17 Y 72 X -24 Y 73 X -48 Y 72 X 24 Y 73 X -38 Y 73 X 1 Y 72 X -2 Y 73 X -56 Y 72 X 3 Y 73 X -58
 Y 72 X 52 Y 73 X s 1 1 1 c black 1 0.6 0 c 227 765 m 72 X 6 Y 73 X 117 Y 72 X 52 Y 73 X 28 Y 73 X 21 Y 72 X -8 Y 73 X -21 Y 72 X -19 Y 73 X -21 Y 72 X -21 Y 73 X -15 Y 73 X -14 Y 72 X -22 Y 73 X -17 Y 72 X -24 Y 73 X -48 Y 72 X 24 Y 73 X -38 Y 73 X
 1 Y 72 X -2 Y 73 X -56 Y 72 X 3 Y 73 X -58 Y 72 X 52 Y 73 X s black 1 0.6 0 c 227 385 m 380 Y 72 X 6 Y 73 X 117 Y 72 X 52 Y 73 X 28 Y 73 X 21 Y 72 X -8 Y 73 X -21 Y 72 X -19 Y 73 X -21 Y 72 X -21 Y 73 X -15 Y 73 X -14 Y 72 X -22 Y 73 X -17 Y 72 X
 -24 Y 73 X -48 Y 72 X 24 Y 73 X -38 Y 73 X 1 Y 72 X -2 Y 73 X -56 Y 72 X 3 Y 73 X -58 Y 72 X 52 Y 73 X -300 Y f 227 765 m 72 X 6 Y 73 X 117 Y 72 X 52 Y 73 X 28 Y 73 X 21 Y 72 X -8 Y 73 X -21 Y 72 X -19 Y 73 X -21 Y 72 X -21 Y 73 X -15 Y 73 X -14 Y
 72 X -22 Y 73 X -17 Y 72 X -24 Y 73 X -48 Y 72 X 24 Y 73 X -38 Y 73 X 1 Y 72 X -2 Y 73 X -56 Y 72 X 3 Y 73 X -58 Y 72 X 52 Y 73 X s 0.999 0.999 0.999 c black 0.999 0.999 0.999 c 227 385 m 37 Y 72 X -37 Y 145 X 47 Y 73 X 49 Y 73 X 22 Y 72 X 15 Y 73 X
 12 Y 72 X 15 Y 73 X -14 Y 72 X 1 Y 73 X -3 Y 73 X -10 Y 72 X -1 Y 73 X -32 Y 72 X -20 Y 73 X -26 Y 72 X 16 Y 73 X -44 Y 73 X 8 Y 72 X -35 Y 218 X 28 Y 72 X -28 Y 73 X f 1 0.6 0 c 0.999 0.999 0.999 c 1 0.6 0 c 227 422 m 72 X -37 Y 145 X 47 Y 73 X 49
 Y 73 X 22 Y 72 X 15 Y 73 X 12 Y 72 X 15 Y 73 X -14 Y 72 X 1 Y 73 X -3 Y 73 X -10 Y 72 X -1 Y 73 X -32 Y 72 X -20 Y 73 X -26 Y 72 X 16 Y 73 X -44 Y 73 X 8 Y 72 X -35 Y 218 X 28 Y 72 X -28 Y 73 X s 1 1 1 c black 1 0.6 0 c 227 422 m 72 X -37 Y 145 X 47
 Y 73 X 49 Y 73 X 22 Y 72 X 15 Y 73 X 12 Y 72 X 15 Y 73 X -14 Y 72 X 1 Y 73 X -3 Y 73 X -10 Y 72 X -1 Y 73 X -32 Y 72 X -20 Y 73 X -26 Y 72 X 16 Y 73 X -44 Y 73 X 8 Y 72 X -35 Y 218 X 28 Y 72 X -28 Y 73 X s black 1 0.6 0 c 227 385 m 37 Y 72 X -37 Y
 145 X 47 Y 73 X 49 Y 73 X 22 Y 72 X 15 Y 73 X 12 Y 72 X 15 Y 73 X -14 Y 72 X 1 Y 73 X -3 Y 73 X -10 Y 72 X -1 Y 73 X -32 Y 72 X -20 Y 73 X -26 Y 72 X 16 Y 73 X -44 Y 73 X 8 Y 72 X -35 Y 218 X 28 Y 72 X -28 Y 73 X f 227 422 m 72 X -37 Y 145 X 47 Y 73
 X 49 Y 73 X 22 Y 72 X 15 Y 73 X 12 Y 72 X 15 Y 73 X -14 Y 72 X 1 Y 73 X -3 Y 73 X -10 Y 72 X -1 Y 73 X -32 Y 72 X -20 Y 73 X -26 Y 72 X 16 Y 73 X -44 Y 73 X 8 Y 72 X -35 Y 218 X 28 Y 72 X -28 Y 73 X s black 227 385 m 1814 X s 227 413 m -28 Y s 263
 399 m -14 Y s 299 399 m -14 Y s 336 399 m -14 Y s 372 399 m -14 Y s 408 413 m -28 Y s 444 399 m -14 Y s 481 399 m -14 Y s 517 399 m -14 Y s 553 399 m -14 Y s 590 413 m -28 Y s 626 399 m -14 Y s 662 399 m -14 Y s 698 399 m -14 Y s 735 399 m -14 Y s
 771 413 m -28 Y s 807 399 m -14 Y s 844 399 m -14 Y s 880 399 m -14 Y s 916 399 m -14 Y s 952 413 m -28 Y s 989 399 m -14 Y s 1025 399 m -14 Y s 1061 399 m -14 Y s 1098 399 m -14 Y s 1134 413 m -28 Y s 1170 399 m -14 Y s 1206 399 m -14 Y s 1243 399
 m -14 Y s 1279 399 m -14 Y s 1315 413 m -28 Y s 1352 399 m -14 Y s 1388 399 m -14 Y s 1424 399 m -14 Y s 1460 399 m -14 Y s 1497 413 m -28 Y s 1533 399 m -14 Y s 1569 399 m -14 Y s 1606 399 m -14 Y s 1642 399 m -14 Y s 1678 413 m -28 Y s 1714 399 m
 -14 Y s 1751 399 m -14 Y s 1787 399 m -14 Y s 1823 399 m -14 Y s 1860 413 m -28 Y s 1896 399 m -14 Y s 1932 399 m -14 Y s 1968 399 m -14 Y s 2005 399 m -14 Y s 2041 413 m -28 Y s 2041 413 m -28 Y s 227 385 m 1039 Y s 257 394 m -30 X s 257 414 m -30
 X s 257 429 m -30 X s 257 442 m -30 X s 257 453 m -30 X s 257 462 m -30 X s 257 471 m -30 X s 288 478 m -61 X s 257 527 m -30 X s 257 555 m -30 X s 257 575 m -30 X s 257 591 m -30 X s 257 604 m -30 X s 257 615 m -30 X s 257 624 m -30 X s 257 632 m
 -30 X s 288 640 m -61 X s 257 688 m -30 X s 257 717 m -30 X s 257 737 m -30 X s 257 753 m -30 X s 257 765 m -30 X s 257 776 m -30 X s 257 786 m -30 X s 257 794 m -30 X s 288 801 m -61 X s 257 850 m -30 X s 257 878 m -30 X s 257 899 m -30 X s 257 914
 m -30 X s 257 927 m -30 X s 257 938 m -30 X s 257 947 m -30 X s 257 956 m -30 X s 288 963 m -61 X s 257 1012 m -30 X s 257 1040 m -30 X s 257 1060 m -30 X s 257 1076 m -30 X s 257 1089 m -30 X s 257 1100 m -30 X s 257 1109 m -30 X s 257 1117 m -30 X
 s 288 1125 m -61 X s 257 1173 m -30 X s 257 1202 m -30 X s 257 1222 m -30 X s 257 1238 m -30 X s 257 1250 m -30 X s 257 1261 m -30 X s 257 1271 m -30 X s 257 1279 m -30 X s 288 1286 m -61 X s 257 1335 m -30 X s 257 1363 m -30 X s 257 1383 m -30 X s
 257 1399 m -30 X s 257 1412 m -30 X s 257 1423 m -30 X s 0 0 0.6 c 1 1 1 c black 0 0 0.6 c 227 1257 m 23 X s 276 1257 m 23 X s black /w 26 def /w2 {w 2 div} def /w3 {w 3 div} def 263 1257 m20 0 0 0.6 c 299 1154 m 24 X s 349 1154 m 23 X s black 336
 1154 m20 0 0 0.6 c 372 1226 m 23 X s 421 1226 m 23 X s black 408 1226 m20 0 0 0.6 c 444 1275 m 24 X s 494 1275 m 23 X s black 481 1275 m20 0 0 0.6 c 517 1308 m 23 X s 566 1308 m 24 X s black 553 1308 m20 0 0 0.6 c 590 1336 m 23 X s 639 1336 m 23 X s
 black 626 1336 m20 0 0 0.6 c 662 1353 m 23 X s 711 1353 m 24 X s black 698 1353 m20 0 0 0.6 c 735 1359 m 23 X s 784 1359 m 23 X s black 771 1359 m20 0 0 0.6 c 807 1359 m 24 X s 857 1359 m 23 X s black 844 1359 m20 0 0 0.6 c 880 1352 m 23 X s 929
 1352 m 23 X s black 916 1352 m20 0 0 0.6 c 952 1343 m 24 X s 1002 1343 m 23 X s black 989 1343 m20 0 0 0.6 c 1025 1332 m 23 X s 1074 1332 m 24 X s black 1061 1332 m20 0 0 0.6 c 1098 1317 m 23 X s 1147 1317 m 23 X s black 1134 1317 m20 0 0 0.6 c 1170
 1304 m 23 X s 1219 1304 m 24 X s black 1206 1304 m20 0 0 0.6 c 1243 1286 m 23 X s 1292 1286 m 23 X s black 1279 1286 m20 0 0 0.6 c 1315 1269 m 24 X s 1365 1269 m 23 X s black 1352 1269 m20 0 0 0.6 c 1388 1249 m 23 X s 1437 1249 m 23 X s black 1424
 1249 m20 0 0 0.6 c 1460 1231 m 24 X s 1510 1231 m 23 X s black 1497 1231 m20 0 0 0.6 c 1533 1215 m 23 X s 1582 1215 m 24 X s black 1569 1215 m20 0 0 0.6 c 1606 1199 m 23 X s 1655 1199 m 23 X s black 1642 1199 m20 0 0 0.6 c 1678 1185 m 23 X s 1727
 1185 m 24 X s black 1714 1185 m20 0 0 0.6 c 1751 1169 m 23 X s 1800 1169 m 23 X s black 1787 1169 m20 0 0 0.6 c 1823 1155 m 24 X s 1873 1155 m 23 X s black 1860 1155 m20 0 0 0.6 c 1896 1143 m 23 X s 1945 1143 m 23 X s black 1932 1143 m20 0 0 0.6 c
 1968 1134 m 24 X s 2018 1134 m 23 X s black 2005 1134 m20 1 0 0 c 6 lw 1 1 1 c black 1 0 0 c 227 1039 m 72 X 3 Y 73 X 59 Y 72 X 50 Y 73 X 43 Y 73 X 31 Y 72 X 13 Y 73 X -4 Y 72 X -27 Y 73 X -33 Y 72 X -31 Y 73 X -28 Y 73 X -32 Y 72 X -24 Y 73 X -13 Y
 72 X -52 Y 73 X -24 Y 72 X -7 Y 73 X -22 Y 73 X -41 Y 72 X -19 Y 73 X -28 Y 72 X -4 Y 73 X -9 Y 72 X 10 Y 73 X s black 3 lw 1 1 1 c 680 346 1361 1078 bf black 1361 1078 m 680 X s 2041 1078 m 346 Y s 2041 1424 m -680 X s 1361 1424 m -346 Y s
 gsave  2268 1155 0 385 C 1530.22 1384.02 t 0 r /Helvetica findfont 45.5484 sf 0 0 m (stopt) show NC gr  1 0.6 0 c 1386 1375 m 119 X 41 Y -119 X f 1386 1396 m 119 X s black /w 2 def /w2 {w 2 div} def /w3 {w 3 div} def 1446 1396 m20
 gsave  2268 1155 0 385 C 1530.22 1325.54 t 0 r /Helvetica findfont 45.5484 sf 0 0 m (stopWt) show NC gr  1 0.6 0 c 1386 1318 m 119 X 40 Y -119 X f 1386 1338 m 119 X s black 1446 1338 m20
 gsave  2268 1155 0 385 C 1530.22 1270.31 t 0 r /Helvetica findfont 45.5484 sf 0 0 m (ttbar) show NC gr  1 0.8 0 c 1386 1260 m 119 X 40 Y -119 X f 1386 1280 m 119 X s black 1446 1280 m20
 gsave  2268 1155 0 385 C 1530.22 1211.83 t 0 r /Helvetica findfont 45.5484 sf 0 0 m (Z) show NC gr  0.4 0.8 1 c 1386 1202 m 119 X 41 Y -119 X f 1386 1222 m 119 X s black 1446 1222 m20
 gsave  2268 1155 0 385 C 1530.22 1153.35 t 0 r /Helvetica findfont 45.5484 sf 0 0 m (W) show NC gr  0 0.6 0 c 1386 1144 m 119 X 41 Y -119 X f 1386 1165 m 119 X s black 1446 1165 m20
 gsave  2268 1155 0 385 C 1530.22 1094.87 t 0 r /Helvetica findfont 45.5484 sf 0 0 m (HVTWZvvqq2000) show NC gr  1 1 1 c 1386 1087 m 119 X 40 Y -119 X f 1 0 0 c 6 lw 1386 1107 m 119 X s black 3 lw 1446 1107 m20 6 lw 3 lw 1 1 1 c 2268 385 0 0 bf black
 1 1 1 c 1814 270 227 115 bf black 1814 270 227 115 bl 1 0.6 0 c 1 0.8 0 c black 1 0.8 0 c 72 16 227 242 bf black 263 250 m20 1 0.8 0 c 73 38 299 231 bf black 336 250 m20 1 0.8 0 c 72 14 372 243 bf black 408 250 m20 1 0.8 0 c 73 7 444 247 bf black
 481 250 m20 1 0.8 0 c 73 6 517 247 bf black 553 250 m20 1 0.8 0 c 72 5 590 248 bf black 626 250 m20 1 0.8 0 c 73 6 662 247 bf black 698 250 m20 1 0.8 0 c 72 5 735 248 bf black 771 250 m20 1 0.8 0 c 73 5 807 248 bf black 844 250 m20 1 0.8 0 c 72 5
 880 248 bf black 916 250 m20 1 0.8 0 c 73 7 952 247 bf black 989 250 m20 1 0.8 0 c 73 6 1025 247 bf black 1061 250 m20 1 0.8 0 c 72 7 1098 247 bf black 1134 250 m20 1 0.8 0 c 73 18 1170 241 bf black 1206 250 m20 1 0.8 0 c 72 10 1243 245 bf black
 1279 250 m20 1 0.8 0 c 73 10 1315 245 bf black 1352 250 m20 1 0.8 0 c 72 10 1388 245 bf black 1424 250 m20 1 0.8 0 c 73 33 1460 234 bf black 1497 250 m20 1 0.8 0 c 73 27 1533 237 bf black 1569 250 m20 1 0.8 0 c 72 17 1606 242 bf black 1642 250 m20 1
 0.8 0 c 73 21 1678 240 bf black 1714 250 m20 1 0.8 0 c 72 19 1751 241 bf black 1787 250 m20 1 0.8 0 c 73 24 1823 238 bf black 1860 250 m20 1 0.8 0 c 72 20 1896 240 bf black 1932 250 m20 1 0.8 0 c 73 21 1968 240 bf black 2005 250 m20 227 115 m 1814 X
 s
 gsave  2268 385 0 0 C 1718.66 29.2399 t 0 r /Helvetica findfont 42.4144 sf 0 0 m (LeadingFatJetD2) show NC gr  227 125 m -10 Y s 263 120 m -5 Y s 299 120 m -5 Y s 336 120 m -5 Y s 372 120 m -5 Y s 408 125 m -10 Y s 444 120 m -5 Y s 481 120 m -5 Y s
 517 120 m -5 Y s 553 120 m -5 Y s 590 125 m -10 Y s 626 120 m -5 Y s 662 120 m -5 Y s 698 120 m -5 Y s 735 120 m -5 Y s 771 125 m -10 Y s 807 120 m -5 Y s 844 120 m -5 Y s 880 120 m -5 Y s 916 120 m -5 Y s 952 125 m -10 Y s 989 120 m -5 Y s 1025 120
 m -5 Y s 1061 120 m -5 Y s 1098 120 m -5 Y s 1134 125 m -10 Y s 1170 120 m -5 Y s 1206 120 m -5 Y s 1243 120 m -5 Y s 1279 120 m -5 Y s 1315 125 m -10 Y s 1352 120 m -5 Y s 1388 120 m -5 Y s 1424 120 m -5 Y s 1460 120 m -5 Y s 1497 125 m -10 Y s
 1533 120 m -5 Y s 1569 120 m -5 Y s 1606 120 m -5 Y s 1642 120 m -5 Y s 1678 125 m -10 Y s 1714 120 m -5 Y s 1751 120 m -5 Y s 1787 120 m -5 Y s 1823 120 m -5 Y s 1860 125 m -10 Y s 1896 120 m -5 Y s 1932 120 m -5 Y s 1968 120 m -5 Y s 2005 120 m -5
 Y s 2041 125 m -10 Y s 2041 125 m -10 Y s
 gsave  2268 385 0 0 C 211.177 77.9731 t 0 r /Helvetica findfont 42.4144 sf 0 0 m (0) show NC gr 
 gsave  2268 385 0 0 C 376.87 77.9731 t 0 r /Helvetica findfont 42.4144 sf 0 0 m (0.5) show NC gr 
 gsave  2268 385 0 0 C 578.3 77.9731 t 0 r /Helvetica findfont 42.4144 sf 0 0 m (1) show NC gr 
 gsave  2268 385 0 0 C 740.744 77.9731 t 0 r /Helvetica findfont 42.4144 sf 0 0 m (1.5) show NC gr 
 gsave  2268 385 0 0 C 938.926 77.9731 t 0 r /Helvetica findfont 42.4144 sf 0 0 m (2) show NC gr 
 gsave  2268 385 0 0 C 1104.62 77.9731 t 0 r /Helvetica findfont 42.4144 sf 0 0 m (2.5) show NC gr 
 gsave  2268 385 0 0 C 1299.55 77.9731 t 0 r /Helvetica findfont 42.4144 sf 0 0 m (3) show NC gr 
 gsave  2268 385 0 0 C 1465.24 77.9731 t 0 r /Helvetica findfont 42.4144 sf 0 0 m (3.5) show NC gr 
 gsave  2268 385 0 0 C 1663.43 77.9731 t 0 r /Helvetica findfont 42.4144 sf 0 0 m (4) show NC gr 
 gsave  2268 385 0 0 C 1829.12 77.9731 t 0 r /Helvetica findfont 42.4144 sf 0 0 m (4.5) show NC gr 
 gsave  2268 385 0 0 C 2027.3 77.9731 t 0 r /Helvetica findfont 42.4144 sf 0 0 m (5) show NC gr  227 115 m 270 Y s 274 115 m -47 X s 251 121 m -24 X s 251 126 m -24 X s 251 132 m -24 X s 251 137 m -24 X s 274 142 m -47 X s 251 148 m -24 X s 251 153 m
 -24 X s 251 159 m -24 X s 251 164 m -24 X s 274 169 m -47 X s 251 175 m -24 X s 251 180 m -24 X s 251 186 m -24 X s 251 191 m -24 X s 274 196 m -47 X s 251 202 m -24 X s 251 207 m -24 X s 251 213 m -24 X s 251 218 m -24 X s 274 223 m -47 X s 251 229
 m -24 X s 251 234 m -24 X s 251 239 m -24 X s 251 245 m -24 X s 274 250 m -47 X s 251 256 m -24 X s 251 261 m -24 X s 251 266 m -24 X s 251 272 m -24 X s 274 277 m -47 X s 251 283 m -24 X s 251 288 m -24 X s 251 293 m -24 X s 251 299 m -24 X s 274
 304 m -47 X s 251 310 m -24 X s 251 315 m -24 X s 251 320 m -24 X s 251 326 m -24 X s 274 331 m -47 X s 251 336 m -24 X s 251 342 m -24 X s 251 347 m -24 X s 251 353 m -24 X s 274 358 m -47 X s 251 363 m -24 X s 251 369 m -24 X s 251 374 m -24 X s
 251 380 m -24 X s 274 385 m -47 X s
 gsave  2268 385 0 0 C 155.946 100.715 t 0 r /Helvetica findfont 42.4144 sf 0 0 m (0.5) show NC gr 
 gsave  2268 385 0 0 C 155.946 126.706 t 0 r /Helvetica findfont 42.4144 sf 0 0 m (0.6) show NC gr 
 gsave  2268 385 0 0 C 155.946 155.946 t 0 r /Helvetica findfont 42.4144 sf 0 0 m (0.7) show NC gr 
 gsave  2268 385 0 0 C 155.946 181.937 t 0 r /Helvetica findfont 42.4144 sf 0 0 m (0.8) show NC gr 
 gsave  2268 385 0 0 C 155.946 207.928 t 0 r /Helvetica findfont 42.4144 sf 0 0 m (0.9) show NC gr 
 gsave  2268 385 0 0 C 198.182 233.919 t 0 r /Helvetica findfont 42.4144 sf 0 0 m (1) show NC gr 
 gsave  2268 385 0 0 C 162.444 259.91 t 0 r /Helvetica findfont 42.4144 sf 0 0 m (1.1) show NC gr 
 gsave  2268 385 0 0 C 155.946 285.901 t 0 r /Helvetica findfont 42.4144 sf 0 0 m (1.2) show NC gr 
 gsave  2268 385 0 0 C 155.946 315.141 t 0 r /Helvetica findfont 42.4144 sf 0 0 m (1.3) show NC gr 
 gsave  2268 385 0 0 C 155.946 341.132 t 0 r /Helvetica findfont 42.4144 sf 0 0 m (1.4) show NC gr 
 gsave  2268 385 0 0 C 155.946 370.372 t 0 r /Helvetica findfont 42.4144 sf 0 0 m (1.5) show NC gr  0 0 0.6 c 1 1 1 c black 0 0 0.6 c 227 335 m 23 X s 276 335 m 23 X s black /w 26 def /w2 {w 2 div} def /w3 {w 3 div} def 263 335 m20 0 0 0.6 c 336 287
 m 5 Y s 336 318 m 5 Y s 299 305 m 24 X s 349 305 m 23 X s black 336 305 m20 0 0 0.6 c 372 279 m 23 X s 421 279 m 23 X s black 408 279 m20 0 0 0.6 c 444 273 m 24 X s 494 273 m 23 X s black 481 273 m20 0 0 0.6 c 517 271 m 23 X s 566 271 m 24 X s black
 553 271 m20 0 0 0.6 c 590 270 m 23 X s 639 270 m 23 X s black 626 270 m20 0 0 0.6 c 662 271 m 23 X s 711 271 m 24 X s black 698 271 m20 0 0 0.6 c 735 271 m 23 X s 784 271 m 23 X s black 771 271 m20 0 0 0.6 c 807 279 m 24 X s 857 279 m 23 X s black
 844 279 m20 0 0 0.6 c 880 271 m 23 X s 929 271 m 23 X s black 916 271 m20 0 0 0.6 c 952 269 m 24 X s 1002 269 m 23 X s black 989 269 m20 0 0 0.6 c 1025 270 m 23 X s 1074 270 m 24 X s black 1061 270 m20 0 0 0.6 c 1098 260 m 23 X s 1147 260 m 23 X s
 black 1134 260 m20 0 0 0.6 c 1170 278 m 23 X s 1219 278 m 24 X s black 1206 278 m20 0 0 0.6 c 1243 266 m 23 X s 1292 266 m 23 X s black 1279 266 m20 0 0 0.6 c 1315 268 m 24 X s 1365 268 m 23 X s black 1352 268 m20 0 0 0.6 c 1388 269 m 23 X s 1437
 269 m 23 X s black 1424 269 m20 0 0 0.6 c 1460 263 m 24 X s 1510 263 m 23 X s black 1497 263 m20 0 0 0.6 c 1533 272 m 23 X s 1582 272 m 24 X s black 1569 272 m20 0 0 0.6 c 1606 276 m 23 X s 1655 276 m 23 X s black 1642 276 m20 0 0 0.6 c 1678 303 m
 23 X s 1727 303 m 24 X s black 1714 303 m20 0 0 0.6 c 1751 272 m 23 X s 1800 272 m 23 X s black 1787 272 m20 0 0 0.6 c 1823 285 m 24 X s 1873 285 m 23 X s black 1860 285 m20 0 0 0.6 c 1896 278 m 23 X s 1945 278 m 23 X s black 1932 278 m20 0 0 0.6 c
 1968 286 m 24 X s 2018 286 m 23 X s black 2005 286 m20 1 0 0 c[ 12 12] 0 sd 227 250 m 1814 X s
 gr  gr showpage
end
%%EOF
