%!PS-Adobe-2.0 EPSF-2.0
%%BoundingBox:  0 0 567 385
%%Title: : c1_n2
%%Creator: ROOT Version 5.34/36
%%CreationDate: Wed Feb  1 09:02:02 2017
%%EndComments
%%BeginProlog
80 dict begin
/s {stroke} def /l {lineto} def /m {moveto} def /t {translate} def
/r {rotate} def /rl {roll}  def /R {repeat} def
/d {rlineto} def /rm {rmoveto} def /gr {grestore} def /f {eofill} def
/c {setrgbcolor} def /black {0 setgray} def /sd {setdash} def
/cl {closepath} def /sf {scalefont setfont} def /lw {setlinewidth} def
/box {m dup 0 exch d exch 0 d 0 exch neg d cl} def
/NC{systemdict begin initclip end}def/C{NC box clip newpath}def
/bl {box s} def /bf {gsave box gsave f grestore 1 lw [] 0 sd s grestore} def /Y { 0 exch d} def /X { 0 d} def 
/K {{pop pop 0 moveto} exch kshow} bind def
/ita {/ang 15 def gsave [1 0 ang dup sin exch cos div 1 0 0] concat} def 
/mp {newpath /y exch def /x exch def} def
/side {[w .77 mul w .23 mul] .385 w mul sd w 0 l currentpoint t -144 r} def
/mr {mp x y w2 0 360 arc} def /m24 {mr s} def /m20 {mr f} def
/mb {mp x y w2 add m w2 neg 0 d 0 w neg d w 0 d 0 w d cl} def
/mt {mp x y w2 add m w2 neg w neg d w 0 d cl} def
/m21 {mb f} def /m25 {mb s} def /m22 {mt f} def /m26{mt s} def
/m23 {mp x y w2 sub m w2 w d w neg 0 d cl f} def
/m27 {mp x y w2 add m w3 neg w2 neg d w3 w2 neg d w3 w2 d cl s} def
/m28 {mp x w2 sub y w2 sub w3 add m w3 0 d  0 w3 neg d w3 0 d 0 w3 d w3 0 d  0 w3 d w3 neg 0 d 0 w3 d w3 neg 0 d 0 w3 neg d w3 neg 0 d cl s } def
/m29 {mp gsave x w2 sub y w2 add w3 sub m currentpoint t 4 {side} repeat cl fill gr} def
/m30 {mp gsave x w2 sub y w2 add w3 sub m currentpoint t 4 {side} repeat cl s gr} def
/m31 {mp x y w2 sub m 0 w d x w2 sub y m w 0 d x w2 sub y w2 add m w w neg d x w2 sub y w2 sub m w w d s} def
/m32 {mp x y w2 sub m w2 w d w neg 0 d cl s} def
/m33 {mp x y w2 add m w3 neg w2 neg d w3 w2 neg d w3 w2 d cl f} def
/m34 {mp x w2 sub y w2 sub w3 add m w3 0 d  0 w3 neg d w3 0 d 0 w3 d w3 0 d  0 w3 d w3 neg 0 d 0 w3 d w3 neg 0 d 0 w3 neg d w3 neg 0 d cl f } def
/m2 {mp x y w2 sub m 0 w d x w2 sub y m w 0 d s} def
/m5 {mp x w2 sub y w2 sub m w w d x w2 sub y w2 add m w w neg d s} def
/reEncode {exch findfont dup length dict begin {1 index /FID eq  {pop pop} {def} ifelse } forall /Encoding exch def currentdict end dup /FontName get exch definefont pop } def [/Times-Bold /Times-Italic /Times-BoldItalic /Helvetica /Helvetica-Oblique
 /Helvetica-Bold /Helvetica-BoldOblique /Courier /Courier-Oblique /Courier-Bold /Courier-BoldOblique /Times-Roman /AvantGarde-Book /AvantGarde-BookOblique /AvantGarde-Demi /AvantGarde-DemiOblique /Bookman-Demi /Bookman-DemiItalic /Bookman-Light
 /Bookman-LightItalic /Helvetica-Narrow /Helvetica-Narrow-Bold /Helvetica-Narrow-BoldOblique /Helvetica-Narrow-Oblique /NewCenturySchlbk-Roman /NewCenturySchlbk-Bold /NewCenturySchlbk-BoldItalic /NewCenturySchlbk-Italic /Palatino-Bold
 /Palatino-BoldItalic /Palatino-Italic /Palatino-Roman ] {ISOLatin1Encoding reEncode } forall
%%EndProlog
%%BeginSetup
%%EndSetup
newpath  gsave  .25 .25 scale  gsave  0 0 t black[  ] 0 sd 3 lw 1 1 1 c 2268 1540 0 0 bf black 1 1 1 c 2268 1155 0 385 bf black 1 1 1 c 1814 1039 227 385 bf black 1814 1039 227 385 bl 1 1 1 c 1814 1039 227 385 bf black 1814 1039 227 385 bl 0 0 0.6 c
 1 1 1 c black 0 0 0.6 c 227 385 m 1814 X s black 227 385 m 1814 X s 227 413 m -28 Y s 263 399 m -14 Y s 299 399 m -14 Y s 336 399 m -14 Y s 372 399 m -14 Y s 408 413 m -28 Y s 444 399 m -14 Y s 481 399 m -14 Y s 517 399 m -14 Y s 553 399 m -14 Y s
 590 413 m -28 Y s 626 399 m -14 Y s 662 399 m -14 Y s 698 399 m -14 Y s 735 399 m -14 Y s 771 413 m -28 Y s 807 399 m -14 Y s 844 399 m -14 Y s 880 399 m -14 Y s 916 399 m -14 Y s 952 413 m -28 Y s 989 399 m -14 Y s 1025 399 m -14 Y s 1061 399 m -14
 Y s 1098 399 m -14 Y s 1134 413 m -28 Y s 1170 399 m -14 Y s 1206 399 m -14 Y s 1243 399 m -14 Y s 1279 399 m -14 Y s 1315 413 m -28 Y s 1352 399 m -14 Y s 1388 399 m -14 Y s 1424 399 m -14 Y s 1460 399 m -14 Y s 1497 413 m -28 Y s 1533 399 m -14 Y
 s 1569 399 m -14 Y s 1606 399 m -14 Y s 1642 399 m -14 Y s 1678 413 m -28 Y s 1714 399 m -14 Y s 1751 399 m -14 Y s 1787 399 m -14 Y s 1823 399 m -14 Y s 1860 413 m -28 Y s 1896 399 m -14 Y s 1932 399 m -14 Y s 1968 399 m -14 Y s 2005 399 m -14 Y s
 2041 413 m -28 Y s 2041 413 m -28 Y s
 gsave  2268 1155 0 385 C 211.177 347.63 t 0 r /Helvetica findfont 39.0414 sf 0 0 m (0) show NC gr 
 gsave  2268 1155 0 385 C 376.87 347.63 t 0 r /Helvetica findfont 39.0414 sf 0 0 m (0.5) show NC gr 
 gsave  2268 1155 0 385 C 578.3 347.63 t 0 r /Helvetica findfont 39.0414 sf 0 0 m (1) show NC gr 
 gsave  2268 1155 0 385 C 740.744 347.63 t 0 r /Helvetica findfont 39.0414 sf 0 0 m (1.5) show NC gr 
 gsave  2268 1155 0 385 C 938.926 347.63 t 0 r /Helvetica findfont 39.0414 sf 0 0 m (2) show NC gr 
 gsave  2268 1155 0 385 C 1104.62 347.63 t 0 r /Helvetica findfont 39.0414 sf 0 0 m (2.5) show NC gr 
 gsave  2268 1155 0 385 C 1299.55 347.63 t 0 r /Helvetica findfont 39.0414 sf 0 0 m (3) show NC gr 
 gsave  2268 1155 0 385 C 1465.24 347.63 t 0 r /Helvetica findfont 39.0414 sf 0 0 m (3.5) show NC gr 
 gsave  2268 1155 0 385 C 1663.43 347.63 t 0 r /Helvetica findfont 39.0414 sf 0 0 m (4) show NC gr 
 gsave  2268 1155 0 385 C 1829.12 347.63 t 0 r /Helvetica findfont 39.0414 sf 0 0 m (4.5) show NC gr 
 gsave  2268 1155 0 385 C 2027.3 347.63 t 0 r /Helvetica findfont 39.0414 sf 0 0 m (5) show NC gr  227 385 m 1039 Y s 257 386 m -30 X s 257 406 m -30 X s 257 420 m -30 X s 257 430 m -30 X s 257 439 m -30 X s 257 446 m -30 X s 257 453 m -30 X s 257
 459 m -30 X s 288 464 m -61 X s
 gsave  2268 1155 0 385 C 198.182 464.59 t 0 r /Helvetica findfont 26.0276 sf 0 0 m (1) show NC gr 
 gsave  2268 1155 0 385 C 181.937 464.59 t 0 r /Symbol findfont 26.0276 sf 0 0 m (-) show NC gr 
 gsave  2268 1155 0 385 C 139.702 445.096 t 0 r /Helvetica findfont 39.0414 sf 0 0 m (10) show NC gr  257 497 m -30 X s 257 517 m -30 X s 257 531 m -30 X s 257 541 m -30 X s 257 550 m -30 X s 257 558 m -30 X s 257 564 m -30 X s 257 570 m -30 X s 288
 575 m -61 X s
 gsave  2268 1155 0 385 C 209.083 559.126 t 0 r  -20 0 t /Helvetica findfont 39.0414 sf 0 0 m (1) show NC gr  257 608 m -30 X s 257 628 m -30 X s 257 642 m -30 X s 257 652 m -30 X s 257 661 m -30 X s 257 669 m -30 X s 257 675 m -30 X s 257 681 m -30
 X s 288 686 m -61 X s
 gsave  2268 1155 0 385 C 209.083 670.15 t 0 r  -41 0 t /Helvetica findfont 39.0414 sf 0 0 m (10) show NC gr  257 719 m -30 X s 257 739 m -30 X s 257 753 m -30 X s 257 763 m -30 X s 257 772 m -30 X s 257 780 m -30 X s 257 786 m -30 X s 257 792 m -30
 X s 288 797 m -61 X s
 gsave  2268 1155 0 385 C 191.684 799.224 t 0 r /Helvetica findfont 26.0276 sf 0 0 m (2) show NC gr 
 gsave  2268 1155 0 385 C 149.448 779.731 t 0 r /Helvetica findfont 39.0414 sf 0 0 m (10) show NC gr  257 830 m -30 X s 257 850 m -30 X s 257 864 m -30 X s 257 874 m -30 X s 257 883 m -30 X s 257 891 m -30 X s 257 897 m -30 X s 257 903 m -30 X s 288
 908 m -61 X s
 gsave  2268 1155 0 385 C 191.684 912.935 t 0 r /Helvetica findfont 26.0276 sf 0 0 m (3) show NC gr 
 gsave  2268 1155 0 385 C 149.448 890.192 t 0 r /Helvetica findfont 39.0414 sf 0 0 m (10) show NC gr  257 941 m -30 X s 257 961 m -30 X s 257 975 m -30 X s 257 985 m -30 X s 257 994 m -30 X s 257 1002 m -30 X s 257 1008 m -30 X s 257 1014 m -30 X s
 288 1019 m -61 X s
 gsave  2268 1155 0 385 C 191.684 1020.15 t 0 r /Helvetica findfont 26.0276 sf 0 0 m (4) show NC gr 
 gsave  2268 1155 0 385 C 149.448 1000.65 t 0 r /Helvetica findfont 39.0414 sf 0 0 m (10) show NC gr  257 1052 m -30 X s 257 1072 m -30 X s 257 1086 m -30 X s 257 1096 m -30 X s 257 1105 m -30 X s 257 1113 m -30 X s 257 1119 m -30 X s 257 1125 m -30
 X s 288 1130 m -61 X s
 gsave  2268 1155 0 385 C 191.684 1133.86 t 0 r /Helvetica findfont 26.0276 sf 0 0 m (5) show NC gr 
 gsave  2268 1155 0 385 C 149.448 1111.12 t 0 r /Helvetica findfont 39.0414 sf 0 0 m (10) show NC gr  257 1163 m -30 X s 257 1183 m -30 X s 257 1197 m -30 X s 257 1207 m -30 X s 257 1216 m -30 X s 257 1224 m -30 X s 257 1230 m -30 X s 257 1236 m -30
 X s 288 1241 m -61 X s
 gsave  2268 1155 0 385 C 191.684 1244.32 t 0 r /Helvetica findfont 26.0276 sf 0 0 m (6) show NC gr 
 gsave  2268 1155 0 385 C 149.448 1221.58 t 0 r /Helvetica findfont 39.0414 sf 0 0 m (10) show NC gr  257 1274 m -30 X s 257 1294 m -30 X s 257 1308 m -30 X s 257 1318 m -30 X s 257 1327 m -30 X s 257 1335 m -30 X s 257 1341 m -30 X s 257 1347 m -30
 X s 288 1352 m -61 X s
 gsave  2268 1155 0 385 C 191.684 1354.78 t 0 r /Helvetica findfont 26.0276 sf 0 0 m (7) show NC gr 
 gsave  2268 1155 0 385 C 149.448 1335.29 t 0 r /Helvetica findfont 39.0414 sf 0 0 m (10) show NC gr  257 1385 m -30 X s 257 1405 m -30 X s 257 1419 m -30 X s 0.4 0.8 1 c black 0.4 0.8 1 c 227 385 m 601 Y 72 X -64 Y 73 X 53 Y 72 X 35 Y 73 X 22 Y 73 X
 19 Y 72 X 11 Y 73 X 4 Y 72 X -1 Y 73 X -4 Y 72 X -6 Y 73 X -8 Y 73 X -8 Y 72 X -12 Y 73 X -11 Y 72 X -11 Y 73 X -14 Y 72 X -12 Y 73 X -13 Y 73 X -11 Y 72 X -13 Y 73 X -7 Y 72 X -12 Y 73 X -6 Y 72 X -8 Y 73 X -524 Y f 227 986 m 72 X -64 Y 73 X 53 Y
 72 X 35 Y 73 X 22 Y 73 X 19 Y 72 X 11 Y 73 X 4 Y 72 X -1 Y 73 X -4 Y 72 X -6 Y 73 X -8 Y 73 X -8 Y 72 X -12 Y 73 X -11 Y 72 X -11 Y 73 X -14 Y 72 X -12 Y 73 X -13 Y 73 X -11 Y 72 X -13 Y 73 X -7 Y 72 X -12 Y 73 X -6 Y 72 X -8 Y 73 X s 0 0.6 0 c
 0.999 0.999 0.999 c black 0.999 0.999 0.999 c 227 385 m 554 Y 72 X -54 Y 73 X 59 Y 72 X 34 Y 73 X 22 Y 73 X 18 Y 72 X 9 Y 73 X -1 Y 72 X -4 Y 73 X -4 Y 72 X -6 Y 73 X -8 Y 73 X -8 Y 72 X -12 Y 73 X -11 Y 72 X -13 Y 73 X -14 Y 72 X -13 Y 73 X -11 Y
 73 X -14 Y 72 X -13 Y 73 X -3 Y 72 X -10 Y 73 X -8 Y 72 X -9 Y 73 X -480 Y f 0 0.6 0 c 0.999 0.999 0.999 c 0 0.6 0 c 227 939 m 72 X -54 Y 73 X 59 Y 72 X 34 Y 73 X 22 Y 73 X 18 Y 72 X 9 Y 73 X -1 Y 72 X -4 Y 73 X -4 Y 72 X -6 Y 73 X -8 Y 73 X -8 Y 72
 X -12 Y 73 X -11 Y 72 X -13 Y 73 X -14 Y 72 X -13 Y 73 X -11 Y 73 X -14 Y 72 X -13 Y 73 X -3 Y 72 X -10 Y 73 X -8 Y 72 X -9 Y 73 X s 1 1 1 c black 0 0.6 0 c 227 939 m 72 X -54 Y 73 X 59 Y 72 X 34 Y 73 X 22 Y 73 X 18 Y 72 X 9 Y 73 X -1 Y 72 X -4 Y 73
 X -4 Y 72 X -6 Y 73 X -8 Y 73 X -8 Y 72 X -12 Y 73 X -11 Y 72 X -13 Y 73 X -14 Y 72 X -13 Y 73 X -11 Y 73 X -14 Y 72 X -13 Y 73 X -3 Y 72 X -10 Y 73 X -8 Y 72 X -9 Y 73 X s black 0 0.6 0 c 227 385 m 554 Y 72 X -54 Y 73 X 59 Y 72 X 34 Y 73 X 22 Y 73
 X 18 Y 72 X 9 Y 73 X -1 Y 72 X -4 Y 73 X -4 Y 72 X -6 Y 73 X -8 Y 73 X -8 Y 72 X -12 Y 73 X -11 Y 72 X -13 Y 73 X -14 Y 72 X -13 Y 73 X -11 Y 73 X -14 Y 72 X -13 Y 73 X -3 Y 72 X -10 Y 73 X -8 Y 72 X -9 Y 73 X -480 Y f 227 939 m 72 X -54 Y 73 X 59 Y
 72 X 34 Y 73 X 22 Y 73 X 18 Y 72 X 9 Y 73 X -1 Y 72 X -4 Y 73 X -4 Y 72 X -6 Y 73 X -8 Y 73 X -8 Y 72 X -12 Y 73 X -11 Y 72 X -13 Y 73 X -14 Y 72 X -13 Y 73 X -11 Y 73 X -14 Y 72 X -13 Y 73 X -3 Y 72 X -10 Y 73 X -8 Y 72 X -9 Y 73 X s 1 0.8 0 c
 0.999 0.999 0.999 c black 0.999 0.999 0.999 c 227 385 m 429 Y 72 X 21 Y 73 X 68 Y 72 X 35 Y 73 X 17 Y 73 X 17 Y 72 X -1 Y 73 X -18 Y 72 X -19 Y 73 X -14 Y 72 X -16 Y 73 X -9 Y 73 X -14 Y 72 X -15 Y 73 X -16 Y 72 X -14 Y 73 X -16 Y 72 X -10 Y 73 X
 -16 Y 73 X -13 Y 72 X -9 Y 73 X -17 Y 72 X -1 Y 73 X -6 Y 72 X -23 Y 73 X -340 Y f 1 0.8 0 c 0.999 0.999 0.999 c 1 0.8 0 c 227 814 m 72 X 21 Y 73 X 68 Y 72 X 35 Y 73 X 17 Y 73 X 17 Y 72 X -1 Y 73 X -18 Y 72 X -19 Y 73 X -14 Y 72 X -16 Y 73 X -9 Y 73
 X -14 Y 72 X -15 Y 73 X -16 Y 72 X -14 Y 73 X -16 Y 72 X -10 Y 73 X -16 Y 73 X -13 Y 72 X -9 Y 73 X -17 Y 72 X -1 Y 73 X -6 Y 72 X -23 Y 73 X s 1 1 1 c black 1 0.8 0 c 227 814 m 72 X 21 Y 73 X 68 Y 72 X 35 Y 73 X 17 Y 73 X 17 Y 72 X -1 Y 73 X -18 Y
 72 X -19 Y 73 X -14 Y 72 X -16 Y 73 X -9 Y 73 X -14 Y 72 X -15 Y 73 X -16 Y 72 X -14 Y 73 X -16 Y 72 X -10 Y 73 X -16 Y 73 X -13 Y 72 X -9 Y 73 X -17 Y 72 X -1 Y 73 X -6 Y 72 X -23 Y 73 X s black 1 0.8 0 c 227 385 m 429 Y 72 X 21 Y 73 X 68 Y 72 X 35
 Y 73 X 17 Y 73 X 17 Y 72 X -1 Y 73 X -18 Y 72 X -19 Y 73 X -14 Y 72 X -16 Y 73 X -9 Y 73 X -14 Y 72 X -15 Y 73 X -16 Y 72 X -14 Y 73 X -16 Y 72 X -10 Y 73 X -16 Y 73 X -13 Y 72 X -9 Y 73 X -17 Y 72 X -1 Y 73 X -6 Y 72 X -23 Y 73 X -340 Y f 227 814 m
 72 X 21 Y 73 X 68 Y 72 X 35 Y 73 X 17 Y 73 X 17 Y 72 X -1 Y 73 X -18 Y 72 X -19 Y 73 X -14 Y 72 X -16 Y 73 X -9 Y 73 X -14 Y 72 X -15 Y 73 X -16 Y 72 X -14 Y 73 X -16 Y 72 X -10 Y 73 X -16 Y 73 X -13 Y 72 X -9 Y 73 X -17 Y 72 X -1 Y 73 X -6 Y 72 X
 -23 Y 73 X s 1 0.6 0 c 0.999 0.999 0.999 c black 0.999 0.999 0.999 c 227 385 m 395 Y 145 X 60 Y 72 X 33 Y 73 X 18 Y 73 X 12 Y 72 X -1 Y 73 X -12 Y 72 X -11 Y 73 X -9 Y 72 X -11 Y 73 X -11 Y 73 X -10 Y 72 X -12 Y 73 X -15 Y 72 X -12 Y 73 X -16 Y 72 X
 -11 Y 73 X -16 Y 73 X -8 Y 72 X -9 Y 73 X -20 Y 145 X -7 Y 72 X -16 Y 73 X -311 Y f 1 0.6 0 c 0.999 0.999 0.999 c 1 0.6 0 c 227 780 m 145 X 60 Y 72 X 33 Y 73 X 18 Y 73 X 12 Y 72 X -1 Y 73 X -12 Y 72 X -11 Y 73 X -9 Y 72 X -11 Y 73 X -11 Y 73 X -10 Y
 72 X -12 Y 73 X -15 Y 72 X -12 Y 73 X -16 Y 72 X -11 Y 73 X -16 Y 73 X -8 Y 72 X -9 Y 73 X -20 Y 145 X -7 Y 72 X -16 Y 73 X s 1 1 1 c black 1 0.6 0 c 227 780 m 145 X 60 Y 72 X 33 Y 73 X 18 Y 73 X 12 Y 72 X -1 Y 73 X -12 Y 72 X -11 Y 73 X -9 Y 72 X
 -11 Y 73 X -11 Y 73 X -10 Y 72 X -12 Y 73 X -15 Y 72 X -12 Y 73 X -16 Y 72 X -11 Y 73 X -16 Y 73 X -8 Y 72 X -9 Y 73 X -20 Y 145 X -7 Y 72 X -16 Y 73 X s black 1 0.6 0 c 227 385 m 395 Y 145 X 60 Y 72 X 33 Y 73 X 18 Y 73 X 12 Y 72 X -1 Y 73 X -12 Y
 72 X -11 Y 73 X -9 Y 72 X -11 Y 73 X -11 Y 73 X -10 Y 72 X -12 Y 73 X -15 Y 72 X -12 Y 73 X -16 Y 72 X -11 Y 73 X -16 Y 73 X -8 Y 72 X -9 Y 73 X -20 Y 145 X -7 Y 72 X -16 Y 73 X -311 Y f 227 780 m 145 X 60 Y 72 X 33 Y 73 X 18 Y 73 X 12 Y 72 X -1 Y
 73 X -12 Y 72 X -11 Y 73 X -9 Y 72 X -11 Y 73 X -11 Y 73 X -10 Y 72 X -12 Y 73 X -15 Y 72 X -12 Y 73 X -16 Y 72 X -11 Y 73 X -16 Y 73 X -8 Y 72 X -9 Y 73 X -20 Y 145 X -7 Y 72 X -16 Y 73 X s 0.999 0.999 0.999 c black 0.999 0.999 0.999 c 227 385 m
 385 Y 145 X 53 Y 72 X 31 Y 73 X 18 Y 73 X 12 Y 145 X -10 Y 72 X -10 Y 73 X -8 Y 72 X -9 Y 73 X -12 Y 73 X -10 Y 72 X -12 Y 73 X -15 Y 72 X -11 Y 73 X -11 Y 72 X -19 Y 73 X -12 Y 73 X -12 Y 72 X -11 Y 73 X -14 Y 145 X -1 Y 72 X -29 Y 73 X -293 Y f 1
 0.6 0 c 0.999 0.999 0.999 c 1 0.6 0 c 227 770 m 145 X 53 Y 72 X 31 Y 73 X 18 Y 73 X 12 Y 145 X -10 Y 72 X -10 Y 73 X -8 Y 72 X -9 Y 73 X -12 Y 73 X -10 Y 72 X -12 Y 73 X -15 Y 72 X -11 Y 73 X -11 Y 72 X -19 Y 73 X -12 Y 73 X -12 Y 72 X -11 Y 73 X
 -14 Y 145 X -1 Y 72 X -29 Y 73 X s 1 1 1 c black 1 0.6 0 c 227 770 m 145 X 53 Y 72 X 31 Y 73 X 18 Y 73 X 12 Y 145 X -10 Y 72 X -10 Y 73 X -8 Y 72 X -9 Y 73 X -12 Y 73 X -10 Y 72 X -12 Y 73 X -15 Y 72 X -11 Y 73 X -11 Y 72 X -19 Y 73 X -12 Y 73 X -12
 Y 72 X -11 Y 73 X -14 Y 145 X -1 Y 72 X -29 Y 73 X s black 1 0.6 0 c 227 385 m 385 Y 145 X 53 Y 72 X 31 Y 73 X 18 Y 73 X 12 Y 145 X -10 Y 72 X -10 Y 73 X -8 Y 72 X -9 Y 73 X -12 Y 73 X -10 Y 72 X -12 Y 73 X -15 Y 72 X -11 Y 73 X -11 Y 72 X -19 Y 73
 X -12 Y 73 X -12 Y 72 X -11 Y 73 X -14 Y 145 X -1 Y 72 X -29 Y 73 X -293 Y f 227 770 m 145 X 53 Y 72 X 31 Y 73 X 18 Y 73 X 12 Y 145 X -10 Y 72 X -10 Y 73 X -8 Y 72 X -9 Y 73 X -12 Y 73 X -10 Y 72 X -12 Y 73 X -15 Y 72 X -11 Y 73 X -11 Y 72 X -19 Y
 73 X -12 Y 73 X -12 Y 72 X -11 Y 73 X -14 Y 145 X -1 Y 72 X -29 Y 73 X s 0.999 0.999 0.999 c black 0.999 0.999 0.999 c 227 385 m 385 Y 145 X 53 Y 72 X 31 Y 73 X 18 Y 73 X 12 Y 145 X -10 Y 72 X -10 Y 73 X -8 Y 72 X -9 Y 73 X -12 Y 73 X -10 Y 72 X -12
 Y 73 X -15 Y 72 X -11 Y 73 X -11 Y 72 X -19 Y 73 X -12 Y 73 X -12 Y 72 X -11 Y 73 X -14 Y 145 X -2 Y 72 X -28 Y 73 X -293 Y f 1 0.6 0 c 0.999 0.999 0.999 c 1 0.6 0 c 227 770 m 145 X 53 Y 72 X 31 Y 73 X 18 Y 73 X 12 Y 145 X -10 Y 72 X -10 Y 73 X -8 Y
 72 X -9 Y 73 X -12 Y 73 X -10 Y 72 X -12 Y 73 X -15 Y 72 X -11 Y 73 X -11 Y 72 X -19 Y 73 X -12 Y 73 X -12 Y 72 X -11 Y 73 X -14 Y 145 X -2 Y 72 X -28 Y 73 X s 1 1 1 c black 1 0.6 0 c 227 770 m 145 X 53 Y 72 X 31 Y 73 X 18 Y 73 X 12 Y 145 X -10 Y 72
 X -10 Y 73 X -8 Y 72 X -9 Y 73 X -12 Y 73 X -10 Y 72 X -12 Y 73 X -15 Y 72 X -11 Y 73 X -11 Y 72 X -19 Y 73 X -12 Y 73 X -12 Y 72 X -11 Y 73 X -14 Y 145 X -2 Y 72 X -28 Y 73 X s black 1 0.6 0 c 227 385 m 385 Y 145 X 53 Y 72 X 31 Y 73 X 18 Y 73 X 12
 Y 145 X -10 Y 72 X -10 Y 73 X -8 Y 72 X -9 Y 73 X -12 Y 73 X -10 Y 72 X -12 Y 73 X -15 Y 72 X -11 Y 73 X -11 Y 72 X -19 Y 73 X -12 Y 73 X -12 Y 72 X -11 Y 73 X -14 Y 145 X -2 Y 72 X -28 Y 73 X -293 Y f 227 770 m 145 X 53 Y 72 X 31 Y 73 X 18 Y 73 X
 12 Y 145 X -10 Y 72 X -10 Y 73 X -8 Y 72 X -9 Y 73 X -12 Y 73 X -10 Y 72 X -12 Y 73 X -15 Y 72 X -11 Y 73 X -11 Y 72 X -19 Y 73 X -12 Y 73 X -12 Y 72 X -11 Y 73 X -14 Y 145 X -2 Y 72 X -28 Y 73 X s 0.4 0 0.4 c 0.999 0.999 0.999 c black 0.999 0.999
 0.999 c 227 385 m 385 Y 145 X 53 Y 72 X 31 Y 73 X 18 Y 73 X 12 Y 145 X -10 Y 72 X -10 Y 73 X -8 Y 72 X -9 Y 73 X -12 Y 73 X -10 Y 72 X -12 Y 73 X -15 Y 72 X -11 Y 73 X -11 Y 72 X -19 Y 73 X -12 Y 73 X -12 Y 72 X -11 Y 73 X -14 Y 145 X -2 Y 72 X -28
 Y 73 X -293 Y f 0.4 0 0.4 c 0.999 0.999 0.999 c 0.4 0 0.4 c 227 770 m 145 X 53 Y 72 X 31 Y 73 X 18 Y 73 X 12 Y 145 X -10 Y 72 X -10 Y 73 X -8 Y 72 X -9 Y 73 X -12 Y 73 X -10 Y 72 X -12 Y 73 X -15 Y 72 X -11 Y 73 X -11 Y 72 X -19 Y 73 X -12 Y 73 X
 -12 Y 72 X -11 Y 73 X -14 Y 145 X -2 Y 72 X -28 Y 73 X s 1 1 1 c black 0.4 0 0.4 c 227 770 m 145 X 53 Y 72 X 31 Y 73 X 18 Y 73 X 12 Y 145 X -10 Y 72 X -10 Y 73 X -8 Y 72 X -9 Y 73 X -12 Y 73 X -10 Y 72 X -12 Y 73 X -15 Y 72 X -11 Y 73 X -11 Y 72 X
 -19 Y 73 X -12 Y 73 X -12 Y 72 X -11 Y 73 X -14 Y 145 X -2 Y 72 X -28 Y 73 X s black 0.4 0 0.4 c 227 385 m 385 Y 145 X 53 Y 72 X 31 Y 73 X 18 Y 73 X 12 Y 145 X -10 Y 72 X -10 Y 73 X -8 Y 72 X -9 Y 73 X -12 Y 73 X -10 Y 72 X -12 Y 73 X -15 Y 72 X -11
 Y 73 X -11 Y 72 X -19 Y 73 X -12 Y 73 X -12 Y 72 X -11 Y 73 X -14 Y 145 X -2 Y 72 X -28 Y 73 X -293 Y f 227 770 m 145 X 53 Y 72 X 31 Y 73 X 18 Y 73 X 12 Y 145 X -10 Y 72 X -10 Y 73 X -8 Y 72 X -9 Y 73 X -12 Y 73 X -10 Y 72 X -12 Y 73 X -15 Y 72 X
 -11 Y 73 X -11 Y 72 X -19 Y 73 X -12 Y 73 X -12 Y 72 X -11 Y 73 X -14 Y 145 X -2 Y 72 X -28 Y 73 X s 0.6 0 0.6 c 0.999 0.999 0.999 c black 0.999 0.999 0.999 c 227 385 m 344 Y 72 X 9 Y 73 X 54 Y 72 X 31 Y 73 X 18 Y 73 X 10 Y 72 X -1 Y 73 X -10 Y 72 X
 -13 Y 73 X -7 Y 72 X -9 Y 73 X -17 Y 73 X -6 Y 72 X -14 Y 73 X -18 Y 72 X -10 Y 73 X -7 Y 72 X -22 Y 73 X -11 Y 73 X -14 Y 72 X -9 Y 73 X -19 Y 72 X 2 Y 73 X 17 Y 72 X -70 Y 73 X -228 Y f 0.6 0 0.6 c 0.999 0.999 0.999 c 0.6 0 0.6 c 227 729 m 72 X 9
 Y 73 X 54 Y 72 X 31 Y 73 X 18 Y 73 X 10 Y 72 X -1 Y 73 X -10 Y 72 X -13 Y 73 X -7 Y 72 X -9 Y 73 X -17 Y 73 X -6 Y 72 X -14 Y 73 X -18 Y 72 X -10 Y 73 X -7 Y 72 X -22 Y 73 X -11 Y 73 X -14 Y 72 X -9 Y 73 X -19 Y 72 X 2 Y 73 X 17 Y 72 X -70 Y 73 X s
 1 1 1 c black 0.6 0 0.6 c 227 729 m 72 X 9 Y 73 X 54 Y 72 X 31 Y 73 X 18 Y 73 X 10 Y 72 X -1 Y 73 X -10 Y 72 X -13 Y 73 X -7 Y 72 X -9 Y 73 X -17 Y 73 X -6 Y 72 X -14 Y 73 X -18 Y 72 X -10 Y 73 X -7 Y 72 X -22 Y 73 X -11 Y 73 X -14 Y 72 X -9 Y 73 X
 -19 Y 72 X 2 Y 73 X 17 Y 72 X -70 Y 73 X s black 0.6 0 0.6 c 227 385 m 344 Y 72 X 9 Y 73 X 54 Y 72 X 31 Y 73 X 18 Y 73 X 10 Y 72 X -1 Y 73 X -10 Y 72 X -13 Y 73 X -7 Y 72 X -9 Y 73 X -17 Y 73 X -6 Y 72 X -14 Y 73 X -18 Y 72 X -10 Y 73 X -7 Y 72 X
 -22 Y 73 X -11 Y 73 X -14 Y 72 X -9 Y 73 X -19 Y 72 X 2 Y 73 X 17 Y 72 X -70 Y 73 X -228 Y f 227 729 m 72 X 9 Y 73 X 54 Y 72 X 31 Y 73 X 18 Y 73 X 10 Y 72 X -1 Y 73 X -10 Y 72 X -13 Y 73 X -7 Y 72 X -9 Y 73 X -17 Y 73 X -6 Y 72 X -14 Y 73 X -18 Y 72
 X -10 Y 73 X -7 Y 72 X -22 Y 73 X -11 Y 73 X -14 Y 72 X -9 Y 73 X -19 Y 72 X 2 Y 73 X 17 Y 72 X -70 Y 73 X s 0.8 0 0.8 c 0.999 0.999 0.999 c black 0.999 0.999 0.999 c 227 385 m 303 Y 72 X 12 Y 73 X 54 Y 72 X 31 Y 73 X 17 Y 73 X 6 Y 72 X 2 Y 73 X -13
 Y 72 X -15 Y 73 X -5 Y 72 X -10 Y 73 X -10 Y 73 X -10 Y 72 X -13 Y 73 X -15 Y 72 X -23 Y 73 X -1 Y 72 X -27 Y 73 X -6 Y 73 X -4 Y 72 X -26 Y 73 X -3 Y 72 X 1 Y 73 X -19 Y 72 X -43 Y 73 X -183 Y f 0.8 0 0.8 c 0.999 0.999 0.999 c 0.8 0 0.8 c 227 688 m
 72 X 12 Y 73 X 54 Y 72 X 31 Y 73 X 17 Y 73 X 6 Y 72 X 2 Y 73 X -13 Y 72 X -15 Y 73 X -5 Y 72 X -10 Y 73 X -10 Y 73 X -10 Y 72 X -13 Y 73 X -15 Y 72 X -23 Y 73 X -1 Y 72 X -27 Y 73 X -6 Y 73 X -4 Y 72 X -26 Y 73 X -3 Y 72 X 1 Y 73 X -19 Y 72 X -43 Y
 73 X s 1 1 1 c black 0.8 0 0.8 c 227 688 m 72 X 12 Y 73 X 54 Y 72 X 31 Y 73 X 17 Y 73 X 6 Y 72 X 2 Y 73 X -13 Y 72 X -15 Y 73 X -5 Y 72 X -10 Y 73 X -10 Y 73 X -10 Y 72 X -13 Y 73 X -15 Y 72 X -23 Y 73 X -1 Y 72 X -27 Y 73 X -6 Y 73 X -4 Y 72 X -26
 Y 73 X -3 Y 72 X 1 Y 73 X -19 Y 72 X -43 Y 73 X s black 0.8 0 0.8 c 227 385 m 303 Y 72 X 12 Y 73 X 54 Y 72 X 31 Y 73 X 17 Y 73 X 6 Y 72 X 2 Y 73 X -13 Y 72 X -15 Y 73 X -5 Y 72 X -10 Y 73 X -10 Y 73 X -10 Y 72 X -13 Y 73 X -15 Y 72 X -23 Y 73 X -1 Y
 72 X -27 Y 73 X -6 Y 73 X -4 Y 72 X -26 Y 73 X -3 Y 72 X 1 Y 73 X -19 Y 72 X -43 Y 73 X -183 Y f 227 688 m 72 X 12 Y 73 X 54 Y 72 X 31 Y 73 X 17 Y 73 X 6 Y 72 X 2 Y 73 X -13 Y 72 X -15 Y 73 X -5 Y 72 X -10 Y 73 X -10 Y 73 X -10 Y 72 X -13 Y 73 X -15
 Y 72 X -23 Y 73 X -1 Y 72 X -27 Y 73 X -6 Y 73 X -4 Y 72 X -26 Y 73 X -3 Y 72 X 1 Y 73 X -19 Y 72 X -43 Y 73 X s black 227 385 m 1814 X s 227 413 m -28 Y s 263 399 m -14 Y s 299 399 m -14 Y s 336 399 m -14 Y s 372 399 m -14 Y s 408 413 m -28 Y s 444
 399 m -14 Y s 481 399 m -14 Y s 517 399 m -14 Y s 553 399 m -14 Y s 590 413 m -28 Y s 626 399 m -14 Y s 662 399 m -14 Y s 698 399 m -14 Y s 735 399 m -14 Y s 771 413 m -28 Y s 807 399 m -14 Y s 844 399 m -14 Y s 880 399 m -14 Y s 916 399 m -14 Y s
 952 413 m -28 Y s 989 399 m -14 Y s 1025 399 m -14 Y s 1061 399 m -14 Y s 1098 399 m -14 Y s 1134 413 m -28 Y s 1170 399 m -14 Y s 1206 399 m -14 Y s 1243 399 m -14 Y s 1279 399 m -14 Y s 1315 413 m -28 Y s 1352 399 m -14 Y s 1388 399 m -14 Y s 1424
 399 m -14 Y s 1460 399 m -14 Y s 1497 413 m -28 Y s 1533 399 m -14 Y s 1569 399 m -14 Y s 1606 399 m -14 Y s 1642 399 m -14 Y s 1678 413 m -28 Y s 1714 399 m -14 Y s 1751 399 m -14 Y s 1787 399 m -14 Y s 1823 399 m -14 Y s 1860 413 m -28 Y s 1896
 399 m -14 Y s 1932 399 m -14 Y s 1968 399 m -14 Y s 2005 399 m -14 Y s 2041 413 m -28 Y s 2041 413 m -28 Y s 227 385 m 1039 Y s 257 386 m -30 X s 257 406 m -30 X s 257 420 m -30 X s 257 430 m -30 X s 257 439 m -30 X s 257 446 m -30 X s 257 453 m -30
 X s 257 459 m -30 X s 288 464 m -61 X s 257 497 m -30 X s 257 517 m -30 X s 257 531 m -30 X s 257 541 m -30 X s 257 550 m -30 X s 257 558 m -30 X s 257 564 m -30 X s 257 570 m -30 X s 288 575 m -61 X s 257 608 m -30 X s 257 628 m -30 X s 257 642 m
 -30 X s 257 652 m -30 X s 257 661 m -30 X s 257 669 m -30 X s 257 675 m -30 X s 257 681 m -30 X s 288 686 m -61 X s 257 719 m -30 X s 257 739 m -30 X s 257 753 m -30 X s 257 763 m -30 X s 257 772 m -30 X s 257 780 m -30 X s 257 786 m -30 X s 257 792
 m -30 X s 288 797 m -61 X s 257 830 m -30 X s 257 850 m -30 X s 257 864 m -30 X s 257 874 m -30 X s 257 883 m -30 X s 257 891 m -30 X s 257 897 m -30 X s 257 903 m -30 X s 288 908 m -61 X s 257 941 m -30 X s 257 961 m -30 X s 257 975 m -30 X s 257
 985 m -30 X s 257 994 m -30 X s 257 1002 m -30 X s 257 1008 m -30 X s 257 1014 m -30 X s 288 1019 m -61 X s 257 1052 m -30 X s 257 1072 m -30 X s 257 1086 m -30 X s 257 1096 m -30 X s 257 1105 m -30 X s 257 1113 m -30 X s 257 1119 m -30 X s 257 1125
 m -30 X s 288 1130 m -61 X s 257 1163 m -30 X s 257 1183 m -30 X s 257 1197 m -30 X s 257 1207 m -30 X s 257 1216 m -30 X s 257 1224 m -30 X s 257 1230 m -30 X s 257 1236 m -30 X s 288 1241 m -61 X s 257 1274 m -30 X s 257 1294 m -30 X s 257 1308 m
 -30 X s 257 1318 m -30 X s 257 1327 m -30 X s 257 1335 m -30 X s 257 1341 m -30 X s 257 1347 m -30 X s 288 1352 m -61 X s 257 1385 m -30 X s 257 1405 m -30 X s 257 1419 m -30 X s 0 0 0.6 c black 1 lw << /PatternType 1 /PaintType 2 /TilingType 1
 /BBox [ 0 0 100 100 ] /XStep 100 /YStep 100 /PaintProc { begin gsave 0 100 m 100 0 l s gr end } >> [ 0.24 0 0 0.24 0 0 ] makepattern /P05 exch def /cs {[/Pattern /DeviceRGB] setcolorspace} def /FA {f [/DeviceRGB] setcolorspace} def cs 0 0 0 P05
 setcolor 227 979 m 72 X 13 Y -72 X FA 3 lw 0 0 0.6 c black cs 0 0 0 P05 setcolor 299 911 m 73 X 20 Y -73 X FA 0 0 0.6 c black cs 0 0 0 P05 setcolor 372 955 m 72 X 34 Y -72 X FA 0 0 0.6 c black cs 0 0 0 P05 setcolor 444 989 m 73 X 35 Y -73 X FA 0 0
 0.6 c black cs 0 0 0 P05 setcolor 517 1016 m 73 X 29 Y -73 X FA 0 0 0.6 c black cs 0 0 0 P05 setcolor 590 1035 m 72 X 29 Y -72 X FA 0 0 0.6 c black cs 0 0 0 P05 setcolor 662 1053 m 73 X 17 Y -73 X FA 0 0 0.6 c black cs 0 0 0 P05 setcolor 735 1064 m
 72 X 4 Y -72 X FA 0 0 0.6 c black cs 0 0 0 P05 setcolor 807 1061 m 73 X 8 Y -73 X FA 0 0 0.6 c black cs 0 0 0 P05 setcolor 880 1057 m 72 X 9 Y -72 X FA 0 0 0.6 c black cs 0 0 0 P05 setcolor 952 1050 m 73 X 10 Y -73 X FA 0 0 0.6 c black cs 0 0 0 P05
 setcolor 1025 1041 m 73 X 12 Y -73 X FA 0 0 0.6 c black cs 0 0 0 P05 setcolor 1098 1033 m 72 X 12 Y -72 X FA 0 0 0.6 c black cs 0 0 0 P05 setcolor 1170 1021 m 73 X 12 Y -73 X FA 0 0 0.6 c black cs 0 0 0 P05 setcolor 1243 1010 m 72 X 12 Y -72 X FA 0
 0 0.6 c black cs 0 0 0 P05 setcolor 1315 994 m 73 X 20 Y -73 X FA 0 0 0.6 c black cs 0 0 0 P05 setcolor 1388 981 m 72 X 18 Y -72 X FA 0 0 0.6 c black cs 0 0 0 P05 setcolor 1460 967 m 73 X 22 Y -73 X FA 0 0 0.6 c black cs 0 0 0 P05 setcolor 1533 954
 m 73 X 22 Y -73 X FA 0 0 0.6 c black cs 0 0 0 P05 setcolor 1606 941 m 72 X 26 Y -72 X FA 0 0 0.6 c black cs 0 0 0 P05 setcolor 1678 929 m 73 X 22 Y -73 X FA 0 0 0.6 c black cs 0 0 0 P05 setcolor 1751 927 m 72 X 15 Y -72 X FA 0 0 0.6 c black cs 0 0 0
 P05 setcolor 1823 912 m 73 X 21 Y -73 X FA 0 0 0.6 c black cs 0 0 0 P05 setcolor 1896 907 m 72 X 17 Y -72 X FA 0 0 0.6 c black cs 0 0 0 P05 setcolor 1968 898 m 73 X 20 Y -73 X FA 0 0 0.6 c black 0 0 0.6 c 1 1 1 c black 0 0 0.6 c 227 999 m 23 X s 276
 999 m 23 X s black /w 26 def /w2 {w 2 div} def /w3 {w 3 div} def 263 999 m20 0 0 0.6 c 299 928 m 24 X s 349 928 m 23 X s black 336 928 m20 0 0 0.6 c 372 977 m 23 X s 421 977 m 23 X s black 408 977 m20 0 0 0.6 c 444 1011 m 24 X s 494 1011 m 23 X s
 black 481 1011 m20 0 0 0.6 c 517 1034 m 23 X s 566 1034 m 24 X s black 553 1034 m20 0 0 0.6 c 590 1053 m 23 X s 639 1053 m 23 X s black 626 1053 m20 0 0 0.6 c 662 1064 m 23 X s 711 1064 m 24 X s black 698 1064 m20 0 0 0.6 c 735 1069 m 23 X s 784
 1069 m 23 X s black 771 1069 m20 0 0 0.6 c 807 1069 m 24 X s 857 1069 m 23 X s black 844 1069 m20 0 0 0.6 c 880 1064 m 23 X s 929 1064 m 23 X s black 916 1064 m20 0 0 0.6 c 952 1058 m 24 X s 1002 1058 m 23 X s black 989 1058 m20 0 0 0.6 c 1025 1050
 m 23 X s 1074 1050 m 24 X s black 1061 1050 m20 0 0 0.6 c 1098 1040 m 23 X s 1147 1040 m 23 X s black 1134 1040 m20 0 0 0.6 c 1170 1031 m 23 X s 1219 1031 m 24 X s black 1206 1031 m20 0 0 0.6 c 1243 1019 m 23 X s 1292 1019 m 23 X s black 1279 1019
 m20 0 0 0.6 c 1315 1007 m 24 X s 1365 1007 m 23 X s black 1352 1007 m20 0 0 0.6 c 1388 994 m 23 X s 1437 994 m 23 X s black 1424 994 m20 0 0 0.6 c 1460 981 m 24 X s 1510 981 m 23 X s black 1497 981 m20 0 0 0.6 c 1533 970 m 23 X s 1582 970 m 24 X s
 black 1569 970 m20 0 0 0.6 c 1606 959 m 23 X s 1655 959 m 23 X s black 1642 959 m20 0 0 0.6 c 1678 950 m 23 X s 1727 950 m 24 X s black 1714 950 m20 0 0 0.6 c 1751 938 m 23 X s 1800 938 m 23 X s black 1787 938 m20 0 0 0.6 c 1823 929 m 24 X s 1873
 929 m 23 X s black 1860 929 m20 0 0 0.6 c 1896 921 m 23 X s 1945 921 m 23 X s black 1932 921 m20 0 0 0.6 c 1968 915 m 24 X s 2018 915 m 23 X s black 2005 915 m20 1 1 1 c 680 462 1361 962 bf black 1361 962 m 680 X s 2041 962 m 462 Y s 2041 1424 m
 -680 X s 1361 1424 m -462 Y s
 gsave  2268 1155 0 385 C 1530.22 1393.77 t 0 r /Helvetica findfont 35.788 sf 0 0 m (ZZ) show NC gr  0.8 0 0.8 c 1386 1385 m 119 X 33 Y -119 X f 1386 1418 m 119 X s 1386 1385 m 119 X s 1505 1385 m 33 Y s 1386 1385 m 33 Y s black
 gsave  2268 1155 0 385 C 1530.22 1345.04 t 0 r /Helvetica findfont 35.788 sf 0 0 m (WW) show NC gr  0.6 0 0.6 c 1386 1339 m 119 X 32 Y -119 X f 1386 1371 m 119 X s 1386 1339 m 119 X s 1505 1339 m 32 Y s 1386 1339 m 32 Y s black
 gsave  2268 1155 0 385 C 1530.22 1299.55 t 0 r /Helvetica findfont 35.788 sf 0 0 m (WZ) show NC gr  0.4 0 0.4 c 1386 1293 m 119 X 32 Y -119 X f 1386 1325 m 119 X s 1386 1293 m 119 X s 1505 1293 m 32 Y s 1386 1293 m 32 Y s black
 gsave  2268 1155 0 385 C 1530.22 1254.07 t 0 r /Helvetica findfont 35.788 sf 0 0 m (stop s) show NC gr  1 0.6 0 c 1386 1247 m 119 X 32 Y -119 X f 1386 1279 m 119 X s 1386 1247 m 119 X s 1505 1247 m 32 Y s 1386 1247 m 32 Y s black
 gsave  2268 1155 0 385 C 1530.22 1208.58 t 0 r /Helvetica findfont 35.788 sf 0 0 m (stop t) show NC gr  1 0.6 0 c 1386 1200 m 119 X 33 Y -119 X f 1386 1233 m 119 X s 1386 1200 m 119 X s 1505 1200 m 33 Y s 1386 1200 m 33 Y s black
 gsave  2268 1155 0 385 C 1530.22 1163.1 t 0 r /Helvetica findfont 35.788 sf 0 0 m (stop Wt) show NC gr  1 0.6 0 c 1386 1154 m 119 X 33 Y -119 X f 1386 1187 m 119 X s 1386 1154 m 119 X s 1505 1154 m 33 Y s 1386 1154 m 33 Y s black
 gsave  2268 1155 0 385 C 1530.22 1114.36 t 0 r /Helvetica findfont 35.788 sf 0 0 m (ttbar) show NC gr  1 0.8 0 c 1386 1108 m 119 X 32 Y -119 X f 1386 1140 m 119 X s 1386 1108 m 119 X s 1505 1108 m 32 Y s 1386 1108 m 32 Y s black
 gsave  2268 1155 0 385 C 1530.22 1068.88 t 0 r /Helvetica findfont 35.788 sf 0 0 m (W) show NC gr  0 0.6 0 c 1386 1062 m 119 X 32 Y -119 X f 1386 1094 m 119 X s 1386 1062 m 119 X s 1505 1062 m 32 Y s 1386 1062 m 32 Y s black
 gsave  2268 1155 0 385 C 1530.22 1023.4 t 0 r /Helvetica findfont 35.788 sf 0 0 m (Z) show NC gr  0.4 0.8 1 c 1386 1016 m 119 X 32 Y -119 X f 1386 1048 m 119 X s 1386 1016 m 119 X s 1505 1016 m 32 Y s 1386 1016 m 32 Y s black
 gsave  2268 1155 0 385 C 1530.22 977.912 t 0 r /Helvetica findfont 35.788 sf 0 0 m (stat+syst) show NC gr  cs 0 0 0 P05 setcolor 1386 969 m 119 X 33 Y -119 X FA 0 0 0.6 c 1386 1002 m 119 X s 1386 969 m 119 X s 1505 969 m 33 Y s 1386 969 m 33 Y s
 black
 gsave  2268 1155 0 385 C 451.594 1309.3 t 0 r /Helvetica-Bold findfont 55.3087 sf 0 0 m (ATLAS Preliminary) show NC gr  1 1 1 c 2268 385 0 0 bf black 1 1 1 c 1814 270 227 115 bf black 1814 270 227 115 bl 227 115 m 1814 X s
 gsave  2268 385 0 0 C 1994.81 48.7332 t 0 r /Helvetica findfont 29.3638 sf 0 0 m ( = 1) show NC gr 
 gsave  2268 385 0 0 C 1978.57 48.7332 t 0 r /Symbol findfont 29.3638 sf 0 0 m (b) show NC gr 
 gsave  2268 385 0 0 C 1978.57 9.74663 t 0 r /Helvetica findfont 29.3638 sf 0 0 m (2) show NC gr 
 gsave  2268 385 0 0 C 1949.33 22.7421 t 0 r /Helvetica findfont 42.4144 sf 0 0 m (D) show NC gr  227 125 m -10 Y s 299 120 m -5 Y s 372 120 m -5 Y s 444 120 m -5 Y s 517 120 m -5 Y s 589 125 m -10 Y s 662 120 m -5 Y s 734 120 m -5 Y s 807 120 m -5 Y
 s 879 120 m -5 Y s 952 125 m -10 Y s 1024 120 m -5 Y s 1097 120 m -5 Y s 1169 120 m -5 Y s 1242 120 m -5 Y s 1314 125 m -10 Y s 1387 120 m -5 Y s 1459 120 m -5 Y s 1532 120 m -5 Y s 1604 120 m -5 Y s 1677 125 m -10 Y s 1749 120 m -5 Y s 1822 120 m
 -5 Y s 1894 120 m -5 Y s 1967 120 m -5 Y s 2039 125 m -10 Y s 2039 125 m -10 Y s
 gsave  2268 385 0 0 C 211.177 77.9731 t 0 r /Helvetica findfont 42.4144 sf 0 0 m (0) show NC gr 
 gsave  2268 385 0 0 C 578.3 77.9731 t 0 r /Helvetica findfont 42.4144 sf 0 0 m (1) show NC gr 
 gsave  2268 385 0 0 C 935.677 77.9731 t 0 r /Helvetica findfont 42.4144 sf 0 0 m (2) show NC gr 
 gsave  2268 385 0 0 C 1299.55 77.9731 t 0 r /Helvetica findfont 42.4144 sf 0 0 m (3) show NC gr 
 gsave  2268 385 0 0 C 1663.43 77.9731 t 0 r /Helvetica findfont 42.4144 sf 0 0 m (4) show NC gr 
 gsave  2268 385 0 0 C 2024.05 77.9731 t 0 r /Helvetica findfont 42.4144 sf 0 0 m (5) show NC gr  227 115 m 270 Y s 274 115 m -47 X s 251 124 m -24 X s 251 132 m -24 X s 251 141 m -24 X s 274 149 m -47 X s 251 158 m -24 X s 251 166 m -24 X s 251 174
 m -24 X s 274 183 m -47 X s 251 191 m -24 X s 251 200 m -24 X s 251 208 m -24 X s 274 217 m -47 X s 251 225 m -24 X s 251 233 m -24 X s 251 242 m -24 X s 274 250 m -47 X s 251 259 m -24 X s 251 267 m -24 X s 251 276 m -24 X s 274 284 m -47 X s 251
 292 m -24 X s 251 301 m -24 X s 251 309 m -24 X s 274 318 m -47 X s 251 326 m -24 X s 251 334 m -24 X s 251 343 m -24 X s 274 351 m -47 X s 251 360 m -24 X s 251 368 m -24 X s 251 377 m -24 X s 274 385 m -47 X s
 gsave  2268 385 0 0 C 155.946 100.715 t 0 r /Helvetica findfont 42.4144 sf 0 0 m (0.2) show NC gr 
 gsave  2268 385 0 0 C 155.946 133.204 t 0 r /Helvetica findfont 42.4144 sf 0 0 m (0.4) show NC gr 
 gsave  2268 385 0 0 C 155.946 168.942 t 0 r /Helvetica findfont 42.4144 sf 0 0 m (0.6) show NC gr 
 gsave  2268 385 0 0 C 155.946 201.43 t 0 r /Helvetica findfont 42.4144 sf 0 0 m (0.8) show NC gr 
 gsave  2268 385 0 0 C 198.182 233.919 t 0 r /Helvetica findfont 42.4144 sf 0 0 m (1) show NC gr 
 gsave  2268 385 0 0 C 155.946 266.408 t 0 r /Helvetica findfont 42.4144 sf 0 0 m (1.2) show NC gr 
 gsave  2268 385 0 0 C 155.946 298.897 t 0 r /Helvetica findfont 42.4144 sf 0 0 m (1.4) show NC gr 
 gsave  2268 385 0 0 C 155.946 337.883 t 0 r /Helvetica findfont 42.4144 sf 0 0 m (1.6) show NC gr 
 gsave  2268 385 0 0 C 155.946 370.372 t 0 r /Helvetica findfont 42.4144 sf 0 0 m (1.8) show NC gr  0 0 0.6 c black 0 0 0.6 c black cs 0 0 0 P05 setcolor 227 227 m 72 X 47 Y -72 X FA 0 0 0.6 c black cs 0 0 0 P05 setcolor 299 214 m 73 X 72 Y -73 X FA
 0 0 0.6 c black cs 0 0 0 P05 setcolor 372 192 m 72 X 117 Y -72 X FA 0 0 0.6 c black cs 0 0 0 P05 setcolor 444 192 m 73 X 116 Y -73 X FA 0 0 0.6 c black cs 0 0 0 P05 setcolor 517 202 m 72 X 97 Y -72 X FA 0 0 0.6 c black cs 0 0 0 P05 setcolor 589 202
 m 73 X 97 Y -73 X FA 0 0 0.6 c black cs 0 0 0 P05 setcolor 662 220 m 72 X 61 Y -72 X FA 0 0 0.6 c black cs 0 0 0 P05 setcolor 734 242 m 73 X 17 Y -73 X FA 0 0 0.6 c black cs 0 0 0 P05 setcolor 807 237 m 72 X 27 Y -72 X FA 0 0 0.6 c black cs 0 0 0
 P05 setcolor 879 234 m 73 X 32 Y -73 X FA 0 0 0.6 c black cs 0 0 0 P05 setcolor 952 233 m 72 X 35 Y -72 X FA 0 0 0.6 c black cs 0 0 0 P05 setcolor 1024 229 m 73 X 42 Y -73 X FA 0 0 0.6 c black cs 0 0 0 P05 setcolor 1097 229 m 72 X 42 Y -72 X FA 0 0
 0.6 c black cs 0 0 0 P05 setcolor 1169 229 m 73 X 43 Y -73 X FA 0 0 0.6 c black cs 0 0 0 P05 setcolor 1242 228 m 72 X 44 Y -72 X FA 0 0 0.6 c black cs 0 0 0 P05 setcolor 1314 217 m 73 X 67 Y -73 X FA 0 0 0.6 c black cs 0 0 0 P05 setcolor 1387 220 m
 72 X 61 Y -72 X FA 0 0 0.6 c black cs 0 0 0 P05 setcolor 1459 212 m 73 X 77 Y -73 X FA 0 0 0.6 c black cs 0 0 0 P05 setcolor 1532 211 m 72 X 79 Y -72 X FA 0 0 0.6 c black cs 0 0 0 P05 setcolor 1604 206 m 73 X 88 Y -73 X FA 0 0 0.6 c black cs 0 0 0
 P05 setcolor 1677 212 m 72 X 77 Y -72 X FA 0 0 0.6 c black cs 0 0 0 P05 setcolor 1749 224 m 73 X 53 Y -73 X FA 0 0 0.6 c black cs 0 0 0 P05 setcolor 1822 214 m 72 X 73 Y -72 X FA 0 0 0.6 c black cs 0 0 0 P05 setcolor 1894 220 m 73 X 60 Y -73 X FA 0
 0 0.6 c black cs 0 0 0 P05 setcolor 1967 215 m 72 X 70 Y -72 X FA 0 0 0.6 c 1 1 1 c black 0 0 0.6 c 227 300 m 23 X s 276 300 m 23 X s black 263 300 m20 0 0 0.6 c 299 275 m 24 X s 349 275 m 23 X s black 336 275 m20 0 0 0.6 c 372 259 m 23 X s 421 259
 m 23 X s black 408 259 m20 0 0 0.6 c 444 256 m 24 X s 493 256 m 24 X s black 481 256 m20 0 0 0.6 c 517 255 m 23 X s 566 255 m 23 X s black 553 255 m20 0 0 0.6 c 589 255 m 23 X s 638 255 m 24 X s black 625 255 m20 0 0 0.6 c 662 258 m 23 X s 711 258 m
 23 X s black 698 258 m20 0 0 0.6 c 734 259 m 23 X s 783 259 m 24 X s black 770 259 m20 0 0 0.6 c 807 265 m 23 X s 856 265 m 23 X s black 843 265 m20 0 0 0.6 c 879 260 m 23 X s 928 260 m 24 X s black 915 260 m20 0 0 0.6 c 952 260 m 23 X s 1001 260 m
 23 X s black 988 260 m20 0 0 0.6 c 1024 260 m 23 X s 1073 260 m 24 X s black 1060 260 m20 0 0 0.6 c 1097 254 m 23 X s 1146 254 m 23 X s black 1133 254 m20 0 0 0.6 c 1169 265 m 23 X s 1218 265 m 24 X s black 1205 265 m20 0 0 0.6 c 1242 258 m 23 X s
 1291 258 m 23 X s black 1278 258 m20 0 0 0.6 c 1314 259 m 23 X s 1363 259 m 24 X s black 1350 259 m20 0 0 0.6 c 1387 260 m 23 X s 1436 260 m 23 X s black 1423 260 m20 0 0 0.6 c 1459 256 m 23 X s 1508 256 m 24 X s black 1495 256 m20 0 0 0.6 c 1532
 262 m 23 X s 1581 262 m 23 X s black 1568 262 m20 0 0 0.6 c 1604 264 m 23 X s 1653 264 m 24 X s black 1640 264 m20 0 0 0.6 c 1677 281 m 23 X s 1726 281 m 23 X s black 1713 281 m20 0 0 0.6 c 1749 262 m 23 X s 1798 262 m 24 X s black 1785 262 m20 0 0
 0.6 c 1822 270 m 23 X s 1871 270 m 23 X s black 1858 270 m20 0 0 0.6 c 1894 265 m 23 X s 1943 265 m 24 X s black 1930 265 m20 0 0 0.6 c 1967 271 m 23 X s 2016 271 m 23 X s black 2003 271 m20 1 0 0 c[ 12 12] 0 sd 227 250 m 1812 X s
 gr  gr showpage
end
%%EOF
