%!PS-Adobe-2.0 EPSF-2.0
%%BoundingBox:  0 0 567 385
%%Title: : c1
%%Creator: ROOT Version 5.34/36
%%CreationDate: Wed Feb  1 09:02:01 2017
%%EndComments
%%BeginProlog
80 dict begin
/s {stroke} def /l {lineto} def /m {moveto} def /t {translate} def
/r {rotate} def /rl {roll}  def /R {repeat} def
/d {rlineto} def /rm {rmoveto} def /gr {grestore} def /f {eofill} def
/c {setrgbcolor} def /black {0 setgray} def /sd {setdash} def
/cl {closepath} def /sf {scalefont setfont} def /lw {setlinewidth} def
/box {m dup 0 exch d exch 0 d 0 exch neg d cl} def
/NC{systemdict begin initclip end}def/C{NC box clip newpath}def
/bl {box s} def /bf {gsave box gsave f grestore 1 lw [] 0 sd s grestore} def /Y { 0 exch d} def /X { 0 d} def 
/K {{pop pop 0 moveto} exch kshow} bind def
/ita {/ang 15 def gsave [1 0 ang dup sin exch cos div 1 0 0] concat} def 
/mp {newpath /y exch def /x exch def} def
/side {[w .77 mul w .23 mul] .385 w mul sd w 0 l currentpoint t -144 r} def
/mr {mp x y w2 0 360 arc} def /m24 {mr s} def /m20 {mr f} def
/mb {mp x y w2 add m w2 neg 0 d 0 w neg d w 0 d 0 w d cl} def
/mt {mp x y w2 add m w2 neg w neg d w 0 d cl} def
/m21 {mb f} def /m25 {mb s} def /m22 {mt f} def /m26{mt s} def
/m23 {mp x y w2 sub m w2 w d w neg 0 d cl f} def
/m27 {mp x y w2 add m w3 neg w2 neg d w3 w2 neg d w3 w2 d cl s} def
/m28 {mp x w2 sub y w2 sub w3 add m w3 0 d  0 w3 neg d w3 0 d 0 w3 d w3 0 d  0 w3 d w3 neg 0 d 0 w3 d w3 neg 0 d 0 w3 neg d w3 neg 0 d cl s } def
/m29 {mp gsave x w2 sub y w2 add w3 sub m currentpoint t 4 {side} repeat cl fill gr} def
/m30 {mp gsave x w2 sub y w2 add w3 sub m currentpoint t 4 {side} repeat cl s gr} def
/m31 {mp x y w2 sub m 0 w d x w2 sub y m w 0 d x w2 sub y w2 add m w w neg d x w2 sub y w2 sub m w w d s} def
/m32 {mp x y w2 sub m w2 w d w neg 0 d cl s} def
/m33 {mp x y w2 add m w3 neg w2 neg d w3 w2 neg d w3 w2 d cl f} def
/m34 {mp x w2 sub y w2 sub w3 add m w3 0 d  0 w3 neg d w3 0 d 0 w3 d w3 0 d  0 w3 d w3 neg 0 d 0 w3 d w3 neg 0 d 0 w3 neg d w3 neg 0 d cl f } def
/m2 {mp x y w2 sub m 0 w d x w2 sub y m w 0 d s} def
/m5 {mp x w2 sub y w2 sub m w w d x w2 sub y w2 add m w w neg d s} def
/reEncode {exch findfont dup length dict begin {1 index /FID eq  {pop pop} {def} ifelse } forall /Encoding exch def currentdict end dup /FontName get exch definefont pop } def [/Times-Bold /Times-Italic /Times-BoldItalic /Helvetica /Helvetica-Oblique
 /Helvetica-Bold /Helvetica-BoldOblique /Courier /Courier-Oblique /Courier-Bold /Courier-BoldOblique /Times-Roman /AvantGarde-Book /AvantGarde-BookOblique /AvantGarde-Demi /AvantGarde-DemiOblique /Bookman-Demi /Bookman-DemiItalic /Bookman-Light
 /Bookman-LightItalic /Helvetica-Narrow /Helvetica-Narrow-Bold /Helvetica-Narrow-BoldOblique /Helvetica-Narrow-Oblique /NewCenturySchlbk-Roman /NewCenturySchlbk-Bold /NewCenturySchlbk-BoldItalic /NewCenturySchlbk-Italic /Palatino-Bold
 /Palatino-BoldItalic /Palatino-Italic /Palatino-Roman ] {ISOLatin1Encoding reEncode } forall
%%EndProlog
%%BeginSetup
%%EndSetup
newpath  gsave  .25 .25 scale  gsave  0 0 t black[  ] 0 sd 3 lw 1 1 1 c 2268 1540 0 0 bf black 1 1 1 c 2268 1155 0 385 bf black 1 1 1 c 1814 1039 227 385 bf black 1814 1039 227 385 bl 1 1 1 c 1814 1039 227 385 bf black 1814 1039 227 385 bl 0 0 0.6 c
 1 1 1 c black 0 0 0.6 c 227 385 m 1814 X s black 227 385 m 1814 X s 227 413 m -28 Y s 272 399 m -14 Y s 317 399 m -14 Y s 363 399 m -14 Y s 408 413 m -28 Y s 454 399 m -14 Y s 499 399 m -14 Y s 544 399 m -14 Y s 590 413 m -28 Y s 635 399 m -14 Y s
 680 399 m -14 Y s 726 399 m -14 Y s 771 413 m -28 Y s 816 399 m -14 Y s 862 399 m -14 Y s 907 399 m -14 Y s 952 413 m -28 Y s 998 399 m -14 Y s 1043 399 m -14 Y s 1089 399 m -14 Y s 1134 413 m -28 Y s 1179 399 m -14 Y s 1225 399 m -14 Y s 1270 399 m
 -14 Y s 1315 413 m -28 Y s 1361 399 m -14 Y s 1406 399 m -14 Y s 1451 399 m -14 Y s 1497 413 m -28 Y s 1542 399 m -14 Y s 1587 399 m -14 Y s 1633 399 m -14 Y s 1678 413 m -28 Y s 1723 399 m -14 Y s 1769 399 m -14 Y s 1814 399 m -14 Y s 1860 413 m
 -28 Y s 1905 399 m -14 Y s 1950 399 m -14 Y s 1996 399 m -14 Y s 2041 413 m -28 Y s
 gsave  2268 1155 0 385 C 211.177 347.63 t 0 r /Helvetica findfont 39.0414 sf 0 0 m (0) show NC gr 
 gsave  2268 1155 0 385 C 373.621 347.63 t 0 r /Helvetica findfont 39.0414 sf 0 0 m (200) show NC gr 
 gsave  2268 1155 0 385 C 555.558 347.63 t 0 r /Helvetica findfont 39.0414 sf 0 0 m (400) show NC gr 
 gsave  2268 1155 0 385 C 737.495 347.63 t 0 r /Helvetica findfont 39.0414 sf 0 0 m (600) show NC gr 
 gsave  2268 1155 0 385 C 919.432 347.63 t 0 r /Helvetica findfont 39.0414 sf 0 0 m (800) show NC gr 
 gsave  2268 1155 0 385 C 1088.37 347.63 t 0 r /Helvetica findfont 39.0414 sf 0 0 m (1000) show NC gr 
 gsave  2268 1155 0 385 C 1267.06 347.63 t 0 r /Helvetica findfont 39.0414 sf 0 0 m (1200) show NC gr 
 gsave  2268 1155 0 385 C 1449 347.63 t 0 r /Helvetica findfont 39.0414 sf 0 0 m (1400) show NC gr 
 gsave  2268 1155 0 385 C 1630.94 347.63 t 0 r /Helvetica findfont 39.0414 sf 0 0 m (1600) show NC gr 
 gsave  2268 1155 0 385 C 1812.87 347.63 t 0 r /Helvetica findfont 39.0414 sf 0 0 m (1800) show NC gr 
 gsave  2268 1155 0 385 C 1994.81 347.63 t 0 r /Helvetica findfont 39.0414 sf 0 0 m (2000) show NC gr  227 385 m 1039 Y s 257 388 m -30 X s 257 407 m -30 X s 257 420 m -30 X s 257 430 m -30 X s 257 438 m -30 X s 257 446 m -30 X s 257 452 m -30 X s
 257 457 m -30 X s 288 462 m -61 X s
 gsave  2268 1155 0 385 C 198.182 464.59 t 0 r /Helvetica findfont 26.0276 sf 0 0 m (1) show NC gr 
 gsave  2268 1155 0 385 C 181.937 464.59 t 0 r /Symbol findfont 26.0276 sf 0 0 m (-) show NC gr 
 gsave  2268 1155 0 385 C 139.702 445.096 t 0 r /Helvetica findfont 39.0414 sf 0 0 m (10) show NC gr  257 494 m -30 X s 257 512 m -30 X s 257 526 m -30 X s 257 536 m -30 X s 257 544 m -30 X s 257 551 m -30 X s 257 557 m -30 X s 257 563 m -30 X s 288
 568 m -61 X s
 gsave  2268 1155 0 385 C 209.083 552.114 t 0 r  -20 0 t /Helvetica findfont 39.0414 sf 0 0 m (1) show NC gr  257 600 m -30 X s 257 618 m -30 X s 257 631 m -30 X s 257 642 m -30 X s 257 650 m -30 X s 257 657 m -30 X s 257 663 m -30 X s 257 669 m -30
 X s 288 674 m -61 X s
 gsave  2268 1155 0 385 C 209.083 657.93 t 0 r  -41 0 t /Helvetica findfont 39.0414 sf 0 0 m (10) show NC gr  257 705 m -30 X s 257 724 m -30 X s 257 737 m -30 X s 257 747 m -30 X s 257 756 m -30 X s 257 763 m -30 X s 257 769 m -30 X s 257 774 m -30
 X s 288 779 m -61 X s
 gsave  2268 1155 0 385 C 191.684 779.731 t 0 r /Helvetica findfont 26.0276 sf 0 0 m (2) show NC gr 
 gsave  2268 1155 0 385 C 149.448 760.237 t 0 r /Helvetica findfont 39.0414 sf 0 0 m (10) show NC gr  257 811 m -30 X s 257 830 m -30 X s 257 843 m -30 X s 257 853 m -30 X s 257 862 m -30 X s 257 869 m -30 X s 257 875 m -30 X s 257 880 m -30 X s 288
 885 m -61 X s
 gsave  2268 1155 0 385 C 191.684 890.192 t 0 r /Helvetica findfont 26.0276 sf 0 0 m (3) show NC gr 
 gsave  2268 1155 0 385 C 149.448 867.45 t 0 r /Helvetica findfont 39.0414 sf 0 0 m (10) show NC gr  257 917 m -30 X s 257 936 m -30 X s 257 949 m -30 X s 257 959 m -30 X s 257 967 m -30 X s 257 975 m -30 X s 257 981 m -30 X s 257 986 m -30 X s 288
 991 m -61 X s
 gsave  2268 1155 0 385 C 191.684 994.157 t 0 r /Helvetica findfont 26.0276 sf 0 0 m (4) show NC gr 
 gsave  2268 1155 0 385 C 149.448 974.663 t 0 r /Helvetica findfont 39.0414 sf 0 0 m (10) show NC gr  257 1023 m -30 X s 257 1041 m -30 X s 257 1055 m -30 X s 257 1065 m -30 X s 257 1073 m -30 X s 257 1080 m -30 X s 257 1087 m -30 X s 257 1092 m -30
 X s 288 1097 m -61 X s
 gsave  2268 1155 0 385 C 191.684 1101.37 t 0 r /Helvetica findfont 26.0276 sf 0 0 m (5) show NC gr 
 gsave  2268 1155 0 385 C 149.448 1078.63 t 0 r /Helvetica findfont 39.0414 sf 0 0 m (10) show NC gr  257 1129 m -30 X s 257 1147 m -30 X s 257 1160 m -30 X s 257 1171 m -30 X s 257 1179 m -30 X s 257 1186 m -30 X s 257 1192 m -30 X s 257 1198 m -30
 X s 288 1203 m -61 X s
 gsave  2268 1155 0 385 C 191.684 1208.58 t 0 r /Helvetica findfont 26.0276 sf 0 0 m (6) show NC gr 
 gsave  2268 1155 0 385 C 149.448 1185.84 t 0 r /Helvetica findfont 39.0414 sf 0 0 m (10) show NC gr  257 1234 m -30 X s 257 1253 m -30 X s 257 1266 m -30 X s 257 1277 m -30 X s 257 1285 m -30 X s 257 1292 m -30 X s 257 1298 m -30 X s 257 1304 m -30
 X s 288 1308 m -61 X s
 gsave  2268 1155 0 385 C 191.684 1309.3 t 0 r /Helvetica findfont 26.0276 sf 0 0 m (7) show NC gr 
 gsave  2268 1155 0 385 C 149.448 1289.8 t 0 r /Helvetica findfont 39.0414 sf 0 0 m (10) show NC gr  257 1340 m -30 X s 257 1359 m -30 X s 257 1372 m -30 X s 257 1382 m -30 X s 257 1391 m -30 X s 257 1398 m -30 X s 257 1404 m -30 X s 257 1409 m -30 X
 s 288 1414 m -61 X s
 gsave  2268 1155 0 385 C 191.684 1419.76 t 0 r /Helvetica findfont 26.0276 sf 0 0 m (8) show NC gr 
 gsave  2268 1155 0 385 C 149.448 1397.02 t 0 r /Helvetica findfont 39.0414 sf 0 0 m (10) show NC gr  0.4 0.8 1 c black 0.4 0.8 1 c 227 385 m 181 X 679 Y 36 X 17 Y 37 X -13 Y 36 X -21 Y 36 X -22 Y 37 X -21 Y 36 X -20 Y 36 X -20 Y 36 X -18 Y 37 X -21
 Y 36 X -14 Y 36 X -17 Y 37 X -18 Y 36 X -13 Y 36 X -16 Y 36 X -14 Y 37 X -12 Y 36 X -13 Y 36 X -13 Y 37 X -14 Y 36 X -10 Y 36 X -16 Y 36 X -8 Y 37 X -16 Y 36 X -11 Y 36 X -14 Y 37 X -12 Y 36 X -8 Y 36 X -6 Y 36 X -14 Y 37 X -7 Y 36 X -11 Y 36 X -6 Y
 37 X -28 Y 72 X -9 Y 36 X -5 Y 37 X -13 Y 36 X -4 Y 36 X -24 Y 37 X -7 Y 36 X 4 Y 36 X -3 Y 36 X -5 Y 37 X -37 Y 36 X -126 Y f 227 385 m 181 X 679 Y 36 X 17 Y 37 X -13 Y 36 X -21 Y 36 X -22 Y 37 X -21 Y 36 X -20 Y 36 X -20 Y 36 X -18 Y 37 X -21 Y 36
 X -14 Y 36 X -17 Y 37 X -18 Y 36 X -13 Y 36 X -16 Y 36 X -14 Y 37 X -12 Y 36 X -13 Y 36 X -13 Y 37 X -14 Y 36 X -10 Y 36 X -16 Y 36 X -8 Y 37 X -16 Y 36 X -11 Y 36 X -14 Y 37 X -12 Y 36 X -8 Y 36 X -6 Y 36 X -14 Y 37 X -7 Y 36 X -11 Y 36 X -6 Y 37 X
 -28 Y 72 X -9 Y 36 X -5 Y 37 X -13 Y 36 X -4 Y 36 X -24 Y 37 X -7 Y 36 X 4 Y 36 X -3 Y 36 X -5 Y 37 X -37 Y 36 X s 0 0.6 0 c 0.999 0.999 0.999 c black 0.999 0.999 0.999 c 227 385 m 181 X 639 Y 36 X 16 Y 37 X -10 Y 36 X -19 Y 36 X -22 Y 37 X -20 Y 36
 X -20 Y 36 X -20 Y 36 X -18 Y 37 X -21 Y 36 X -15 Y 36 X -17 Y 37 X -21 Y 36 X -11 Y 36 X -18 Y 36 X -14 Y 37 X -8 Y 36 X -15 Y 36 X -13 Y 37 X -16 Y 36 X -9 Y 36 X -12 Y 36 X -17 Y 37 X -15 Y 36 X -9 Y 36 X -9 Y 37 X -19 Y 36 X -1 Y 36 X -10 Y 36 X
 -13 Y 37 X -7 Y 36 X -6 Y 36 X -5 Y 37 X -38 Y 36 X -12 Y 36 X 2 Y 36 X 8 Y 37 X -16 Y 36 X -14 Y 36 X -25 Y 37 X -6 Y 72 X 30 Y 36 X -17 Y 37 X -28 Y 36 X -109 Y f 0 0.6 0 c 0.999 0.999 0.999 c 0 0.6 0 c 227 385 m 181 X 639 Y 36 X 16 Y 37 X -10 Y
 36 X -19 Y 36 X -22 Y 37 X -20 Y 36 X -20 Y 36 X -20 Y 36 X -18 Y 37 X -21 Y 36 X -15 Y 36 X -17 Y 37 X -21 Y 36 X -11 Y 36 X -18 Y 36 X -14 Y 37 X -8 Y 36 X -15 Y 36 X -13 Y 37 X -16 Y 36 X -9 Y 36 X -12 Y 36 X -17 Y 37 X -15 Y 36 X -9 Y 36 X -9 Y
 37 X -19 Y 36 X -1 Y 36 X -10 Y 36 X -13 Y 37 X -7 Y 36 X -6 Y 36 X -5 Y 37 X -38 Y 36 X -12 Y 36 X 2 Y 36 X 8 Y 37 X -16 Y 36 X -14 Y 36 X -25 Y 37 X -6 Y 72 X 30 Y 36 X -17 Y 37 X -28 Y 36 X s 1 1 1 c black 0 0.6 0 c 227 385 m 181 X 639 Y 36 X 16
 Y 37 X -10 Y 36 X -19 Y 36 X -22 Y 37 X -20 Y 36 X -20 Y 36 X -20 Y 36 X -18 Y 37 X -21 Y 36 X -15 Y 36 X -17 Y 37 X -21 Y 36 X -11 Y 36 X -18 Y 36 X -14 Y 37 X -8 Y 36 X -15 Y 36 X -13 Y 37 X -16 Y 36 X -9 Y 36 X -12 Y 36 X -17 Y 37 X -15 Y 36 X -9
 Y 36 X -9 Y 37 X -19 Y 36 X -1 Y 36 X -10 Y 36 X -13 Y 37 X -7 Y 36 X -6 Y 36 X -5 Y 37 X -38 Y 36 X -12 Y 36 X 2 Y 36 X 8 Y 37 X -16 Y 36 X -14 Y 36 X -25 Y 37 X -6 Y 72 X 30 Y 36 X -17 Y 37 X -28 Y 36 X s black 0 0.6 0 c 227 385 m 181 X 639 Y 36 X
 16 Y 37 X -10 Y 36 X -19 Y 36 X -22 Y 37 X -20 Y 36 X -20 Y 36 X -20 Y 36 X -18 Y 37 X -21 Y 36 X -15 Y 36 X -17 Y 37 X -21 Y 36 X -11 Y 36 X -18 Y 36 X -14 Y 37 X -8 Y 36 X -15 Y 36 X -13 Y 37 X -16 Y 36 X -9 Y 36 X -12 Y 36 X -17 Y 37 X -15 Y 36 X
 -9 Y 36 X -9 Y 37 X -19 Y 36 X -1 Y 36 X -10 Y 36 X -13 Y 37 X -7 Y 36 X -6 Y 36 X -5 Y 37 X -38 Y 36 X -12 Y 36 X 2 Y 36 X 8 Y 37 X -16 Y 36 X -14 Y 36 X -25 Y 37 X -6 Y 72 X 30 Y 36 X -17 Y 37 X -28 Y 36 X -109 Y f 227 385 m 181 X 639 Y 36 X 16 Y
 37 X -10 Y 36 X -19 Y 36 X -22 Y 37 X -20 Y 36 X -20 Y 36 X -20 Y 36 X -18 Y 37 X -21 Y 36 X -15 Y 36 X -17 Y 37 X -21 Y 36 X -11 Y 36 X -18 Y 36 X -14 Y 37 X -8 Y 36 X -15 Y 36 X -13 Y 37 X -16 Y 36 X -9 Y 36 X -12 Y 36 X -17 Y 37 X -15 Y 36 X -9 Y
 36 X -9 Y 37 X -19 Y 36 X -1 Y 36 X -10 Y 36 X -13 Y 37 X -7 Y 36 X -6 Y 36 X -5 Y 37 X -38 Y 36 X -12 Y 36 X 2 Y 36 X 8 Y 37 X -16 Y 36 X -14 Y 36 X -25 Y 37 X -6 Y 72 X 30 Y 36 X -17 Y 37 X -28 Y 36 X s 1 0.8 0 c 0.999 0.999 0.999 c black 0.999
 0.999 0.999 c 227 385 m 181 X 562 Y 36 X 9 Y 37 X -5 Y 36 X -12 Y 36 X -16 Y 37 X -18 Y 36 X -18 Y 36 X -20 Y 36 X -15 Y 37 X -21 Y 36 X -17 Y 36 X -18 Y 37 X -21 Y 36 X -11 Y 36 X -21 Y 36 X -20 Y 37 X -8 Y 36 X -13 Y 36 X -9 Y 37 X -27 Y 36 X 3 Y
 36 X -24 Y 36 X -17 Y 37 X -21 Y 36 X 3 Y 36 X 1 Y 37 X -36 Y 36 X -13 Y 36 X 23 Y 36 X -45 Y 37 X 15 Y 36 X -3 Y 36 X 14 Y 37 X -132 Y 36 X 1 Y 36 X 15 Y 36 X 85 Y 37 X -122 Y 36 X 51 Y 36 X -79 Y 145 X 89 Y 37 X -89 Y 36 X f 1 0.8 0 c 0.999 0.999
 0.999 c 1 0.8 0 c 227 385 m 181 X 562 Y 36 X 9 Y 37 X -5 Y 36 X -12 Y 36 X -16 Y 37 X -18 Y 36 X -18 Y 36 X -20 Y 36 X -15 Y 37 X -21 Y 36 X -17 Y 36 X -18 Y 37 X -21 Y 36 X -11 Y 36 X -21 Y 36 X -20 Y 37 X -8 Y 36 X -13 Y 36 X -9 Y 37 X -27 Y 36 X
 3 Y 36 X -24 Y 36 X -17 Y 37 X -21 Y 36 X 3 Y 36 X 1 Y 37 X -36 Y 36 X -13 Y 36 X 23 Y 36 X -45 Y 37 X 15 Y 36 X -3 Y 36 X 14 Y 37 X -132 Y 36 X 1 Y 36 X 15 Y 36 X 85 Y 37 X -122 Y 36 X 51 Y 36 X -79 Y 145 X 89 Y 37 X -89 Y 36 X s 1 1 1 c black 1
 0.8 0 c 227 385 m 181 X 562 Y 36 X 9 Y 37 X -5 Y 36 X -12 Y 36 X -16 Y 37 X -18 Y 36 X -18 Y 36 X -20 Y 36 X -15 Y 37 X -21 Y 36 X -17 Y 36 X -18 Y 37 X -21 Y 36 X -11 Y 36 X -21 Y 36 X -20 Y 37 X -8 Y 36 X -13 Y 36 X -9 Y 37 X -27 Y 36 X 3 Y 36 X
 -24 Y 36 X -17 Y 37 X -21 Y 36 X 3 Y 36 X 1 Y 37 X -36 Y 36 X -13 Y 36 X 23 Y 36 X -45 Y 37 X 15 Y 36 X -3 Y 36 X 14 Y 37 X -132 Y 36 X 1 Y 36 X 15 Y 36 X 85 Y 37 X -122 Y 36 X 51 Y 36 X -79 Y 145 X 89 Y 37 X -89 Y 36 X s black 1 0.8 0 c 227 385 m
 181 X 562 Y 36 X 9 Y 37 X -5 Y 36 X -12 Y 36 X -16 Y 37 X -18 Y 36 X -18 Y 36 X -20 Y 36 X -15 Y 37 X -21 Y 36 X -17 Y 36 X -18 Y 37 X -21 Y 36 X -11 Y 36 X -21 Y 36 X -20 Y 37 X -8 Y 36 X -13 Y 36 X -9 Y 37 X -27 Y 36 X 3 Y 36 X -24 Y 36 X -17 Y 37
 X -21 Y 36 X 3 Y 36 X 1 Y 37 X -36 Y 36 X -13 Y 36 X 23 Y 36 X -45 Y 37 X 15 Y 36 X -3 Y 36 X 14 Y 37 X -132 Y 36 X 1 Y 36 X 15 Y 36 X 85 Y 37 X -122 Y 36 X 51 Y 36 X -79 Y 145 X 89 Y 37 X -89 Y 36 X f 227 385 m 181 X 562 Y 36 X 9 Y 37 X -5 Y 36 X
 -12 Y 36 X -16 Y 37 X -18 Y 36 X -18 Y 36 X -20 Y 36 X -15 Y 37 X -21 Y 36 X -17 Y 36 X -18 Y 37 X -21 Y 36 X -11 Y 36 X -21 Y 36 X -20 Y 37 X -8 Y 36 X -13 Y 36 X -9 Y 37 X -27 Y 36 X 3 Y 36 X -24 Y 36 X -17 Y 37 X -21 Y 36 X 3 Y 36 X 1 Y 37 X -36
 Y 36 X -13 Y 36 X 23 Y 36 X -45 Y 37 X 15 Y 36 X -3 Y 36 X 14 Y 37 X -132 Y 36 X 1 Y 36 X 15 Y 36 X 85 Y 37 X -122 Y 36 X 51 Y 36 X -79 Y 145 X 89 Y 37 X -89 Y 36 X s 1 0.6 0 c 0.999 0.999 0.999 c black 0.999 0.999 0.999 c 227 385 m 181 X 505 Y 36 X
 12 Y 37 X -8 Y 36 X -14 Y 36 X -17 Y 37 X -17 Y 36 X -16 Y 36 X -15 Y 36 X -13 Y 37 X -21 Y 36 X -12 Y 36 X -17 Y 37 X -16 Y 36 X -6 Y 36 X -13 Y 36 X -24 Y 37 X -3 Y 36 X -14 Y 36 X -10 Y 37 X -31 Y 36 X 16 Y 36 X -17 Y 36 X -14 Y 37 X -21 Y 36 X
 -1 Y 36 X 2 Y 37 X -25 Y 36 X -40 Y 36 X 38 Y 36 X -33 Y 37 X -8 Y 36 X 20 Y 36 X 14 Y 37 X -132 Y 36 X 1 Y 36 X 15 Y 36 X 85 Y 37 X -122 Y 36 X 51 Y 36 X -79 Y 145 X 89 Y 37 X -89 Y 36 X f 1 0.6 0 c 0.999 0.999 0.999 c 1 0.6 0 c 227 385 m 181 X 505
 Y 36 X 12 Y 37 X -8 Y 36 X -14 Y 36 X -17 Y 37 X -17 Y 36 X -16 Y 36 X -15 Y 36 X -13 Y 37 X -21 Y 36 X -12 Y 36 X -17 Y 37 X -16 Y 36 X -6 Y 36 X -13 Y 36 X -24 Y 37 X -3 Y 36 X -14 Y 36 X -10 Y 37 X -31 Y 36 X 16 Y 36 X -17 Y 36 X -14 Y 37 X -21 Y
 36 X -1 Y 36 X 2 Y 37 X -25 Y 36 X -40 Y 36 X 38 Y 36 X -33 Y 37 X -8 Y 36 X 20 Y 36 X 14 Y 37 X -132 Y 36 X 1 Y 36 X 15 Y 36 X 85 Y 37 X -122 Y 36 X 51 Y 36 X -79 Y 145 X 89 Y 37 X -89 Y 36 X s 1 1 1 c black 1 0.6 0 c 227 385 m 181 X 505 Y 36 X 12
 Y 37 X -8 Y 36 X -14 Y 36 X -17 Y 37 X -17 Y 36 X -16 Y 36 X -15 Y 36 X -13 Y 37 X -21 Y 36 X -12 Y 36 X -17 Y 37 X -16 Y 36 X -6 Y 36 X -13 Y 36 X -24 Y 37 X -3 Y 36 X -14 Y 36 X -10 Y 37 X -31 Y 36 X 16 Y 36 X -17 Y 36 X -14 Y 37 X -21 Y 36 X -1 Y
 36 X 2 Y 37 X -25 Y 36 X -40 Y 36 X 38 Y 36 X -33 Y 37 X -8 Y 36 X 20 Y 36 X 14 Y 37 X -132 Y 36 X 1 Y 36 X 15 Y 36 X 85 Y 37 X -122 Y 36 X 51 Y 36 X -79 Y 145 X 89 Y 37 X -89 Y 36 X s black 1 0.6 0 c 227 385 m 181 X 505 Y 36 X 12 Y 37 X -8 Y 36 X
 -14 Y 36 X -17 Y 37 X -17 Y 36 X -16 Y 36 X -15 Y 36 X -13 Y 37 X -21 Y 36 X -12 Y 36 X -17 Y 37 X -16 Y 36 X -6 Y 36 X -13 Y 36 X -24 Y 37 X -3 Y 36 X -14 Y 36 X -10 Y 37 X -31 Y 36 X 16 Y 36 X -17 Y 36 X -14 Y 37 X -21 Y 36 X -1 Y 36 X 2 Y 37 X
 -25 Y 36 X -40 Y 36 X 38 Y 36 X -33 Y 37 X -8 Y 36 X 20 Y 36 X 14 Y 37 X -132 Y 36 X 1 Y 36 X 15 Y 36 X 85 Y 37 X -122 Y 36 X 51 Y 36 X -79 Y 145 X 89 Y 37 X -89 Y 36 X f 227 385 m 181 X 505 Y 36 X 12 Y 37 X -8 Y 36 X -14 Y 36 X -17 Y 37 X -17 Y 36
 X -16 Y 36 X -15 Y 36 X -13 Y 37 X -21 Y 36 X -12 Y 36 X -17 Y 37 X -16 Y 36 X -6 Y 36 X -13 Y 36 X -24 Y 37 X -3 Y 36 X -14 Y 36 X -10 Y 37 X -31 Y 36 X 16 Y 36 X -17 Y 36 X -14 Y 37 X -21 Y 36 X -1 Y 36 X 2 Y 37 X -25 Y 36 X -40 Y 36 X 38 Y 36 X
 -33 Y 37 X -8 Y 36 X 20 Y 36 X 14 Y 37 X -132 Y 36 X 1 Y 36 X 15 Y 36 X 85 Y 37 X -122 Y 36 X 51 Y 36 X -79 Y 145 X 89 Y 37 X -89 Y 36 X s 0.999 0.999 0.999 c black 0.999 0.999 0.999 c 227 385 m 181 X 490 Y 36 X 14 Y 37 X -9 Y 36 X -17 Y 36 X -16 Y
 37 X -17 Y 36 X -17 Y 36 X -14 Y 36 X -14 Y 37 X -18 Y 36 X -16 Y 36 X -16 Y 37 X -10 Y 36 X -18 Y 36 X -7 Y 36 X -15 Y 37 X -8 Y 36 X -16 Y 36 X -15 Y 37 X -20 Y 36 X 5 Y 36 X -2 Y 36 X -36 Y 37 X -5 Y 36 X -6 Y 36 X -12 Y 37 X 5 Y 36 X -79 Y 36 X
 49 Y 36 X -5 Y 37 X -8 Y 36 X -54 Y 36 X 55 Y 37 X -99 Y 36 X 1 Y 36 X 15 Y 36 X 59 Y 37 X -96 Y 36 X 51 Y 36 X -79 Y 145 X 89 Y 37 X -89 Y 36 X f 1 0.6 0 c 0.999 0.999 0.999 c 1 0.6 0 c 227 385 m 181 X 490 Y 36 X 14 Y 37 X -9 Y 36 X -17 Y 36 X -16
 Y 37 X -17 Y 36 X -17 Y 36 X -14 Y 36 X -14 Y 37 X -18 Y 36 X -16 Y 36 X -16 Y 37 X -10 Y 36 X -18 Y 36 X -7 Y 36 X -15 Y 37 X -8 Y 36 X -16 Y 36 X -15 Y 37 X -20 Y 36 X 5 Y 36 X -2 Y 36 X -36 Y 37 X -5 Y 36 X -6 Y 36 X -12 Y 37 X 5 Y 36 X -79 Y 36
 X 49 Y 36 X -5 Y 37 X -8 Y 36 X -54 Y 36 X 55 Y 37 X -99 Y 36 X 1 Y 36 X 15 Y 36 X 59 Y 37 X -96 Y 36 X 51 Y 36 X -79 Y 145 X 89 Y 37 X -89 Y 36 X s 1 1 1 c black 1 0.6 0 c 227 385 m 181 X 490 Y 36 X 14 Y 37 X -9 Y 36 X -17 Y 36 X -16 Y 37 X -17 Y
 36 X -17 Y 36 X -14 Y 36 X -14 Y 37 X -18 Y 36 X -16 Y 36 X -16 Y 37 X -10 Y 36 X -18 Y 36 X -7 Y 36 X -15 Y 37 X -8 Y 36 X -16 Y 36 X -15 Y 37 X -20 Y 36 X 5 Y 36 X -2 Y 36 X -36 Y 37 X -5 Y 36 X -6 Y 36 X -12 Y 37 X 5 Y 36 X -79 Y 36 X 49 Y 36 X
 -5 Y 37 X -8 Y 36 X -54 Y 36 X 55 Y 37 X -99 Y 36 X 1 Y 36 X 15 Y 36 X 59 Y 37 X -96 Y 36 X 51 Y 36 X -79 Y 145 X 89 Y 37 X -89 Y 36 X s black 1 0.6 0 c 227 385 m 181 X 490 Y 36 X 14 Y 37 X -9 Y 36 X -17 Y 36 X -16 Y 37 X -17 Y 36 X -17 Y 36 X -14 Y
 36 X -14 Y 37 X -18 Y 36 X -16 Y 36 X -16 Y 37 X -10 Y 36 X -18 Y 36 X -7 Y 36 X -15 Y 37 X -8 Y 36 X -16 Y 36 X -15 Y 37 X -20 Y 36 X 5 Y 36 X -2 Y 36 X -36 Y 37 X -5 Y 36 X -6 Y 36 X -12 Y 37 X 5 Y 36 X -79 Y 36 X 49 Y 36 X -5 Y 37 X -8 Y 36 X -54
 Y 36 X 55 Y 37 X -99 Y 36 X 1 Y 36 X 15 Y 36 X 59 Y 37 X -96 Y 36 X 51 Y 36 X -79 Y 145 X 89 Y 37 X -89 Y 36 X f 227 385 m 181 X 490 Y 36 X 14 Y 37 X -9 Y 36 X -17 Y 36 X -16 Y 37 X -17 Y 36 X -17 Y 36 X -14 Y 36 X -14 Y 37 X -18 Y 36 X -16 Y 36 X
 -16 Y 37 X -10 Y 36 X -18 Y 36 X -7 Y 36 X -15 Y 37 X -8 Y 36 X -16 Y 36 X -15 Y 37 X -20 Y 36 X 5 Y 36 X -2 Y 36 X -36 Y 37 X -5 Y 36 X -6 Y 36 X -12 Y 37 X 5 Y 36 X -79 Y 36 X 49 Y 36 X -5 Y 37 X -8 Y 36 X -54 Y 36 X 55 Y 37 X -99 Y 36 X 1 Y 36 X
 15 Y 36 X 59 Y 37 X -96 Y 36 X 51 Y 36 X -79 Y 145 X 89 Y 37 X -89 Y 36 X s 0.999 0.999 0.999 c black 0.999 0.999 0.999 c 227 385 m 181 X 490 Y 36 X 14 Y 37 X -9 Y 36 X -17 Y 36 X -17 Y 37 X -16 Y 36 X -17 Y 36 X -14 Y 36 X -14 Y 37 X -18 Y 36 X -16
 Y 36 X -16 Y 37 X -10 Y 36 X -18 Y 36 X -7 Y 36 X -15 Y 37 X -8 Y 36 X -16 Y 36 X -15 Y 37 X -20 Y 36 X 5 Y 36 X -2 Y 36 X -36 Y 37 X -5 Y 36 X -6 Y 36 X -12 Y 37 X 5 Y 36 X -79 Y 36 X 49 Y 36 X -5 Y 37 X -8 Y 36 X -54 Y 36 X 55 Y 37 X -99 Y 36 X 1
 Y 36 X 15 Y 36 X 59 Y 37 X -96 Y 36 X 51 Y 36 X -79 Y 145 X 89 Y 37 X -89 Y 36 X f 1 0.6 0 c 0.999 0.999 0.999 c 1 0.6 0 c 227 385 m 181 X 490 Y 36 X 14 Y 37 X -9 Y 36 X -17 Y 36 X -17 Y 37 X -16 Y 36 X -17 Y 36 X -14 Y 36 X -14 Y 37 X -18 Y 36 X
 -16 Y 36 X -16 Y 37 X -10 Y 36 X -18 Y 36 X -7 Y 36 X -15 Y 37 X -8 Y 36 X -16 Y 36 X -15 Y 37 X -20 Y 36 X 5 Y 36 X -2 Y 36 X -36 Y 37 X -5 Y 36 X -6 Y 36 X -12 Y 37 X 5 Y 36 X -79 Y 36 X 49 Y 36 X -5 Y 37 X -8 Y 36 X -54 Y 36 X 55 Y 37 X -99 Y 36
 X 1 Y 36 X 15 Y 36 X 59 Y 37 X -96 Y 36 X 51 Y 36 X -79 Y 145 X 89 Y 37 X -89 Y 36 X s 1 1 1 c black 1 0.6 0 c 227 385 m 181 X 490 Y 36 X 14 Y 37 X -9 Y 36 X -17 Y 36 X -17 Y 37 X -16 Y 36 X -17 Y 36 X -14 Y 36 X -14 Y 37 X -18 Y 36 X -16 Y 36 X -16
 Y 37 X -10 Y 36 X -18 Y 36 X -7 Y 36 X -15 Y 37 X -8 Y 36 X -16 Y 36 X -15 Y 37 X -20 Y 36 X 5 Y 36 X -2 Y 36 X -36 Y 37 X -5 Y 36 X -6 Y 36 X -12 Y 37 X 5 Y 36 X -79 Y 36 X 49 Y 36 X -5 Y 37 X -8 Y 36 X -54 Y 36 X 55 Y 37 X -99 Y 36 X 1 Y 36 X 15 Y
 36 X 59 Y 37 X -96 Y 36 X 51 Y 36 X -79 Y 145 X 89 Y 37 X -89 Y 36 X s black 1 0.6 0 c 227 385 m 181 X 490 Y 36 X 14 Y 37 X -9 Y 36 X -17 Y 36 X -17 Y 37 X -16 Y 36 X -17 Y 36 X -14 Y 36 X -14 Y 37 X -18 Y 36 X -16 Y 36 X -16 Y 37 X -10 Y 36 X -18 Y
 36 X -7 Y 36 X -15 Y 37 X -8 Y 36 X -16 Y 36 X -15 Y 37 X -20 Y 36 X 5 Y 36 X -2 Y 36 X -36 Y 37 X -5 Y 36 X -6 Y 36 X -12 Y 37 X 5 Y 36 X -79 Y 36 X 49 Y 36 X -5 Y 37 X -8 Y 36 X -54 Y 36 X 55 Y 37 X -99 Y 36 X 1 Y 36 X 15 Y 36 X 59 Y 37 X -96 Y 36
 X 51 Y 36 X -79 Y 145 X 89 Y 37 X -89 Y 36 X f 227 385 m 181 X 490 Y 36 X 14 Y 37 X -9 Y 36 X -17 Y 36 X -17 Y 37 X -16 Y 36 X -17 Y 36 X -14 Y 36 X -14 Y 37 X -18 Y 36 X -16 Y 36 X -16 Y 37 X -10 Y 36 X -18 Y 36 X -7 Y 36 X -15 Y 37 X -8 Y 36 X -16
 Y 36 X -15 Y 37 X -20 Y 36 X 5 Y 36 X -2 Y 36 X -36 Y 37 X -5 Y 36 X -6 Y 36 X -12 Y 37 X 5 Y 36 X -79 Y 36 X 49 Y 36 X -5 Y 37 X -8 Y 36 X -54 Y 36 X 55 Y 37 X -99 Y 36 X 1 Y 36 X 15 Y 36 X 59 Y 37 X -96 Y 36 X 51 Y 36 X -79 Y 145 X 89 Y 37 X -89 Y
 36 X s 0.4 0 0.4 c 0.999 0.999 0.999 c black 0.999 0.999 0.999 c 227 385 m 181 X 490 Y 36 X 14 Y 37 X -9 Y 36 X -17 Y 36 X -17 Y 37 X -16 Y 36 X -17 Y 36 X -14 Y 36 X -14 Y 37 X -18 Y 36 X -16 Y 36 X -16 Y 37 X -10 Y 36 X -18 Y 36 X -7 Y 36 X -15 Y
 37 X -8 Y 36 X -16 Y 36 X -15 Y 37 X -20 Y 36 X 5 Y 36 X -2 Y 36 X -36 Y 37 X -5 Y 36 X -6 Y 36 X -12 Y 37 X 5 Y 36 X -79 Y 36 X 49 Y 36 X -5 Y 37 X -8 Y 36 X -54 Y 36 X 55 Y 37 X -99 Y 36 X 1 Y 36 X 15 Y 36 X 59 Y 37 X -96 Y 36 X 51 Y 36 X -79 Y
 145 X 89 Y 37 X -89 Y 36 X f 0.4 0 0.4 c 0.999 0.999 0.999 c 0.4 0 0.4 c 227 385 m 181 X 490 Y 36 X 14 Y 37 X -9 Y 36 X -17 Y 36 X -17 Y 37 X -16 Y 36 X -17 Y 36 X -14 Y 36 X -14 Y 37 X -18 Y 36 X -16 Y 36 X -16 Y 37 X -10 Y 36 X -18 Y 36 X -7 Y 36
 X -15 Y 37 X -8 Y 36 X -16 Y 36 X -15 Y 37 X -20 Y 36 X 5 Y 36 X -2 Y 36 X -36 Y 37 X -5 Y 36 X -6 Y 36 X -12 Y 37 X 5 Y 36 X -79 Y 36 X 49 Y 36 X -5 Y 37 X -8 Y 36 X -54 Y 36 X 55 Y 37 X -99 Y 36 X 1 Y 36 X 15 Y 36 X 59 Y 37 X -96 Y 36 X 51 Y 36 X
 -79 Y 145 X 89 Y 37 X -89 Y 36 X s 1 1 1 c black 0.4 0 0.4 c 227 385 m 181 X 490 Y 36 X 14 Y 37 X -9 Y 36 X -17 Y 36 X -17 Y 37 X -16 Y 36 X -17 Y 36 X -14 Y 36 X -14 Y 37 X -18 Y 36 X -16 Y 36 X -16 Y 37 X -10 Y 36 X -18 Y 36 X -7 Y 36 X -15 Y 37 X
 -8 Y 36 X -16 Y 36 X -15 Y 37 X -20 Y 36 X 5 Y 36 X -2 Y 36 X -36 Y 37 X -5 Y 36 X -6 Y 36 X -12 Y 37 X 5 Y 36 X -79 Y 36 X 49 Y 36 X -5 Y 37 X -8 Y 36 X -54 Y 36 X 55 Y 37 X -99 Y 36 X 1 Y 36 X 15 Y 36 X 59 Y 37 X -96 Y 36 X 51 Y 36 X -79 Y 145 X
 89 Y 37 X -89 Y 36 X s black 0.4 0 0.4 c 227 385 m 181 X 490 Y 36 X 14 Y 37 X -9 Y 36 X -17 Y 36 X -17 Y 37 X -16 Y 36 X -17 Y 36 X -14 Y 36 X -14 Y 37 X -18 Y 36 X -16 Y 36 X -16 Y 37 X -10 Y 36 X -18 Y 36 X -7 Y 36 X -15 Y 37 X -8 Y 36 X -16 Y 36
 X -15 Y 37 X -20 Y 36 X 5 Y 36 X -2 Y 36 X -36 Y 37 X -5 Y 36 X -6 Y 36 X -12 Y 37 X 5 Y 36 X -79 Y 36 X 49 Y 36 X -5 Y 37 X -8 Y 36 X -54 Y 36 X 55 Y 37 X -99 Y 36 X 1 Y 36 X 15 Y 36 X 59 Y 37 X -96 Y 36 X 51 Y 36 X -79 Y 145 X 89 Y 37 X -89 Y 36 X
 f 227 385 m 181 X 490 Y 36 X 14 Y 37 X -9 Y 36 X -17 Y 36 X -17 Y 37 X -16 Y 36 X -17 Y 36 X -14 Y 36 X -14 Y 37 X -18 Y 36 X -16 Y 36 X -16 Y 37 X -10 Y 36 X -18 Y 36 X -7 Y 36 X -15 Y 37 X -8 Y 36 X -16 Y 36 X -15 Y 37 X -20 Y 36 X 5 Y 36 X -2 Y
 36 X -36 Y 37 X -5 Y 36 X -6 Y 36 X -12 Y 37 X 5 Y 36 X -79 Y 36 X 49 Y 36 X -5 Y 37 X -8 Y 36 X -54 Y 36 X 55 Y 37 X -99 Y 36 X 1 Y 36 X 15 Y 36 X 59 Y 37 X -96 Y 36 X 51 Y 36 X -79 Y 145 X 89 Y 37 X -89 Y 36 X s 0.6 0 0.6 c 0.999 0.999 0.999 c
 black 0.999 0.999 0.999 c 227 385 m 181 X 457 Y 36 X 17 Y 37 X -11 Y 36 X -20 Y 36 X -18 Y 37 X -16 Y 36 X -17 Y 36 X -14 Y 36 X -9 Y 37 X -23 Y 36 X -19 Y 36 X -15 Y 37 X -10 Y 36 X -23 Y 36 X -3 Y 36 X -23 Y 37 X -5 Y 36 X -28 Y 36 X -29 Y 37 X 19
 Y 36 X -7 Y 36 X 13 Y 36 X -44 Y 37 X -34 Y 36 X -19 Y 36 X 16 Y 37 X 41 Y 36 X -176 Y 36 X 35 Y 36 X 105 Y 37 X -6 Y 36 X -134 Y 36 X 102 Y 37 X -102 Y 36 X 50 Y 36 X -50 Y 36 X 76 Y 37 X -76 Y 36 X 79 Y 36 X -79 Y 218 X f 0.6 0 0.6 c 0.999 0.999
 0.999 c 0.6 0 0.6 c 227 385 m 181 X 457 Y 36 X 17 Y 37 X -11 Y 36 X -20 Y 36 X -18 Y 37 X -16 Y 36 X -17 Y 36 X -14 Y 36 X -9 Y 37 X -23 Y 36 X -19 Y 36 X -15 Y 37 X -10 Y 36 X -23 Y 36 X -3 Y 36 X -23 Y 37 X -5 Y 36 X -28 Y 36 X -29 Y 37 X 19 Y 36
 X -7 Y 36 X 13 Y 36 X -44 Y 37 X -34 Y 36 X -19 Y 36 X 16 Y 37 X 41 Y 36 X -176 Y 36 X 35 Y 36 X 105 Y 37 X -6 Y 36 X -134 Y 36 X 102 Y 37 X -102 Y 36 X 50 Y 36 X -50 Y 36 X 76 Y 37 X -76 Y 36 X 79 Y 36 X -79 Y 218 X s 1 1 1 c black 0.6 0 0.6 c 227
 385 m 181 X 457 Y 36 X 17 Y 37 X -11 Y 36 X -20 Y 36 X -18 Y 37 X -16 Y 36 X -17 Y 36 X -14 Y 36 X -9 Y 37 X -23 Y 36 X -19 Y 36 X -15 Y 37 X -10 Y 36 X -23 Y 36 X -3 Y 36 X -23 Y 37 X -5 Y 36 X -28 Y 36 X -29 Y 37 X 19 Y 36 X -7 Y 36 X 13 Y 36 X
 -44 Y 37 X -34 Y 36 X -19 Y 36 X 16 Y 37 X 41 Y 36 X -176 Y 36 X 35 Y 36 X 105 Y 37 X -6 Y 36 X -134 Y 36 X 102 Y 37 X -102 Y 36 X 50 Y 36 X -50 Y 36 X 76 Y 37 X -76 Y 36 X 79 Y 36 X -79 Y 218 X s black 0.6 0 0.6 c 227 385 m 181 X 457 Y 36 X 17 Y 37
 X -11 Y 36 X -20 Y 36 X -18 Y 37 X -16 Y 36 X -17 Y 36 X -14 Y 36 X -9 Y 37 X -23 Y 36 X -19 Y 36 X -15 Y 37 X -10 Y 36 X -23 Y 36 X -3 Y 36 X -23 Y 37 X -5 Y 36 X -28 Y 36 X -29 Y 37 X 19 Y 36 X -7 Y 36 X 13 Y 36 X -44 Y 37 X -34 Y 36 X -19 Y 36 X
 16 Y 37 X 41 Y 36 X -176 Y 36 X 35 Y 36 X 105 Y 37 X -6 Y 36 X -134 Y 36 X 102 Y 37 X -102 Y 36 X 50 Y 36 X -50 Y 36 X 76 Y 37 X -76 Y 36 X 79 Y 36 X -79 Y 218 X f 227 385 m 181 X 457 Y 36 X 17 Y 37 X -11 Y 36 X -20 Y 36 X -18 Y 37 X -16 Y 36 X -17
 Y 36 X -14 Y 36 X -9 Y 37 X -23 Y 36 X -19 Y 36 X -15 Y 37 X -10 Y 36 X -23 Y 36 X -3 Y 36 X -23 Y 37 X -5 Y 36 X -28 Y 36 X -29 Y 37 X 19 Y 36 X -7 Y 36 X 13 Y 36 X -44 Y 37 X -34 Y 36 X -19 Y 36 X 16 Y 37 X 41 Y 36 X -176 Y 36 X 35 Y 36 X 105 Y 37
 X -6 Y 36 X -134 Y 36 X 102 Y 37 X -102 Y 36 X 50 Y 36 X -50 Y 36 X 76 Y 37 X -76 Y 36 X 79 Y 36 X -79 Y 218 X s 0.8 0 0.8 c 0.999 0.999 0.999 c black 0.999 0.999 0.999 c 227 385 m 181 X 420 Y 36 X 16 Y 37 X -12 Y 36 X -22 Y 36 X -19 Y 37 X -16 Y 36
 X -19 Y 36 X -19 Y 36 X -6 Y 37 X -16 Y 36 X -20 Y 36 X -15 Y 37 X 3 Y 36 X -32 Y 36 X 1 Y 36 X -18 Y 37 X -22 Y 36 X -24 Y 36 X -43 Y 37 X 1 Y 36 X 40 Y 36 X -54 Y 36 X 3 Y 37 X -20 Y 36 X 12 Y 36 X 8 Y 37 X -19 Y 36 X -108 Y 36 X 35 Y 36 X 69 Y 37
 X 2 Y 36 X -106 Y 36 X 102 Y 37 X -102 Y 36 X 50 Y 36 X -50 Y 36 X 76 Y 37 X -76 Y 36 X 79 Y 36 X -79 Y 218 X f 0.8 0 0.8 c 0.999 0.999 0.999 c 0.8 0 0.8 c 227 385 m 181 X 420 Y 36 X 16 Y 37 X -12 Y 36 X -22 Y 36 X -19 Y 37 X -16 Y 36 X -19 Y 36 X
 -19 Y 36 X -6 Y 37 X -16 Y 36 X -20 Y 36 X -15 Y 37 X 3 Y 36 X -32 Y 36 X 1 Y 36 X -18 Y 37 X -22 Y 36 X -24 Y 36 X -43 Y 37 X 1 Y 36 X 40 Y 36 X -54 Y 36 X 3 Y 37 X -20 Y 36 X 12 Y 36 X 8 Y 37 X -19 Y 36 X -108 Y 36 X 35 Y 36 X 69 Y 37 X 2 Y 36 X
 -106 Y 36 X 102 Y 37 X -102 Y 36 X 50 Y 36 X -50 Y 36 X 76 Y 37 X -76 Y 36 X 79 Y 36 X -79 Y 218 X s 1 1 1 c black 0.8 0 0.8 c 227 385 m 181 X 420 Y 36 X 16 Y 37 X -12 Y 36 X -22 Y 36 X -19 Y 37 X -16 Y 36 X -19 Y 36 X -19 Y 36 X -6 Y 37 X -16 Y 36
 X -20 Y 36 X -15 Y 37 X 3 Y 36 X -32 Y 36 X 1 Y 36 X -18 Y 37 X -22 Y 36 X -24 Y 36 X -43 Y 37 X 1 Y 36 X 40 Y 36 X -54 Y 36 X 3 Y 37 X -20 Y 36 X 12 Y 36 X 8 Y 37 X -19 Y 36 X -108 Y 36 X 35 Y 36 X 69 Y 37 X 2 Y 36 X -106 Y 36 X 102 Y 37 X -102 Y
 36 X 50 Y 36 X -50 Y 36 X 76 Y 37 X -76 Y 36 X 79 Y 36 X -79 Y 218 X s black 0.8 0 0.8 c 227 385 m 181 X 420 Y 36 X 16 Y 37 X -12 Y 36 X -22 Y 36 X -19 Y 37 X -16 Y 36 X -19 Y 36 X -19 Y 36 X -6 Y 37 X -16 Y 36 X -20 Y 36 X -15 Y 37 X 3 Y 36 X -32 Y
 36 X 1 Y 36 X -18 Y 37 X -22 Y 36 X -24 Y 36 X -43 Y 37 X 1 Y 36 X 40 Y 36 X -54 Y 36 X 3 Y 37 X -20 Y 36 X 12 Y 36 X 8 Y 37 X -19 Y 36 X -108 Y 36 X 35 Y 36 X 69 Y 37 X 2 Y 36 X -106 Y 36 X 102 Y 37 X -102 Y 36 X 50 Y 36 X -50 Y 36 X 76 Y 37 X -76
 Y 36 X 79 Y 36 X -79 Y 218 X f 227 385 m 181 X 420 Y 36 X 16 Y 37 X -12 Y 36 X -22 Y 36 X -19 Y 37 X -16 Y 36 X -19 Y 36 X -19 Y 36 X -6 Y 37 X -16 Y 36 X -20 Y 36 X -15 Y 37 X 3 Y 36 X -32 Y 36 X 1 Y 36 X -18 Y 37 X -22 Y 36 X -24 Y 36 X -43 Y 37 X
 1 Y 36 X 40 Y 36 X -54 Y 36 X 3 Y 37 X -20 Y 36 X 12 Y 36 X 8 Y 37 X -19 Y 36 X -108 Y 36 X 35 Y 36 X 69 Y 37 X 2 Y 36 X -106 Y 36 X 102 Y 37 X -102 Y 36 X 50 Y 36 X -50 Y 36 X 76 Y 37 X -76 Y 36 X 79 Y 36 X -79 Y 218 X s black 227 385 m 1814 X s
 227 413 m -28 Y s 272 399 m -14 Y s 317 399 m -14 Y s 363 399 m -14 Y s 408 413 m -28 Y s 454 399 m -14 Y s 499 399 m -14 Y s 544 399 m -14 Y s 590 413 m -28 Y s 635 399 m -14 Y s 680 399 m -14 Y s 726 399 m -14 Y s 771 413 m -28 Y s 816 399 m -14 Y
 s 862 399 m -14 Y s 907 399 m -14 Y s 952 413 m -28 Y s 998 399 m -14 Y s 1043 399 m -14 Y s 1089 399 m -14 Y s 1134 413 m -28 Y s 1179 399 m -14 Y s 1225 399 m -14 Y s 1270 399 m -14 Y s 1315 413 m -28 Y s 1361 399 m -14 Y s 1406 399 m -14 Y s 1451
 399 m -14 Y s 1497 413 m -28 Y s 1542 399 m -14 Y s 1587 399 m -14 Y s 1633 399 m -14 Y s 1678 413 m -28 Y s 1723 399 m -14 Y s 1769 399 m -14 Y s 1814 399 m -14 Y s 1860 413 m -28 Y s 1905 399 m -14 Y s 1950 399 m -14 Y s 1996 399 m -14 Y s 2041
 413 m -28 Y s 227 385 m 1039 Y s 257 388 m -30 X s 257 407 m -30 X s 257 420 m -30 X s 257 430 m -30 X s 257 438 m -30 X s 257 446 m -30 X s 257 452 m -30 X s 257 457 m -30 X s 288 462 m -61 X s 257 494 m -30 X s 257 512 m -30 X s 257 526 m -30 X s
 257 536 m -30 X s 257 544 m -30 X s 257 551 m -30 X s 257 557 m -30 X s 257 563 m -30 X s 288 568 m -61 X s 257 600 m -30 X s 257 618 m -30 X s 257 631 m -30 X s 257 642 m -30 X s 257 650 m -30 X s 257 657 m -30 X s 257 663 m -30 X s 257 669 m -30 X
 s 288 674 m -61 X s 257 705 m -30 X s 257 724 m -30 X s 257 737 m -30 X s 257 747 m -30 X s 257 756 m -30 X s 257 763 m -30 X s 257 769 m -30 X s 257 774 m -30 X s 288 779 m -61 X s 257 811 m -30 X s 257 830 m -30 X s 257 843 m -30 X s 257 853 m -30
 X s 257 862 m -30 X s 257 869 m -30 X s 257 875 m -30 X s 257 880 m -30 X s 288 885 m -61 X s 257 917 m -30 X s 257 936 m -30 X s 257 949 m -30 X s 257 959 m -30 X s 257 967 m -30 X s 257 975 m -30 X s 257 981 m -30 X s 257 986 m -30 X s 288 991 m
 -61 X s 257 1023 m -30 X s 257 1041 m -30 X s 257 1055 m -30 X s 257 1065 m -30 X s 257 1073 m -30 X s 257 1080 m -30 X s 257 1087 m -30 X s 257 1092 m -30 X s 288 1097 m -61 X s 257 1129 m -30 X s 257 1147 m -30 X s 257 1160 m -30 X s 257 1171 m
 -30 X s 257 1179 m -30 X s 257 1186 m -30 X s 257 1192 m -30 X s 257 1198 m -30 X s 288 1203 m -61 X s 257 1234 m -30 X s 257 1253 m -30 X s 257 1266 m -30 X s 257 1277 m -30 X s 257 1285 m -30 X s 257 1292 m -30 X s 257 1298 m -30 X s 257 1304 m
 -30 X s 288 1308 m -61 X s 257 1340 m -30 X s 257 1359 m -30 X s 257 1372 m -30 X s 257 1382 m -30 X s 257 1391 m -30 X s 257 1398 m -30 X s 257 1404 m -30 X s 257 1409 m -30 X s 288 1414 m -61 X s 0 0 0.6 c black 1 lw << /PatternType 1 /PaintType 2
 /TilingType 1 /BBox [ 0 0 100 100 ] /XStep 100 /YStep 100 /PaintProc { begin gsave 0 100 m 100 0 l s gr end } >> [ 0.24 0 0 0.24 0 0 ] makepattern /P05 exch def /cs {[/Pattern /DeviceRGB] setcolorspace} def /FA {f [/DeviceRGB] setcolorspace} def cs
 0 0 0 P05 setcolor 227 385 m 36 X -36 X FA 3 lw 0 0 0.6 c black cs 0 0 0 P05 setcolor 263 385 m 36 X -36 X FA 0 0 0.6 c black cs 0 0 0 P05 setcolor 299 385 m 37 X -37 X FA 0 0 0.6 c black cs 0 0 0 P05 setcolor 336 385 m 36 X -36 X FA 0 0 0.6 c black
 cs 0 0 0 P05 setcolor 372 385 m 36 X -36 X FA 0 0 0.6 c black cs 0 0 0 P05 setcolor 408 1052 m 36 X 21 Y -36 X FA 0 0 0.6 c black cs 0 0 0 P05 setcolor 444 1079 m 37 X 4 Y -37 X FA 0 0 0.6 c black cs 0 0 0 P05 setcolor 481 1063 m 36 X 10 Y -36 X FA
 0 0 0.6 c black cs 0 0 0 P05 setcolor 517 1041 m 36 X 12 Y -36 X FA 0 0 0.6 c black cs 0 0 0 P05 setcolor 553 1020 m 37 X 9 Y -37 X FA 0 0 0.6 c black cs 0 0 0 P05 setcolor 590 997 m 36 X 13 Y -36 X FA 0 0 0.6 c black cs 0 0 0 P05 setcolor 626 969 m
 36 X 26 Y -36 X FA 0 0 0.6 c black cs 0 0 0 P05 setcolor 662 943 m 36 X 36 Y -36 X FA 0 0 0.6 c black cs 0 0 0 P05 setcolor 698 925 m 37 X 35 Y -37 X FA 0 0 0.6 c black cs 0 0 0 P05 setcolor 735 911 m 36 X 24 Y -36 X FA 0 0 0.6 c black cs 0 0 0 P05
 setcolor 771 904 m 36 X 12 Y -36 X FA 0 0 0.6 c black cs 0 0 0 P05 setcolor 807 888 m 37 X 12 Y -37 X FA 0 0 0.6 c black cs 0 0 0 P05 setcolor 844 866 m 36 X 18 Y -36 X FA 0 0 0.6 c black cs 0 0 0 P05 setcolor 880 848 m 36 X 26 Y -36 X FA 0 0 0.6 c
 black cs 0 0 0 P05 setcolor 916 828 m 36 X 33 Y -36 X FA 0 0 0.6 c black cs 0 0 0 P05 setcolor 952 805 m 37 X 45 Y -37 X FA 0 0 0.6 c black cs 0 0 0 P05 setcolor 989 785 m 36 X 55 Y -36 X FA 0 0 0.6 c black cs 0 0 0 P05 setcolor 1025 755 m 36 X 77 Y
 -36 X FA 0 0 0.6 c black cs 0 0 0 P05 setcolor 1061 668 m 37 X 157 Y -37 X FA 0 0 0.6 c black cs 0 0 0 P05 setcolor 1098 385 m 36 X 429 Y -36 X FA 0 0 0.6 c black cs 0 0 0 P05 setcolor 1134 385 m 36 X 422 Y -36 X FA 0 0 0.6 c black cs 0 0 0 P05
 setcolor 1170 385 m 36 X 406 Y -36 X FA 0 0 0.6 c black cs 0 0 0 P05 setcolor 1206 385 m 37 X 401 Y -37 X FA 0 0 0.6 c black cs 0 0 0 P05 setcolor 1243 385 m 36 X 386 Y -36 X FA 0 0 0.6 c black cs 0 0 0 P05 setcolor 1279 385 m 36 X 374 Y -36 X FA 0
 0 0.6 c black cs 0 0 0 P05 setcolor 1315 385 m 37 X 360 Y -37 X FA 0 0 0.6 c black cs 0 0 0 P05 setcolor 1352 385 m 36 X 350 Y -36 X FA 0 0 0.6 c black cs 0 0 0 P05 setcolor 1388 385 m 36 X 335 Y -36 X FA 0 0 0.6 c black cs 0 0 0 P05 setcolor 1424
 385 m 36 X 334 Y -36 X FA 0 0 0.6 c black cs 0 0 0 P05 setcolor 1460 385 m 37 X 318 Y -37 X FA 0 0 0.6 c black cs 0 0 0 P05 setcolor 1497 385 m 36 X 313 Y -36 X FA 0 0 0.6 c black cs 0 0 0 P05 setcolor 1533 385 m 36 X 299 Y -36 X FA 0 0 0.6 c black
 cs 0 0 0 P05 setcolor 1569 385 m 37 X 300 Y -37 X FA 0 0 0.6 c black cs 0 0 0 P05 setcolor 1606 385 m 36 X 269 Y -36 X FA 0 0 0.6 c black cs 0 0 0 P05 setcolor 1642 385 m 36 X 268 Y -36 X FA 0 0 0.6 c black cs 0 0 0 P05 setcolor 1678 385 m 36 X 254
 Y -36 X FA 0 0 0.6 c black cs 0 0 0 P05 setcolor 1714 385 m 37 X 257 Y -37 X FA 0 0 0.6 c black cs 0 0 0 P05 setcolor 1751 385 m 36 X 239 Y -36 X FA 0 0 0.6 c black cs 0 0 0 P05 setcolor 1787 385 m 36 X 239 Y -36 X FA 0 0 0.6 c black cs 0 0 0 P05
 setcolor 1823 385 m 37 X 213 Y -37 X FA 0 0 0.6 c black cs 0 0 0 P05 setcolor 1860 385 m 36 X 207 Y -36 X FA 0 0 0.6 c black cs 0 0 0 P05 setcolor 1896 385 m 36 X 202 Y -36 X FA 0 0 0.6 c black cs 0 0 0 P05 setcolor 1932 385 m 36 X 208 Y -36 X FA 0
 0 0.6 c black cs 0 0 0 P05 setcolor 1968 385 m 37 X 202 Y -37 X FA 0 0 0.6 c black cs 0 0 0 P05 setcolor 2005 385 m 36 X 166 Y -36 X FA 0 0 0.6 c black 0 0 0.6 c 1 1 1 c black 0 0 0.6 c 408 1070 m 5 X s 439 1070 m 5 X s black /w 26 def /w2 {w 2 div}
 def /w3 {w 3 div} def 426 1070 m20 0 0 0.6 c 444 1084 m 6 X s 476 1084 m 5 X s black 463 1084 m20 0 0 0.6 c 481 1070 m 5 X s 512 1070 m 5 X s black 499 1070 m20 0 0 0.6 c 517 1048 m 5 X s 548 1048 m 5 X s black 535 1048 m20 0 0 0.6 c 553 1027 m 5 X
 s 584 1027 m 6 X s black 571 1027 m20 0 0 0.6 c 590 1004 m 5 X s 621 1004 m 5 X s black 608 1004 m20 0 0 0.6 c 626 984 m 5 X s 657 984 m 5 X s black 644 984 m20 0 0 0.6 c 662 964 m 5 X s 693 964 m 5 X s black 680 964 m20 0 0 0.6 c 698 945 m 6 X s
 730 945 m 5 X s black 717 945 m20 0 0 0.6 c 735 927 m 5 X s 766 927 m 5 X s black 753 927 m20 0 0 0.6 c 771 908 m 5 X s 802 908 m 5 X s black 789 908 m20 0 0 0.6 c 807 893 m 5 X s 838 893 m 6 X s black 825 893 m20 0 0 0.6 c 844 876 m 5 X s 875 876 m
 5 X s black 862 876 m20 0 0 0.6 c 880 861 m 5 X s 911 861 m 5 X s black 898 861 m20 0 0 0.6 c 916 846 m 5 X s 947 846 m 5 X s black 934 846 m20 0 0 0.6 c 952 830 m 6 X s 984 830 m 5 X s black 971 830 m20 0 0 0.6 c 989 814 m 5 X s 1020 814 m 5 X s
 black 1007 814 m20 0 0 0.6 c 1025 798 m 5 X s 1056 798 m 5 X s black 1043 798 m20 0 0 0.6 c 1061 791 m 5 X s 1092 791 m 6 X s black 1079 791 m20 0 0 0.6 c 1098 777 m 5 X s 1129 777 m 5 X s black 1116 777 m20 0 0 0.6 c 1134 762 m 5 X s 1165 762 m 5 X
 s black 1152 762 m20 0 0 0.6 c 1170 749 m 5 X s 1201 749 m 5 X s black 1188 749 m20 0 0 0.6 c 1206 744 m 6 X s 1238 744 m 5 X s black 1225 744 m20 0 0 0.6 c 1243 731 m 5 X s 1274 731 m 5 X s black 1261 731 m20 0 0 0.6 c 1279 717 m 5 X s 1310 717 m 5
 X s black 1297 717 m20 0 0 0.6 c 1315 710 m 5 X s 1346 710 m 6 X s black 1333 710 m20 0 0 0.6 c 1370 675 m 1 Y s 1352 689 m 5 X s 1383 689 m 5 X s black 1370 689 m20 0 0 0.6 c 1406 666 m 3 Y s 1388 682 m 5 X s 1419 682 m 5 X s black 1406 682 m20 0 0
 0.6 c 1442 643 m 7 Y s 1442 676 m 1 Y s 1424 663 m 5 X s 1455 663 m 5 X s black 1442 663 m20 0 0 0.6 c 1479 643 m 7 Y s 1479 676 m 1 Y s 1460 663 m 6 X s 1492 663 m 5 X s black 1479 663 m20 0 0 0.6 c 1515 656 m 5 Y s 1497 674 m 5 X s 1528 674 m 5 X
 s black 1515 674 m20 0 0 0.6 c 1551 650 m 6 Y s 1551 682 m s 1533 669 m 5 X s 1564 669 m 5 X s black 1551 669 m20 0 0 0.6 c 1587 579 m 26 Y s 1587 631 m 8 Y s 1569 618 m 5 X s 1600 618 m 6 X s black 1587 618 m20 0 0 0.6 c 1624 579 m 26 Y s 1624 631
 m 8 Y s 1606 618 m 5 X s 1637 618 m 5 X s black 1624 618 m20 0 0 0.6 c 1660 543 m 44 Y s 1660 613 m 11 Y s 1642 600 m 5 X s 1673 600 m 5 X s black 1660 600 m20 0 0 0.6 c 1696 385 m 170 Y s 1696 581 m 19 Y s 1678 568 m 5 X s 1709 568 m 5 X s black
 1696 568 m20 0 0 0.6 c 1733 385 m 170 Y s 1733 581 m 19 Y s 1714 568 m 6 X s 1746 568 m 5 X s black 1733 568 m20 0 0 0.6 c 1769 543 m 44 Y s 1769 613 m 11 Y s 1751 600 m 5 X s 1782 600 m 5 X s black 1769 600 m20 0 0 0.6 c 1805 385 m 170 Y s 1805 581
 m 19 Y s 1787 568 m 5 X s 1818 568 m 5 X s black 1805 568 m20 0 0 0.6 c 1841 385 m 170 Y s 1841 581 m 19 Y s 1823 568 m 5 X s 1854 568 m 6 X s black 1841 568 m20 0 0 0.6 c 1914 385 m 170 Y s 1914 581 m 19 Y s 1896 568 m 5 X s 1927 568 m 5 X s black
 1914 568 m20 1 1 1 c 680 462 1361 962 bf black 1361 962 m 680 X s 2041 962 m 462 Y s 2041 1424 m -680 X s 1361 1424 m -462 Y s
 gsave  2268 1155 0 385 C 1530.22 1393.77 t 0 r /Helvetica findfont 35.788 sf 0 0 m (ZZ) show NC gr  0.8 0 0.8 c 1386 1385 m 119 X 33 Y -119 X f 1386 1418 m 119 X s 1386 1385 m 119 X s 1505 1385 m 33 Y s 1386 1385 m 33 Y s black
 gsave  2268 1155 0 385 C 1530.22 1345.04 t 0 r /Helvetica findfont 35.788 sf 0 0 m (WW) show NC gr  0.6 0 0.6 c 1386 1339 m 119 X 32 Y -119 X f 1386 1371 m 119 X s 1386 1339 m 119 X s 1505 1339 m 32 Y s 1386 1339 m 32 Y s black
 gsave  2268 1155 0 385 C 1530.22 1299.55 t 0 r /Helvetica findfont 35.788 sf 0 0 m (WZ) show NC gr  0.4 0 0.4 c 1386 1293 m 119 X 32 Y -119 X f 1386 1325 m 119 X s 1386 1293 m 119 X s 1505 1293 m 32 Y s 1386 1293 m 32 Y s black
 gsave  2268 1155 0 385 C 1530.22 1254.07 t 0 r /Helvetica findfont 35.788 sf 0 0 m (stop s) show NC gr  1 0.6 0 c 1386 1247 m 119 X 32 Y -119 X f 1386 1279 m 119 X s 1386 1247 m 119 X s 1505 1247 m 32 Y s 1386 1247 m 32 Y s black
 gsave  2268 1155 0 385 C 1530.22 1208.58 t 0 r /Helvetica findfont 35.788 sf 0 0 m (stop t) show NC gr  1 0.6 0 c 1386 1200 m 119 X 33 Y -119 X f 1386 1233 m 119 X s 1386 1200 m 119 X s 1505 1200 m 33 Y s 1386 1200 m 33 Y s black
 gsave  2268 1155 0 385 C 1530.22 1163.1 t 0 r /Helvetica findfont 35.788 sf 0 0 m (stop Wt) show NC gr  1 0.6 0 c 1386 1154 m 119 X 33 Y -119 X f 1386 1187 m 119 X s 1386 1154 m 119 X s 1505 1154 m 33 Y s 1386 1154 m 33 Y s black
 gsave  2268 1155 0 385 C 1530.22 1114.36 t 0 r /Helvetica findfont 35.788 sf 0 0 m (ttbar) show NC gr  1 0.8 0 c 1386 1108 m 119 X 32 Y -119 X f 1386 1140 m 119 X s 1386 1108 m 119 X s 1505 1108 m 32 Y s 1386 1108 m 32 Y s black
 gsave  2268 1155 0 385 C 1530.22 1068.88 t 0 r /Helvetica findfont 35.788 sf 0 0 m (W) show NC gr  0 0.6 0 c 1386 1062 m 119 X 32 Y -119 X f 1386 1094 m 119 X s 1386 1062 m 119 X s 1505 1062 m 32 Y s 1386 1062 m 32 Y s black
 gsave  2268 1155 0 385 C 1530.22 1023.4 t 0 r /Helvetica findfont 35.788 sf 0 0 m (Z) show NC gr  0.4 0.8 1 c 1386 1016 m 119 X 32 Y -119 X f 1386 1048 m 119 X s 1386 1016 m 119 X s 1505 1016 m 32 Y s 1386 1016 m 32 Y s black
 gsave  2268 1155 0 385 C 1530.22 977.912 t 0 r /Helvetica findfont 35.788 sf 0 0 m (stat+syst) show NC gr  cs 0 0 0 P05 setcolor 1386 969 m 119 X 33 Y -119 X FA 0 0 0.6 c 1386 1002 m 119 X s 1386 969 m 119 X s 1505 969 m 33 Y s 1386 969 m 33 Y s
 black
 gsave  2268 1155 0 385 C 451.594 1309.3 t 0 r /Helvetica-Bold findfont 55.3087 sf 0 0 m (ATLAS Preliminary) show NC gr  1 1 1 c 2268 385 0 0 bf black 1 1 1 c 1814 270 227 115 bf black 1814 270 227 115 bl 227 115 m 1814 X s
 gsave  2268 385 0 0 C 1923.34 38.9865 t 0 r /Helvetica findfont 42.4144 sf 0 0 m ( [GeV]) show NC gr 
 gsave  2268 385 0 0 C 1884.35 16.2444 t 0 r /Helvetica findfont 29.3638 sf 0 0 m (T,J) show NC gr 
 gsave  2268 385 0 0 C 1861.61 38.9865 t 0 r /Helvetica findfont 42.4144 sf 0 0 m (p) show NC gr  227 125 m -10 Y s 272 120 m -5 Y s 317 120 m -5 Y s 363 120 m -5 Y s 408 125 m -10 Y s 453 120 m -5 Y s 499 120 m -5 Y s 544 120 m -5 Y s 589 125 m -10
 Y s 635 120 m -5 Y s 680 120 m -5 Y s 725 120 m -5 Y s 770 125 m -10 Y s 816 120 m -5 Y s 861 120 m -5 Y s 906 120 m -5 Y s 952 125 m -10 Y s 997 120 m -5 Y s 1042 120 m -5 Y s 1088 120 m -5 Y s 1133 125 m -10 Y s 1178 120 m -5 Y s 1224 120 m -5 Y s
 1269 120 m -5 Y s 1314 125 m -10 Y s 1359 120 m -5 Y s 1405 120 m -5 Y s 1450 120 m -5 Y s 1495 125 m -10 Y s 1541 120 m -5 Y s 1586 120 m -5 Y s 1631 120 m -5 Y s 1677 125 m -10 Y s 1722 120 m -5 Y s 1767 120 m -5 Y s 1813 120 m -5 Y s 1858 125 m
 -10 Y s 1903 120 m -5 Y s 1949 120 m -5 Y s 1994 120 m -5 Y s 2039 125 m -10 Y s 2039 125 m -10 Y s
 gsave  2268 385 0 0 C 211.177 77.9731 t 0 r /Helvetica findfont 42.4144 sf 0 0 m (0) show NC gr 
 gsave  2268 385 0 0 C 370.372 77.9731 t 0 r /Helvetica findfont 42.4144 sf 0 0 m (200) show NC gr 
 gsave  2268 385 0 0 C 552.309 77.9731 t 0 r /Helvetica findfont 42.4144 sf 0 0 m (400) show NC gr 
 gsave  2268 385 0 0 C 734.246 77.9731 t 0 r /Helvetica findfont 42.4144 sf 0 0 m (600) show NC gr 
 gsave  2268 385 0 0 C 912.935 77.9731 t 0 r /Helvetica findfont 42.4144 sf 0 0 m (800) show NC gr 
 gsave  2268 385 0 0 C 1081.88 77.9731 t 0 r /Helvetica findfont 42.4144 sf 0 0 m (1000) show NC gr 
 gsave  2268 385 0 0 C 1263.81 77.9731 t 0 r /Helvetica findfont 42.4144 sf 0 0 m (1200) show NC gr 
 gsave  2268 385 0 0 C 1445.75 77.9731 t 0 r /Helvetica findfont 42.4144 sf 0 0 m (1400) show NC gr 
 gsave  2268 385 0 0 C 1627.69 77.9731 t 0 r /Helvetica findfont 42.4144 sf 0 0 m (1600) show NC gr 
 gsave  2268 385 0 0 C 1806.38 77.9731 t 0 r /Helvetica findfont 42.4144 sf 0 0 m (1800) show NC gr 
 gsave  2268 385 0 0 C 1988.31 77.9731 t 0 r /Helvetica findfont 42.4144 sf 0 0 m (2000) show NC gr  227 115 m 270 Y s 274 115 m -47 X s 251 124 m -24 X s 251 132 m -24 X s 251 141 m -24 X s 274 149 m -47 X s 251 158 m -24 X s 251 166 m -24 X s 251
 174 m -24 X s 274 183 m -47 X s 251 191 m -24 X s 251 200 m -24 X s 251 208 m -24 X s 274 217 m -47 X s 251 225 m -24 X s 251 233 m -24 X s 251 242 m -24 X s 274 250 m -47 X s 251 259 m -24 X s 251 267 m -24 X s 251 276 m -24 X s 274 284 m -47 X s
 251 292 m -24 X s 251 301 m -24 X s 251 309 m -24 X s 274 318 m -47 X s 251 326 m -24 X s 251 334 m -24 X s 251 343 m -24 X s 274 351 m -47 X s 251 360 m -24 X s 251 368 m -24 X s 251 377 m -24 X s 274 385 m -47 X s
 gsave  2268 385 0 0 C 155.946 100.715 t 0 r /Helvetica findfont 42.4144 sf 0 0 m (0.2) show NC gr 
 gsave  2268 385 0 0 C 155.946 133.204 t 0 r /Helvetica findfont 42.4144 sf 0 0 m (0.4) show NC gr 
 gsave  2268 385 0 0 C 155.946 168.942 t 0 r /Helvetica findfont 42.4144 sf 0 0 m (0.6) show NC gr 
 gsave  2268 385 0 0 C 155.946 201.43 t 0 r /Helvetica findfont 42.4144 sf 0 0 m (0.8) show NC gr 
 gsave  2268 385 0 0 C 198.182 233.919 t 0 r /Helvetica findfont 42.4144 sf 0 0 m (1) show NC gr 
 gsave  2268 385 0 0 C 155.946 266.408 t 0 r /Helvetica findfont 42.4144 sf 0 0 m (1.2) show NC gr 
 gsave  2268 385 0 0 C 155.946 298.897 t 0 r /Helvetica findfont 42.4144 sf 0 0 m (1.4) show NC gr 
 gsave  2268 385 0 0 C 155.946 337.883 t 0 r /Helvetica findfont 42.4144 sf 0 0 m (1.6) show NC gr 
 gsave  2268 385 0 0 C 155.946 370.372 t 0 r /Helvetica findfont 42.4144 sf 0 0 m (1.8) show NC gr  0 0 0.6 c black 0 0 0.6 c black cs 0 0 0 P05 setcolor 408 212 m 36 X 77 Y -36 X FA 0 0 0.6 c black cs 0 0 0 P05 setcolor 444 244 m 37 X 13 Y -37 X FA
 0 0 0.6 c black cs 0 0 0 P05 setcolor 481 231 m 36 X 39 Y -36 X FA 0 0 0.6 c black cs 0 0 0 P05 setcolor 517 228 m 36 X 45 Y -36 X FA 0 0 0.6 c black cs 0 0 0 P05 setcolor 553 234 m 36 X 32 Y -36 X FA 0 0 0.6 c black cs 0 0 0 P05 setcolor 589 228 m
 36 X 45 Y -36 X FA 0 0 0.6 c black cs 0 0 0 P05 setcolor 625 205 m 37 X 91 Y -37 X FA 0 0 0.6 c black cs 0 0 0 P05 setcolor 662 187 m 36 X 127 Y -36 X FA 0 0 0.6 c black cs 0 0 0 P05 setcolor 698 188 m 36 X 124 Y -36 X FA 0 0 0.6 c black cs 0 0 0
 P05 setcolor 734 206 m 36 X 89 Y -36 X FA 0 0 0.6 c black cs 0 0 0 P05 setcolor 770 228 m 37 X 45 Y -37 X FA 0 0 0.6 c black cs 0 0 0 P05 setcolor 807 229 m 36 X 43 Y -36 X FA 0 0 0.6 c black cs 0 0 0 P05 setcolor 843 215 m 36 X 70 Y -36 X FA 0 0
 0.6 c black cs 0 0 0 P05 setcolor 879 205 m 36 X 91 Y -36 X FA 0 0 0.6 c black cs 0 0 0 P05 setcolor 915 192 m 37 X 116 Y -37 X FA 0 0 0.6 c black cs 0 0 0 P05 setcolor 952 174 m 36 X 152 Y -36 X FA 0 0 0.6 c black cs 0 0 0 P05 setcolor 988 159 m 36
 X 183 Y -36 X FA 0 0 0.6 c black cs 0 0 0 P05 setcolor 1024 135 m 36 X 231 Y -36 X FA 0 0 0.6 c black cs 0 0 0 P05 setcolor 1060 115 m 37 X 270 Y -37 X FA 0 0 0.6 c black cs 0 0 0 P05 setcolor 1097 115 m 36 X 270 Y -36 X FA 0 0 0.6 c black cs 0 0 0
 P05 setcolor 1133 115 m 36 X 270 Y -36 X FA 0 0 0.6 c black cs 0 0 0 P05 setcolor 1169 115 m 36 X 270 Y -36 X FA 0 0 0.6 c black cs 0 0 0 P05 setcolor 1205 115 m 37 X 270 Y -37 X FA 0 0 0.6 c black cs 0 0 0 P05 setcolor 1242 115 m 36 X 270 Y -36 X
 FA 0 0 0.6 c black cs 0 0 0 P05 setcolor 1278 115 m 36 X 270 Y -36 X FA 0 0 0.6 c black cs 0 0 0 P05 setcolor 1314 115 m 36 X 270 Y -36 X FA 0 0 0.6 c black cs 0 0 0 P05 setcolor 1350 115 m 37 X 270 Y -37 X FA 0 0 0.6 c black cs 0 0 0 P05 setcolor
 1387 115 m 36 X 270 Y -36 X FA 0 0 0.6 c black cs 0 0 0 P05 setcolor 1423 115 m 36 X 270 Y -36 X FA 0 0 0.6 c black cs 0 0 0 P05 setcolor 1459 115 m 36 X 270 Y -36 X FA 0 0 0.6 c black cs 0 0 0 P05 setcolor 1495 115 m 37 X 270 Y -37 X FA 0 0 0.6 c
 black cs 0 0 0 P05 setcolor 1532 115 m 36 X 270 Y -36 X FA 0 0 0.6 c black cs 0 0 0 P05 setcolor 1568 115 m 36 X 270 Y -36 X FA 0 0 0.6 c black cs 0 0 0 P05 setcolor 1604 115 m 36 X 270 Y -36 X FA 0 0 0.6 c black cs 0 0 0 P05 setcolor 1640 115 m 37
 X 270 Y -37 X FA 0 0 0.6 c black cs 0 0 0 P05 setcolor 1677 115 m 36 X 270 Y -36 X FA 0 0 0.6 c black cs 0 0 0 P05 setcolor 1713 115 m 36 X 270 Y -36 X FA 0 0 0.6 c black cs 0 0 0 P05 setcolor 1749 115 m 36 X 270 Y -36 X FA 0 0 0.6 c black cs 0 0 0
 P05 setcolor 1785 115 m 37 X 270 Y -37 X FA 0 0 0.6 c black cs 0 0 0 P05 setcolor 1822 115 m 36 X 270 Y -36 X FA 0 0 0.6 c black cs 0 0 0 P05 setcolor 1858 115 m 36 X 270 Y -36 X FA 0 0 0.6 c black cs 0 0 0 P05 setcolor 1894 115 m 36 X 270 Y -36 X
 FA 0 0 0.6 c black cs 0 0 0 P05 setcolor 1930 115 m 37 X 270 Y -37 X FA 0 0 0.6 c black cs 0 0 0 P05 setcolor 1967 115 m 36 X 270 Y -36 X FA 0 0 0.6 c black cs 0 0 0 P05 setcolor 2003 115 m 36 X 270 Y -36 X FA 0 0 0.6 c 1 1 1 c black 0 0 0.6 c 408
 273 m 5 X s 439 273 m 5 X s black 426 273 m20 0 0 0.6 c 444 263 m 5 X s 475 263 m 6 X s black 462 263 m20 0 0 0.6 c 481 258 m 5 X s 512 258 m 5 X s black 499 258 m20 0 0 0.6 c 517 255 m 5 X s 548 255 m 5 X s black 535 255 m20 0 0 0.6 c 553 259 m 5 X
 s 584 259 m 5 X s black 571 259 m20 0 0 0.6 c 589 251 m 5 X s 620 251 m 5 X s black 607 251 m20 0 0 0.6 c 625 251 m 6 X s 657 251 m 5 X s black 644 251 m20 0 0 0.6 c 662 248 m 5 X s 693 248 m 5 X s black 680 248 m20 0 0 0.6 c 698 248 m 5 X s 729 248
 m 5 X s black 716 248 m20 0 0 0.6 c 734 260 m 5 X s 765 260 m 5 X s black 752 260 m20 0 0 0.6 c 770 241 m 6 X s 802 241 m 5 X s black 789 241 m20 0 0 0.6 c 807 245 m 5 X s 838 245 m 5 X s black 825 245 m20 0 0 0.6 c 843 250 m 5 X s 874 250 m 5 X s
 black 861 250 m20 0 0 0.6 c 879 243 m 5 X s 910 243 m 5 X s black 897 243 m20 0 0 0.6 c 915 245 m 6 X s 947 245 m 5 X s black 934 245 m20 0 0 0.6 c 952 240 m 5 X s 983 240 m 5 X s black 970 240 m20 0 0 0.6 c 988 227 m 5 X s 1019 227 m 5 X s black
 1006 227 m20 0 0 0.6 c 1024 218 m 5 X s 1055 218 m 5 X s black 1042 218 m20 0 0 0.6 c 1079 221 m 1 Y s 1079 248 m 1 Y s 1060 235 m 6 X s 1092 235 m 5 X s black 1079 235 m20 0 0 0.6 c 1115 221 m 3 Y s 1115 250 m 4 Y s 1097 237 m 5 X s 1128 237 m 5 X
 s black 1115 237 m20 0 0 0.6 c 1151 203 m 4 Y s 1151 233 m 4 Y s 1133 220 m 5 X s 1164 220 m 5 X s black 1151 220 m20 0 0 0.6 c 1187 210 m 9 Y s 1187 245 m 9 Y s 1169 232 m 5 X s 1200 232 m 5 X s black 1187 232 m20 0 0 0.6 c 1224 212 m 14 Y s 1224
 252 m 13 Y s 1205 239 m 6 X s 1237 239 m 5 X s black 1224 239 m20 0 0 0.6 c 1260 221 m 16 Y s 1260 263 m 16 Y s 1242 250 m 5 X s 1273 250 m 5 X s black 1260 250 m20 0 0 0.6 c 1296 209 m 19 Y s 1296 254 m 19 Y s 1278 241 m 5 X s 1309 241 m 5 X s
 black 1296 241 m20 0 0 0.6 c 1332 223 m 28 Y s 1332 277 m 28 Y s 1314 264 m 5 X s 1345 264 m 5 X s black 1332 264 m20 0 0 0.6 c 1369 190 m 29 Y s 1369 245 m 29 Y s 1350 232 m 6 X s 1382 232 m 5 X s black 1369 232 m20 0 0 0.6 c 1405 190 m 32 Y s 1405
 248 m 33 Y s 1387 235 m 5 X s 1418 235 m 5 X s black 1405 235 m20 0 0 0.6 c 1441 156 m 30 Y s 1441 212 m 30 Y s 1423 199 m 5 X s 1454 199 m 5 X s black 1441 199 m20 0 0 0.6 c 1477 183 m 45 Y s 1477 254 m 44 Y s 1459 241 m 5 X s 1490 241 m 5 X s
 black 1477 241 m20 0 0 0.6 c 1514 238 m 62 Y s 1514 326 m 59 Y s 1495 313 m 6 X s 1527 313 m 5 X s black 1514 313 m20 0 0 0.6 c 1550 255 m 78 Y s 1550 359 m 26 Y s 1532 346 m 5 X s 1563 346 m 5 X s black 1550 346 m20 0 0 0.6 c 1586 123 m 45 Y s 1586
 194 m 45 Y s 1568 181 m 5 X s 1599 181 m 5 X s black 1586 181 m20 0 0 0.6 c 1622 158 m 95 Y s 1622 279 m 96 Y s 1604 266 m 5 X s 1635 266 m 5 X s black 1622 266 m20 0 0 0.6 c 1659 117 m 76 Y s 1659 219 m 75 Y s 1640 206 m 6 X s 1672 206 m 5 X s
 black 1659 206 m20 0 0 0.6 c 1695 115 m 28 Y s 1695 169 m 62 Y s 1677 156 m 5 X s 1708 156 m 5 X s black 1695 156 m20 0 0 0.6 c 1731 115 m 38 Y s 1731 179 m 71 Y s 1713 166 m 5 X s 1744 166 m 5 X s black 1731 166 m20 0 0 0.6 c 1767 143 m 147 Y s
 1767 316 m 69 Y s 1749 303 m 5 X s 1780 303 m 5 X s black 1767 303 m20 0 0 0.6 c 1804 115 m 74 Y s 1804 215 m 107 Y s 1785 202 m 6 X s 1817 202 m 5 X s black 1804 202 m20 0 0 0.6 c 1840 115 m 156 Y s 1840 297 m 88 Y s 1822 284 m 5 X s 1853 284 m 5 X
 s black 1840 284 m20 0 0 0.6 c 1912 115 m 172 Y s 1912 313 m 72 Y s 1894 300 m 5 X s 1925 300 m 5 X s black 1912 300 m20 1 0 0 c[ 12 12] 0 sd 227 250 m 1812 X s
 gr  gr showpage
end
%%EOF
