%!PS-Adobe-2.0 EPSF-2.0
%%BoundingBox:  0 0 567 385
%%Title: : c1
%%Creator: ROOT Version 6.04/16
%%CreationDate: Fri Jan 13 16:39:52 2017
%%DocumentNeededResources: ProcSet (FontSetInit)
%%EndComments
%%BeginProlog
80 dict begin
/s {stroke} def /l {lineto} def /m {moveto} def /t {translate} def
/r {rotate} def /rl {roll}  def /R {repeat} def
/d {rlineto} def /rm {rmoveto} def /gr {grestore} def /f {eofill} def
/c {setrgbcolor} def /black {0 setgray} def /sd {setdash} def
/cl {closepath} def /sf {scalefont setfont} def /lw {setlinewidth} def
/box {m dup 0 exch d exch 0 d 0 exch neg d cl} def
/NC{systemdict begin initclip end}def/C{NC box clip newpath}def
/bl {box s} def /bf {gsave box gsave f grestore 1 lw [] 0 sd s grestore} def /Y { 0 exch d} def /X { 0 d} def 
/K {{pop pop 0 moveto} exch kshow} bind def
/ita {/ang 15 def gsave [1 0 ang dup sin exch cos div 1 0 0] concat} def 
/mp {newpath /y exch def /x exch def} def
/side {[w .77 mul w .23 mul] .385 w mul sd w 0 l currentpoint t -144 r} def
/mr {mp x y w2 0 360 arc} def /m24 {mr s} def /m20 {mr f} def
/mb {mp x y w2 add m w2 neg 0 d 0 w neg d w 0 d 0 w d cl} def
/mt {mp x y w2 add m w2 neg w neg d w 0 d cl} def
/m21 {mb f} def /m25 {mb s} def /m22 {mt f} def /m26{mt s} def
/m23 {mp x y w2 sub m w2 w d w neg 0 d cl f} def
/m27 {mp x y w2 add m w3 neg w2 neg d w3 w2 neg d w3 w2 d cl s} def
/m28 {mp x w2 sub y w2 sub w3 add m w3 0 d  0 w3 neg d w3 0 d 0 w3 d w3 0 d  0 w3 d w3 neg 0 d 0 w3 d w3 neg 0 d 0 w3 neg d w3 neg 0 d cl s } def
/m29 {mp gsave x w2 sub y w2 add w3 sub m currentpoint t 4 {side} repeat cl fill gr} def
/m30 {mp gsave x w2 sub y w2 add w3 sub m currentpoint t 4 {side} repeat cl s gr} def
/m31 {mp x y w2 sub m 0 w d x w2 sub y m w 0 d x w2 sub y w2 add m w w neg d x w2 sub y w2 sub m w w d s} def
/m32 {mp x y w2 sub m w2 w d w neg 0 d cl s} def
/m33 {mp x y w2 add m w3 neg w2 neg d w3 w2 neg d w3 w2 d cl f} def
/m34 {mp x w2 sub y w2 sub w3 add m w3 0 d  0 w3 neg d w3 0 d 0 w3 d w3 0 d  0 w3 d w3 neg 0 d 0 w3 d w3 neg 0 d 0 w3 neg d w3 neg 0 d cl f } def
/m2 {mp x y w2 sub m 0 w d x w2 sub y m w 0 d s} def
/m5 {mp x w2 sub y w2 sub m w w d x w2 sub y w2 add m w w neg d s} def
%%IncludeResource: ProcSet (FontSetInit)
%%IncludeResource: font Times-Roman
%%IncludeResource: font Times-Italic
%%IncludeResource: font Times-Bold
%%IncludeResource: font Times-BoldItalic
%%IncludeResource: font Helvetica
%%IncludeResource: font Helvetica-Oblique
%%IncludeResource: font Helvetica-Bold
%%IncludeResource: font Helvetica-BoldOblique
%%IncludeResource: font Courier
%%IncludeResource: font Courier-Oblique
%%IncludeResource: font Courier-Bold
%%IncludeResource: font Courier-BoldOblique
%%IncludeResource: font Symbol
%%IncludeResource: font ZapfDingbats
/reEncode {exch findfont dup length dict begin {1 index /FID eq  {pop pop} {def} ifelse } forall /Encoding exch def currentdict end dup /FontName get exch definefont pop } def [/Times-Bold /Times-Italic /Times-BoldItalic /Helvetica /Helvetica-Oblique
 /Helvetica-Bold /Helvetica-BoldOblique /Courier /Courier-Oblique /Courier-Bold /Courier-BoldOblique /Times-Roman /AvantGarde-Book /AvantGarde-BookOblique /AvantGarde-Demi /AvantGarde-DemiOblique /Bookman-Demi /Bookman-DemiItalic /Bookman-Light
 /Bookman-LightItalic /Helvetica-Narrow /Helvetica-Narrow-Bold /Helvetica-Narrow-BoldOblique /Helvetica-Narrow-Oblique /NewCenturySchlbk-Roman /NewCenturySchlbk-Bold /NewCenturySchlbk-BoldItalic /NewCenturySchlbk-Italic /Palatino-Bold
 /Palatino-BoldItalic /Palatino-Italic /Palatino-Roman ] {ISOLatin1Encoding reEncode } forall
%%EndProlog
%%BeginSetup
%%EndSetup
newpath  gsave  .25 .25 scale  gsave  0 0 t black[  ] 0 sd 3 lw 1 1 1 c 2268 1540 0 0 bf black 1 1 1 c 2268 1155 0 385 bf black 1 1 1 c 1814 1039 227 385 bf black 1814 1039 227 385 bl 0 0 0.6 c 1 1 1 c black 0 0 0.6 c 227 385 m 1814 X s black 227 385
 m 1814 X s 227 413 m -28 Y s 272 399 m -14 Y s 317 399 m -14 Y s 363 399 m -14 Y s 408 413 m -28 Y s 454 399 m -14 Y s 499 399 m -14 Y s 544 399 m -14 Y s 590 413 m -28 Y s 635 399 m -14 Y s 680 399 m -14 Y s 726 399 m -14 Y s 771 413 m -28 Y s 816
 399 m -14 Y s 862 399 m -14 Y s 907 399 m -14 Y s 952 413 m -28 Y s 998 399 m -14 Y s 1043 399 m -14 Y s 1089 399 m -14 Y s 1134 413 m -28 Y s 1179 399 m -14 Y s 1225 399 m -14 Y s 1270 399 m -14 Y s 1315 413 m -28 Y s 1361 399 m -14 Y s 1406 399 m
 -14 Y s 1451 399 m -14 Y s 1497 413 m -28 Y s 1542 399 m -14 Y s 1587 399 m -14 Y s 1633 399 m -14 Y s 1678 413 m -28 Y s 1723 399 m -14 Y s 1769 399 m -14 Y s 1814 399 m -14 Y s 1860 413 m -28 Y s 1905 399 m -14 Y s 1950 399 m -14 Y s 1996 399 m
 -14 Y s 2041 413 m -28 Y s
 gsave  2268 1155 0 385 C 211.177 347.63 t 0 r /Helvetica findfont 39.0414 sf 0 0 m (0) show NC gr 
 gsave  2268 1155 0 385 C 373.621 347.63 t 0 r /Helvetica findfont 39.0414 sf 0 0 m (200) show NC gr 
 gsave  2268 1155 0 385 C 555.558 347.63 t 0 r /Helvetica findfont 39.0414 sf 0 0 m (400) show NC gr 
 gsave  2268 1155 0 385 C 737.495 347.63 t 0 r /Helvetica findfont 39.0414 sf 0 0 m (600) show NC gr 
 gsave  2268 1155 0 385 C 919.432 347.63 t 0 r /Helvetica findfont 39.0414 sf 0 0 m (800) show NC gr 
 gsave  2268 1155 0 385 C 1088.37 347.63 t 0 r /Helvetica findfont 39.0414 sf 0 0 m (1000) show NC gr 
 gsave  2268 1155 0 385 C 1267.06 347.63 t 0 r /Helvetica findfont 39.0414 sf 0 0 m (1200) show NC gr 
 gsave  2268 1155 0 385 C 1449 347.63 t 0 r /Helvetica findfont 39.0414 sf 0 0 m (1400) show NC gr 
 gsave  2268 1155 0 385 C 1630.94 347.63 t 0 r /Helvetica findfont 39.0414 sf 0 0 m (1600) show NC gr 
 gsave  2268 1155 0 385 C 1812.87 347.63 t 0 r /Helvetica findfont 39.0414 sf 0 0 m (1800) show NC gr 
 gsave  2268 1155 0 385 C 1994.81 347.63 t 0 r /Helvetica findfont 39.0414 sf 0 0 m (2000) show NC gr  227 385 m 1039 Y s 257 397 m -30 X s 257 415 m -30 X s 257 430 m -30 X s 257 442 m -30 X s 257 452 m -30 X s 257 461 m -30 X s 257 468 m -30 X s
 288 475 m -61 X s
 gsave  2268 1155 0 385 C 198.182 477.585 t 0 r /Helvetica findfont 26.0276 sf 0 0 m (1) show NC gr 
 gsave  2268 1155 0 385 C 181.937 477.585 t 0 r /Symbol findfont 26.0276 sf 0 0 m (-) show NC gr 
 gsave  2268 1155 0 385 C 139.702 458.092 t 0 r /Helvetica findfont 39.0414 sf 0 0 m (10) show NC gr  257 521 m -30 X s 257 547 m -30 X s 257 566 m -30 X s 257 581 m -30 X s 257 593 m -30 X s 257 603 m -30 X s 257 611 m -30 X s 257 619 m -30 X s 288
 626 m -61 X s
 gsave  2268 1155 0 385 C 209.083 610.356 t 0 r  -20 0 t /Helvetica findfont 39.0414 sf 0 0 m (1) show NC gr  257 671 m -30 X s 257 698 m -30 X s 257 717 m -30 X s 257 731 m -30 X s 257 743 m -30 X s 257 753 m -30 X s 257 762 m -30 X s 257 770 m -30
 X s 288 777 m -61 X s
 gsave  2268 1155 0 385 C 209.083 760.96 t 0 r  -41 0 t /Helvetica findfont 39.0414 sf 0 0 m (10) show NC gr  257 822 m -30 X s 257 848 m -30 X s 257 867 m -30 X s 257 882 m -30 X s 257 894 m -30 X s 257 904 m -30 X s 257 913 m -30 X s 257 920 m -30
 X s 288 927 m -61 X s
 gsave  2268 1155 0 385 C 191.684 929.179 t 0 r /Helvetica findfont 26.0276 sf 0 0 m (2) show NC gr 
 gsave  2268 1155 0 385 C 149.448 909.686 t 0 r /Helvetica findfont 39.0414 sf 0 0 m (10) show NC gr  257 972 m -30 X s 257 999 m -30 X s 257 1018 m -30 X s 257 1032 m -30 X s 257 1044 m -30 X s 257 1054 m -30 X s 257 1063 m -30 X s 257 1071 m -30 X
 s 288 1078 m -61 X s
 gsave  2268 1155 0 385 C 191.684 1081.88 t 0 r /Helvetica findfont 26.0276 sf 0 0 m (3) show NC gr 
 gsave  2268 1155 0 385 C 149.448 1059.13 t 0 r /Helvetica findfont 39.0414 sf 0 0 m (10) show NC gr  257 1123 m -30 X s 257 1150 m -30 X s 257 1168 m -30 X s 257 1183 m -30 X s 257 1195 m -30 X s 257 1205 m -30 X s 257 1214 m -30 X s 257 1221 m -30
 X s 288 1228 m -61 X s
 gsave  2268 1155 0 385 C 191.684 1231.32 t 0 r /Helvetica findfont 26.0276 sf 0 0 m (4) show NC gr 
 gsave  2268 1155 0 385 C 149.448 1211.83 t 0 r /Helvetica findfont 39.0414 sf 0 0 m (10) show NC gr  257 1274 m -30 X s 257 1300 m -30 X s 257 1319 m -30 X s 257 1334 m -30 X s 257 1346 m -30 X s 257 1356 m -30 X s 257 1364 m -30 X s 257 1372 m -30
 X s 288 1379 m -61 X s
 gsave  2268 1155 0 385 C 191.684 1384.02 t 0 r /Helvetica findfont 26.0276 sf 0 0 m (5) show NC gr 
 gsave  2268 1155 0 385 C 149.448 1361.28 t 0 r /Helvetica findfont 39.0414 sf 0 0 m (10) show NC gr  257 1424 m -30 X s 0 0.6 0 c black 0 0.6 0 c 227 385 m 181 X 946 Y 36 X 24 Y 37 X -18 Y 36 X -30 Y 36 X -32 Y 37 X -30 Y 36 X -29 Y 36 X -28 Y 36 X
 -26 Y 37 X -31 Y 36 X -20 Y 36 X -23 Y 37 X -26 Y 36 X -19 Y 36 X -23 Y 36 X -20 Y 37 X -18 Y 36 X -17 Y 36 X -19 Y 37 X -20 Y 36 X -14 Y 36 X -25 Y 36 X -9 Y 37 X -23 Y 36 X -16 Y 36 X -21 Y 37 X -17 Y 36 X -8 Y 36 X -12 Y 36 X -20 Y 37 X -9 Y 36 X
 -17 Y 36 X -13 Y 37 X -32 Y 72 X -13 Y 36 X -20 Y 37 X -5 Y 36 X -9 Y 36 X -29 Y 37 X -11 Y 36 X 6 Y 36 X -4 Y 36 X -22 Y 37 X -37 Y 36 X -161 Y f 227 385 m 181 X 946 Y 36 X 24 Y 37 X -18 Y 36 X -30 Y 36 X -32 Y 37 X -30 Y 36 X -29 Y 36 X -28 Y 36 X
 -26 Y 37 X -31 Y 36 X -20 Y 36 X -23 Y 37 X -26 Y 36 X -19 Y 36 X -23 Y 36 X -20 Y 37 X -18 Y 36 X -17 Y 36 X -19 Y 37 X -20 Y 36 X -14 Y 36 X -25 Y 36 X -9 Y 37 X -23 Y 36 X -16 Y 36 X -21 Y 37 X -17 Y 36 X -8 Y 36 X -12 Y 36 X -20 Y 37 X -9 Y 36 X
 -17 Y 36 X -13 Y 37 X -32 Y 72 X -13 Y 36 X -20 Y 37 X -5 Y 36 X -9 Y 36 X -29 Y 37 X -11 Y 36 X 6 Y 36 X -4 Y 36 X -22 Y 37 X -37 Y 36 X s 0.4 0.8 1 c 0.999 0.999 0.999 c black 0.999 0.999 0.999 c 227 385 m 181 X 918 Y 36 X 24 Y 37 X -19 Y 36 X -31
 Y 36 X -31 Y 37 X -30 Y 36 X -29 Y 36 X -27 Y 36 X -27 Y 37 X -30 Y 36 X -20 Y 36 X -23 Y 37 X -25 Y 36 X -20 Y 36 X -22 Y 36 X -21 Y 37 X -21 Y 36 X -16 Y 36 X -18 Y 37 X -20 Y 36 X -13 Y 36 X -32 Y 36 X -1 Y 37 X -24 Y 36 X -16 Y 36 X -23 Y 37 X
 -15 Y 36 X -15 Y 36 X -3 Y 36 X -27 Y 37 X -5 Y 36 X -20 Y 36 X -10 Y 37 X -35 Y 36 X 9 Y 36 X -20 Y 36 X -17 Y 37 X -20 Y 36 X 6 Y 36 X -33 Y 37 X -13 Y 36 X 9 Y 36 X -61 Y 36 X 25 Y 37 X -74 Y 36 X -84 Y f 0.4 0.8 1 c 0.999 0.999 0.999 c 0.4 0.8 1
 c 227 385 m 181 X 918 Y 36 X 24 Y 37 X -19 Y 36 X -31 Y 36 X -31 Y 37 X -30 Y 36 X -29 Y 36 X -27 Y 36 X -27 Y 37 X -30 Y 36 X -20 Y 36 X -23 Y 37 X -25 Y 36 X -20 Y 36 X -22 Y 36 X -21 Y 37 X -21 Y 36 X -16 Y 36 X -18 Y 37 X -20 Y 36 X -13 Y 36 X
 -32 Y 36 X -1 Y 37 X -24 Y 36 X -16 Y 36 X -23 Y 37 X -15 Y 36 X -15 Y 36 X -3 Y 36 X -27 Y 37 X -5 Y 36 X -20 Y 36 X -10 Y 37 X -35 Y 36 X 9 Y 36 X -20 Y 36 X -17 Y 37 X -20 Y 36 X 6 Y 36 X -33 Y 37 X -13 Y 36 X 9 Y 36 X -61 Y 36 X 25 Y 37 X -74 Y
 36 X s 1 1 1 c black 0.4 0.8 1 c 227 385 m 181 X 918 Y 36 X 24 Y 37 X -19 Y 36 X -31 Y 36 X -31 Y 37 X -30 Y 36 X -29 Y 36 X -27 Y 36 X -27 Y 37 X -30 Y 36 X -20 Y 36 X -23 Y 37 X -25 Y 36 X -20 Y 36 X -22 Y 36 X -21 Y 37 X -21 Y 36 X -16 Y 36 X -18
 Y 37 X -20 Y 36 X -13 Y 36 X -32 Y 36 X -1 Y 37 X -24 Y 36 X -16 Y 36 X -23 Y 37 X -15 Y 36 X -15 Y 36 X -3 Y 36 X -27 Y 37 X -5 Y 36 X -20 Y 36 X -10 Y 37 X -35 Y 36 X 9 Y 36 X -20 Y 36 X -17 Y 37 X -20 Y 36 X 6 Y 36 X -33 Y 37 X -13 Y 36 X 9 Y 36
 X -61 Y 36 X 25 Y 37 X -74 Y 36 X s black 0.4 0.8 1 c 227 385 m 181 X 918 Y 36 X 24 Y 37 X -19 Y 36 X -31 Y 36 X -31 Y 37 X -30 Y 36 X -29 Y 36 X -27 Y 36 X -27 Y 37 X -30 Y 36 X -20 Y 36 X -23 Y 37 X -25 Y 36 X -20 Y 36 X -22 Y 36 X -21 Y 37 X -21
 Y 36 X -16 Y 36 X -18 Y 37 X -20 Y 36 X -13 Y 36 X -32 Y 36 X -1 Y 37 X -24 Y 36 X -16 Y 36 X -23 Y 37 X -15 Y 36 X -15 Y 36 X -3 Y 36 X -27 Y 37 X -5 Y 36 X -20 Y 36 X -10 Y 37 X -35 Y 36 X 9 Y 36 X -20 Y 36 X -17 Y 37 X -20 Y 36 X 6 Y 36 X -33 Y
 37 X -13 Y 36 X 9 Y 36 X -61 Y 36 X 25 Y 37 X -74 Y 36 X -84 Y f 227 385 m 181 X 918 Y 36 X 24 Y 37 X -19 Y 36 X -31 Y 36 X -31 Y 37 X -30 Y 36 X -29 Y 36 X -27 Y 36 X -27 Y 37 X -30 Y 36 X -20 Y 36 X -23 Y 37 X -25 Y 36 X -20 Y 36 X -22 Y 36 X -21
 Y 37 X -21 Y 36 X -16 Y 36 X -18 Y 37 X -20 Y 36 X -13 Y 36 X -32 Y 36 X -1 Y 37 X -24 Y 36 X -16 Y 36 X -23 Y 37 X -15 Y 36 X -15 Y 36 X -3 Y 36 X -27 Y 37 X -5 Y 36 X -20 Y 36 X -10 Y 37 X -35 Y 36 X 9 Y 36 X -20 Y 36 X -17 Y 37 X -20 Y 36 X 6 Y
 36 X -33 Y 37 X -13 Y 36 X 9 Y 36 X -61 Y 36 X 25 Y 37 X -74 Y 36 X s 1 0.8 0 c 0.999 0.999 0.999 c black 0.999 0.999 0.999 c 227 385 m 181 X 761 Y 36 X 11 Y 37 X -4 Y 36 X -16 Y 36 X -23 Y 37 X -25 Y 36 X -28 Y 36 X -31 Y 36 X -22 Y 37 X -30 Y 36 X
 -27 Y 36 X -26 Y 37 X -37 Y 36 X -16 Y 36 X -40 Y 36 X -27 Y 37 X -16 Y 36 X -17 Y 36 X -8 Y 37 X -39 Y 36 X -8 Y 36 X -72 Y 36 X -5 Y 37 X -49 Y 36 X 25 Y 36 X 12 Y 37 X -243 Y 36 X 198 Y 36 X 6 Y 36 X -204 Y 37 X 163 Y 36 X -7 Y 36 X -10 Y 37 X
 -146 Y 108 X 92 Y 37 X -92 Y 290 X f 1 0.8 0 c 0.999 0.999 0.999 c 1 0.8 0 c 227 385 m 181 X 761 Y 36 X 11 Y 37 X -4 Y 36 X -16 Y 36 X -23 Y 37 X -25 Y 36 X -28 Y 36 X -31 Y 36 X -22 Y 37 X -30 Y 36 X -27 Y 36 X -26 Y 37 X -37 Y 36 X -16 Y 36 X -40
 Y 36 X -27 Y 37 X -16 Y 36 X -17 Y 36 X -8 Y 37 X -39 Y 36 X -8 Y 36 X -72 Y 36 X -5 Y 37 X -49 Y 36 X 25 Y 36 X 12 Y 37 X -243 Y 36 X 198 Y 36 X 6 Y 36 X -204 Y 37 X 163 Y 36 X -7 Y 36 X -10 Y 37 X -146 Y 108 X 92 Y 37 X -92 Y 290 X s 1 1 1 c black
 1 0.8 0 c 227 385 m 181 X 761 Y 36 X 11 Y 37 X -4 Y 36 X -16 Y 36 X -23 Y 37 X -25 Y 36 X -28 Y 36 X -31 Y 36 X -22 Y 37 X -30 Y 36 X -27 Y 36 X -26 Y 37 X -37 Y 36 X -16 Y 36 X -40 Y 36 X -27 Y 37 X -16 Y 36 X -17 Y 36 X -8 Y 37 X -39 Y 36 X -8 Y
 36 X -72 Y 36 X -5 Y 37 X -49 Y 36 X 25 Y 36 X 12 Y 37 X -243 Y 36 X 198 Y 36 X 6 Y 36 X -204 Y 37 X 163 Y 36 X -7 Y 36 X -10 Y 37 X -146 Y 108 X 92 Y 37 X -92 Y 290 X s black 1 0.8 0 c 227 385 m 181 X 761 Y 36 X 11 Y 37 X -4 Y 36 X -16 Y 36 X -23 Y
 37 X -25 Y 36 X -28 Y 36 X -31 Y 36 X -22 Y 37 X -30 Y 36 X -27 Y 36 X -26 Y 37 X -37 Y 36 X -16 Y 36 X -40 Y 36 X -27 Y 37 X -16 Y 36 X -17 Y 36 X -8 Y 37 X -39 Y 36 X -8 Y 36 X -72 Y 36 X -5 Y 37 X -49 Y 36 X 25 Y 36 X 12 Y 37 X -243 Y 36 X 198 Y
 36 X 6 Y 36 X -204 Y 37 X 163 Y 36 X -7 Y 36 X -10 Y 37 X -146 Y 108 X 92 Y 37 X -92 Y 290 X f 227 385 m 181 X 761 Y 36 X 11 Y 37 X -4 Y 36 X -16 Y 36 X -23 Y 37 X -25 Y 36 X -28 Y 36 X -31 Y 36 X -22 Y 37 X -30 Y 36 X -27 Y 36 X -26 Y 37 X -37 Y 36
 X -16 Y 36 X -40 Y 36 X -27 Y 37 X -16 Y 36 X -17 Y 36 X -8 Y 37 X -39 Y 36 X -8 Y 36 X -72 Y 36 X -5 Y 37 X -49 Y 36 X 25 Y 36 X 12 Y 37 X -243 Y 36 X 198 Y 36 X 6 Y 36 X -204 Y 37 X 163 Y 36 X -7 Y 36 X -10 Y 37 X -146 Y 108 X 92 Y 37 X -92 Y 290
 X s 1 0.6 0 c 0.999 0.999 0.999 c black 0.999 0.999 0.999 c 227 385 m 181 X 568 Y 36 X 7 Y 37 X -4 Y 36 X -12 Y 36 X -24 Y 37 X -23 Y 36 X -24 Y 36 X -25 Y 36 X -15 Y 37 X -36 Y 36 X -6 Y 36 X -32 Y 37 X -44 Y 36 X 33 Y 36 X -36 Y 36 X -79 Y 37 X 24
 Y 36 X -8 Y 36 X 1 Y 37 X -90 Y 36 X 66 Y 36 X -104 Y 36 X 77 Y 37 X -80 Y 36 X 21 Y 36 X 35 Y 37 X -190 Y 36 X 108 Y 36 X 40 Y 36 X -148 Y 73 X 156 Y 36 X -10 Y 37 X -146 Y 108 X 92 Y 37 X -92 Y 290 X f 1 0.6 0 c 0.999 0.999 0.999 c 1 0.6 0 c 227
 385 m 181 X 568 Y 36 X 7 Y 37 X -4 Y 36 X -12 Y 36 X -24 Y 37 X -23 Y 36 X -24 Y 36 X -25 Y 36 X -15 Y 37 X -36 Y 36 X -6 Y 36 X -32 Y 37 X -44 Y 36 X 33 Y 36 X -36 Y 36 X -79 Y 37 X 24 Y 36 X -8 Y 36 X 1 Y 37 X -90 Y 36 X 66 Y 36 X -104 Y 36 X 77 Y
 37 X -80 Y 36 X 21 Y 36 X 35 Y 37 X -190 Y 36 X 108 Y 36 X 40 Y 36 X -148 Y 73 X 156 Y 36 X -10 Y 37 X -146 Y 108 X 92 Y 37 X -92 Y 290 X s 1 1 1 c black 1 0.6 0 c 227 385 m 181 X 568 Y 36 X 7 Y 37 X -4 Y 36 X -12 Y 36 X -24 Y 37 X -23 Y 36 X -24 Y
 36 X -25 Y 36 X -15 Y 37 X -36 Y 36 X -6 Y 36 X -32 Y 37 X -44 Y 36 X 33 Y 36 X -36 Y 36 X -79 Y 37 X 24 Y 36 X -8 Y 36 X 1 Y 37 X -90 Y 36 X 66 Y 36 X -104 Y 36 X 77 Y 37 X -80 Y 36 X 21 Y 36 X 35 Y 37 X -190 Y 36 X 108 Y 36 X 40 Y 36 X -148 Y 73 X
 156 Y 36 X -10 Y 37 X -146 Y 108 X 92 Y 37 X -92 Y 290 X s black 1 0.6 0 c 227 385 m 181 X 568 Y 36 X 7 Y 37 X -4 Y 36 X -12 Y 36 X -24 Y 37 X -23 Y 36 X -24 Y 36 X -25 Y 36 X -15 Y 37 X -36 Y 36 X -6 Y 36 X -32 Y 37 X -44 Y 36 X 33 Y 36 X -36 Y 36
 X -79 Y 37 X 24 Y 36 X -8 Y 36 X 1 Y 37 X -90 Y 36 X 66 Y 36 X -104 Y 36 X 77 Y 37 X -80 Y 36 X 21 Y 36 X 35 Y 37 X -190 Y 36 X 108 Y 36 X 40 Y 36 X -148 Y 73 X 156 Y 36 X -10 Y 37 X -146 Y 108 X 92 Y 37 X -92 Y 290 X f 227 385 m 181 X 568 Y 36 X 7
 Y 37 X -4 Y 36 X -12 Y 36 X -24 Y 37 X -23 Y 36 X -24 Y 36 X -25 Y 36 X -15 Y 37 X -36 Y 36 X -6 Y 36 X -32 Y 37 X -44 Y 36 X 33 Y 36 X -36 Y 36 X -79 Y 37 X 24 Y 36 X -8 Y 36 X 1 Y 37 X -90 Y 36 X 66 Y 36 X -104 Y 36 X 77 Y 37 X -80 Y 36 X 21 Y 36
 X 35 Y 37 X -190 Y 36 X 108 Y 36 X 40 Y 36 X -148 Y 73 X 156 Y 36 X -10 Y 37 X -146 Y 108 X 92 Y 37 X -92 Y 290 X s 0.999 0.999 0.999 c black 0.999 0.999 0.999 c 227 385 m 181 X 171 Y 36 X 29 Y 37 X -2 Y 36 X -17 Y 36 X -22 Y 37 X -33 Y 36 X -7 Y 36
 X -31 Y 36 X -51 Y 37 X -16 Y 36 X -21 Y 1270 X f 1 0.6 0 c 0.999 0.999 0.999 c 1 0.6 0 c 227 385 m 181 X 171 Y 36 X 29 Y 37 X -2 Y 36 X -17 Y 36 X -22 Y 37 X -33 Y 36 X -7 Y 36 X -31 Y 36 X -51 Y 37 X -16 Y 36 X -21 Y 1270 X s 1 1 1 c black 1 0.6 0
 c 227 385 m 181 X 171 Y 36 X 29 Y 37 X -2 Y 36 X -17 Y 36 X -22 Y 37 X -33 Y 36 X -7 Y 36 X -31 Y 36 X -51 Y 37 X -16 Y 36 X -21 Y 1270 X s black 1 0.6 0 c 227 385 m 181 X 171 Y 36 X 29 Y 37 X -2 Y 36 X -17 Y 36 X -22 Y 37 X -33 Y 36 X -7 Y 36 X -31
 Y 36 X -51 Y 37 X -16 Y 36 X -21 Y 1270 X f 227 385 m 181 X 171 Y 36 X 29 Y 37 X -2 Y 36 X -17 Y 36 X -22 Y 37 X -33 Y 36 X -7 Y 36 X -31 Y 36 X -51 Y 37 X -16 Y 36 X -21 Y 1270 X s black 227 385 m 1814 X s 227 413 m -28 Y s 272 399 m -14 Y s 317
 399 m -14 Y s 363 399 m -14 Y s 408 413 m -28 Y s 454 399 m -14 Y s 499 399 m -14 Y s 544 399 m -14 Y s 590 413 m -28 Y s 635 399 m -14 Y s 680 399 m -14 Y s 726 399 m -14 Y s 771 413 m -28 Y s 816 399 m -14 Y s 862 399 m -14 Y s 907 399 m -14 Y s
 952 413 m -28 Y s 998 399 m -14 Y s 1043 399 m -14 Y s 1089 399 m -14 Y s 1134 413 m -28 Y s 1179 399 m -14 Y s 1225 399 m -14 Y s 1270 399 m -14 Y s 1315 413 m -28 Y s 1361 399 m -14 Y s 1406 399 m -14 Y s 1451 399 m -14 Y s 1497 413 m -28 Y s 1542
 399 m -14 Y s 1587 399 m -14 Y s 1633 399 m -14 Y s 1678 413 m -28 Y s 1723 399 m -14 Y s 1769 399 m -14 Y s 1814 399 m -14 Y s 1860 413 m -28 Y s 1905 399 m -14 Y s 1950 399 m -14 Y s 1996 399 m -14 Y s 2041 413 m -28 Y s 227 385 m 1039 Y s 257 397
 m -30 X s 257 415 m -30 X s 257 430 m -30 X s 257 442 m -30 X s 257 452 m -30 X s 257 461 m -30 X s 257 468 m -30 X s 288 475 m -61 X s 257 521 m -30 X s 257 547 m -30 X s 257 566 m -30 X s 257 581 m -30 X s 257 593 m -30 X s 257 603 m -30 X s 257
 611 m -30 X s 257 619 m -30 X s 288 626 m -61 X s 257 671 m -30 X s 257 698 m -30 X s 257 717 m -30 X s 257 731 m -30 X s 257 743 m -30 X s 257 753 m -30 X s 257 762 m -30 X s 257 770 m -30 X s 288 777 m -61 X s 257 822 m -30 X s 257 848 m -30 X s
 257 867 m -30 X s 257 882 m -30 X s 257 894 m -30 X s 257 904 m -30 X s 257 913 m -30 X s 257 920 m -30 X s 288 927 m -61 X s 257 972 m -30 X s 257 999 m -30 X s 257 1018 m -30 X s 257 1032 m -30 X s 257 1044 m -30 X s 257 1054 m -30 X s 257 1063 m
 -30 X s 257 1071 m -30 X s 288 1078 m -61 X s 257 1123 m -30 X s 257 1150 m -30 X s 257 1168 m -30 X s 257 1183 m -30 X s 257 1195 m -30 X s 257 1205 m -30 X s 257 1214 m -30 X s 257 1221 m -30 X s 288 1228 m -61 X s 257 1274 m -30 X s 257 1300 m
 -30 X s 257 1319 m -30 X s 257 1334 m -30 X s 257 1346 m -30 X s 257 1356 m -30 X s 257 1364 m -30 X s 257 1372 m -30 X s 288 1379 m -61 X s 257 1424 m -30 X s 0 0 0.6 c 1 1 1 c black 0 0 0.6 c 408 1341 m 5 X s 439 1341 m 5 X s black /w 26 def /w2
 {w 2 div} def /w3 {w 3 div} def 426 1341 m20 0 0 0.6 c 444 1361 m 6 X s 476 1361 m 5 X s black 463 1361 m20 0 0 0.6 c 481 1341 m 5 X s 512 1341 m 5 X s black 499 1341 m20 0 0 0.6 c 517 1310 m 5 X s 548 1310 m 5 X s black 535 1310 m20 0 0 0.6 c 553
 1280 m 5 X s 584 1280 m 6 X s black 571 1280 m20 0 0 0.6 c 590 1247 m 5 X s 621 1247 m 5 X s black 608 1247 m20 0 0 0.6 c 626 1218 m 5 X s 657 1218 m 5 X s black 644 1218 m20 0 0 0.6 c 662 1190 m 5 X s 693 1190 m 5 X s black 680 1190 m20 0 0 0.6 c
 698 1163 m 6 X s 730 1163 m 5 X s black 717 1163 m20 0 0 0.6 c 735 1138 m 5 X s 766 1138 m 5 X s black 753 1138 m20 0 0 0.6 c 771 1110 m 5 X s 802 1110 m 5 X s black 789 1110 m20 0 0 0.6 c 807 1089 m 5 X s 838 1089 m 6 X s black 825 1089 m20 0 0 0.6
 c 844 1065 m 5 X s 875 1065 m 5 X s black 862 1065 m20 0 0 0.6 c 880 1043 m 5 X s 911 1043 m 5 X s black 898 1043 m20 0 0 0.6 c 916 1022 m 5 X s 947 1022 m 5 X s black 934 1022 m20 0 0 0.6 c 952 999 m 6 X s 984 999 m 5 X s black 971 999 m20 0 0 0.6
 c 989 976 m 5 X s 1020 976 m 5 X s black 1007 976 m20 0 0 0.6 c 1025 954 m 5 X s 1056 954 m 5 X s black 1043 954 m20 0 0 0.6 c 1061 943 m 5 X s 1092 943 m 6 X s black 1079 943 m20 0 0 0.6 c 1098 924 m 5 X s 1129 924 m 5 X s black 1116 924 m20 0 0
 0.6 c 1134 903 m 5 X s 1165 903 m 5 X s black 1152 903 m20 0 0 0.6 c 1170 884 m 5 X s 1201 884 m 5 X s black 1188 884 m20 0 0 0.6 c 1206 876 m 6 X s 1238 876 m 5 X s black 1225 876 m20 0 0 0.6 c 1243 858 m 5 X s 1274 858 m 5 X s black 1261 858 m20 0
 0 0.6 c 1297 825 m 1 Y s 1279 839 m 5 X s 1310 839 m 5 X s black 1297 839 m20 0 0 0.6 c 1333 812 m 3 Y s 1315 828 m 5 X s 1346 828 m 6 X s black 1333 828 m20 0 0 0.6 c 1370 778 m 8 Y s 1370 812 m 2 Y s 1352 799 m 5 X s 1383 799 m 5 X s black 1370
 799 m20 0 0 0.6 c 1406 766 m 9 Y s 1406 801 m 4 Y s 1388 788 m 5 X s 1419 788 m 5 X s black 1406 788 m20 0 0 0.6 c 1442 733 m 16 Y s 1442 775 m 7 Y s 1424 762 m 5 X s 1455 762 m 5 X s black 1442 762 m20 0 0 0.6 c 1479 733 m 16 Y s 1479 775 m 7 Y s
 1460 762 m 6 X s 1492 762 m 5 X s black 1479 762 m20 0 0 0.6 c 1515 752 m 12 Y s 1515 790 m 5 Y s 1497 777 m 5 X s 1528 777 m 5 X s black 1515 777 m20 0 0 0.6 c 1551 743 m 14 Y s 1551 783 m 5 Y s 1533 770 m 5 X s 1564 770 m 5 X s black 1551 770 m20
 0 0 0.6 c 1587 641 m 44 Y s 1587 711 m 17 Y s 1569 698 m 5 X s 1600 698 m 6 X s black 1587 698 m20 0 0 0.6 c 1624 641 m 44 Y s 1624 711 m 17 Y s 1606 698 m 5 X s 1637 698 m 5 X s black 1624 698 m20 0 0 0.6 c 1660 591 m 67 Y s 1660 684 m 22 Y s 1642
 671 m 5 X s 1673 671 m 5 X s black 1660 671 m20 0 0 0.6 c 1696 385 m 228 Y s 1696 639 m 32 Y s 1678 626 m 5 X s 1709 626 m 5 X s black 1696 626 m20 0 0 0.6 c 1733 385 m 228 Y s 1733 639 m 32 Y s 1714 626 m 6 X s 1746 626 m 5 X s black 1733 626 m20 0
 0 0.6 c 1769 591 m 67 Y s 1769 684 m 22 Y s 1751 671 m 5 X s 1782 671 m 5 X s black 1769 671 m20 0 0 0.6 c 1805 385 m 228 Y s 1805 639 m 32 Y s 1787 626 m 5 X s 1818 626 m 5 X s black 1805 626 m20 0 0 0.6 c 1841 385 m 228 Y s 1841 639 m 32 Y s 1823
 626 m 5 X s 1854 626 m 6 X s black 1841 626 m20 0 0 0.6 c 1914 385 m 228 Y s 1914 639 m 32 Y s 1896 626 m 5 X s 1927 626 m 5 X s black 1914 626 m20 1 0 0 c 6 lw 1 1 1 c black 1 0 0 c 227 385 m 181 X 361 Y 36 X 92 Y 37 X 32 Y 36 X 6 Y 36 X 11 Y 37 X
 54 Y 36 X 42 Y 36 X 10 Y 36 X 12 Y 37 X 22 Y 36 X 20 Y 36 X 19 Y 37 X 9 Y 36 X 13 Y 36 X 23 Y 36 X 7 Y 37 X 18 Y 36 X 16 Y 36 X 19 Y 37 X 6 Y 36 X -25 Y 36 X -51 Y 36 X -51 Y 37 X -48 Y 36 X -52 Y 36 X -17 Y 37 X -44 Y 36 X -48 Y 36 X -9 Y 36 X -45
 Y 37 X -40 Y 36 X -3 Y 36 X -359 Y 37 X 288 Y 36 X 46 Y 36 X -334 Y 73 X 287 Y 72 X -287 Y 218 X s black 3 lw 1 1 1 c 680 346 1361 1078 bf black 1361 1078 m 680 X s 2041 1078 m 346 Y s 2041 1424 m -680 X s 1361 1424 m -346 Y s
 gsave  2268 1155 0 385 C 1530.22 1384.02 t 0 r /Helvetica findfont 45.5484 sf 0 0 m (stopt) show NC gr  1 0.6 0 c 1386 1375 m 119 X 41 Y -119 X f 1386 1396 m 119 X s black /w 2 def /w2 {w 2 div} def /w3 {w 3 div} def 1446 1396 m20
 gsave  2268 1155 0 385 C 1530.22 1325.54 t 0 r /Helvetica findfont 45.5484 sf 0 0 m (stopWt) show NC gr  1 0.6 0 c 1386 1318 m 119 X 40 Y -119 X f 1386 1338 m 119 X s black 1446 1338 m20
 gsave  2268 1155 0 385 C 1530.22 1270.31 t 0 r /Helvetica findfont 45.5484 sf 0 0 m (ttbar) show NC gr  1 0.8 0 c 1386 1260 m 119 X 40 Y -119 X f 1386 1280 m 119 X s black 1446 1280 m20
 gsave  2268 1155 0 385 C 1530.22 1211.83 t 0 r /Helvetica findfont 45.5484 sf 0 0 m (Z) show NC gr  0.4 0.8 1 c 1386 1202 m 119 X 41 Y -119 X f 1386 1222 m 119 X s black 1446 1222 m20
 gsave  2268 1155 0 385 C 1530.22 1153.35 t 0 r /Helvetica findfont 45.5484 sf 0 0 m (W) show NC gr  0 0.6 0 c 1386 1144 m 119 X 41 Y -119 X f 1386 1165 m 119 X s black 1446 1165 m20
 gsave  2268 1155 0 385 C 1530.22 1094.87 t 0 r /Helvetica findfont 45.5484 sf 0 0 m (HVTWZvvqq2000) show NC gr  1 1 1 c 1386 1087 m 119 X 40 Y -119 X f 1 0 0 c 6 lw 1386 1107 m 119 X s black 3 lw 1446 1107 m20 6 lw 3 lw 1 1 1 c 2268 385 0 0 bf black
 1 1 1 c 1814 270 227 115 bf black 1814 270 227 115 bl 1 0.6 0 c 1 0.8 0 c black 1 0.8 0 c 36 4 408 248 bf black 426 250 m20 1 0.8 0 c 37 4 444 248 bf black 463 250 m20 1 0.8 0 c 36 6 481 247 bf black 499 250 m20 1 0.8 0 c 36 4 517 248 bf black 535
 250 m20 1 0.8 0 c 37 6 553 247 bf black 571 250 m20 1 0.8 0 c 36 6 590 247 bf black 608 250 m20 1 0.8 0 c 36 6 626 247 bf black 644 250 m20 1 0.8 0 c 36 8 662 246 bf black 680 250 m20 1 0.8 0 c 37 7 698 247 bf black 717 250 m20 1 0.8 0 c 36 42 735
 229 bf black 753 250 m20 1 0.8 0 c 36 8 771 246 bf black 789 250 m20 1 0.8 0 c 37 10 807 245 bf black 825 250 m20 1 0.8 0 c 36 33 844 234 bf black 862 250 m20 1 0.8 0 c 36 12 880 244 bf black 898 250 m20 1 0.8 0 c 36 16 916 242 bf black 934 250 m20
 1 0.8 0 c 37 14 952 243 bf black 971 250 m20 1 0.8 0 c 36 16 989 242 bf black 1007 250 m20 1 0.8 0 c 36 21 1025 240 bf black 1043 250 m20 1 0.8 0 c 37 21 1061 240 bf black 1079 250 m20 1 0.8 0 c 36 18 1098 241 bf black 1116 250 m20 1 0.8 0 c 36 21
 1134 240 bf black 1152 250 m20 1 0.8 0 c 36 36 1170 232 bf black 1188 250 m20 1 0.8 0 c 37 67 1206 217 bf black 1225 250 m20 1 0.8 0 c 36 27 1243 237 bf black 1261 250 m20 1 0.8 0 c 36 27 1279 237 bf black 1297 250 m20 1 0.8 0 c 37 50 1315 225 bf
 black 1333 250 m20 1 0.8 0 c 36 53 1352 224 bf black 1370 250 m20 1 0.8 0 c 36 53 1388 224 bf black 1406 250 m20 1 0.8 0 c 36 71 1424 215 bf black 1442 250 m20 1 0.8 0 c 37 52 1460 224 bf black 1479 250 m20 1 0.8 0 c 36 51 1497 225 bf black 1515 250
 m20 1 0.8 0 c 36 50 1533 225 bf black 1551 250 m20 1 0.8 0 c 37 54 1569 223 bf black 1587 250 m20 1 0.8 0 c 36 89 1606 206 bf black 1624 250 m20 1 0.8 0 c 36 62 1642 219 bf black 1660 250 m20 1 0.8 0 c 36 90 1678 205 bf black 1696 250 m20 1 0.8 0 c
 37 87 1714 207 bf black 1733 250 m20 1 0.8 0 c 36 110 1751 195 bf black 1769 250 m20 1 0.8 0 c 36 92 1787 204 bf black 1805 250 m20 1 0.8 0 c 37 122 1823 189 bf black 1841 250 m20 1 0.8 0 c 36 112 1860 194 bf black 1878 250 m20 1 0.8 0 c 36 136 1896
 182 bf black 1914 250 m20 1 0.8 0 c 36 270 1932 115 bf black 1950 250 m20 1 0.8 0 c 37 108 1968 196 bf black 1987 250 m20 1 0.8 0 c 36 194 2005 153 bf black 2023 250 m20 227 115 m 1814 X s
 gsave  2268 385 0 0 C 1871.35 35.7377 t 0 r /Helvetica findfont 42.4144 sf 0 0 m (\(J\) [GeV]) show NC gr 
 gsave  2268 385 0 0 C 1851.86 12.9955 t 0 r /Helvetica findfont 29.3638 sf 0 0 m (T) show NC gr 
 gsave  2268 385 0 0 C 1829.12 35.7377 t 0 r /Helvetica findfont 42.4144 sf 0 0 m (p) show NC gr  227 125 m -10 Y s 272 120 m -5 Y s 317 120 m -5 Y s 363 120 m -5 Y s 408 125 m -10 Y s 454 120 m -5 Y s 499 120 m -5 Y s 544 120 m -5 Y s 590 125 m -10
 Y s 635 120 m -5 Y s 680 120 m -5 Y s 726 120 m -5 Y s 771 125 m -10 Y s 816 120 m -5 Y s 862 120 m -5 Y s 907 120 m -5 Y s 952 125 m -10 Y s 998 120 m -5 Y s 1043 120 m -5 Y s 1089 120 m -5 Y s 1134 125 m -10 Y s 1179 120 m -5 Y s 1225 120 m -5 Y s
 1270 120 m -5 Y s 1315 125 m -10 Y s 1361 120 m -5 Y s 1406 120 m -5 Y s 1451 120 m -5 Y s 1497 125 m -10 Y s 1542 120 m -5 Y s 1587 120 m -5 Y s 1633 120 m -5 Y s 1678 125 m -10 Y s 1723 120 m -5 Y s 1769 120 m -5 Y s 1814 120 m -5 Y s 1860 125 m
 -10 Y s 1905 120 m -5 Y s 1950 120 m -5 Y s 1996 120 m -5 Y s 2041 125 m -10 Y s
 gsave  2268 385 0 0 C 211.177 77.9731 t 0 r /Helvetica findfont 42.4144 sf 0 0 m (0) show NC gr 
 gsave  2268 385 0 0 C 370.372 77.9731 t 0 r /Helvetica findfont 42.4144 sf 0 0 m (200) show NC gr 
 gsave  2268 385 0 0 C 552.309 77.9731 t 0 r /Helvetica findfont 42.4144 sf 0 0 m (400) show NC gr 
 gsave  2268 385 0 0 C 734.246 77.9731 t 0 r /Helvetica findfont 42.4144 sf 0 0 m (600) show NC gr 
 gsave  2268 385 0 0 C 916.183 77.9731 t 0 r /Helvetica findfont 42.4144 sf 0 0 m (800) show NC gr 
 gsave  2268 385 0 0 C 1085.13 77.9731 t 0 r /Helvetica findfont 42.4144 sf 0 0 m (1000) show NC gr 
 gsave  2268 385 0 0 C 1263.81 77.9731 t 0 r /Helvetica findfont 42.4144 sf 0 0 m (1200) show NC gr 
 gsave  2268 385 0 0 C 1445.75 77.9731 t 0 r /Helvetica findfont 42.4144 sf 0 0 m (1400) show NC gr 
 gsave  2268 385 0 0 C 1627.69 77.9731 t 0 r /Helvetica findfont 42.4144 sf 0 0 m (1600) show NC gr 
 gsave  2268 385 0 0 C 1809.62 77.9731 t 0 r /Helvetica findfont 42.4144 sf 0 0 m (1800) show NC gr 
 gsave  2268 385 0 0 C 1991.56 77.9731 t 0 r /Helvetica findfont 42.4144 sf 0 0 m (2000) show NC gr  227 115 m 270 Y s 274 115 m -47 X s 251 121 m -24 X s 251 126 m -24 X s 251 132 m -24 X s 251 137 m -24 X s 274 142 m -47 X s 251 148 m -24 X s 251
 153 m -24 X s 251 159 m -24 X s 251 164 m -24 X s 274 169 m -47 X s 251 175 m -24 X s 251 180 m -24 X s 251 186 m -24 X s 251 191 m -24 X s 274 196 m -47 X s 251 202 m -24 X s 251 207 m -24 X s 251 213 m -24 X s 251 218 m -24 X s 274 223 m -47 X s
 251 229 m -24 X s 251 234 m -24 X s 251 239 m -24 X s 251 245 m -24 X s 274 250 m -47 X s 251 256 m -24 X s 251 261 m -24 X s 251 266 m -24 X s 251 272 m -24 X s 274 277 m -47 X s 251 283 m -24 X s 251 288 m -24 X s 251 293 m -24 X s 251 299 m -24 X
 s 274 304 m -47 X s 251 310 m -24 X s 251 315 m -24 X s 251 320 m -24 X s 251 326 m -24 X s 274 331 m -47 X s 251 336 m -24 X s 251 342 m -24 X s 251 347 m -24 X s 251 353 m -24 X s 274 358 m -47 X s 251 363 m -24 X s 251 369 m -24 X s 251 374 m -24
 X s 251 380 m -24 X s 274 385 m -47 X s
 gsave  2268 385 0 0 C 155.946 100.715 t 0 r /Helvetica findfont 42.4144 sf 0 0 m (0.5) show NC gr 
 gsave  2268 385 0 0 C 155.946 126.706 t 0 r /Helvetica findfont 42.4144 sf 0 0 m (0.6) show NC gr 
 gsave  2268 385 0 0 C 155.946 155.946 t 0 r /Helvetica findfont 42.4144 sf 0 0 m (0.7) show NC gr 
 gsave  2268 385 0 0 C 155.946 181.937 t 0 r /Helvetica findfont 42.4144 sf 0 0 m (0.8) show NC gr 
 gsave  2268 385 0 0 C 155.946 207.928 t 0 r /Helvetica findfont 42.4144 sf 0 0 m (0.9) show NC gr 
 gsave  2268 385 0 0 C 198.182 233.919 t 0 r /Helvetica findfont 42.4144 sf 0 0 m (1) show NC gr 
 gsave  2268 385 0 0 C 162.444 259.91 t 0 r /Helvetica findfont 42.4144 sf 0 0 m (1.1) show NC gr 
 gsave  2268 385 0 0 C 155.946 285.901 t 0 r /Helvetica findfont 42.4144 sf 0 0 m (1.2) show NC gr 
 gsave  2268 385 0 0 C 155.946 315.141 t 0 r /Helvetica findfont 42.4144 sf 0 0 m (1.3) show NC gr 
 gsave  2268 385 0 0 C 155.946 341.132 t 0 r /Helvetica findfont 42.4144 sf 0 0 m (1.4) show NC gr 
 gsave  2268 385 0 0 C 155.946 370.372 t 0 r /Helvetica findfont 42.4144 sf 0 0 m (1.5) show NC gr  0 0 0.6 c 1 1 1 c black 0 0 0.6 c 408 293 m 5 X s 439 293 m 5 X s black /w 26 def /w2 {w 2 div} def /w3 {w 3 div} def 426 293 m20 0 0 0.6 c 444 276 m
 6 X s 476 276 m 5 X s black 463 276 m20 0 0 0.6 c 481 268 m 5 X s 512 268 m 5 X s black 499 268 m20 0 0 0.6 c 517 264 m 5 X s 548 264 m 5 X s black 535 264 m20 0 0 0.6 c 553 271 m 5 X s 584 271 m 6 X s black 571 271 m20 0 0 0.6 c 590 260 m 5 X s 621
 260 m 5 X s black 608 260 m20 0 0 0.6 c 626 260 m 5 X s 657 260 m 5 X s black 644 260 m20 0 0 0.6 c 662 256 m 5 X s 693 256 m 5 X s black 680 256 m20 0 0 0.6 c 698 257 m 6 X s 730 257 m 5 X s black 717 257 m20 0 0 0.6 c 753 261 m 4 Y s 753 291 m 5 Y
 s 735 278 m 5 X s 766 278 m 5 X s black 753 278 m20 0 0 0.6 c 771 246 m 5 X s 802 246 m 5 X s black 789 246 m20 0 0 0.6 c 807 252 m 5 X s 838 252 m 6 X s black 825 252 m20 0 0 0.6 c 862 247 m 2 Y s 862 275 m 3 Y s 844 262 m 5 X s 875 262 m 5 X s
 black 862 262 m20 0 0 0.6 c 880 250 m 5 X s 911 250 m 5 X s black 898 250 m20 0 0 0.6 c 934 242 m 1 Y s 934 269 m 2 Y s 916 256 m 5 X s 947 256 m 5 X s black 934 256 m20 0 0 0.6 c 971 229 m 3 Y s 971 258 m 3 Y s 952 245 m 6 X s 984 245 m 5 X s black
 971 245 m20 0 0 0.6 c 1007 209 m 4 Y s 1007 239 m 5 Y s 989 226 m 5 X s 1020 226 m 5 X s black 1007 226 m20 0 0 0.6 c 1043 191 m 6 Y s 1043 223 m 7 Y s 1025 210 m 5 X s 1056 210 m 5 X s black 1043 210 m20 0 0 0.6 c 1079 215 m 11 Y s 1079 252 m 11 Y
 s 1061 239 m 5 X s 1092 239 m 6 X s black 1079 239 m20 0 0 0.6 c 1116 213 m 14 Y s 1116 253 m 14 Y s 1098 240 m 5 X s 1129 240 m 5 X s black 1116 240 m20 0 0 0.6 c 1152 187 m 16 Y s 1152 229 m 16 Y s 1134 216 m 5 X s 1165 216 m 5 X s black 1152 216
 m20 0 0 0.6 c 1188 201 m 25 Y s 1188 252 m 25 Y s 1170 239 m 5 X s 1201 239 m 5 X s black 1188 239 m20 0 0 0.6 c 1225 200 m 32 Y s 1225 258 m 33 Y s 1206 245 m 6 X s 1238 245 m 5 X s black 1225 245 m20 0 0 0.6 c 1261 215 m 36 Y s 1261 277 m 36 Y s
 1243 264 m 5 X s 1274 264 m 5 X s black 1261 264 m20 0 0 0.6 c 1297 198 m 41 Y s 1297 265 m 41 Y s 1279 252 m 5 X s 1310 252 m 5 X s black 1297 252 m20 0 0 0.6 c 1333 226 m 58 Y s 1333 310 m 57 Y s 1315 297 m 5 X s 1346 297 m 6 X s black 1333 297
 m20 0 0 0.6 c 1370 169 m 59 Y s 1370 254 m 58 Y s 1352 241 m 5 X s 1383 241 m 5 X s black 1370 241 m20 0 0 0.6 c 1406 158 m 62 Y s 1406 246 m 62 Y s 1388 233 m 5 X s 1419 233 m 5 X s black 1406 233 m20 0 0 0.6 c 1442 115 m 56 Y s 1442 197 m 61 Y s
 1424 184 m 5 X s 1455 184 m 5 X s black 1442 184 m20 0 0 0.6 c 1479 155 m 85 Y s 1479 266 m 85 Y s 1460 253 m 6 X s 1492 253 m 5 X s black 1479 253 m20 0 0 0.6 c 1515 248 m 115 Y s 1497 376 m 5 X s 1528 376 m 5 X s black 1515 376 m20 0 0 0.6 c 1587
 115 m 39 Y s 1587 180 m 95 Y s 1569 167 m 5 X s 1600 167 m 6 X s black 1587 167 m20 0 0 0.6 c 1624 115 m 154 Y s 1624 295 m 90 Y s 1606 282 m 5 X s 1637 282 m 5 X s black 1624 282 m20 0 0 0.6 c 1660 115 m 55 Y s 1660 196 m 131 Y s 1642 183 m 5 X s
 1673 183 m 5 X s black 1660 183 m20 0 0 0.6 c 1733 115 m 19 Y s 1733 160 m 155 Y s 1714 147 m 6 X s 1746 147 m 5 X s black 1733 147 m20 0 0 0.6 c 1769 115 m 215 Y s 1769 356 m 29 Y s 1751 343 m 5 X s 1782 343 m 5 X s black 1769 343 m20 0 0 0.6 c
 1805 115 m 60 Y s 1805 201 m 184 Y s 1787 188 m 5 X s 1818 188 m 5 X s black 1805 188 m20 0 0 0.6 c 1841 115 m 176 Y s 1841 317 m 68 Y s 1823 304 m 5 X s 1854 304 m 6 X s black 1841 304 m20 0 0 0.6 c 1914 115 m 203 Y s 1914 344 m 41 Y s 1896 331 m 5
 X s 1927 331 m 5 X s black 1914 331 m20 1 0 0 c[ 12 12] 0 sd 227 250 m 1814 X s
 gr  gr showpage
end
%%EOF
