%!PS-Adobe-2.0 EPSF-2.0
%%BoundingBox:  0 0 567 385
%%Title: : c1_n2
%%Creator: ROOT Version 5.34/36
%%CreationDate: Wed Feb  1 09:01:59 2017
%%EndComments
%%BeginProlog
80 dict begin
/s {stroke} def /l {lineto} def /m {moveto} def /t {translate} def
/r {rotate} def /rl {roll}  def /R {repeat} def
/d {rlineto} def /rm {rmoveto} def /gr {grestore} def /f {eofill} def
/c {setrgbcolor} def /black {0 setgray} def /sd {setdash} def
/cl {closepath} def /sf {scalefont setfont} def /lw {setlinewidth} def
/box {m dup 0 exch d exch 0 d 0 exch neg d cl} def
/NC{systemdict begin initclip end}def/C{NC box clip newpath}def
/bl {box s} def /bf {gsave box gsave f grestore 1 lw [] 0 sd s grestore} def /Y { 0 exch d} def /X { 0 d} def 
/K {{pop pop 0 moveto} exch kshow} bind def
/ita {/ang 15 def gsave [1 0 ang dup sin exch cos div 1 0 0] concat} def 
/mp {newpath /y exch def /x exch def} def
/side {[w .77 mul w .23 mul] .385 w mul sd w 0 l currentpoint t -144 r} def
/mr {mp x y w2 0 360 arc} def /m24 {mr s} def /m20 {mr f} def
/mb {mp x y w2 add m w2 neg 0 d 0 w neg d w 0 d 0 w d cl} def
/mt {mp x y w2 add m w2 neg w neg d w 0 d cl} def
/m21 {mb f} def /m25 {mb s} def /m22 {mt f} def /m26{mt s} def
/m23 {mp x y w2 sub m w2 w d w neg 0 d cl f} def
/m27 {mp x y w2 add m w3 neg w2 neg d w3 w2 neg d w3 w2 d cl s} def
/m28 {mp x w2 sub y w2 sub w3 add m w3 0 d  0 w3 neg d w3 0 d 0 w3 d w3 0 d  0 w3 d w3 neg 0 d 0 w3 d w3 neg 0 d 0 w3 neg d w3 neg 0 d cl s } def
/m29 {mp gsave x w2 sub y w2 add w3 sub m currentpoint t 4 {side} repeat cl fill gr} def
/m30 {mp gsave x w2 sub y w2 add w3 sub m currentpoint t 4 {side} repeat cl s gr} def
/m31 {mp x y w2 sub m 0 w d x w2 sub y m w 0 d x w2 sub y w2 add m w w neg d x w2 sub y w2 sub m w w d s} def
/m32 {mp x y w2 sub m w2 w d w neg 0 d cl s} def
/m33 {mp x y w2 add m w3 neg w2 neg d w3 w2 neg d w3 w2 d cl f} def
/m34 {mp x w2 sub y w2 sub w3 add m w3 0 d  0 w3 neg d w3 0 d 0 w3 d w3 0 d  0 w3 d w3 neg 0 d 0 w3 d w3 neg 0 d 0 w3 neg d w3 neg 0 d cl f } def
/m2 {mp x y w2 sub m 0 w d x w2 sub y m w 0 d s} def
/m5 {mp x w2 sub y w2 sub m w w d x w2 sub y w2 add m w w neg d s} def
/reEncode {exch findfont dup length dict begin {1 index /FID eq  {pop pop} {def} ifelse } forall /Encoding exch def currentdict end dup /FontName get exch definefont pop } def [/Times-Bold /Times-Italic /Times-BoldItalic /Helvetica /Helvetica-Oblique
 /Helvetica-Bold /Helvetica-BoldOblique /Courier /Courier-Oblique /Courier-Bold /Courier-BoldOblique /Times-Roman /AvantGarde-Book /AvantGarde-BookOblique /AvantGarde-Demi /AvantGarde-DemiOblique /Bookman-Demi /Bookman-DemiItalic /Bookman-Light
 /Bookman-LightItalic /Helvetica-Narrow /Helvetica-Narrow-Bold /Helvetica-Narrow-BoldOblique /Helvetica-Narrow-Oblique /NewCenturySchlbk-Roman /NewCenturySchlbk-Bold /NewCenturySchlbk-BoldItalic /NewCenturySchlbk-Italic /Palatino-Bold
 /Palatino-BoldItalic /Palatino-Italic /Palatino-Roman ] {ISOLatin1Encoding reEncode } forall
%%EndProlog
%%BeginSetup
%%EndSetup
newpath  gsave  .25 .25 scale  gsave  0 0 t black[  ] 0 sd 3 lw 1 1 1 c 2268 1540 0 0 bf black 1 1 1 c 2268 1155 0 385 bf black 1 1 1 c 1814 1039 227 385 bf black 1814 1039 227 385 bl 0 0 0.6 c 1 1 1 c black 0 0 0.6 c 227 385 m 1814 X s black 227 385
 m 1814 X s 227 413 m -28 Y s 272 399 m -14 Y s 317 399 m -14 Y s 363 399 m -14 Y s 408 413 m -28 Y s 454 399 m -14 Y s 499 399 m -14 Y s 544 399 m -14 Y s 590 413 m -28 Y s 635 399 m -14 Y s 680 399 m -14 Y s 726 399 m -14 Y s 771 413 m -28 Y s 816
 399 m -14 Y s 862 399 m -14 Y s 907 399 m -14 Y s 952 413 m -28 Y s 998 399 m -14 Y s 1043 399 m -14 Y s 1089 399 m -14 Y s 1134 413 m -28 Y s 1179 399 m -14 Y s 1225 399 m -14 Y s 1270 399 m -14 Y s 1315 413 m -28 Y s 1361 399 m -14 Y s 1406 399 m
 -14 Y s 1451 399 m -14 Y s 1497 413 m -28 Y s 1542 399 m -14 Y s 1587 399 m -14 Y s 1633 399 m -14 Y s 1678 413 m -28 Y s 1723 399 m -14 Y s 1769 399 m -14 Y s 1814 399 m -14 Y s 1860 413 m -28 Y s 1905 399 m -14 Y s 1950 399 m -14 Y s 1996 399 m
 -14 Y s 2041 413 m -28 Y s
 gsave  2268 1155 0 385 C 211.177 347.63 t 0 r /Helvetica findfont 39.0414 sf 0 0 m (0) show NC gr 
 gsave  2268 1155 0 385 C 383.368 347.63 t 0 r /Helvetica findfont 39.0414 sf 0 0 m (20) show NC gr 
 gsave  2268 1155 0 385 C 565.305 347.63 t 0 r /Helvetica findfont 39.0414 sf 0 0 m (40) show NC gr 
 gsave  2268 1155 0 385 C 747.242 347.63 t 0 r /Helvetica findfont 39.0414 sf 0 0 m (60) show NC gr 
 gsave  2268 1155 0 385 C 929.179 347.63 t 0 r /Helvetica findfont 39.0414 sf 0 0 m (80) show NC gr 
 gsave  2268 1155 0 385 C 1101.37 347.63 t 0 r /Helvetica findfont 39.0414 sf 0 0 m (100) show NC gr 
 gsave  2268 1155 0 385 C 1280.06 347.63 t 0 r /Helvetica findfont 39.0414 sf 0 0 m (120) show NC gr 
 gsave  2268 1155 0 385 C 1461.99 347.63 t 0 r /Helvetica findfont 39.0414 sf 0 0 m (140) show NC gr 
 gsave  2268 1155 0 385 C 1643.93 347.63 t 0 r /Helvetica findfont 39.0414 sf 0 0 m (160) show NC gr 
 gsave  2268 1155 0 385 C 1825.87 347.63 t 0 r /Helvetica findfont 39.0414 sf 0 0 m (180) show NC gr 
 gsave  2268 1155 0 385 C 2007.81 347.63 t 0 r /Helvetica findfont 39.0414 sf 0 0 m (200) show NC gr  227 385 m 1039 Y s 257 388 m -30 X s 257 406 m -30 X s 257 420 m -30 X s 257 430 m -30 X s 257 438 m -30 X s 257 446 m -30 X s 257 452 m -30 X s 257
 457 m -30 X s 288 462 m -61 X s
 gsave  2268 1155 0 385 C 198.182 464.59 t 0 r /Helvetica findfont 26.0276 sf 0 0 m (1) show NC gr 
 gsave  2268 1155 0 385 C 181.937 464.59 t 0 r /Symbol findfont 26.0276 sf 0 0 m (-) show NC gr 
 gsave  2268 1155 0 385 C 139.702 445.096 t 0 r /Helvetica findfont 39.0414 sf 0 0 m (10) show NC gr  257 494 m -30 X s 257 513 m -30 X s 257 526 m -30 X s 257 536 m -30 X s 257 545 m -30 X s 257 552 m -30 X s 257 558 m -30 X s 257 563 m -30 X s 288
 568 m -61 X s
 gsave  2268 1155 0 385 C 209.083 552.742 t 0 r  -20 0 t /Helvetica findfont 39.0414 sf 0 0 m (1) show NC gr  257 600 m -30 X s 257 619 m -30 X s 257 632 m -30 X s 257 643 m -30 X s 257 651 m -30 X s 257 658 m -30 X s 257 664 m -30 X s 257 670 m -30
 X s 288 675 m -61 X s
 gsave  2268 1155 0 385 C 209.083 659.023 t 0 r  -41 0 t /Helvetica findfont 39.0414 sf 0 0 m (10) show NC gr  257 707 m -30 X s 257 725 m -30 X s 257 739 m -30 X s 257 749 m -30 X s 257 757 m -30 X s 257 764 m -30 X s 257 771 m -30 X s 257 776 m -30
 X s 288 781 m -61 X s
 gsave  2268 1155 0 385 C 191.684 782.979 t 0 r /Helvetica findfont 26.0276 sf 0 0 m (2) show NC gr 
 gsave  2268 1155 0 385 C 149.448 763.486 t 0 r /Helvetica findfont 39.0414 sf 0 0 m (10) show NC gr  257 813 m -30 X s 257 832 m -30 X s 257 845 m -30 X s 257 855 m -30 X s 257 864 m -30 X s 257 871 m -30 X s 257 877 m -30 X s 257 882 m -30 X s 288
 887 m -61 X s
 gsave  2268 1155 0 385 C 191.684 893.441 t 0 r /Helvetica findfont 26.0276 sf 0 0 m (3) show NC gr 
 gsave  2268 1155 0 385 C 149.448 870.699 t 0 r /Helvetica findfont 39.0414 sf 0 0 m (10) show NC gr  257 919 m -30 X s 257 938 m -30 X s 257 951 m -30 X s 257 961 m -30 X s 257 970 m -30 X s 257 977 m -30 X s 257 983 m -30 X s 257 989 m -30 X s 288
 993 m -61 X s
 gsave  2268 1155 0 385 C 191.684 994.157 t 0 r /Helvetica findfont 26.0276 sf 0 0 m (4) show NC gr 
 gsave  2268 1155 0 385 C 149.448 974.663 t 0 r /Helvetica findfont 39.0414 sf 0 0 m (10) show NC gr  257 1025 m -30 X s 257 1044 m -30 X s 257 1057 m -30 X s 257 1068 m -30 X s 257 1076 m -30 X s 257 1083 m -30 X s 257 1089 m -30 X s 257 1095 m -30
 X s 288 1100 m -61 X s
 gsave  2268 1155 0 385 C 191.684 1104.62 t 0 r /Helvetica findfont 26.0276 sf 0 0 m (5) show NC gr 
 gsave  2268 1155 0 385 C 149.448 1081.88 t 0 r /Helvetica findfont 39.0414 sf 0 0 m (10) show NC gr  257 1132 m -30 X s 257 1150 m -30 X s 257 1164 m -30 X s 257 1174 m -30 X s 257 1182 m -30 X s 257 1190 m -30 X s 257 1196 m -30 X s 257 1201 m -30
 X s 288 1206 m -61 X s
 gsave  2268 1155 0 385 C 191.684 1211.83 t 0 r /Helvetica findfont 26.0276 sf 0 0 m (6) show NC gr 
 gsave  2268 1155 0 385 C 149.448 1189.09 t 0 r /Helvetica findfont 39.0414 sf 0 0 m (10) show NC gr  257 1238 m -30 X s 257 1257 m -30 X s 257 1270 m -30 X s 257 1280 m -30 X s 257 1289 m -30 X s 257 1296 m -30 X s 257 1302 m -30 X s 257 1307 m -30
 X s 288 1312 m -61 X s
 gsave  2268 1155 0 385 C 191.684 1312.55 t 0 r /Helvetica findfont 26.0276 sf 0 0 m (7) show NC gr 
 gsave  2268 1155 0 385 C 149.448 1293.05 t 0 r /Helvetica findfont 39.0414 sf 0 0 m (10) show NC gr  257 1344 m -30 X s 257 1363 m -30 X s 257 1376 m -30 X s 257 1387 m -30 X s 257 1395 m -30 X s 257 1402 m -30 X s 257 1408 m -30 X s 257 1414 m -30
 X s 288 1419 m -61 X s
 gsave  2268 1155 0 385 C 191.684 1423.01 t 0 r /Helvetica findfont 26.0276 sf 0 0 m (8) show NC gr 
 gsave  2268 1155 0 385 C 149.448 1400.27 t 0 r /Helvetica findfont 39.0414 sf 0 0 m (10) show NC gr  0.4 0.8 1 c black 0.4 0.8 1 c 227 385 m 629 Y 90 X 63 Y 91 X -17 Y 91 X -21 Y 91 X -14 Y 90 X -11 Y 91 X -6 Y 91 X -5 Y 90 X -3 Y 91 X -8 Y 91 X -10
 Y 91 X -9 Y 90 X -9 Y 91 X -11 Y 91 X -9 Y 90 X -9 Y 91 X -7 Y 91 X -12 Y 91 X -16 Y 90 X -20 Y 91 X -495 Y f 227 1014 m 90 X 63 Y 91 X -17 Y 91 X -21 Y 91 X -14 Y 90 X -11 Y 91 X -6 Y 91 X -5 Y 90 X -3 Y 91 X -8 Y 91 X -10 Y 91 X -9 Y 90 X -9 Y 91
 X -11 Y 91 X -9 Y 90 X -9 Y 91 X -7 Y 91 X -12 Y 91 X -16 Y 90 X -20 Y 91 X s 0 0.6 0 c 0.999 0.999 0.999 c black 0.999 0.999 0.999 c 227 385 m 584 Y 90 X 65 Y 91 X -17 Y 91 X -20 Y 91 X -13 Y 90 X -10 Y 91 X -4 Y 272 X -11 Y 91 X -11 Y 91 X -8 Y 90
 X -7 Y 91 X -9 Y 91 X -6 Y 90 X -7 Y 91 X -4 Y 91 X -9 Y 91 X -18 Y 90 X -24 Y 91 X -471 Y f 0 0.6 0 c 0.999 0.999 0.999 c 0 0.6 0 c 227 969 m 90 X 65 Y 91 X -17 Y 91 X -20 Y 91 X -13 Y 90 X -10 Y 91 X -4 Y 272 X -11 Y 91 X -11 Y 91 X -8 Y 90 X -7 Y
 91 X -9 Y 91 X -6 Y 90 X -7 Y 91 X -4 Y 91 X -9 Y 91 X -18 Y 90 X -24 Y 91 X s 1 1 1 c black 0 0.6 0 c 227 969 m 90 X 65 Y 91 X -17 Y 91 X -20 Y 91 X -13 Y 90 X -10 Y 91 X -4 Y 272 X -11 Y 91 X -11 Y 91 X -8 Y 90 X -7 Y 91 X -9 Y 91 X -6 Y 90 X -7 Y
 91 X -4 Y 91 X -9 Y 91 X -18 Y 90 X -24 Y 91 X s black 0 0.6 0 c 227 385 m 584 Y 90 X 65 Y 91 X -17 Y 91 X -20 Y 91 X -13 Y 90 X -10 Y 91 X -4 Y 272 X -11 Y 91 X -11 Y 91 X -8 Y 90 X -7 Y 91 X -9 Y 91 X -6 Y 90 X -7 Y 91 X -4 Y 91 X -9 Y 91 X -18 Y
 90 X -24 Y 91 X -471 Y f 227 969 m 90 X 65 Y 91 X -17 Y 91 X -20 Y 91 X -13 Y 90 X -10 Y 91 X -4 Y 272 X -11 Y 91 X -11 Y 91 X -8 Y 90 X -7 Y 91 X -9 Y 91 X -6 Y 90 X -7 Y 91 X -4 Y 91 X -9 Y 91 X -18 Y 90 X -24 Y 91 X s 1 0.8 0 c 0.999 0.999 0.999
 c black 0.999 0.999 0.999 c 227 385 m 449 Y 90 X 72 Y 91 X -6 Y 91 X -14 Y 91 X -5 Y 90 X 3 Y 91 X 13 Y 91 X 21 Y 90 X 12 Y 91 X -15 Y 91 X -17 Y 91 X -5 Y 90 X -5 Y 91 X -2 Y 91 X -1 Y 181 X 2 Y 91 X -7 Y 91 X -21 Y 90 X -30 Y 91 X -444 Y f 1 0.8 0
 c 0.999 0.999 0.999 c 1 0.8 0 c 227 834 m 90 X 72 Y 91 X -6 Y 91 X -14 Y 91 X -5 Y 90 X 3 Y 91 X 13 Y 91 X 21 Y 90 X 12 Y 91 X -15 Y 91 X -17 Y 91 X -5 Y 90 X -5 Y 91 X -2 Y 91 X -1 Y 181 X 2 Y 91 X -7 Y 91 X -21 Y 90 X -30 Y 91 X s 1 1 1 c black 1
 0.8 0 c 227 834 m 90 X 72 Y 91 X -6 Y 91 X -14 Y 91 X -5 Y 90 X 3 Y 91 X 13 Y 91 X 21 Y 90 X 12 Y 91 X -15 Y 91 X -17 Y 91 X -5 Y 90 X -5 Y 91 X -2 Y 91 X -1 Y 181 X 2 Y 91 X -7 Y 91 X -21 Y 90 X -30 Y 91 X s black 1 0.8 0 c 227 385 m 449 Y 90 X 72
 Y 91 X -6 Y 91 X -14 Y 91 X -5 Y 90 X 3 Y 91 X 13 Y 91 X 21 Y 90 X 12 Y 91 X -15 Y 91 X -17 Y 91 X -5 Y 90 X -5 Y 91 X -2 Y 91 X -1 Y 181 X 2 Y 91 X -7 Y 91 X -21 Y 90 X -30 Y 91 X -444 Y f 227 834 m 90 X 72 Y 91 X -6 Y 91 X -14 Y 91 X -5 Y 90 X 3 Y
 91 X 13 Y 91 X 21 Y 90 X 12 Y 91 X -15 Y 91 X -17 Y 91 X -5 Y 90 X -5 Y 91 X -2 Y 91 X -1 Y 181 X 2 Y 91 X -7 Y 91 X -21 Y 90 X -30 Y 91 X s 1 0.6 0 c 0.999 0.999 0.999 c black 0.999 0.999 0.999 c 227 385 m 420 Y 90 X 66 Y 91 X -11 Y 91 X -16 Y 91 X
 -8 Y 90 X -1 Y 91 X 11 Y 91 X 22 Y 90 X 14 Y 91 X -18 Y 91 X -25 Y 91 X -15 Y 90 X -11 Y 91 X -7 Y 91 X -6 Y 90 X -8 Y 91 X -5 Y 91 X -6 Y 91 X -20 Y 90 X -15 Y 91 X -361 Y f 1 0.6 0 c 0.999 0.999 0.999 c 1 0.6 0 c 227 805 m 90 X 66 Y 91 X -11 Y 91
 X -16 Y 91 X -8 Y 90 X -1 Y 91 X 11 Y 91 X 22 Y 90 X 14 Y 91 X -18 Y 91 X -25 Y 91 X -15 Y 90 X -11 Y 91 X -7 Y 91 X -6 Y 90 X -8 Y 91 X -5 Y 91 X -6 Y 91 X -20 Y 90 X -15 Y 91 X s 1 1 1 c black 1 0.6 0 c 227 805 m 90 X 66 Y 91 X -11 Y 91 X -16 Y 91
 X -8 Y 90 X -1 Y 91 X 11 Y 91 X 22 Y 90 X 14 Y 91 X -18 Y 91 X -25 Y 91 X -15 Y 90 X -11 Y 91 X -7 Y 91 X -6 Y 90 X -8 Y 91 X -5 Y 91 X -6 Y 91 X -20 Y 90 X -15 Y 91 X s black 1 0.6 0 c 227 385 m 420 Y 90 X 66 Y 91 X -11 Y 91 X -16 Y 91 X -8 Y 90 X
 -1 Y 91 X 11 Y 91 X 22 Y 90 X 14 Y 91 X -18 Y 91 X -25 Y 91 X -15 Y 90 X -11 Y 91 X -7 Y 91 X -6 Y 90 X -8 Y 91 X -5 Y 91 X -6 Y 91 X -20 Y 90 X -15 Y 91 X -361 Y f 227 805 m 90 X 66 Y 91 X -11 Y 91 X -16 Y 91 X -8 Y 90 X -1 Y 91 X 11 Y 91 X 22 Y 90
 X 14 Y 91 X -18 Y 91 X -25 Y 91 X -15 Y 90 X -11 Y 91 X -7 Y 91 X -6 Y 90 X -8 Y 91 X -5 Y 91 X -6 Y 91 X -20 Y 90 X -15 Y 91 X s 0.999 0.999 0.999 c black 0.999 0.999 0.999 c 227 385 m 411 Y 90 X 63 Y 91 X -10 Y 91 X -16 Y 91 X -9 Y 90 X -2 Y 91 X
 10 Y 91 X 22 Y 90 X 13 Y 91 X -15 Y 91 X -27 Y 91 X -20 Y 90 X -15 Y 91 X -10 Y 91 X -7 Y 90 X -10 Y 91 X -11 Y 91 X -7 Y 91 X -19 Y 90 X -4 Y 91 X -337 Y f 1 0.6 0 c 0.999 0.999 0.999 c 1 0.6 0 c 227 796 m 90 X 63 Y 91 X -10 Y 91 X -16 Y 91 X -9 Y
 90 X -2 Y 91 X 10 Y 91 X 22 Y 90 X 13 Y 91 X -15 Y 91 X -27 Y 91 X -20 Y 90 X -15 Y 91 X -10 Y 91 X -7 Y 90 X -10 Y 91 X -11 Y 91 X -7 Y 91 X -19 Y 90 X -4 Y 91 X s 1 1 1 c black 1 0.6 0 c 227 796 m 90 X 63 Y 91 X -10 Y 91 X -16 Y 91 X -9 Y 90 X -2
 Y 91 X 10 Y 91 X 22 Y 90 X 13 Y 91 X -15 Y 91 X -27 Y 91 X -20 Y 90 X -15 Y 91 X -10 Y 91 X -7 Y 90 X -10 Y 91 X -11 Y 91 X -7 Y 91 X -19 Y 90 X -4 Y 91 X s black 1 0.6 0 c 227 385 m 411 Y 90 X 63 Y 91 X -10 Y 91 X -16 Y 91 X -9 Y 90 X -2 Y 91 X 10
 Y 91 X 22 Y 90 X 13 Y 91 X -15 Y 91 X -27 Y 91 X -20 Y 90 X -15 Y 91 X -10 Y 91 X -7 Y 90 X -10 Y 91 X -11 Y 91 X -7 Y 91 X -19 Y 90 X -4 Y 91 X -337 Y f 227 796 m 90 X 63 Y 91 X -10 Y 91 X -16 Y 91 X -9 Y 90 X -2 Y 91 X 10 Y 91 X 22 Y 90 X 13 Y 91
 X -15 Y 91 X -27 Y 91 X -20 Y 90 X -15 Y 91 X -10 Y 91 X -7 Y 90 X -10 Y 91 X -11 Y 91 X -7 Y 91 X -19 Y 90 X -4 Y 91 X s 0.999 0.999 0.999 c black 0.999 0.999 0.999 c 227 385 m 411 Y 90 X 63 Y 91 X -10 Y 91 X -16 Y 91 X -9 Y 90 X -2 Y 91 X 10 Y 91
 X 22 Y 90 X 13 Y 91 X -15 Y 91 X -27 Y 91 X -20 Y 90 X -15 Y 91 X -10 Y 91 X -7 Y 90 X -10 Y 91 X -11 Y 91 X -7 Y 91 X -19 Y 90 X -4 Y 91 X -337 Y f 1 0.6 0 c 0.999 0.999 0.999 c 1 0.6 0 c 227 796 m 90 X 63 Y 91 X -10 Y 91 X -16 Y 91 X -9 Y 90 X -2
 Y 91 X 10 Y 91 X 22 Y 90 X 13 Y 91 X -15 Y 91 X -27 Y 91 X -20 Y 90 X -15 Y 91 X -10 Y 91 X -7 Y 90 X -10 Y 91 X -11 Y 91 X -7 Y 91 X -19 Y 90 X -4 Y 91 X s 1 1 1 c black 1 0.6 0 c 227 796 m 90 X 63 Y 91 X -10 Y 91 X -16 Y 91 X -9 Y 90 X -2 Y 91 X
 10 Y 91 X 22 Y 90 X 13 Y 91 X -15 Y 91 X -27 Y 91 X -20 Y 90 X -15 Y 91 X -10 Y 91 X -7 Y 90 X -10 Y 91 X -11 Y 91 X -7 Y 91 X -19 Y 90 X -4 Y 91 X s black 1 0.6 0 c 227 385 m 411 Y 90 X 63 Y 91 X -10 Y 91 X -16 Y 91 X -9 Y 90 X -2 Y 91 X 10 Y 91 X
 22 Y 90 X 13 Y 91 X -15 Y 91 X -27 Y 91 X -20 Y 90 X -15 Y 91 X -10 Y 91 X -7 Y 90 X -10 Y 91 X -11 Y 91 X -7 Y 91 X -19 Y 90 X -4 Y 91 X -337 Y f 227 796 m 90 X 63 Y 91 X -10 Y 91 X -16 Y 91 X -9 Y 90 X -2 Y 91 X 10 Y 91 X 22 Y 90 X 13 Y 91 X -15 Y
 91 X -27 Y 91 X -20 Y 90 X -15 Y 91 X -10 Y 91 X -7 Y 90 X -10 Y 91 X -11 Y 91 X -7 Y 91 X -19 Y 90 X -4 Y 91 X s 0.4 0 0.4 c 0.999 0.999 0.999 c black 0.999 0.999 0.999 c 227 385 m 411 Y 90 X 63 Y 91 X -10 Y 91 X -16 Y 91 X -9 Y 90 X -2 Y 91 X 10 Y
 91 X 22 Y 90 X 13 Y 91 X -15 Y 91 X -27 Y 91 X -20 Y 90 X -15 Y 91 X -10 Y 91 X -7 Y 90 X -10 Y 91 X -11 Y 91 X -7 Y 91 X -19 Y 90 X -4 Y 91 X -337 Y f 0.4 0 0.4 c 0.999 0.999 0.999 c 0.4 0 0.4 c 227 796 m 90 X 63 Y 91 X -10 Y 91 X -16 Y 91 X -9 Y
 90 X -2 Y 91 X 10 Y 91 X 22 Y 90 X 13 Y 91 X -15 Y 91 X -27 Y 91 X -20 Y 90 X -15 Y 91 X -10 Y 91 X -7 Y 90 X -10 Y 91 X -11 Y 91 X -7 Y 91 X -19 Y 90 X -4 Y 91 X s 1 1 1 c black 0.4 0 0.4 c 227 796 m 90 X 63 Y 91 X -10 Y 91 X -16 Y 91 X -9 Y 90 X
 -2 Y 91 X 10 Y 91 X 22 Y 90 X 13 Y 91 X -15 Y 91 X -27 Y 91 X -20 Y 90 X -15 Y 91 X -10 Y 91 X -7 Y 90 X -10 Y 91 X -11 Y 91 X -7 Y 91 X -19 Y 90 X -4 Y 91 X s black 0.4 0 0.4 c 227 385 m 411 Y 90 X 63 Y 91 X -10 Y 91 X -16 Y 91 X -9 Y 90 X -2 Y 91
 X 10 Y 91 X 22 Y 90 X 13 Y 91 X -15 Y 91 X -27 Y 91 X -20 Y 90 X -15 Y 91 X -10 Y 91 X -7 Y 90 X -10 Y 91 X -11 Y 91 X -7 Y 91 X -19 Y 90 X -4 Y 91 X -337 Y f 227 796 m 90 X 63 Y 91 X -10 Y 91 X -16 Y 91 X -9 Y 90 X -2 Y 91 X 10 Y 91 X 22 Y 90 X 13
 Y 91 X -15 Y 91 X -27 Y 91 X -20 Y 90 X -15 Y 91 X -10 Y 91 X -7 Y 90 X -10 Y 91 X -11 Y 91 X -7 Y 91 X -19 Y 90 X -4 Y 91 X s 0.6 0 0.6 c 0.999 0.999 0.999 c black 0.999 0.999 0.999 c 227 385 m 376 Y 90 X 62 Y 91 X -12 Y 91 X -18 Y 91 X -6 Y 181 X
 11 Y 91 X 24 Y 90 X 16 Y 91 X -11 Y 91 X -29 Y 91 X -30 Y 90 X -15 Y 91 X -11 Y 91 X -4 Y 90 X -13 Y 91 X -9 Y 91 X -6 Y 91 X -27 Y 90 X 2 Y 91 X -300 Y f 0.6 0 0.6 c 0.999 0.999 0.999 c 0.6 0 0.6 c 227 761 m 90 X 62 Y 91 X -12 Y 91 X -18 Y 91 X -6
 Y 181 X 11 Y 91 X 24 Y 90 X 16 Y 91 X -11 Y 91 X -29 Y 91 X -30 Y 90 X -15 Y 91 X -11 Y 91 X -4 Y 90 X -13 Y 91 X -9 Y 91 X -6 Y 91 X -27 Y 90 X 2 Y 91 X s 1 1 1 c black 0.6 0 0.6 c 227 761 m 90 X 62 Y 91 X -12 Y 91 X -18 Y 91 X -6 Y 181 X 11 Y 91 X
 24 Y 90 X 16 Y 91 X -11 Y 91 X -29 Y 91 X -30 Y 90 X -15 Y 91 X -11 Y 91 X -4 Y 90 X -13 Y 91 X -9 Y 91 X -6 Y 91 X -27 Y 90 X 2 Y 91 X s black 0.6 0 0.6 c 227 385 m 376 Y 90 X 62 Y 91 X -12 Y 91 X -18 Y 91 X -6 Y 181 X 11 Y 91 X 24 Y 90 X 16 Y 91 X
 -11 Y 91 X -29 Y 91 X -30 Y 90 X -15 Y 91 X -11 Y 91 X -4 Y 90 X -13 Y 91 X -9 Y 91 X -6 Y 91 X -27 Y 90 X 2 Y 91 X -300 Y f 227 761 m 90 X 62 Y 91 X -12 Y 91 X -18 Y 91 X -6 Y 181 X 11 Y 91 X 24 Y 90 X 16 Y 91 X -11 Y 91 X -29 Y 91 X -30 Y 90 X -15
 Y 91 X -11 Y 91 X -4 Y 90 X -13 Y 91 X -9 Y 91 X -6 Y 91 X -27 Y 90 X 2 Y 91 X s 0.8 0 0.8 c 0.999 0.999 0.999 c black 0.999 0.999 0.999 c 227 385 m 332 Y 90 X 67 Y 91 X -15 Y 91 X -15 Y 91 X -9 Y 90 X -5 Y 91 X 12 Y 91 X 12 Y 90 X 29 Y 91 X 9 Y 91
 X -28 Y 91 X -38 Y 90 X -24 Y 91 X -12 Y 91 X -4 Y 90 X -18 Y 91 X -1 Y 91 X -15 Y 91 X -18 Y 90 X -1 Y 91 X -258 Y f 0.8 0 0.8 c 0.999 0.999 0.999 c 0.8 0 0.8 c 227 717 m 90 X 67 Y 91 X -15 Y 91 X -15 Y 91 X -9 Y 90 X -5 Y 91 X 12 Y 91 X 12 Y 90 X
 29 Y 91 X 9 Y 91 X -28 Y 91 X -38 Y 90 X -24 Y 91 X -12 Y 91 X -4 Y 90 X -18 Y 91 X -1 Y 91 X -15 Y 91 X -18 Y 90 X -1 Y 91 X s 1 1 1 c black 0.8 0 0.8 c 227 717 m 90 X 67 Y 91 X -15 Y 91 X -15 Y 91 X -9 Y 90 X -5 Y 91 X 12 Y 91 X 12 Y 90 X 29 Y 91
 X 9 Y 91 X -28 Y 91 X -38 Y 90 X -24 Y 91 X -12 Y 91 X -4 Y 90 X -18 Y 91 X -1 Y 91 X -15 Y 91 X -18 Y 90 X -1 Y 91 X s black 0.8 0 0.8 c 227 385 m 332 Y 90 X 67 Y 91 X -15 Y 91 X -15 Y 91 X -9 Y 90 X -5 Y 91 X 12 Y 91 X 12 Y 90 X 29 Y 91 X 9 Y 91 X
 -28 Y 91 X -38 Y 90 X -24 Y 91 X -12 Y 91 X -4 Y 90 X -18 Y 91 X -1 Y 91 X -15 Y 91 X -18 Y 90 X -1 Y 91 X -258 Y f 227 717 m 90 X 67 Y 91 X -15 Y 91 X -15 Y 91 X -9 Y 90 X -5 Y 91 X 12 Y 91 X 12 Y 90 X 29 Y 91 X 9 Y 91 X -28 Y 91 X -38 Y 90 X -24 Y
 91 X -12 Y 91 X -4 Y 90 X -18 Y 91 X -1 Y 91 X -15 Y 91 X -18 Y 90 X -1 Y 91 X s black 227 385 m 1814 X s 227 413 m -28 Y s 272 399 m -14 Y s 317 399 m -14 Y s 363 399 m -14 Y s 408 413 m -28 Y s 454 399 m -14 Y s 499 399 m -14 Y s 544 399 m -14 Y s
 590 413 m -28 Y s 635 399 m -14 Y s 680 399 m -14 Y s 726 399 m -14 Y s 771 413 m -28 Y s 816 399 m -14 Y s 862 399 m -14 Y s 907 399 m -14 Y s 952 413 m -28 Y s 998 399 m -14 Y s 1043 399 m -14 Y s 1089 399 m -14 Y s 1134 413 m -28 Y s 1179 399 m
 -14 Y s 1225 399 m -14 Y s 1270 399 m -14 Y s 1315 413 m -28 Y s 1361 399 m -14 Y s 1406 399 m -14 Y s 1451 399 m -14 Y s 1497 413 m -28 Y s 1542 399 m -14 Y s 1587 399 m -14 Y s 1633 399 m -14 Y s 1678 413 m -28 Y s 1723 399 m -14 Y s 1769 399 m
 -14 Y s 1814 399 m -14 Y s 1860 413 m -28 Y s 1905 399 m -14 Y s 1950 399 m -14 Y s 1996 399 m -14 Y s 2041 413 m -28 Y s 227 385 m 1039 Y s 257 388 m -30 X s 257 406 m -30 X s 257 420 m -30 X s 257 430 m -30 X s 257 438 m -30 X s 257 446 m -30 X s
 257 452 m -30 X s 257 457 m -30 X s 288 462 m -61 X s 257 494 m -30 X s 257 513 m -30 X s 257 526 m -30 X s 257 536 m -30 X s 257 545 m -30 X s 257 552 m -30 X s 257 558 m -30 X s 257 563 m -30 X s 288 568 m -61 X s 257 600 m -30 X s 257 619 m -30 X
 s 257 632 m -30 X s 257 643 m -30 X s 257 651 m -30 X s 257 658 m -30 X s 257 664 m -30 X s 257 670 m -30 X s 288 675 m -61 X s 257 707 m -30 X s 257 725 m -30 X s 257 739 m -30 X s 257 749 m -30 X s 257 757 m -30 X s 257 764 m -30 X s 257 771 m -30
 X s 257 776 m -30 X s 288 781 m -61 X s 257 813 m -30 X s 257 832 m -30 X s 257 845 m -30 X s 257 855 m -30 X s 257 864 m -30 X s 257 871 m -30 X s 257 877 m -30 X s 257 882 m -30 X s 288 887 m -61 X s 257 919 m -30 X s 257 938 m -30 X s 257 951 m
 -30 X s 257 961 m -30 X s 257 970 m -30 X s 257 977 m -30 X s 257 983 m -30 X s 257 989 m -30 X s 288 993 m -61 X s 257 1025 m -30 X s 257 1044 m -30 X s 257 1057 m -30 X s 257 1068 m -30 X s 257 1076 m -30 X s 257 1083 m -30 X s 257 1089 m -30 X s
 257 1095 m -30 X s 288 1100 m -61 X s 257 1132 m -30 X s 257 1150 m -30 X s 257 1164 m -30 X s 257 1174 m -30 X s 257 1182 m -30 X s 257 1190 m -30 X s 257 1196 m -30 X s 257 1201 m -30 X s 288 1206 m -61 X s 257 1238 m -30 X s 257 1257 m -30 X s
 257 1270 m -30 X s 257 1280 m -30 X s 257 1289 m -30 X s 257 1296 m -30 X s 257 1302 m -30 X s 257 1307 m -30 X s 288 1312 m -61 X s 257 1344 m -30 X s 257 1363 m -30 X s 257 1376 m -30 X s 257 1387 m -30 X s 257 1395 m -30 X s 257 1402 m -30 X s
 257 1408 m -30 X s 257 1414 m -30 X s 288 1419 m -61 X s 0 0 0.6 c black 1 lw << /PatternType 1 /PaintType 2 /TilingType 1 /BBox [ 0 0 100 100 ] /XStep 100 /YStep 100 /PaintProc { begin gsave 0 100 m 100 0 l s gr end } >> [ 0.24 0 0 0.24 0 0 ]
 makepattern /P05 exch def /cs {[/Pattern /DeviceRGB] setcolorspace} def /FA {f [/DeviceRGB] setcolorspace} def cs 0 0 0 P05 setcolor 227 1004 m 90 X 18 Y -90 X FA 3 lw 0 0 0.6 c black cs 0 0 0 P05 setcolor 317 1070 m 91 X 13 Y -91 X FA 0 0 0.6 c
 black cs 0 0 0 P05 setcolor 408 1053 m 91 X 13 Y -91 X FA 0 0 0.6 c black cs 0 0 0 P05 setcolor 499 1033 m 91 X 12 Y -91 X FA 0 0 0.6 c black cs 0 0 0 P05 setcolor 590 1021 m 90 X 9 Y -90 X FA 0 0 0.6 c black cs 0 0 0 P05 setcolor 680 1012 m 91 X 4
 Y -91 X FA 0 0 0.6 c black cs 0 0 0 P05 setcolor 771 1006 m 91 X 3 Y -91 X FA 0 0 0.6 c black cs 0 0 0 P05 setcolor 862 993 m 90 X 19 Y -90 X FA 0 0 0.6 c black cs 0 0 0 P05 setcolor 952 981 m 91 X 33 Y -91 X FA 0 0 0.6 c black cs 0 0 0 P05 setcolor
 1043 978 m 91 X 24 Y -91 X FA 0 0 0.6 c black cs 0 0 0 P05 setcolor 1134 972 m 91 X 18 Y -91 X FA 0 0 0.6 c black cs 0 0 0 P05 setcolor 1225 963 m 90 X 18 Y -90 X FA 0 0 0.6 c black cs 0 0 0 P05 setcolor 1315 950 m 91 X 24 Y -91 X FA 0 0 0.6 c black
 cs 0 0 0 P05 setcolor 1406 933 m 91 X 34 Y -91 X FA 0 0 0.6 c black cs 0 0 0 P05 setcolor 1497 915 m 90 X 46 Y -90 X FA 0 0 0.6 c black cs 0 0 0 P05 setcolor 1587 893 m 91 X 63 Y -91 X FA 0 0 0.6 c black cs 0 0 0 P05 setcolor 1678 860 m 91 X 94 Y
 -91 X FA 0 0 0.6 c black cs 0 0 0 P05 setcolor 1769 822 m 91 X 123 Y -91 X FA 0 0 0.6 c black cs 0 0 0 P05 setcolor 1860 843 m 90 X 82 Y -90 X FA 0 0 0.6 c black cs 0 0 0 P05 setcolor 1950 845 m 91 X 55 Y -91 X FA 0 0 0.6 c black 0 0 0.6 c 1 1 1 c
 black 0 0 0.6 c 227 1021 m 32 X s 285 1021 m 32 X s black /w 26 def /w2 {w 2 div} def /w3 {w 3 div} def 272 1021 m20 0 0 0.6 c 317 1083 m 33 X s 376 1083 m 32 X s black 363 1083 m20 0 0 0.6 c 408 1064 m 33 X s 467 1064 m 32 X s black 454 1064 m20 0
 0 0.6 c 499 1042 m 32 X s 557 1042 m 33 X s black 544 1042 m20 0 0 0.6 c 590 1026 m 32 X s 648 1026 m 32 X s black 635 1026 m20 0 0 0.6 c 680 1015 m 33 X s 739 1015 m 32 X s black 726 1015 m20 0 0 0.6 c 771 1008 m 32 X s 829 1008 m 33 X s black 816
 1008 m20 0 0 0.6 c 862 1003 m 32 X s 920 1003 m 32 X s black 907 1003 m20 0 0 0.6 c 952 1000 m 33 X s 1011 1000 m 32 X s black 998 1000 m20 0 0 0.6 c 1043 990 m 33 X s 1101 990 m 33 X s black 1089 990 m20 0 0 0.6 c 1134 981 m 32 X s 1192 981 m 33 X
 s black 1179 981 m20 0 0 0.6 c 1225 973 m 32 X s 1283 973 m 32 X s black 1270 973 m20 0 0 0.6 c 1315 963 m 33 X s 1374 963 m 32 X s black 1361 963 m20 0 0 0.6 c 1406 952 m 32 X s 1464 952 m 33 X s black 1451 952 m20 0 0 0.6 c 1497 942 m 32 X s 1555
 942 m 32 X s black 1542 942 m20 0 0 0.6 c 1587 934 m 33 X s 1646 934 m 32 X s black 1633 934 m20 0 0 0.6 c 1678 923 m 32 X s 1736 923 m 33 X s black 1723 923 m20 0 0 0.6 c 1769 911 m 32 X s 1827 911 m 33 X s black 1814 911 m20 0 0 0.6 c 1860 894 m
 32 X s 1918 894 m 32 X s black 1905 894 m20 0 0 0.6 c 1950 875 m 33 X s 2009 875 m 32 X s black 1996 875 m20 1 1 1 c 680 462 1361 962 bf black 1361 962 m 680 X s 2041 962 m 462 Y s 2041 1424 m -680 X s 1361 1424 m -462 Y s
 gsave  2268 1155 0 385 C 1530.22 1393.77 t 0 r /Helvetica findfont 35.788 sf 0 0 m (ZZ) show NC gr  0.8 0 0.8 c 1386 1385 m 119 X 33 Y -119 X f 1386 1418 m 119 X s 1386 1385 m 119 X s 1505 1385 m 33 Y s 1386 1385 m 33 Y s black
 gsave  2268 1155 0 385 C 1530.22 1345.04 t 0 r /Helvetica findfont 35.788 sf 0 0 m (WW) show NC gr  0.6 0 0.6 c 1386 1339 m 119 X 32 Y -119 X f 1386 1371 m 119 X s 1386 1339 m 119 X s 1505 1339 m 32 Y s 1386 1339 m 32 Y s black
 gsave  2268 1155 0 385 C 1530.22 1299.55 t 0 r /Helvetica findfont 35.788 sf 0 0 m (WZ) show NC gr  0.4 0 0.4 c 1386 1293 m 119 X 32 Y -119 X f 1386 1325 m 119 X s 1386 1293 m 119 X s 1505 1293 m 32 Y s 1386 1293 m 32 Y s black
 gsave  2268 1155 0 385 C 1530.22 1254.07 t 0 r /Helvetica findfont 35.788 sf 0 0 m (stop s) show NC gr  1 0.6 0 c 1386 1247 m 119 X 32 Y -119 X f 1386 1279 m 119 X s 1386 1247 m 119 X s 1505 1247 m 32 Y s 1386 1247 m 32 Y s black
 gsave  2268 1155 0 385 C 1530.22 1208.58 t 0 r /Helvetica findfont 35.788 sf 0 0 m (stop t) show NC gr  1 0.6 0 c 1386 1200 m 119 X 33 Y -119 X f 1386 1233 m 119 X s 1386 1200 m 119 X s 1505 1200 m 33 Y s 1386 1200 m 33 Y s black
 gsave  2268 1155 0 385 C 1530.22 1163.1 t 0 r /Helvetica findfont 35.788 sf 0 0 m (stop Wt) show NC gr  1 0.6 0 c 1386 1154 m 119 X 33 Y -119 X f 1386 1187 m 119 X s 1386 1154 m 119 X s 1505 1154 m 33 Y s 1386 1154 m 33 Y s black
 gsave  2268 1155 0 385 C 1530.22 1114.36 t 0 r /Helvetica findfont 35.788 sf 0 0 m (ttbar) show NC gr  1 0.8 0 c 1386 1108 m 119 X 32 Y -119 X f 1386 1140 m 119 X s 1386 1108 m 119 X s 1505 1108 m 32 Y s 1386 1108 m 32 Y s black
 gsave  2268 1155 0 385 C 1530.22 1068.88 t 0 r /Helvetica findfont 35.788 sf 0 0 m (W) show NC gr  0 0.6 0 c 1386 1062 m 119 X 32 Y -119 X f 1386 1094 m 119 X s 1386 1062 m 119 X s 1505 1062 m 32 Y s 1386 1062 m 32 Y s black
 gsave  2268 1155 0 385 C 1530.22 1023.4 t 0 r /Helvetica findfont 35.788 sf 0 0 m (Z) show NC gr  0.4 0.8 1 c 1386 1016 m 119 X 32 Y -119 X f 1386 1048 m 119 X s 1386 1016 m 119 X s 1505 1016 m 32 Y s 1386 1016 m 32 Y s black
 gsave  2268 1155 0 385 C 1530.22 977.912 t 0 r /Helvetica findfont 35.788 sf 0 0 m (stat+syst) show NC gr  cs 0 0 0 P05 setcolor 1386 969 m 119 X 33 Y -119 X FA 0 0 0.6 c 1386 1002 m 119 X s 1386 969 m 119 X s 1505 969 m 33 Y s 1386 969 m 33 Y s
 black
 gsave  2268 1155 0 385 C 451.594 1309.3 t 0 r /Helvetica-Bold findfont 55.3087 sf 0 0 m (ATLAS Preliminary) show NC gr  1 1 1 c 2268 385 0 0 bf black 1 1 1 c 1814 270 227 115 bf black 1814 270 227 115 bl 227 115 m 1814 X s
 gsave  2268 385 0 0 C 1923.34 32.4888 t 0 r /Helvetica findfont 42.4144 sf 0 0 m ( [GeV]) show NC gr 
 gsave  2268 385 0 0 C 1910.34 19.4933 t 0 r /Helvetica findfont 29.3638 sf 0 0 m (J) show NC gr 
 gsave  2268 385 0 0 C 1877.85 32.4888 t 0 r /Helvetica findfont 42.4144 sf 0 0 m (m) show NC gr  227 125 m -10 Y s 272 120 m -5 Y s 317 120 m -5 Y s 363 120 m -5 Y s 408 125 m -10 Y s 453 120 m -5 Y s 499 120 m -5 Y s 544 120 m -5 Y s 589 125 m -10
 Y s 635 120 m -5 Y s 680 120 m -5 Y s 725 120 m -5 Y s 770 125 m -10 Y s 816 120 m -5 Y s 861 120 m -5 Y s 906 120 m -5 Y s 952 125 m -10 Y s 997 120 m -5 Y s 1042 120 m -5 Y s 1088 120 m -5 Y s 1133 125 m -10 Y s 1178 120 m -5 Y s 1224 120 m -5 Y s
 1269 120 m -5 Y s 1314 125 m -10 Y s 1359 120 m -5 Y s 1405 120 m -5 Y s 1450 120 m -5 Y s 1495 125 m -10 Y s 1541 120 m -5 Y s 1586 120 m -5 Y s 1631 120 m -5 Y s 1677 125 m -10 Y s 1722 120 m -5 Y s 1767 120 m -5 Y s 1813 120 m -5 Y s 1858 125 m
 -10 Y s 1903 120 m -5 Y s 1949 120 m -5 Y s 1994 120 m -5 Y s 2039 125 m -10 Y s 2039 125 m -10 Y s
 gsave  2268 385 0 0 C 211.177 77.9731 t 0 r /Helvetica findfont 42.4144 sf 0 0 m (0) show NC gr 
 gsave  2268 385 0 0 C 383.368 77.9731 t 0 r /Helvetica findfont 42.4144 sf 0 0 m (20) show NC gr 
 gsave  2268 385 0 0 C 565.305 77.9731 t 0 r /Helvetica findfont 42.4144 sf 0 0 m (40) show NC gr 
 gsave  2268 385 0 0 C 747.242 77.9731 t 0 r /Helvetica findfont 42.4144 sf 0 0 m (60) show NC gr 
 gsave  2268 385 0 0 C 925.93 77.9731 t 0 r /Helvetica findfont 42.4144 sf 0 0 m (80) show NC gr 
 gsave  2268 385 0 0 C 1094.87 77.9731 t 0 r /Helvetica findfont 42.4144 sf 0 0 m (100) show NC gr 
 gsave  2268 385 0 0 C 1276.81 77.9731 t 0 r /Helvetica findfont 42.4144 sf 0 0 m (120) show NC gr 
 gsave  2268 385 0 0 C 1458.75 77.9731 t 0 r /Helvetica findfont 42.4144 sf 0 0 m (140) show NC gr 
 gsave  2268 385 0 0 C 1640.68 77.9731 t 0 r /Helvetica findfont 42.4144 sf 0 0 m (160) show NC gr 
 gsave  2268 385 0 0 C 1819.37 77.9731 t 0 r /Helvetica findfont 42.4144 sf 0 0 m (180) show NC gr 
 gsave  2268 385 0 0 C 2001.31 77.9731 t 0 r /Helvetica findfont 42.4144 sf 0 0 m (200) show NC gr  227 115 m 270 Y s 274 115 m -47 X s 251 124 m -24 X s 251 132 m -24 X s 251 141 m -24 X s 274 149 m -47 X s 251 158 m -24 X s 251 166 m -24 X s 251
 174 m -24 X s 274 183 m -47 X s 251 191 m -24 X s 251 200 m -24 X s 251 208 m -24 X s 274 217 m -47 X s 251 225 m -24 X s 251 233 m -24 X s 251 242 m -24 X s 274 250 m -47 X s 251 259 m -24 X s 251 267 m -24 X s 251 276 m -24 X s 274 284 m -47 X s
 251 292 m -24 X s 251 301 m -24 X s 251 309 m -24 X s 274 318 m -47 X s 251 326 m -24 X s 251 334 m -24 X s 251 343 m -24 X s 274 351 m -47 X s 251 360 m -24 X s 251 368 m -24 X s 251 377 m -24 X s 274 385 m -47 X s
 gsave  2268 385 0 0 C 155.946 100.715 t 0 r /Helvetica findfont 42.4144 sf 0 0 m (0.2) show NC gr 
 gsave  2268 385 0 0 C 155.946 133.204 t 0 r /Helvetica findfont 42.4144 sf 0 0 m (0.4) show NC gr 
 gsave  2268 385 0 0 C 155.946 168.942 t 0 r /Helvetica findfont 42.4144 sf 0 0 m (0.6) show NC gr 
 gsave  2268 385 0 0 C 155.946 201.43 t 0 r /Helvetica findfont 42.4144 sf 0 0 m (0.8) show NC gr 
 gsave  2268 385 0 0 C 198.182 233.919 t 0 r /Helvetica findfont 42.4144 sf 0 0 m (1) show NC gr 
 gsave  2268 385 0 0 C 155.946 266.408 t 0 r /Helvetica findfont 42.4144 sf 0 0 m (1.2) show NC gr 
 gsave  2268 385 0 0 C 155.946 298.897 t 0 r /Helvetica findfont 42.4144 sf 0 0 m (1.4) show NC gr 
 gsave  2268 385 0 0 C 155.946 337.883 t 0 r /Helvetica findfont 42.4144 sf 0 0 m (1.6) show NC gr 
 gsave  2268 385 0 0 C 155.946 370.372 t 0 r /Helvetica findfont 42.4144 sf 0 0 m (1.8) show NC gr  0 0 0.6 c black 0 0 0.6 c black cs 0 0 0 P05 setcolor 227 218 m 90 X 65 Y -90 X FA 0 0 0.6 c black cs 0 0 0 P05 setcolor 317 226 m 91 X 48 Y -91 X FA
 0 0 0.6 c black cs 0 0 0 P05 setcolor 408 226 m 91 X 49 Y -91 X FA 0 0 0.6 c black cs 0 0 0 P05 setcolor 499 228 m 90 X 44 Y -90 X FA 0 0 0.6 c black cs 0 0 0 P05 setcolor 589 234 m 91 X 32 Y -91 X FA 0 0 0.6 c black cs 0 0 0 P05 setcolor 680 242 m
 90 X 16 Y -90 X FA 0 0 0.6 c black cs 0 0 0 P05 setcolor 770 245 m 91 X 11 Y -91 X FA 0 0 0.6 c black cs 0 0 0 P05 setcolor 861 216 m 91 X 69 Y -91 X FA 0 0 0.6 c black cs 0 0 0 P05 setcolor 952 191 m 90 X 118 Y -90 X FA 0 0 0.6 c black cs 0 0 0 P05
 setcolor 1042 207 m 91 X 86 Y -91 X FA 0 0 0.6 c black cs 0 0 0 P05 setcolor 1133 218 m 91 X 64 Y -91 X FA 0 0 0.6 c black cs 0 0 0 P05 setcolor 1224 217 m 90 X 67 Y -90 X FA 0 0 0.6 c black cs 0 0 0 P05 setcolor 1314 206 m 91 X 88 Y -91 X FA 0 0
 0.6 c black cs 0 0 0 P05 setcolor 1405 192 m 90 X 117 Y -90 X FA 0 0 0.6 c black cs 0 0 0 P05 setcolor 1495 172 m 91 X 156 Y -91 X FA 0 0 0.6 c black cs 0 0 0 P05 setcolor 1586 150 m 91 X 200 Y -91 X FA 0 0 0.6 c black cs 0 0 0 P05 setcolor 1677 120
 m 90 X 260 Y -90 X FA 0 0 0.6 c black cs 0 0 0 P05 setcolor 1767 115 m 91 X 270 Y -91 X FA 0 0 0.6 c black cs 0 0 0 P05 setcolor 1858 130 m 91 X 240 Y -91 X FA 0 0 0.6 c black cs 0 0 0 P05 setcolor 1949 159 m 90 X 182 Y -90 X FA 0 0 0.6 c 1 1 1 c
 black 0 0 0.6 c 227 278 m 32 X s 285 278 m 32 X s black 272 278 m20 0 0 0.6 c 317 274 m 33 X s 376 274 m 32 X s black 363 274 m20 0 0 0.6 c 408 268 m 32 X s 466 268 m 33 X s black 453 268 m20 0 0 0.6 c 499 262 m 32 X s 557 262 m 32 X s black 544 262
 m20 0 0 0.6 c 589 253 m 33 X s 648 253 m 32 X s black 635 253 m20 0 0 0.6 c 680 255 m 32 X s 738 255 m 32 X s black 725 255 m20 0 0 0.6 c 770 252 m 33 X s 829 252 m 32 X s black 816 252 m20 0 0 0.6 c 861 248 m 32 X s 919 248 m 33 X s black 906 248
 m20 0 0 0.6 c 952 248 m 32 X s 1010 248 m 32 X s black 997 248 m20 0 0 0.6 c 1042 244 m 33 X s 1101 244 m 32 X s black 1088 244 m20 0 0 0.6 c 1133 249 m 32 X s 1191 249 m 33 X s black 1178 249 m20 0 0 0.6 c 1224 251 m 32 X s 1282 251 m 32 X s black
 1269 251 m20 0 0 0.6 c 1314 247 m 33 X s 1372 247 m 33 X s black 1359 247 m20 0 0 0.6 c 1405 247 m 32 X s 1463 247 m 32 X s black 1450 247 m20 0 0 0.6 c 1495 245 m 33 X s 1554 245 m 32 X s black 1541 245 m20 0 0 0.6 c 1586 248 m 32 X s 1644 248 m 33
 X s black 1631 248 m20 0 0 0.6 c 1677 234 m 32 X s 1735 234 m 32 X s black 1722 234 m20 0 0 0.6 c 1767 230 m 33 X s 1826 230 m 32 X s black 1813 230 m20 0 0 0.6 c 1858 229 m 32 X s 1916 229 m 33 X s black 1903 229 m20 0 0 0.6 c 1949 233 m 32 X s
 2007 233 m 32 X s black 1994 233 m20 1 0 0 c[ 12 12] 0 sd 227 250 m 1812 X s
 gr  gr showpage
end
%%EOF
