%!PS-Adobe-2.0 EPSF-2.0
%%BoundingBox:  0 0 567 385
%%Title: comparison_LeadingFatJetMass.eps: c1
%%Creator: ROOT Version 6.04/16
%%CreationDate: Mon Jul 18 16:55:27 2016
%%DocumentNeededResources: ProcSet (FontSetInit)
%%EndComments
%%BeginProlog
80 dict begin
/s {stroke} def /l {lineto} def /m {moveto} def /t {translate} def
/r {rotate} def /rl {roll}  def /R {repeat} def
/d {rlineto} def /rm {rmoveto} def /gr {grestore} def /f {eofill} def
/c {setrgbcolor} def /black {0 setgray} def /sd {setdash} def
/cl {closepath} def /sf {scalefont setfont} def /lw {setlinewidth} def
/box {m dup 0 exch d exch 0 d 0 exch neg d cl} def
/NC{systemdict begin initclip end}def/C{NC box clip newpath}def
/bl {box s} def /bf {gsave box gsave f grestore 1 lw [] 0 sd s grestore} def /Y { 0 exch d} def /X { 0 d} def 
/K {{pop pop 0 moveto} exch kshow} bind def
/ita {/ang 15 def gsave [1 0 ang dup sin exch cos div 1 0 0] concat} def 
/mp {newpath /y exch def /x exch def} def
/side {[w .77 mul w .23 mul] .385 w mul sd w 0 l currentpoint t -144 r} def
/mr {mp x y w2 0 360 arc} def /m24 {mr s} def /m20 {mr f} def
/mb {mp x y w2 add m w2 neg 0 d 0 w neg d w 0 d 0 w d cl} def
/mt {mp x y w2 add m w2 neg w neg d w 0 d cl} def
/m21 {mb f} def /m25 {mb s} def /m22 {mt f} def /m26{mt s} def
/m23 {mp x y w2 sub m w2 w d w neg 0 d cl f} def
/m27 {mp x y w2 add m w3 neg w2 neg d w3 w2 neg d w3 w2 d cl s} def
/m28 {mp x w2 sub y w2 sub w3 add m w3 0 d  0 w3 neg d w3 0 d 0 w3 d w3 0 d  0 w3 d w3 neg 0 d 0 w3 d w3 neg 0 d 0 w3 neg d w3 neg 0 d cl s } def
/m29 {mp gsave x w2 sub y w2 add w3 sub m currentpoint t 4 {side} repeat cl fill gr} def
/m30 {mp gsave x w2 sub y w2 add w3 sub m currentpoint t 4 {side} repeat cl s gr} def
/m31 {mp x y w2 sub m 0 w d x w2 sub y m w 0 d x w2 sub y w2 add m w w neg d x w2 sub y w2 sub m w w d s} def
/m32 {mp x y w2 sub m w2 w d w neg 0 d cl s} def
/m33 {mp x y w2 add m w3 neg w2 neg d w3 w2 neg d w3 w2 d cl f} def
/m34 {mp x w2 sub y w2 sub w3 add m w3 0 d  0 w3 neg d w3 0 d 0 w3 d w3 0 d  0 w3 d w3 neg 0 d 0 w3 d w3 neg 0 d 0 w3 neg d w3 neg 0 d cl f } def
/m2 {mp x y w2 sub m 0 w d x w2 sub y m w 0 d s} def
/m5 {mp x w2 sub y w2 sub m w w d x w2 sub y w2 add m w w neg d s} def
%%IncludeResource: ProcSet (FontSetInit)
%%IncludeResource: font Times-Roman
%%IncludeResource: font Times-Italic
%%IncludeResource: font Times-Bold
%%IncludeResource: font Times-BoldItalic
%%IncludeResource: font Helvetica
%%IncludeResource: font Helvetica-Oblique
%%IncludeResource: font Helvetica-Bold
%%IncludeResource: font Helvetica-BoldOblique
%%IncludeResource: font Courier
%%IncludeResource: font Courier-Oblique
%%IncludeResource: font Courier-Bold
%%IncludeResource: font Courier-BoldOblique
%%IncludeResource: font Symbol
%%IncludeResource: font ZapfDingbats
/reEncode {exch findfont dup length dict begin {1 index /FID eq  {pop pop} {def} ifelse } forall /Encoding exch def currentdict end dup /FontName get exch definefont pop } def [/Times-Bold /Times-Italic /Times-BoldItalic /Helvetica /Helvetica-Oblique
 /Helvetica-Bold /Helvetica-BoldOblique /Courier /Courier-Oblique /Courier-Bold /Courier-BoldOblique /Times-Roman /AvantGarde-Book /AvantGarde-BookOblique /AvantGarde-Demi /AvantGarde-DemiOblique /Bookman-Demi /Bookman-DemiItalic /Bookman-Light
 /Bookman-LightItalic /Helvetica-Narrow /Helvetica-Narrow-Bold /Helvetica-Narrow-BoldOblique /Helvetica-Narrow-Oblique /NewCenturySchlbk-Roman /NewCenturySchlbk-Bold /NewCenturySchlbk-BoldItalic /NewCenturySchlbk-Italic /Palatino-Bold
 /Palatino-BoldItalic /Palatino-Italic /Palatino-Roman ] {ISOLatin1Encoding reEncode } forall
%%EndProlog
%%BeginSetup
%%EndSetup
newpath  gsave  .25 .25 scale  gsave  0 0 t black[  ] 0 sd 3 lw 1 1 1 c 2268 1540 0 0 bf black 1 1 1 c 1814 1232 227 154 bf black 1814 1232 227 154 bl 6 lw 1 1 1 c black 227 157 m 45 X 2 Y 45 X 4 Y 46 X 5 Y 45 X 3 Y 46 X 3 Y 45 X 3 Y 45 X 1 Y 46 X -5
 Y 45 X 10 Y 45 X 1 Y 46 X 19 Y 45 X 26 Y 45 X 40 Y 46 X 47 Y 45 X 77 Y 45 X 108 Y 46 X 146 Y 45 X 123 Y 46 X -39 Y 45 X -192 Y 45 X -189 Y 46 X -105 Y 45 X -45 Y 45 X -20 Y 46 X -1 Y 45 X -10 Y 45 X 3 Y 46 X -5 Y 45 X -2 Y 91 X 3 Y 90 X 1 Y 46 X -5
 Y 45 X 3 Y 46 X -2 Y 45 X -4 Y 45 X 1 Y 46 X 4 Y 45 X s 3 lw 227 154 m 1814 X s 227 191 m -37 Y s 272 172 m -18 Y s 317 172 m -18 Y s 363 172 m -18 Y s 408 191 m -37 Y s 454 172 m -18 Y s 499 172 m -18 Y s 544 172 m -18 Y s 590 191 m -37 Y s 635 172
 m -18 Y s 680 172 m -18 Y s 726 172 m -18 Y s 771 191 m -37 Y s 816 172 m -18 Y s 862 172 m -18 Y s 907 172 m -18 Y s 952 191 m -37 Y s 998 172 m -18 Y s 1043 172 m -18 Y s 1089 172 m -18 Y s 1134 191 m -37 Y s 1179 172 m -18 Y s 1225 172 m -18 Y s
 1270 172 m -18 Y s 1315 191 m -37 Y s 1361 172 m -18 Y s 1406 172 m -18 Y s 1451 172 m -18 Y s 1497 191 m -37 Y s 1542 172 m -18 Y s 1587 172 m -18 Y s 1633 172 m -18 Y s 1678 191 m -37 Y s 1723 172 m -18 Y s 1769 172 m -18 Y s 1814 172 m -18 Y s
 1860 191 m -37 Y s 1905 172 m -18 Y s 1950 172 m -18 Y s 1996 172 m -18 Y s 2041 191 m -37 Y s
 gsave  2268 1540 0 0 C 211.177 103.964 t 0 r /Helvetica findfont 48.7332 sf 0 0 m (0) show NC gr 
 gsave  2268 1540 0 0 C 380.119 103.964 t 0 r /Helvetica findfont 48.7332 sf 0 0 m (20) show NC gr 
 gsave  2268 1540 0 0 C 562.056 103.964 t 0 r /Helvetica findfont 48.7332 sf 0 0 m (40) show NC gr 
 gsave  2268 1540 0 0 C 743.993 103.964 t 0 r /Helvetica findfont 48.7332 sf 0 0 m (60) show NC gr 
 gsave  2268 1540 0 0 C 925.93 103.964 t 0 r /Helvetica findfont 48.7332 sf 0 0 m (80) show NC gr 
 gsave  2268 1540 0 0 C 1091.62 103.964 t 0 r /Helvetica findfont 48.7332 sf 0 0 m (100) show NC gr 
 gsave  2268 1540 0 0 C 1270.31 103.964 t 0 r /Helvetica findfont 48.7332 sf 0 0 m (120) show NC gr 
 gsave  2268 1540 0 0 C 1452.25 103.964 t 0 r /Helvetica findfont 48.7332 sf 0 0 m (140) show NC gr 
 gsave  2268 1540 0 0 C 1634.19 103.964 t 0 r /Helvetica findfont 48.7332 sf 0 0 m (160) show NC gr 
 gsave  2268 1540 0 0 C 1816.12 103.964 t 0 r /Helvetica findfont 48.7332 sf 0 0 m (180) show NC gr 
 gsave  2268 1540 0 0 C 1998.06 103.964 t 0 r /Helvetica findfont 48.7332 sf 0 0 m (200) show NC gr  227 154 m 1232 Y s 281 154 m -54 X s 254 208 m -27 X s 254 263 m -27 X s 254 317 m -27 X s 281 371 m -54 X s 254 425 m -27 X s 254 480 m -27 X s 254
 534 m -27 X s 281 588 m -54 X s 254 642 m -27 X s 254 697 m -27 X s 254 751 m -27 X s 281 805 m -54 X s 254 860 m -27 X s 254 914 m -27 X s 254 968 m -27 X s 281 1022 m -54 X s 254 1077 m -27 X s 254 1131 m -27 X s 254 1185 m -27 X s 281 1239 m -54
 X s 281 1239 m -54 X s 254 1294 m -27 X s 254 1348 m -27 X s
 gsave  2268 1540 0 0 C 188.435 136.453 t 0 r /Helvetica findfont 48.7332 sf 0 0 m (0) show NC gr 
 gsave  2268 1540 0 0 C 133.204 354.128 t 0 r /Helvetica findfont 48.7332 sf 0 0 m (200) show NC gr 
 gsave  2268 1540 0 0 C 133.204 571.802 t 0 r /Helvetica findfont 48.7332 sf 0 0 m (400) show NC gr 
 gsave  2268 1540 0 0 C 133.204 786.228 t 0 r /Helvetica findfont 48.7332 sf 0 0 m (600) show NC gr 
 gsave  2268 1540 0 0 C 133.204 1003.9 t 0 r /Helvetica findfont 48.7332 sf 0 0 m (800) show NC gr 
 gsave  2268 1540 0 0 C 107.213 1221.58 t 0 r /Helvetica findfont 48.7332 sf 0 0 m (1000) show NC gr  1 1 1 c black
 gsave  2268 1540 0 0 C 415.856 1478.24 t 0 r /Helvetica findfont 32.4888 sf 0 0 m (ggH2000NWZZvvqq_0ptag0pjet_0ptv_HZZvvqq_Merged_FatJetsRequirement_LeadingFatJetMass) show NC gr  0 0 1 c 6 lw 1 1 1 c black 0 0 1 c 227 160 m 45 X -3 Y 45 X -1 Y 46 X
 8 Y 45 X 12 Y 46 X -4 Y 45 X 14 Y 45 X -9 Y 46 X 16 Y 45 X 10 Y 45 X 26 Y 46 X 51 Y 45 X 98 Y 45 X 105 Y 46 X 192 Y 45 X 192 Y 45 X 174 Y 46 X -117 Y 45 X -269 Y 46 X -277 Y 45 X -145 Y 45 X -44 Y 46 X -13 Y 45 X -13 Y 91 X -6 Y 90 X -2 Y 46 X 4 Y
 45 X 2 Y 45 X -6 Y 46 X 1 Y 45 X 2 Y 45 X 1 Y 46 X -3 Y 45 X 5 Y 46 X -3 Y 45 X 2 Y 45 X 2 Y 46 X 6 Y 45 X s 1 0 0 c 1 1 1 c black 1 0 0 c 227 155 m 45 X 3 Y 45 X 3 Y 46 X 3 Y 45 X 10 Y 136 X -4 Y 46 X 6 Y 45 X 13 Y 45 X 10 Y 46 X 20 Y 45 X 29 Y 45
 X 57 Y 46 X 36 Y 45 X 99 Y 45 X 60 Y 46 X 189 Y 45 X 108 Y 46 X -59 Y 45 X -192 Y 45 X -203 Y 46 X -99 Y 45 X -58 Y 45 X -11 Y 46 X -6 Y 45 X -8 Y 45 X 5 Y 46 X -6 Y 45 X 5 Y 45 X 1 Y 46 X -5 Y 45 X -1 Y 45 X 5 Y 46 X -6 Y 45 X 4 Y 46 X -3 Y 45 X 3
 Y 45 X 7 Y 46 X -4 Y 45 X s black 3 lw 1 1 1 c 680 462 1361 924 bf black 1361 924 m 680 X s 2041 924 m 462 Y s 2041 1386 m -680 X s 1361 1386 m -462 Y s
 gsave  2268 1540 0 0 C 1530.22 1293.05 t 0 r /Helvetica findfont 51.982 sf 0 0 m (ggH2000NWZZvvqq) show NC gr  1 1 1 c 1386 1255 m 119 X 108 Y -119 X f black 6 lw 1386 1309 m 119 X s 3 lw /w 2 def /w2 {w 2 div} def /w3 {w 3 div} def 1446 1309 m20 6
 lw
 gsave  2268 1540 0 0 C 1530.22 1140.36 t 0 r /Helvetica findfont 51.982 sf 0 0 m (HVTWZvvqq2000) show NC gr  1 1 1 c 3 lw 1386 1101 m 119 X 108 Y -119 X f 6 lw 0 0 1 c 1386 1155 m 119 X s black 3 lw 1446 1155 m20 6 lw
 gsave  2268 1540 0 0 C 1530.22 987.659 t 0 r /Helvetica findfont 51.982 sf 0 0 m (GZZvvqq2000) show NC gr  1 1 1 c 3 lw 1386 947 m 119 X 108 Y -119 X f 6 lw 1 0 0 c 1386 1001 m 119 X s black 3 lw 1446 1001 m20 6 lw 1 1 1 c black
 gsave  2268 1540 0 0 C 415.856 1478.24 t 0 r /Helvetica findfont 32.4888 sf 0 0 m (ggH2000NWZZvvqq_0ptag0pjet_0ptv_HZZvvqq_Merged_FatJetsRequirement_LeadingFatJetMass) show NC gr 
 gr  gr showpage
end
%%EOF
