%!PS-Adobe-2.0 EPSF-2.0
%%BoundingBox:  0 0 567 385
%%Title: comparison_MT.eps: c1
%%Creator: ROOT Version 6.04/16
%%CreationDate: Mon Jul 18 16:55:50 2016
%%DocumentNeededResources: ProcSet (FontSetInit)
%%EndComments
%%BeginProlog
80 dict begin
/s {stroke} def /l {lineto} def /m {moveto} def /t {translate} def
/r {rotate} def /rl {roll}  def /R {repeat} def
/d {rlineto} def /rm {rmoveto} def /gr {grestore} def /f {eofill} def
/c {setrgbcolor} def /black {0 setgray} def /sd {setdash} def
/cl {closepath} def /sf {scalefont setfont} def /lw {setlinewidth} def
/box {m dup 0 exch d exch 0 d 0 exch neg d cl} def
/NC{systemdict begin initclip end}def/C{NC box clip newpath}def
/bl {box s} def /bf {gsave box gsave f grestore 1 lw [] 0 sd s grestore} def /Y { 0 exch d} def /X { 0 d} def 
/K {{pop pop 0 moveto} exch kshow} bind def
/ita {/ang 15 def gsave [1 0 ang dup sin exch cos div 1 0 0] concat} def 
/mp {newpath /y exch def /x exch def} def
/side {[w .77 mul w .23 mul] .385 w mul sd w 0 l currentpoint t -144 r} def
/mr {mp x y w2 0 360 arc} def /m24 {mr s} def /m20 {mr f} def
/mb {mp x y w2 add m w2 neg 0 d 0 w neg d w 0 d 0 w d cl} def
/mt {mp x y w2 add m w2 neg w neg d w 0 d cl} def
/m21 {mb f} def /m25 {mb s} def /m22 {mt f} def /m26{mt s} def
/m23 {mp x y w2 sub m w2 w d w neg 0 d cl f} def
/m27 {mp x y w2 add m w3 neg w2 neg d w3 w2 neg d w3 w2 d cl s} def
/m28 {mp x w2 sub y w2 sub w3 add m w3 0 d  0 w3 neg d w3 0 d 0 w3 d w3 0 d  0 w3 d w3 neg 0 d 0 w3 d w3 neg 0 d 0 w3 neg d w3 neg 0 d cl s } def
/m29 {mp gsave x w2 sub y w2 add w3 sub m currentpoint t 4 {side} repeat cl fill gr} def
/m30 {mp gsave x w2 sub y w2 add w3 sub m currentpoint t 4 {side} repeat cl s gr} def
/m31 {mp x y w2 sub m 0 w d x w2 sub y m w 0 d x w2 sub y w2 add m w w neg d x w2 sub y w2 sub m w w d s} def
/m32 {mp x y w2 sub m w2 w d w neg 0 d cl s} def
/m33 {mp x y w2 add m w3 neg w2 neg d w3 w2 neg d w3 w2 d cl f} def
/m34 {mp x w2 sub y w2 sub w3 add m w3 0 d  0 w3 neg d w3 0 d 0 w3 d w3 0 d  0 w3 d w3 neg 0 d 0 w3 d w3 neg 0 d 0 w3 neg d w3 neg 0 d cl f } def
/m2 {mp x y w2 sub m 0 w d x w2 sub y m w 0 d s} def
/m5 {mp x w2 sub y w2 sub m w w d x w2 sub y w2 add m w w neg d s} def
%%IncludeResource: ProcSet (FontSetInit)
%%IncludeResource: font Times-Roman
%%IncludeResource: font Times-Italic
%%IncludeResource: font Times-Bold
%%IncludeResource: font Times-BoldItalic
%%IncludeResource: font Helvetica
%%IncludeResource: font Helvetica-Oblique
%%IncludeResource: font Helvetica-Bold
%%IncludeResource: font Helvetica-BoldOblique
%%IncludeResource: font Courier
%%IncludeResource: font Courier-Oblique
%%IncludeResource: font Courier-Bold
%%IncludeResource: font Courier-BoldOblique
%%IncludeResource: font Symbol
%%IncludeResource: font ZapfDingbats
/reEncode {exch findfont dup length dict begin {1 index /FID eq  {pop pop} {def} ifelse } forall /Encoding exch def currentdict end dup /FontName get exch definefont pop } def [/Times-Bold /Times-Italic /Times-BoldItalic /Helvetica /Helvetica-Oblique
 /Helvetica-Bold /Helvetica-BoldOblique /Courier /Courier-Oblique /Courier-Bold /Courier-BoldOblique /Times-Roman /AvantGarde-Book /AvantGarde-BookOblique /AvantGarde-Demi /AvantGarde-DemiOblique /Bookman-Demi /Bookman-DemiItalic /Bookman-Light
 /Bookman-LightItalic /Helvetica-Narrow /Helvetica-Narrow-Bold /Helvetica-Narrow-BoldOblique /Helvetica-Narrow-Oblique /NewCenturySchlbk-Roman /NewCenturySchlbk-Bold /NewCenturySchlbk-BoldItalic /NewCenturySchlbk-Italic /Palatino-Bold
 /Palatino-BoldItalic /Palatino-Italic /Palatino-Roman ] {ISOLatin1Encoding reEncode } forall
%%EndProlog
%%BeginSetup
%%EndSetup
newpath  gsave  .25 .25 scale  gsave  0 0 t black[  ] 0 sd 3 lw 1 1 1 c 2268 1540 0 0 bf black 1 1 1 c 1814 1232 227 154 bf black 1814 1232 227 154 bl 6 lw 1 1 1 c black 227 154 m 136 X 4 Y 15 X 8 Y 15 X 8 Y 15 X 5 Y 15 X 4 Y 15 X 5 Y 16 X -1 Y 30 X
 25 Y 15 X -6 Y 15 X -1 Y 15 X 30 Y 15 X -18 Y 15 X 18 Y 15 X 14 Y 16 X 12 Y 15 X 20 Y 30 X 3 Y 15 X 25 Y 15 X -3 Y 15 X 44 Y 15 X 21 Y 16 X 9 Y 15 X 28 Y 15 X 33 Y 15 X 63 Y 15 X 45 Y 15 X 90 Y 15 X 54 Y 15 X 77 Y 15 X -176 Y 16 X -237 Y 15 X -144 Y
 15 X -51 Y 15 X -7 Y 30 X -1 Y 1119 X s 3 lw 227 154 m 1814 X s 227 191 m -37 Y s 287 172 m -18 Y s 348 172 m -18 Y s 408 172 m -18 Y s 469 172 m -18 Y s 529 191 m -37 Y s 590 172 m -18 Y s 650 172 m -18 Y s 711 172 m -18 Y s 771 172 m -18 Y s 831
 191 m -37 Y s 892 172 m -18 Y s 952 172 m -18 Y s 1013 172 m -18 Y s 1073 172 m -18 Y s 1134 191 m -37 Y s 1194 172 m -18 Y s 1255 172 m -18 Y s 1315 172 m -18 Y s 1376 172 m -18 Y s 1436 191 m -37 Y s 1497 172 m -18 Y s 1557 172 m -18 Y s 1618 172
 m -18 Y s 1678 172 m -18 Y s 1739 191 m -37 Y s 1799 172 m -18 Y s 1860 172 m -18 Y s 1920 172 m -18 Y s 1980 172 m -18 Y s 2041 191 m -37 Y s
 gsave  2268 1540 0 0 C 211.177 103.964 t 0 r /Helvetica findfont 48.7332 sf 0 0 m (0) show NC gr 
 gsave  2268 1540 0 0 C 471.087 103.964 t 0 r /Helvetica findfont 48.7332 sf 0 0 m (1000) show NC gr 
 gsave  2268 1540 0 0 C 773.233 103.964 t 0 r /Helvetica findfont 48.7332 sf 0 0 m (2000) show NC gr 
 gsave  2268 1540 0 0 C 1078.63 103.964 t 0 r /Helvetica findfont 48.7332 sf 0 0 m (3000) show NC gr 
 gsave  2268 1540 0 0 C 1380.77 103.964 t 0 r /Helvetica findfont 48.7332 sf 0 0 m (4000) show NC gr 
 gsave  2268 1540 0 0 C 1682.92 103.964 t 0 r /Helvetica findfont 48.7332 sf 0 0 m (5000) show NC gr 
 gsave  2268 1540 0 0 C 1985.06 103.964 t 0 r /Helvetica findfont 48.7332 sf 0 0 m (6000) show NC gr  227 154 m 1232 Y s 281 154 m -54 X s 254 193 m -27 X s 254 231 m -27 X s 254 270 m -27 X s 254 309 m -27 X s 281 348 m -54 X s 254 386 m -27 X s 254
 425 m -27 X s 254 464 m -27 X s 254 503 m -27 X s 281 541 m -54 X s 254 580 m -27 X s 254 619 m -27 X s 254 658 m -27 X s 254 696 m -27 X s 281 735 m -54 X s 254 774 m -27 X s 254 813 m -27 X s 254 851 m -27 X s 254 890 m -27 X s 281 929 m -54 X s
 254 968 m -27 X s 254 1006 m -27 X s 254 1045 m -27 X s 254 1084 m -27 X s 281 1123 m -54 X s 254 1161 m -27 X s 254 1200 m -27 X s 254 1239 m -27 X s 254 1278 m -27 X s 281 1316 m -54 X s 281 1316 m -54 X s 254 1355 m -27 X s
 gsave  2268 1540 0 0 C 188.435 136.453 t 0 r /Helvetica findfont 48.7332 sf 0 0 m (0) show NC gr 
 gsave  2268 1540 0 0 C 162.444 331.386 t 0 r /Helvetica findfont 48.7332 sf 0 0 m (50) show NC gr 
 gsave  2268 1540 0 0 C 133.204 523.069 t 0 r /Helvetica findfont 48.7332 sf 0 0 m (100) show NC gr 
 gsave  2268 1540 0 0 C 133.204 718.002 t 0 r /Helvetica findfont 48.7332 sf 0 0 m (150) show NC gr 
 gsave  2268 1540 0 0 C 133.204 909.686 t 0 r /Helvetica findfont 48.7332 sf 0 0 m (200) show NC gr 
 gsave  2268 1540 0 0 C 133.204 1104.62 t 0 r /Helvetica findfont 48.7332 sf 0 0 m (250) show NC gr 
 gsave  2268 1540 0 0 C 133.204 1299.55 t 0 r /Helvetica findfont 48.7332 sf 0 0 m (300) show NC gr  1 1 1 c black
 gsave  2268 1540 0 0 C 422.354 1474.99 t 0 r /Helvetica findfont 35.7377 sf 0 0 m (ggH2000NWZZvvqq_0ptag0pjet_0ptv_HZZvvqq_Final_inclusive_merged_SR_noTag_MT) show NC gr  0 0 1 c 6 lw 1 1 1 c black 0 0 1 c 227 154 m 151 X 1 Y 15 X 1 Y 30 X 12 Y 15 X
 -8 Y 16 X 12 Y 15 X -4 Y 15 X 10 Y 15 X -4 Y 15 X 1 Y 15 X 54 Y 15 X -22 Y 15 X -16 Y 15 X 51 Y 16 X -7 Y 15 X 1 Y 15 X 10 Y 15 X 68 Y 15 X 97 Y 15 X -84 Y 15 X 30 Y 15 X 42 Y 16 X 86 Y 15 X 35 Y 15 X 2 Y 15 X 213 Y 15 X -23 Y 15 X 264 Y 15 X 171 Y
 15 X 92 Y 15 X -248 Y 16 X -388 Y 15 X -232 Y 15 X -139 Y 15 X -26 Y 15 X 10 Y 15 X -54 Y 15 X -2 Y 15 X -6 Y 16 X 1 Y 30 X -1 Y 15 X 9 Y 15 X -9 Y 1013 X s 1 0 0 c 1 1 1 c black 1 0 0 c 227 154 m 166 X 5 Y 15 X -4 Y 30 X 3 Y 16 X 1 Y 15 X -3 Y 15 X
 1 Y 15 X 11 Y 15 X 5 Y 15 X -8 Y 15 X 28 Y 15 X -17 Y 15 X 18 Y 16 X 19 Y 15 X 18 Y 15 X -17 Y 15 X 11 Y 15 X 44 Y 15 X 24 Y 15 X 19 Y 15 X -14 Y 16 X 59 Y 15 X 97 Y 15 X 66 Y 15 X 20 Y 15 X 131 Y 15 X 66 Y 15 X 174 Y 15 X -73 Y 15 X -126 Y 16 X
 -128 Y 15 X -185 Y 15 X -138 Y 15 X -36 Y 15 X -25 Y 30 X -28 Y 15 X 10 Y 16 X 1 Y 15 X -15 Y 15 X -5 Y 15 X -5 Y 15 X 9 Y 15 X -13 Y 15 X 6 Y 15 X -5 Y 46 X -1 Y 30 X 2 Y 15 X -1 Y 15 X -1 Y 15 X 1 Y 31 X -1 Y 75 X 1 Y 15 X -1 Y 15 X 1 Y 31 X -1 Y
 680 X s black 3 lw 1 1 1 c 680 462 1361 924 bf black 1361 924 m 680 X s 2041 924 m 462 Y s 2041 1386 m -680 X s 1361 1386 m -462 Y s
 gsave  2268 1540 0 0 C 1530.22 1293.05 t 0 r /Helvetica findfont 51.982 sf 0 0 m (ggH2000NWZZvvqq) show NC gr  1 1 1 c 1386 1255 m 119 X 108 Y -119 X f black 6 lw 1386 1309 m 119 X s 3 lw /w 2 def /w2 {w 2 div} def /w3 {w 3 div} def 1446 1309 m20 6
 lw
 gsave  2268 1540 0 0 C 1530.22 1140.36 t 0 r /Helvetica findfont 51.982 sf 0 0 m (HVTWZvvqq2000) show NC gr  1 1 1 c 3 lw 1386 1101 m 119 X 108 Y -119 X f 6 lw 0 0 1 c 1386 1155 m 119 X s black 3 lw 1446 1155 m20 6 lw
 gsave  2268 1540 0 0 C 1530.22 987.659 t 0 r /Helvetica findfont 51.982 sf 0 0 m (GZZvvqq2000) show NC gr  1 1 1 c 3 lw 1386 947 m 119 X 108 Y -119 X f 6 lw 1 0 0 c 1386 1001 m 119 X s black 3 lw 1446 1001 m20 6 lw 1 1 1 c black
 gsave  2268 1540 0 0 C 422.354 1474.99 t 0 r /Helvetica findfont 35.7377 sf 0 0 m (ggH2000NWZZvvqq_0ptag0pjet_0ptv_HZZvvqq_Final_inclusive_merged_SR_noTag_MT) show NC gr 
 gr  gr showpage
end
%%EOF
