%!PS-Adobe-2.0 EPSF-2.0
%%BoundingBox:  0 0 567 385
%%Title: comparison_LeadingFatJetD2.eps: c1
%%Creator: ROOT Version 6.04/16
%%CreationDate: Mon Jul 18 16:53:47 2016
%%DocumentNeededResources: ProcSet (FontSetInit)
%%EndComments
%%BeginProlog
80 dict begin
/s {stroke} def /l {lineto} def /m {moveto} def /t {translate} def
/r {rotate} def /rl {roll}  def /R {repeat} def
/d {rlineto} def /rm {rmoveto} def /gr {grestore} def /f {eofill} def
/c {setrgbcolor} def /black {0 setgray} def /sd {setdash} def
/cl {closepath} def /sf {scalefont setfont} def /lw {setlinewidth} def
/box {m dup 0 exch d exch 0 d 0 exch neg d cl} def
/NC{systemdict begin initclip end}def/C{NC box clip newpath}def
/bl {box s} def /bf {gsave box gsave f grestore 1 lw [] 0 sd s grestore} def /Y { 0 exch d} def /X { 0 d} def 
/K {{pop pop 0 moveto} exch kshow} bind def
/ita {/ang 15 def gsave [1 0 ang dup sin exch cos div 1 0 0] concat} def 
/mp {newpath /y exch def /x exch def} def
/side {[w .77 mul w .23 mul] .385 w mul sd w 0 l currentpoint t -144 r} def
/mr {mp x y w2 0 360 arc} def /m24 {mr s} def /m20 {mr f} def
/mb {mp x y w2 add m w2 neg 0 d 0 w neg d w 0 d 0 w d cl} def
/mt {mp x y w2 add m w2 neg w neg d w 0 d cl} def
/m21 {mb f} def /m25 {mb s} def /m22 {mt f} def /m26{mt s} def
/m23 {mp x y w2 sub m w2 w d w neg 0 d cl f} def
/m27 {mp x y w2 add m w3 neg w2 neg d w3 w2 neg d w3 w2 d cl s} def
/m28 {mp x w2 sub y w2 sub w3 add m w3 0 d  0 w3 neg d w3 0 d 0 w3 d w3 0 d  0 w3 d w3 neg 0 d 0 w3 d w3 neg 0 d 0 w3 neg d w3 neg 0 d cl s } def
/m29 {mp gsave x w2 sub y w2 add w3 sub m currentpoint t 4 {side} repeat cl fill gr} def
/m30 {mp gsave x w2 sub y w2 add w3 sub m currentpoint t 4 {side} repeat cl s gr} def
/m31 {mp x y w2 sub m 0 w d x w2 sub y m w 0 d x w2 sub y w2 add m w w neg d x w2 sub y w2 sub m w w d s} def
/m32 {mp x y w2 sub m w2 w d w neg 0 d cl s} def
/m33 {mp x y w2 add m w3 neg w2 neg d w3 w2 neg d w3 w2 d cl f} def
/m34 {mp x w2 sub y w2 sub w3 add m w3 0 d  0 w3 neg d w3 0 d 0 w3 d w3 0 d  0 w3 d w3 neg 0 d 0 w3 d w3 neg 0 d 0 w3 neg d w3 neg 0 d cl f } def
/m2 {mp x y w2 sub m 0 w d x w2 sub y m w 0 d s} def
/m5 {mp x w2 sub y w2 sub m w w d x w2 sub y w2 add m w w neg d s} def
%%IncludeResource: ProcSet (FontSetInit)
%%IncludeResource: font Times-Roman
%%IncludeResource: font Times-Italic
%%IncludeResource: font Times-Bold
%%IncludeResource: font Times-BoldItalic
%%IncludeResource: font Helvetica
%%IncludeResource: font Helvetica-Oblique
%%IncludeResource: font Helvetica-Bold
%%IncludeResource: font Helvetica-BoldOblique
%%IncludeResource: font Courier
%%IncludeResource: font Courier-Oblique
%%IncludeResource: font Courier-Bold
%%IncludeResource: font Courier-BoldOblique
%%IncludeResource: font Symbol
%%IncludeResource: font ZapfDingbats
/reEncode {exch findfont dup length dict begin {1 index /FID eq  {pop pop} {def} ifelse } forall /Encoding exch def currentdict end dup /FontName get exch definefont pop } def [/Times-Bold /Times-Italic /Times-BoldItalic /Helvetica /Helvetica-Oblique
 /Helvetica-Bold /Helvetica-BoldOblique /Courier /Courier-Oblique /Courier-Bold /Courier-BoldOblique /Times-Roman /AvantGarde-Book /AvantGarde-BookOblique /AvantGarde-Demi /AvantGarde-DemiOblique /Bookman-Demi /Bookman-DemiItalic /Bookman-Light
 /Bookman-LightItalic /Helvetica-Narrow /Helvetica-Narrow-Bold /Helvetica-Narrow-BoldOblique /Helvetica-Narrow-Oblique /NewCenturySchlbk-Roman /NewCenturySchlbk-Bold /NewCenturySchlbk-BoldItalic /NewCenturySchlbk-Italic /Palatino-Bold
 /Palatino-BoldItalic /Palatino-Italic /Palatino-Roman ] {ISOLatin1Encoding reEncode } forall
%%EndProlog
%%BeginSetup
%%EndSetup
newpath  gsave  .25 .25 scale  gsave  0 0 t black[  ] 0 sd 3 lw 1 1 1 c 2268 1540 0 0 bf black 1 1 1 c 1814 1232 227 154 bf black 1814 1232 227 154 bl 6 lw 1 1 1 c black 227 175 m 36 X -10 Y 36 X 13 Y 37 X 25 Y 36 X 13 Y 36 X 55 Y 36 X 58 Y 37 X 91 Y
 36 X 48 Y 36 X 88 Y 37 X 127 Y 36 X 39 Y 36 X 48 Y 36 X -33 Y 37 X -64 Y 36 X -91 Y 36 X -77 Y 37 X -81 Y 36 X -57 Y 36 X -43 Y 36 X -16 Y 37 X -43 Y 36 X -13 Y 36 X -13 Y 37 X -7 Y 36 X -22 Y 36 X -13 Y 36 X -3 Y 37 X -7 Y 36 X -9 Y 36 X -4 Y 73 X
 -6 Y 36 X -2 Y 36 X -3 Y 37 X -1 Y 72 X -2 Y 73 X -2 Y 109 X -2 Y 36 X 1 Y 36 X -1 Y 73 X 1 Y 36 X -2 Y 36 X 1 Y 37 X -1 Y 36 X s 3 lw 227 154 m 1814 X s 227 191 m -37 Y s 263 172 m -18 Y s 299 172 m -18 Y s 336 172 m -18 Y s 372 172 m -18 Y s 408
 191 m -37 Y s 444 172 m -18 Y s 481 172 m -18 Y s 517 172 m -18 Y s 553 172 m -18 Y s 590 191 m -37 Y s 626 172 m -18 Y s 662 172 m -18 Y s 698 172 m -18 Y s 735 172 m -18 Y s 771 191 m -37 Y s 807 172 m -18 Y s 844 172 m -18 Y s 880 172 m -18 Y s
 916 172 m -18 Y s 952 191 m -37 Y s 989 172 m -18 Y s 1025 172 m -18 Y s 1061 172 m -18 Y s 1098 172 m -18 Y s 1134 191 m -37 Y s 1170 172 m -18 Y s 1206 172 m -18 Y s 1243 172 m -18 Y s 1279 172 m -18 Y s 1315 191 m -37 Y s 1352 172 m -18 Y s 1388
 172 m -18 Y s 1424 172 m -18 Y s 1460 172 m -18 Y s 1497 191 m -37 Y s 1533 172 m -18 Y s 1569 172 m -18 Y s 1606 172 m -18 Y s 1642 172 m -18 Y s 1678 191 m -37 Y s 1714 172 m -18 Y s 1751 172 m -18 Y s 1787 172 m -18 Y s 1823 172 m -18 Y s 1860
 191 m -37 Y s 1896 172 m -18 Y s 1932 172 m -18 Y s 1968 172 m -18 Y s 2005 172 m -18 Y s 2041 191 m -37 Y s
 gsave  2268 1540 0 0 C 211.177 103.964 t 0 r /Helvetica findfont 48.7332 sf 0 0 m (0) show NC gr 
 gsave  2268 1540 0 0 C 370.372 103.964 t 0 r /Helvetica findfont 48.7332 sf 0 0 m (0.5) show NC gr 
 gsave  2268 1540 0 0 C 578.3 103.964 t 0 r /Helvetica findfont 48.7332 sf 0 0 m (1) show NC gr 
 gsave  2268 1540 0 0 C 734.246 103.964 t 0 r /Helvetica findfont 48.7332 sf 0 0 m (1.5) show NC gr 
 gsave  2268 1540 0 0 C 938.926 103.964 t 0 r /Helvetica findfont 48.7332 sf 0 0 m (2) show NC gr 
 gsave  2268 1540 0 0 C 1098.12 103.964 t 0 r /Helvetica findfont 48.7332 sf 0 0 m (2.5) show NC gr 
 gsave  2268 1540 0 0 C 1299.55 103.964 t 0 r /Helvetica findfont 48.7332 sf 0 0 m (3) show NC gr 
 gsave  2268 1540 0 0 C 1458.75 103.964 t 0 r /Helvetica findfont 48.7332 sf 0 0 m (3.5) show NC gr 
 gsave  2268 1540 0 0 C 1663.43 103.964 t 0 r /Helvetica findfont 48.7332 sf 0 0 m (4) show NC gr 
 gsave  2268 1540 0 0 C 1822.62 103.964 t 0 r /Helvetica findfont 48.7332 sf 0 0 m (4.5) show NC gr 
 gsave  2268 1540 0 0 C 2027.3 103.964 t 0 r /Helvetica findfont 48.7332 sf 0 0 m (5) show NC gr  227 154 m 1232 Y s 281 154 m -54 X s 254 189 m -27 X s 254 224 m -27 X s 254 259 m -27 X s 254 294 m -27 X s 281 329 m -54 X s 254 364 m -27 X s 254 399
 m -27 X s 254 434 m -27 X s 254 469 m -27 X s 281 504 m -54 X s 254 539 m -27 X s 254 575 m -27 X s 254 610 m -27 X s 254 645 m -27 X s 281 680 m -54 X s 254 715 m -27 X s 254 750 m -27 X s 254 785 m -27 X s 254 820 m -27 X s 281 855 m -54 X s 254
 890 m -27 X s 254 925 m -27 X s 254 960 m -27 X s 254 995 m -27 X s 281 1030 m -54 X s 254 1065 m -27 X s 254 1100 m -27 X s 254 1135 m -27 X s 254 1170 m -27 X s 281 1205 m -54 X s 254 1240 m -27 X s 254 1275 m -27 X s 254 1310 m -27 X s 254 1345 m
 -27 X s 281 1381 m -54 X s 281 1381 m -54 X s
 gsave  2268 1540 0 0 C 188.435 136.453 t 0 r /Helvetica findfont 48.7332 sf 0 0 m (0) show NC gr 
 gsave  2268 1540 0 0 C 133.204 311.892 t 0 r /Helvetica findfont 48.7332 sf 0 0 m (100) show NC gr 
 gsave  2268 1540 0 0 C 133.204 487.332 t 0 r /Helvetica findfont 48.7332 sf 0 0 m (200) show NC gr 
 gsave  2268 1540 0 0 C 133.204 662.771 t 0 r /Helvetica findfont 48.7332 sf 0 0 m (300) show NC gr 
 gsave  2268 1540 0 0 C 133.204 838.21 t 0 r /Helvetica findfont 48.7332 sf 0 0 m (400) show NC gr 
 gsave  2268 1540 0 0 C 133.204 1013.65 t 0 r /Helvetica findfont 48.7332 sf 0 0 m (500) show NC gr 
 gsave  2268 1540 0 0 C 133.204 1185.84 t 0 r /Helvetica findfont 48.7332 sf 0 0 m (600) show NC gr 
 gsave  2268 1540 0 0 C 133.204 1361.28 t 0 r /Helvetica findfont 48.7332 sf 0 0 m (700) show NC gr  1 1 1 c black
 gsave  2268 1540 0 0 C 435.35 1478.24 t 0 r /Helvetica findfont 32.4888 sf 0 0 m (ggH2000NWZZvvqq_0ptag0pjet_0ptv_HZZvvqq_Merged_FatJetsRequirement_LeadingFatJetD2) show NC gr  0 0 1 c 6 lw 1 1 1 c black 0 0 1 c 227 224 m 36 X -55 Y 36 X 6 Y 37 X 41
 Y 36 X 1 Y 36 X 54 Y 36 X 79 Y 37 X 75 Y 36 X 59 Y 36 X 151 Y 37 X 17 Y 36 X 227 Y 36 X -64 Y 36 X 115 Y 37 X -126 Y 36 X -52 Y 36 X -151 Y 37 X -122 Y 36 X -37 Y 36 X -47 Y 36 X -57 Y 37 X -33 Y 36 X -21 Y 36 X -31 Y 37 X -18 Y 36 X 5 Y 36 X -12 Y
 36 X -35 Y 37 X 21 Y 36 X -24 Y 36 X -17 Y 37 X -5 Y 36 X 5 Y 36 X -2 Y 36 X -3 Y 37 X -3 Y 36 X 3 Y 36 X -5 Y 37 X -2 Y 36 X 6 Y 36 X -6 Y 36 X -2 Y 37 X 1 Y 36 X -4 Y 73 X 7 Y 36 X -4 Y 36 X -4 Y 36 X 1 Y 37 X 3 Y 36 X s 1 0 0 c 1 1 1 c black 1 0
 0 c 227 213 m 36 X -45 Y 36 X 19 Y 37 X 18 Y 36 X 31 Y 36 X 46 Y 36 X 70 Y 37 X 82 Y 36 X 81 Y 36 X 100 Y 37 X 33 Y 36 X 82 Y 36 X 25 Y 36 X -44 Y 37 X -20 Y 36 X -89 Y 36 X -80 Y 37 X -73 Y 36 X -77 Y 36 X -31 Y 36 X -33 Y 37 X -20 Y 36 X -20 Y 36
 X -13 Y 37 X -37 Y 36 X -7 Y 36 X -7 Y 36 X -10 Y 37 X 11 Y 36 X -20 Y 36 X -2 Y 37 X -8 Y 36 X 4 Y 36 X -7 Y 36 X -7 Y 37 X 1 Y 36 X -5 Y 36 X 5 Y 37 X -5 Y 72 X -5 Y 73 X 1 Y 72 X -2 Y 37 X 4 Y 36 X -4 Y 145 X s black 3 lw 1 1 1 c 680 462 1361 924
 bf black 1361 924 m 680 X s 2041 924 m 462 Y s 2041 1386 m -680 X s 1361 1386 m -462 Y s
 gsave  2268 1540 0 0 C 1530.22 1293.05 t 0 r /Helvetica findfont 51.982 sf 0 0 m (ggH2000NWZZvvqq) show NC gr  1 1 1 c 1386 1255 m 119 X 108 Y -119 X f black 6 lw 1386 1309 m 119 X s 3 lw /w 2 def /w2 {w 2 div} def /w3 {w 3 div} def 1446 1309 m20 6
 lw
 gsave  2268 1540 0 0 C 1530.22 1140.36 t 0 r /Helvetica findfont 51.982 sf 0 0 m (HVTWZvvqq2000) show NC gr  1 1 1 c 3 lw 1386 1101 m 119 X 108 Y -119 X f 6 lw 0 0 1 c 1386 1155 m 119 X s black 3 lw 1446 1155 m20 6 lw
 gsave  2268 1540 0 0 C 1530.22 987.659 t 0 r /Helvetica findfont 51.982 sf 0 0 m (GZZvvqq2000) show NC gr  1 1 1 c 3 lw 1386 947 m 119 X 108 Y -119 X f 6 lw 1 0 0 c 1386 1001 m 119 X s black 3 lw 1446 1001 m20 6 lw 1 1 1 c black
 gsave  2268 1540 0 0 C 435.35 1478.24 t 0 r /Helvetica findfont 32.4888 sf 0 0 m (ggH2000NWZZvvqq_0ptag0pjet_0ptv_HZZvvqq_Merged_FatJetsRequirement_LeadingFatJetD2) show NC gr 
 gr  gr showpage
end
%%EOF
