%!PS-Adobe-2.0 EPSF-2.0
%%BoundingBox:  0 0 567 384
%%Title: : c
%%Creator: ROOT Version 6.06/02
%%CreationDate: Wed May 17 23:31:16 2017
%%DocumentNeededResources: ProcSet (FontSetInit)
%%EndComments
%%BeginProlog
80 dict begin
/s {stroke} def /l {lineto} def /m {moveto} def /t {translate} def
/r {rotate} def /rl {roll}  def /R {repeat} def
/d {rlineto} def /rm {rmoveto} def /gr {grestore} def /f {eofill} def
/c {setrgbcolor} def /black {0 setgray} def /sd {setdash} def
/cl {closepath} def /sf {scalefont setfont} def /lw {setlinewidth} def
/box {m dup 0 exch d exch 0 d 0 exch neg d cl} def
/NC{systemdict begin initclip end}def/C{NC box clip newpath}def
/bl {box s} def /bf {gsave box gsave f grestore 1 lw [] 0 sd s grestore} def /Y { 0 exch d} def /X { 0 d} def 
/K {{pop pop 0 moveto} exch kshow} bind def
/ita {/ang 15 def gsave [1 0 ang dup sin exch cos div 1 0 0] concat} def 
/mp {newpath /y exch def /x exch def} def
/side {[w .77 mul w .23 mul] .385 w mul sd w 0 l currentpoint t -144 r} def
/mr {mp x y w2 0 360 arc} def /m24 {mr s} def /m20 {mr f} def
/mb {mp x y w2 add m w2 neg 0 d 0 w neg d w 0 d 0 w d cl} def
/mt {mp x y w2 add m w2 neg w neg d w 0 d cl} def
/m21 {mb f} def /m25 {mb s} def /m22 {mt f} def /m26{mt s} def
/m23 {mp x y w2 sub m w2 w d w neg 0 d cl f} def
/m27 {mp x y w2 add m w3 neg w2 neg d w3 w2 neg d w3 w2 d cl s} def
/m28 {mp x w2 sub y w2 sub w3 add m w3 0 d  0 w3 neg d w3 0 d 0 w3 d w3 0 d  0 w3 d w3 neg 0 d 0 w3 d w3 neg 0 d 0 w3 neg d w3 neg 0 d cl s } def
/m29 {mp gsave x w2 sub y w2 add w3 sub m currentpoint t 4 {side} repeat cl fill gr} def
/m30 {mp gsave x w2 sub y w2 add w3 sub m currentpoint t 4 {side} repeat cl s gr} def
/m31 {mp x y w2 sub m 0 w d x w2 sub y m w 0 d x w2 sub y w2 add m w w neg d x w2 sub y w2 sub m w w d s} def
/m32 {mp x y w2 sub m w2 w d w neg 0 d cl s} def
/m33 {mp x y w2 add m w3 neg w2 neg d w3 w2 neg d w3 w2 d cl f} def
/m34 {mp x w2 sub y w2 sub w3 add m w3 0 d  0 w3 neg d w3 0 d 0 w3 d w3 0 d  0 w3 d w3 neg 0 d 0 w3 d w3 neg 0 d 0 w3 neg d w3 neg 0 d cl f } def
/m2 {mp x y w2 sub m 0 w d x w2 sub y m w 0 d s} def
/m5 {mp x w2 sub y w2 sub m w w d x w2 sub y w2 add m w w neg d s} def
%%IncludeResource: ProcSet (FontSetInit)
%%IncludeResource: font Times-Roman
%%IncludeResource: font Times-Italic
%%IncludeResource: font Times-Bold
%%IncludeResource: font Times-BoldItalic
%%IncludeResource: font Helvetica
%%IncludeResource: font Helvetica-Oblique
%%IncludeResource: font Helvetica-Bold
%%IncludeResource: font Helvetica-BoldOblique
%%IncludeResource: font Courier
%%IncludeResource: font Courier-Oblique
%%IncludeResource: font Courier-Bold
%%IncludeResource: font Courier-BoldOblique
%%IncludeResource: font Symbol
%%IncludeResource: font ZapfDingbats
/reEncode {exch findfont dup length dict begin {1 index /FID eq  {pop pop} {def} ifelse } forall /Encoding exch def currentdict end dup /FontName get exch definefont pop } def [/Times-Bold /Times-Italic /Times-BoldItalic /Helvetica /Helvetica-Oblique
 /Helvetica-Bold /Helvetica-BoldOblique /Courier /Courier-Oblique /Courier-Bold /Courier-BoldOblique /Times-Roman /AvantGarde-Book /AvantGarde-BookOblique /AvantGarde-Demi /AvantGarde-DemiOblique /Bookman-Demi /Bookman-DemiItalic /Bookman-Light
 /Bookman-LightItalic /Helvetica-Narrow /Helvetica-Narrow-Bold /Helvetica-Narrow-BoldOblique /Helvetica-Narrow-Oblique /NewCenturySchlbk-Roman /NewCenturySchlbk-Bold /NewCenturySchlbk-BoldItalic /NewCenturySchlbk-Italic /Palatino-Bold
 /Palatino-BoldItalic /Palatino-Italic /Palatino-Roman ] {ISOLatin1Encoding reEncode } forall
%%EndProlog
%%BeginSetup
%%EndSetup
newpath  gsave  .25 .25 scale  gsave  0 0 t black[  ] 0 sd 3 lw 1 1 1 c 2268 1538 0 0 bf black 1 1 1 c 1561 1117 435 344 bf black 1561 1117 435 344 bl 1 1 1 c 1561 1117 435 344 bf black 1561 1117 435 344 bl 1 1 1 c 0.403478 0.898116 0.591884 c 40 29
 435 344 bf 0.819565 0.988985 0.171014 c 40 29 475 344 bf 0.617826 0.944928 0.375072 c 40 29 515 344 bf 0.605217 0.942174 0.387826 c 40 29 555 344 bf 0.340435 0.884348 0.655652 c 40 29 595 344 bf 0.630435 0.947681 0.362319 c 40 29 635 344 bf 0.315217
 0.878841 0.681159 c 40 29 675 344 bf 0.378261 0.892609 0.617391 c 40 29 715 344 bf 0.605217 0.942174 0.387826 c 40 29 755 344 bf 0.542174 0.928406 0.451594 c 40 29 795 344 bf 0.567391 0.933913 0.426087 c 40 29 835 344 bf 0.903051 0.79661 0.0894915 c
 40 29 875 344 bf 0.18913 0.851304 0.808696 c 40 29 915 344 bf 0.516957 0.922899 0.477101 c 40 29 955 344 bf 0.542174 0.928406 0.451594 c 40 29 995 344 bf 0.491739 0.917391 0.502609 c 40 29 1035 344 bf 0.529565 0.925652 0.464348 c 40 29 1075 344 bf
 0.516957 0.922899 0.477101 c 40 29 1115 344 bf 0.529565 0.925652 0.464348 c 40 29 1155 344 bf 0.516957 0.922899 0.477101 c 40 29 1195 344 bf 41 29 1235 344 bf 0.567391 0.933913 0.426087 c 40 29 1276 344 bf 0.340435 0.884348 0.655652 c 40 29 1316 344
 bf 0.428696 0.903623 0.566377 c 40 29 1356 344 bf 0.365652 0.889855 0.630145 c 40 29 1396 344 bf 0.378261 0.892609 0.617391 c 40 29 1436 344 bf 0.491739 0.917391 0.502609 c 40 29 1476 344 bf 0.554783 0.931159 0.438841 c 40 29 1516 344 bf 0.441304
 0.906377 0.553623 c 40 29 1556 344 bf 0.567391 0.933913 0.426087 c 40 29 1596 344 bf 0.453913 0.90913 0.54087 c 40 29 1636 344 bf 0.378261 0.892609 0.617391 c 40 29 1676 344 bf 0.47913 0.914638 0.515362 c 40 29 1716 344 bf 40 29 1756 344 bf 0.605217
 0.942174 0.387826 c 40 29 1796 344 bf 0.516957 0.922899 0.477101 c 40 29 1836 344 bf 0.504348 0.920145 0.489855 c 40 29 1876 344 bf 40 29 1916 344 bf 0.521951 0.00487805 0 c 40 29 1956 344 bf 0.428696 0.903623 0.566377 c 40 29 435 373 bf 0.68087
 0.958696 0.311304 c 40 29 475 373 bf 0.416087 0.90087 0.57913 c 40 29 515 373 bf 0.0252174 0.815507 0.974493 c 40 29 555 373 bf 0.403478 0.898116 0.591884 c 40 29 595 373 bf 0.138696 0.84029 0.85971 c 40 29 635 373 bf 0.378261 0.892609 0.617391 c 40
 29 675 373 bf 0.416087 0.90087 0.57913 c 40 29 715 373 bf 0.252174 0.865072 0.744928 c 40 29 755 373 bf 0.453913 0.90913 0.54087 c 40 29 795 373 bf 0.428696 0.903623 0.566377 c 40 29 835 373 bf 40 29 875 373 bf 0.403478 0.898116 0.591884 c 40 29 915
 373 bf 0.504348 0.920145 0.489855 c 40 29 955 373 bf 0.466522 0.911884 0.528116 c 40 29 995 373 bf 0.516957 0.922899 0.477101 c 40 29 1035 373 bf 0.504348 0.920145 0.489855 c 40 29 1075 373 bf 0.554783 0.931159 0.438841 c 40 29 1115 373 bf 0.453913
 0.90913 0.54087 c 40 29 1155 373 bf 40 29 1195 373 bf 0.516957 0.922899 0.477101 c 41 29 1235 373 bf 0.504348 0.920145 0.489855 c 40 29 1276 373 bf 0.630435 0.947681 0.362319 c 40 29 1316 373 bf 0.655652 0.953188 0.336812 c 40 29 1356 373 bf
 0.453913 0.90913 0.54087 c 40 29 1396 373 bf 0.567391 0.933913 0.426087 c 40 29 1436 373 bf 0.554783 0.931159 0.438841 c 40 29 1476 373 bf 0.504348 0.920145 0.489855 c 40 29 1516 373 bf 40 29 1556 373 bf 0.466522 0.911884 0.528116 c 40 29 1596 373
 bf 0.504348 0.920145 0.489855 c 40 29 1636 373 bf 0.491739 0.917391 0.502609 c 40 29 1676 373 bf 40 29 1716 373 bf 0.504348 0.920145 0.489855 c 40 29 1756 373 bf 0.340435 0.884348 0.655652 c 40 29 1796 373 bf 0.516957 0.922899 0.477101 c 40 29 1836
 373 bf 0.29 0.873333 0.706667 c 40 29 1876 373 bf 0.521951 0.00487805 0 c 40 29 1916 373 bf 0.504348 0.920145 0.489855 c 40 29 1956 373 bf 0.428696 0.903623 0.566377 c 40 28 435 402 bf 0.68087 0.958696 0.311304 c 40 28 475 402 bf 0.416087 0.90087
 0.57913 c 40 28 515 402 bf 0 0.81 1 c 40 28 555 402 bf 0.403478 0.898116 0.591884 c 40 28 595 402 bf 0.126087 0.837536 0.872464 c 40 28 635 402 bf 0.378261 0.892609 0.617391 c 40 28 675 402 bf 0.416087 0.90087 0.57913 c 40 28 715 402 bf 0.252174
 0.865072 0.744928 c 40 28 755 402 bf 0.453913 0.90913 0.54087 c 40 28 795 402 bf 0.428696 0.903623 0.566377 c 40 28 835 402 bf 40 28 875 402 bf 0.403478 0.898116 0.591884 c 40 28 915 402 bf 0.504348 0.920145 0.489855 c 40 28 955 402 bf 0.466522
 0.911884 0.528116 c 40 28 995 402 bf 0.516957 0.922899 0.477101 c 40 28 1035 402 bf 0.504348 0.920145 0.489855 c 40 28 1075 402 bf 0.554783 0.931159 0.438841 c 40 28 1115 402 bf 0.453913 0.90913 0.54087 c 40 28 1155 402 bf 40 28 1195 402 bf 0.516957
 0.922899 0.477101 c 41 28 1235 402 bf 0.504348 0.920145 0.489855 c 40 28 1276 402 bf 0.630435 0.947681 0.362319 c 40 28 1316 402 bf 0.655652 0.953188 0.336812 c 40 28 1356 402 bf 0.453913 0.90913 0.54087 c 40 28 1396 402 bf 0.567391 0.933913
 0.426087 c 40 28 1436 402 bf 40 28 1476 402 bf 0.504348 0.920145 0.489855 c 40 28 1516 402 bf 40 28 1556 402 bf 0.466522 0.911884 0.528116 c 40 28 1596 402 bf 0.504348 0.920145 0.489855 c 40 28 1636 402 bf 0.491739 0.917391 0.502609 c 40 28 1676 402
 bf 40 28 1716 402 bf 0.504348 0.920145 0.489855 c 40 28 1756 402 bf 0.340435 0.884348 0.655652 c 40 28 1796 402 bf 0.516957 0.922899 0.477101 c 40 28 1836 402 bf 0.521951 0.00487805 0 c 40 28 1876 402 bf 0.29 0.873333 0.706667 c 40 28 1916 402 bf
 0.504348 0.920145 0.489855 c 40 28 1956 402 bf 0.516957 0.922899 0.477101 c 40 29 435 430 bf 40 29 475 430 bf 40 29 515 430 bf 40 29 555 430 bf 40 29 595 430 bf 40 29 635 430 bf 40 29 675 430 bf 40 29 715 430 bf 40 29 755 430 bf 40 29 795 430 bf 40
 29 835 430 bf 40 29 875 430 bf 40 29 915 430 bf 40 29 955 430 bf 40 29 995 430 bf 40 29 1035 430 bf 40 29 1075 430 bf 40 29 1115 430 bf 40 29 1155 430 bf 40 29 1195 430 bf 41 29 1235 430 bf 40 29 1276 430 bf 40 29 1316 430 bf 40 29 1356 430 bf 40 29
 1396 430 bf 40 29 1436 430 bf 40 29 1476 430 bf 40 29 1516 430 bf 40 29 1556 430 bf 40 29 1596 430 bf 40 29 1636 430 bf 40 29 1676 430 bf 40 29 1716 430 bf 40 29 1756 430 bf 40 29 1796 430 bf 0.521951 0.00487805 0 c 40 29 1836 430 bf 0.516957
 0.922899 0.477101 c 40 29 1876 430 bf 40 29 1916 430 bf 40 29 1956 430 bf 0.39087 0.895362 0.604638 c 40 29 435 459 bf 0.315217 0.878841 0.681159 c 40 29 475 459 bf 0.466522 0.911884 0.528116 c 40 29 515 459 bf 0.226957 0.859565 0.770435 c 40 29 555
 459 bf 0.315217 0.878841 0.681159 c 40 29 595 459 bf 0.441304 0.906377 0.553623 c 40 29 635 459 bf 0.264783 0.867826 0.732174 c 40 29 675 459 bf 0.0252174 0.815507 0.974493 c 40 29 715 459 bf 0.453913 0.90913 0.54087 c 40 29 755 459 bf 0.340435
 0.884348 0.655652 c 40 29 795 459 bf 0.315217 0.878841 0.681159 c 40 29 835 459 bf 0.441304 0.906377 0.553623 c 40 29 875 459 bf 0.29 0.873333 0.706667 c 40 29 915 459 bf 0.47913 0.914638 0.515362 c 40 29 955 459 bf 0.441304 0.906377 0.553623 c 40
 29 995 459 bf 0.504348 0.920145 0.489855 c 40 29 1035 459 bf 0.47913 0.914638 0.515362 c 40 29 1075 459 bf 0.542174 0.928406 0.451594 c 40 29 1115 459 bf 0.441304 0.906377 0.553623 c 40 29 1155 459 bf 0.39087 0.895362 0.604638 c 40 29 1195 459 bf
 0.516957 0.922899 0.477101 c 41 29 1235 459 bf 0.567391 0.933913 0.426087 c 40 29 1276 459 bf 0.68087 0.958696 0.311304 c 40 29 1316 459 bf 0.47913 0.914638 0.515362 c 40 29 1356 459 bf 0.403478 0.898116 0.591884 c 40 29 1396 459 bf 0.542174
 0.928406 0.451594 c 40 29 1436 459 bf 0.491739 0.917391 0.502609 c 40 29 1476 459 bf 0.542174 0.928406 0.451594 c 40 29 1516 459 bf 0.529565 0.925652 0.464348 c 40 29 1556 459 bf 0.491739 0.917391 0.502609 c 40 29 1596 459 bf 0.516957 0.922899
 0.477101 c 40 29 1636 459 bf 40 29 1676 459 bf 0.441304 0.906377 0.553623 c 40 29 1716 459 bf 0.47913 0.914638 0.515362 c 40 29 1756 459 bf 0.521951 0.00487805 0 c 40 29 1796 459 bf 0.516957 0.922899 0.477101 c 40 29 1836 459 bf 0.340435 0.884348
 0.655652 c 40 29 1876 459 bf 40 29 1916 459 bf 0.605217 0.942174 0.387826 c 40 29 1956 459 bf 0.554783 0.931159 0.438841 c 40 28 435 488 bf 0.491739 0.917391 0.502609 c 40 28 475 488 bf 0.516957 0.922899 0.477101 c 40 28 515 488 bf 0.58 0.936667
 0.413333 c 40 28 555 488 bf 0.554783 0.931159 0.438841 c 40 28 595 488 bf 40 28 635 488 bf 0.567391 0.933913 0.426087 c 40 28 675 488 bf 0.529565 0.925652 0.464348 c 40 28 715 488 bf 40 28 755 488 bf 0.504348 0.920145 0.489855 c 40 28 795 488 bf
 0.466522 0.911884 0.528116 c 40 28 835 488 bf 0.378261 0.892609 0.617391 c 40 28 875 488 bf 0.617826 0.944928 0.375072 c 40 28 915 488 bf 0.516957 0.922899 0.477101 c 40 28 955 488 bf 40 28 995 488 bf 40 28 1035 488 bf 40 28 1075 488 bf 0.529565
 0.925652 0.464348 c 40 28 1115 488 bf 0.516957 0.922899 0.477101 c 40 28 1155 488 bf 0.504348 0.920145 0.489855 c 40 28 1195 488 bf 0.516957 0.922899 0.477101 c 41 28 1235 488 bf 40 28 1276 488 bf 0.441304 0.906377 0.553623 c 40 28 1316 488 bf
 0.567391 0.933913 0.426087 c 40 28 1356 488 bf 0.516957 0.922899 0.477101 c 40 28 1396 488 bf 0.378261 0.892609 0.617391 c 40 28 1436 488 bf 0.643043 0.950435 0.349565 c 40 28 1476 488 bf 0.554783 0.931159 0.438841 c 40 28 1516 488 bf 0.47913
 0.914638 0.515362 c 40 28 1556 488 bf 0.39087 0.895362 0.604638 c 40 28 1596 488 bf 40 28 1636 488 bf 0.416087 0.90087 0.57913 c 40 28 1676 488 bf 0 0.583953 0.863256 c 40 28 1716 488 bf 0.521951 0.00487805 0 c 40 28 1756 488 bf 0.47913 0.914638
 0.515362 c 40 28 1796 488 bf 0.516957 0.922899 0.477101 c 40 28 1836 488 bf 0.504348 0.920145 0.489855 c 40 28 1876 488 bf 40 28 1916 488 bf 0.47913 0.914638 0.515362 c 40 28 1956 488 bf 0.542174 0.928406 0.451594 c 40 29 435 516 bf 0.378261
 0.892609 0.617391 c 40 29 475 516 bf 0.554783 0.931159 0.438841 c 40 29 515 516 bf 0.542174 0.928406 0.451594 c 40 29 555 516 bf 0.554783 0.931159 0.438841 c 40 29 595 516 bf 0.542174 0.928406 0.451594 c 40 29 635 516 bf 0.567391 0.933913 0.426087 c
 40 29 675 516 bf 0.630435 0.947681 0.362319 c 40 29 715 516 bf 0.567391 0.933913 0.426087 c 40 29 755 516 bf 0.491739 0.917391 0.502609 c 40 29 795 516 bf 0.453913 0.90913 0.54087 c 40 29 835 516 bf 0.47913 0.914638 0.515362 c 40 29 875 516 bf
 0.819565 0.988985 0.171014 c 40 29 915 516 bf 0.542174 0.928406 0.451594 c 40 29 955 516 bf 0.529565 0.925652 0.464348 c 40 29 995 516 bf 0.516957 0.922899 0.477101 c 40 29 1035 516 bf 40 29 1075 516 bf 0.554783 0.931159 0.438841 c 40 29 1115 516 bf
 0.58 0.936667 0.413333 c 40 29 1155 516 bf 0.542174 0.928406 0.451594 c 40 29 1195 516 bf 0.516957 0.922899 0.477101 c 41 29 1235 516 bf 0.453913 0.90913 0.54087 c 40 29 1276 516 bf 0.516957 0.922899 0.477101 c 40 29 1316 516 bf 0.542174 0.928406
 0.451594 c 40 29 1356 516 bf 0.58 0.936667 0.413333 c 40 29 1396 516 bf 0.29 0.873333 0.706667 c 40 29 1436 516 bf 0.819565 0.988985 0.171014 c 40 29 1476 516 bf 0.630435 0.947681 0.362319 c 40 29 1516 516 bf 40 29 1556 516 bf 0.327826 0.881594
 0.668406 c 40 29 1596 516 bf 40 29 1636 516 bf 0.542174 0.928406 0.451594 c 40 29 1676 516 bf 0.521951 0.00487805 0 c 40 29 1716 516 bf 0 0.583953 0.863256 c 40 29 1756 516 bf 0.441304 0.906377 0.553623 c 40 29 1796 516 bf 0.516957 0.922899 0.477101
 c 40 29 1836 516 bf 0.491739 0.917391 0.502609 c 40 29 1876 516 bf 40 29 1916 516 bf 0.47913 0.914638 0.515362 c 40 29 1956 516 bf 0.554783 0.931159 0.438841 c 40 29 435 545 bf 0.416087 0.90087 0.57913 c 40 29 475 545 bf 0.47913 0.914638 0.515362 c
 40 29 515 545 bf 0.567391 0.933913 0.426087 c 40 29 555 545 bf 0.542174 0.928406 0.451594 c 40 29 595 545 bf 0.466522 0.911884 0.528116 c 40 29 635 545 bf 0.542174 0.928406 0.451594 c 40 29 675 545 bf 0.428696 0.903623 0.566377 c 40 29 715 545 bf
 0.491739 0.917391 0.502609 c 40 29 755 545 bf 0.47913 0.914638 0.515362 c 40 29 795 545 bf 0.466522 0.911884 0.528116 c 40 29 835 545 bf 0.252174 0.865072 0.744928 c 40 29 875 545 bf 0.643043 0.950435 0.349565 c 40 29 915 545 bf 0.491739 0.917391
 0.502609 c 40 29 955 545 bf 0.453913 0.90913 0.54087 c 40 29 995 545 bf 0.504348 0.920145 0.489855 c 40 29 1035 545 bf 0.516957 0.922899 0.477101 c 40 29 1075 545 bf 0.554783 0.931159 0.438841 c 40 29 1115 545 bf 0.47913 0.914638 0.515362 c 40 29
 1155 545 bf 0.491739 0.917391 0.502609 c 40 29 1195 545 bf 0.529565 0.925652 0.464348 c 41 29 1235 545 bf 0.567391 0.933913 0.426087 c 40 29 1276 545 bf 0.453913 0.90913 0.54087 c 40 29 1316 545 bf 0.567391 0.933913 0.426087 c 40 29 1356 545 bf
 0.416087 0.90087 0.57913 c 40 29 1396 545 bf 0.592609 0.93942 0.40058 c 40 29 1436 545 bf 0.718696 0.966956 0.273043 c 40 29 1476 545 bf 0.529565 0.925652 0.464348 c 40 29 1516 545 bf 0.302609 0.876087 0.693913 c 40 29 1556 545 bf 0.47913 0.914638
 0.515362 c 40 29 1596 545 bf 0 0.583953 0.863256 c 40 29 1636 545 bf 0.521951 0.00487805 0 c 40 29 1676 545 bf 0.542174 0.928406 0.451594 c 40 29 1716 545 bf 0.416087 0.90087 0.57913 c 40 29 1756 545 bf 0.516957 0.922899 0.477101 c 40 29 1796 545 bf
 40 29 1836 545 bf 0.491739 0.917391 0.502609 c 40 29 1876 545 bf 40 29 1916 545 bf 0.378261 0.892609 0.617391 c 40 29 1956 545 bf 0.554783 0.931159 0.438841 c 40 28 435 574 bf 0.542174 0.928406 0.451594 c 40 28 475 574 bf 0.504348 0.920145 0.489855
 c 40 28 515 574 bf 0.542174 0.928406 0.451594 c 40 28 555 574 bf 40 28 595 574 bf 0.567391 0.933913 0.426087 c 40 28 635 574 bf 0.554783 0.931159 0.438841 c 40 28 675 574 bf 0.47913 0.914638 0.515362 c 40 28 715 574 bf 0.504348 0.920145 0.489855 c
 40 28 755 574 bf 0.516957 0.922899 0.477101 c 40 28 795 574 bf 0.491739 0.917391 0.502609 c 40 28 835 574 bf 0.428696 0.903623 0.566377 c 40 28 875 574 bf 0.529565 0.925652 0.464348 c 40 28 915 574 bf 0.504348 0.920145 0.489855 c 40 28 955 574 bf
 0.47913 0.914638 0.515362 c 40 28 995 574 bf 0.504348 0.920145 0.489855 c 40 28 1035 574 bf 0.516957 0.922899 0.477101 c 40 28 1075 574 bf 0.529565 0.925652 0.464348 c 40 28 1115 574 bf 0.491739 0.917391 0.502609 c 40 28 1155 574 bf 0.504348
 0.920145 0.489855 c 40 28 1195 574 bf 0.516957 0.922899 0.477101 c 41 28 1235 574 bf 0.504348 0.920145 0.489855 c 40 28 1276 574 bf 40 28 1316 574 bf 40 28 1356 574 bf 0.378261 0.892609 0.617391 c 40 28 1396 574 bf 0.554783 0.931159 0.438841 c 40 28
 1436 574 bf 0.655652 0.953188 0.336812 c 40 28 1476 574 bf 0.529565 0.925652 0.464348 c 40 28 1516 574 bf 0.466522 0.911884 0.528116 c 40 28 1556 574 bf 0.516957 0.922899 0.477101 c 40 28 1596 574 bf 0.521951 0.00487805 0 c 40 28 1636 574 bf 0
 0.583953 0.863256 c 40 28 1676 574 bf 0.327826 0.881594 0.668406 c 40 28 1716 574 bf 0.39087 0.895362 0.604638 c 40 28 1756 574 bf 0.516957 0.922899 0.477101 c 40 28 1796 574 bf 40 28 1836 574 bf 0.504348 0.920145 0.489855 c 40 28 1876 574 bf 40 28
 1916 574 bf 0.453913 0.90913 0.54087 c 40 28 1956 574 bf 0.504348 0.920145 0.489855 c 40 29 435 602 bf 0.58 0.936667 0.413333 c 40 29 475 602 bf 0.592609 0.93942 0.40058 c 40 29 515 602 bf 40 29 555 602 bf 0.567391 0.933913 0.426087 c 40 29 595 602
 bf 0.731304 0.96971 0.26029 c 40 29 635 602 bf 0.58 0.936667 0.413333 c 40 29 675 602 bf 0.718696 0.966956 0.273043 c 40 29 715 602 bf 0.58 0.936667 0.413333 c 40 29 755 602 bf 0.504348 0.920145 0.489855 c 40 29 795 602 bf 0.516957 0.922899 0.477101
 c 40 29 835 602 bf 0.832174 0.991739 0.158261 c 40 29 875 602 bf 0.491739 0.917391 0.502609 c 40 29 915 602 bf 0.542174 0.928406 0.451594 c 40 29 955 602 bf 0.567391 0.933913 0.426087 c 40 29 995 602 bf 0.516957 0.922899 0.477101 c 40 29 1035 602 bf
 40 29 1075 602 bf 0.529565 0.925652 0.464348 c 40 29 1115 602 bf 0.643043 0.950435 0.349565 c 40 29 1155 602 bf 0.617826 0.944928 0.375072 c 40 29 1195 602 bf 0.516957 0.922899 0.477101 c 41 29 1235 602 bf 0.453913 0.90913 0.54087 c 40 29 1276 602
 bf 0.567391 0.933913 0.426087 c 40 29 1316 602 bf 0.491739 0.917391 0.502609 c 40 29 1356 602 bf 0.516957 0.922899 0.477101 c 40 29 1396 602 bf 0.365652 0.889855 0.630145 c 40 29 1436 602 bf 0.68087 0.958696 0.311304 c 40 29 1476 602 bf 0.466522
 0.911884 0.528116 c 40 29 1516 602 bf 0 0.461512 0.789186 c 40 29 1556 602 bf 0.521951 0.00487805 0 c 40 29 1596 602 bf 0.516957 0.922899 0.477101 c 40 29 1636 602 bf 0.47913 0.914638 0.515362 c 40 29 1676 602 bf 0.327826 0.881594 0.668406 c 40 29
 1716 602 bf 0.39087 0.895362 0.604638 c 40 29 1756 602 bf 0.491739 0.917391 0.502609 c 40 29 1796 602 bf 0.516957 0.922899 0.477101 c 40 29 1836 602 bf 0.466522 0.911884 0.528116 c 40 29 1876 602 bf 40 29 1916 602 bf 0.567391 0.933913 0.426087 c 40
 29 1956 602 bf 0.504348 0.920145 0.489855 c 40 28 435 631 bf 0.655652 0.953188 0.336812 c 40 28 475 631 bf 0.529565 0.925652 0.464348 c 40 28 515 631 bf 0.516957 0.922899 0.477101 c 40 28 555 631 bf 0.554783 0.931159 0.438841 c 40 28 595 631 bf
 0.617826 0.944928 0.375072 c 40 28 635 631 bf 0.529565 0.925652 0.464348 c 40 28 675 631 bf 40 28 715 631 bf 40 28 755 631 bf 0.516957 0.922899 0.477101 c 40 28 795 631 bf 40 28 835 631 bf 0.914068 0.728814 0.079322 c 40 28 875 631 bf 0.403478
 0.898116 0.591884 c 40 28 915 631 bf 0.516957 0.922899 0.477101 c 40 28 955 631 bf 0.529565 0.925652 0.464348 c 40 28 995 631 bf 0.516957 0.922899 0.477101 c 40 28 1035 631 bf 40 28 1075 631 bf 40 28 1115 631 bf 40 28 1155 631 bf 0.504348 0.920145
 0.489855 c 40 28 1195 631 bf 0.516957 0.922899 0.477101 c 41 28 1235 631 bf 0.504348 0.920145 0.489855 c 40 28 1276 631 bf 0.567391 0.933913 0.426087 c 40 28 1316 631 bf 0.47913 0.914638 0.515362 c 40 28 1356 631 bf 0.516957 0.922899 0.477101 c 40
 28 1396 631 bf 0.403478 0.898116 0.591884 c 40 28 1436 631 bf 0.617826 0.944928 0.375072 c 40 28 1476 631 bf 0.516957 0.922899 0.477101 c 40 28 1516 631 bf 0.521951 0.00487805 0 c 40 28 1556 631 bf 0 0.461512 0.789186 c 40 28 1596 631 bf 0.466522
 0.911884 0.528116 c 40 28 1636 631 bf 0.302609 0.876087 0.693913 c 40 28 1676 631 bf 0.630435 0.947681 0.362319 c 40 28 1716 631 bf 0.47913 0.914638 0.515362 c 40 28 1756 631 bf 0.529565 0.925652 0.464348 c 40 28 1796 631 bf 0.516957 0.922899
 0.477101 c 40 28 1836 631 bf 0.504348 0.920145 0.489855 c 40 28 1876 631 bf 40 28 1916 631 bf 0.441304 0.906377 0.553623 c 40 28 1956 631 bf 0.176522 0.848551 0.821449 c 40 29 435 659 bf 0.592609 0.93942 0.40058 c 40 29 475 659 bf 0.453913 0.90913
 0.54087 c 40 29 515 659 bf 0.592609 0.93942 0.40058 c 40 29 555 659 bf 0.29 0.873333 0.706667 c 40 29 595 659 bf 0.617826 0.944928 0.375072 c 40 29 635 659 bf 0.327826 0.881594 0.668406 c 40 29 675 659 bf 0.428696 0.903623 0.566377 c 40 29 715 659
 bf 0.706087 0.964203 0.285797 c 40 29 755 659 bf 0.516957 0.922899 0.477101 c 40 29 795 659 bf 40 29 835 659 bf 0.441304 0.906377 0.553623 c 40 29 875 659 bf 40 29 915 659 bf 0.567391 0.933913 0.426087 c 40 29 955 659 bf 0.529565 0.925652 0.464348 c
 40 29 995 659 bf 0.504348 0.920145 0.489855 c 40 29 1035 659 bf 0.529565 0.925652 0.464348 c 40 29 1075 659 bf 0.327826 0.881594 0.668406 c 40 29 1115 659 bf 0.466522 0.911884 0.528116 c 40 29 1155 659 bf 0.453913 0.90913 0.54087 c 40 29 1195 659 bf
 0.529565 0.925652 0.464348 c 41 29 1235 659 bf 0.554783 0.931159 0.438841 c 40 29 1276 659 bf 0.0126087 0.812754 0.987246 c 40 29 1316 659 bf 0.491739 0.917391 0.502609 c 40 29 1356 659 bf 0.353043 0.887101 0.642899 c 40 29 1396 659 bf 0.592609
 0.93942 0.40058 c 40 29 1436 659 bf 0.504348 0.920145 0.489855 c 40 29 1476 659 bf 0.521951 0.00487805 0 c 40 29 1516 659 bf 0.516957 0.922899 0.477101 c 40 29 1556 659 bf 0.466522 0.911884 0.528116 c 40 29 1596 659 bf 0.529565 0.925652 0.464348 c
 40 29 1636 659 bf 40 29 1676 659 bf 0.630435 0.947681 0.362319 c 40 29 1716 659 bf 0.554783 0.931159 0.438841 c 40 29 1756 659 bf 0.542174 0.928406 0.451594 c 40 29 1796 659 bf 0.516957 0.922899 0.477101 c 40 29 1836 659 bf 0.504348 0.920145
 0.489855 c 40 29 1876 659 bf 40 29 1916 659 bf 0.554783 0.931159 0.438841 c 40 29 1956 659 bf 0.428696 0.903623 0.566377 c 40 29 435 688 bf 0.39087 0.895362 0.604638 c 40 29 475 688 bf 0.516957 0.922899 0.477101 c 40 29 515 688 bf 0.441304 0.906377
 0.553623 c 40 29 555 688 bf 0.491739 0.917391 0.502609 c 40 29 595 688 bf 0.416087 0.90087 0.57913 c 40 29 635 688 bf 0.428696 0.903623 0.566377 c 40 29 675 688 bf 0.567391 0.933913 0.426087 c 40 29 715 688 bf 0.504348 0.920145 0.489855 c 40 29 755
 688 bf 40 29 795 688 bf 0.529565 0.925652 0.464348 c 40 29 835 688 bf 0.453913 0.90913 0.54087 c 40 29 875 688 bf 0.529565 0.925652 0.464348 c 40 29 915 688 bf 0.516957 0.922899 0.477101 c 40 29 955 688 bf 40 29 995 688 bf 40 29 1035 688 bf 0.504348
 0.920145 0.489855 c 40 29 1075 688 bf 0.529565 0.925652 0.464348 c 40 29 1115 688 bf 0.567391 0.933913 0.426087 c 40 29 1155 688 bf 0.529565 0.925652 0.464348 c 40 29 1195 688 bf 0.516957 0.922899 0.477101 c 41 29 1235 688 bf 0.567391 0.933913
 0.426087 c 40 29 1276 688 bf 0.58 0.936667 0.413333 c 40 29 1316 688 bf 0.47913 0.914638 0.515362 c 40 29 1356 688 bf 0 0.725233 0.948721 c 40 29 1396 688 bf 0.264783 0.867826 0.732174 c 40 29 1436 688 bf 0.521951 0.00487805 0 c 40 29 1476 688 bf
 0.504348 0.920145 0.489855 c 40 29 1516 688 bf 0.617826 0.944928 0.375072 c 40 29 1556 688 bf 0.68087 0.958696 0.311304 c 40 29 1596 688 bf 0.655652 0.953188 0.336812 c 40 29 1636 688 bf 0.718696 0.966956 0.273043 c 40 29 1676 688 bf 0.819565
 0.988985 0.171014 c 40 29 1716 688 bf 0.643043 0.950435 0.349565 c 40 29 1756 688 bf 0.491739 0.917391 0.502609 c 40 29 1796 688 bf 0.516957 0.922899 0.477101 c 40 29 1836 688 bf 0.567391 0.933913 0.426087 c 40 29 1876 688 bf 0.554783 0.931159
 0.438841 c 40 29 1916 688 bf 0.491739 0.917391 0.502609 c 40 29 1956 688 bf 0.39087 0.895362 0.604638 c 40 28 435 717 bf 0.315217 0.878841 0.681159 c 40 28 475 717 bf 0.466522 0.911884 0.528116 c 40 28 515 717 bf 0.340435 0.884348 0.655652 c 40 28
 555 717 bf 0.39087 0.895362 0.604638 c 40 28 595 717 bf 0.353043 0.887101 0.642899 c 40 28 635 717 bf 0.365652 0.889855 0.630145 c 40 28 675 717 bf 0.516957 0.922899 0.477101 c 40 28 715 717 bf 0.466522 0.911884 0.528116 c 40 28 755 717 bf 0.504348
 0.920145 0.489855 c 40 28 795 717 bf 0.567391 0.933913 0.426087 c 40 28 835 717 bf 0.29 0.873333 0.706667 c 40 28 875 717 bf 0.39087 0.895362 0.604638 c 40 28 915 717 bf 0.491739 0.917391 0.502609 c 40 28 955 717 bf 40 28 995 717 bf 0.516957
 0.922899 0.477101 c 40 28 1035 717 bf 0.504348 0.920145 0.489855 c 40 28 1075 717 bf 0.529565 0.925652 0.464348 c 40 28 1115 717 bf 0.47913 0.914638 0.515362 c 40 28 1155 717 bf 0.466522 0.911884 0.528116 c 40 28 1195 717 bf 0.516957 0.922899
 0.477101 c 41 28 1235 717 bf 0.58 0.936667 0.413333 c 40 28 1276 717 bf 0.617826 0.944928 0.375072 c 40 28 1316 717 bf 0.529565 0.925652 0.464348 c 40 28 1356 717 bf 0 0.518023 0.823372 c 40 28 1396 717 bf 0.521951 0.00487805 0 c 40 28 1436 717 bf
 0.264783 0.867826 0.732174 c 40 28 1476 717 bf 0.592609 0.93942 0.40058 c 40 28 1516 717 bf 0.403478 0.898116 0.591884 c 40 28 1556 717 bf 0.365652 0.889855 0.630145 c 40 28 1596 717 bf 0.554783 0.931159 0.438841 c 40 28 1636 717 bf 0.592609 0.93942
 0.40058 c 40 28 1676 717 bf 0.29 0.873333 0.706667 c 40 28 1716 717 bf 0.378261 0.892609 0.617391 c 40 28 1756 717 bf 0.542174 0.928406 0.451594 c 40 28 1796 717 bf 0.516957 0.922899 0.477101 c 40 28 1836 717 bf 0.567391 0.933913 0.426087 c 40 28
 1876 717 bf 40 28 1916 717 bf 0.378261 0.892609 0.617391 c 40 28 1956 717 bf 0.643043 0.950435 0.349565 c 40 29 435 745 bf 0.226957 0.859565 0.770435 c 40 29 475 745 bf 0.554783 0.931159 0.438841 c 40 29 515 745 bf 0.630435 0.947681 0.362319 c 40 29
 555 745 bf 0.605217 0.942174 0.387826 c 40 29 595 745 bf 0 0.800581 0.994302 c 40 29 635 745 bf 0.605217 0.942174 0.387826 c 40 29 675 745 bf 0.542174 0.928406 0.451594 c 40 29 715 745 bf 0.529565 0.925652 0.464348 c 40 29 755 745 bf 0.428696
 0.903623 0.566377 c 40 29 795 745 bf 0.592609 0.93942 0.40058 c 40 29 835 745 bf 0.718696 0.966956 0.273043 c 40 29 875 745 bf 0.907458 0.769492 0.0854237 c 40 29 915 745 bf 0.491739 0.917391 0.502609 c 40 29 955 745 bf 0.453913 0.90913 0.54087 c 40
 29 995 745 bf 0.516957 0.922899 0.477101 c 40 29 1035 745 bf 0.491739 0.917391 0.502609 c 40 29 1075 745 bf 0.605217 0.942174 0.387826 c 40 29 1115 745 bf 0.617826 0.944928 0.375072 c 40 29 1155 745 bf 0.58 0.936667 0.413333 c 40 29 1195 745 bf
 0.516957 0.922899 0.477101 c 41 29 1235 745 bf 40 29 1276 745 bf 40 29 1316 745 bf 0.542174 0.928406 0.451594 c 40 29 1356 745 bf 0.521951 0.00487805 0 c 40 29 1396 745 bf 0 0.518023 0.823372 c 40 29 1436 745 bf 0 0.725233 0.948721 c 40 29 1476 745
 bf 0.353043 0.887101 0.642899 c 40 29 1516 745 bf 0.516957 0.922899 0.477101 c 40 29 1556 745 bf 40 29 1596 745 bf 0.378261 0.892609 0.617391 c 40 29 1636 745 bf 0.416087 0.90087 0.57913 c 40 29 1676 745 bf 0.58 0.936667 0.413333 c 40 29 1716 745 bf
 0.516957 0.922899 0.477101 c 40 29 1756 745 bf 0.403478 0.898116 0.591884 c 40 29 1796 745 bf 0.516957 0.922899 0.477101 c 40 29 1836 745 bf 0.453913 0.90913 0.54087 c 40 29 1876 745 bf 40 29 1916 745 bf 0.365652 0.889855 0.630145 c 40 29 1956 745
 bf 0.655652 0.953188 0.336812 c 40 29 435 774 bf 0.58 0.936667 0.413333 c 40 29 475 774 bf 0.0756522 0.826522 0.923478 c 40 29 515 774 bf 0.0882609 0.829275 0.910725 c 40 29 555 774 bf 0.516957 0.922899 0.477101 c 40 29 595 774 bf 0.441304 0.906377
 0.553623 c 40 29 635 774 bf 0.529565 0.925652 0.464348 c 40 29 675 774 bf 0.491739 0.917391 0.502609 c 40 29 715 774 bf 0.201739 0.854058 0.795942 c 40 29 755 774 bf 0.504348 0.920145 0.489855 c 40 29 795 774 bf 0.592609 0.93942 0.40058 c 40 29 835
 774 bf 0.47913 0.914638 0.515362 c 40 29 875 774 bf 0.643043 0.950435 0.349565 c 40 29 915 774 bf 0.466522 0.911884 0.528116 c 40 29 955 774 bf 0.504348 0.920145 0.489855 c 40 29 995 774 bf 0.516957 0.922899 0.477101 c 40 29 1035 774 bf 0.504348
 0.920145 0.489855 c 40 29 1075 774 bf 0.554783 0.931159 0.438841 c 40 29 1115 774 bf 0.529565 0.925652 0.464348 c 40 29 1155 774 bf 0.466522 0.911884 0.528116 c 40 29 1195 774 bf 41 29 1235 774 bf 0.504348 0.920145 0.489855 c 40 29 1276 774 bf
 0.113478 0.834783 0.885217 c 40 29 1316 774 bf 0.521951 0.00487805 0 c 40 29 1356 774 bf 0.542174 0.928406 0.451594 c 40 29 1396 774 bf 0.529565 0.925652 0.464348 c 40 29 1436 774 bf 0.47913 0.914638 0.515362 c 40 29 1476 774 bf 0.491739 0.917391
 0.502609 c 40 29 1516 774 bf 0.47913 0.914638 0.515362 c 40 29 1556 774 bf 0.491739 0.917391 0.502609 c 40 29 1596 774 bf 0.504348 0.920145 0.489855 c 40 29 1636 774 bf 0.567391 0.933913 0.426087 c 40 29 1676 774 bf 0.542174 0.928406 0.451594 c 40
 29 1716 774 bf 0.567391 0.933913 0.426087 c 40 29 1756 774 bf 0.47913 0.914638 0.515362 c 40 29 1796 774 bf 0.516957 0.922899 0.477101 c 40 29 1836 774 bf 0.655652 0.953188 0.336812 c 40 29 1876 774 bf 40 29 1916 774 bf 0.428696 0.903623 0.566377 c
 40 29 1956 774 bf 0.176522 0.848551 0.821449 c 40 28 435 803 bf 0.353043 0.887101 0.642899 c 40 28 475 803 bf 0.743913 0.972464 0.247536 c 40 28 515 803 bf 0 0.621628 0.886047 c 40 28 555 803 bf 0.201739 0.854058 0.795942 c 40 28 595 803 bf 0.315217
 0.878841 0.681159 c 40 28 635 803 bf 0.113478 0.834783 0.885217 c 40 28 675 803 bf 0.466522 0.911884 0.528116 c 40 28 715 803 bf 0.516957 0.922899 0.477101 c 40 28 755 803 bf 0.592609 0.93942 0.40058 c 40 28 795 803 bf 40 28 835 803 bf 0.554783
 0.931159 0.438841 c 40 28 875 803 bf 0.592609 0.93942 0.40058 c 40 28 915 803 bf 0.491739 0.917391 0.502609 c 40 28 955 803 bf 0.554783 0.931159 0.438841 c 40 28 995 803 bf 0.516957 0.922899 0.477101 c 40 28 1035 803 bf 0.542174 0.928406 0.451594 c
 40 28 1075 803 bf 0.554783 0.931159 0.438841 c 40 28 1115 803 bf 0.567391 0.933913 0.426087 c 40 28 1155 803 bf 0.605217 0.942174 0.387826 c 40 28 1195 803 bf 0.466522 0.911884 0.528116 c 41 28 1235 803 bf 0.327826 0.881594 0.668406 c 40 28 1276 803
 bf 0.521951 0.00487805 0 c 40 28 1316 803 bf 0.113478 0.834783 0.885217 c 40 28 1356 803 bf 0.516957 0.922899 0.477101 c 40 28 1396 803 bf 0.617826 0.944928 0.375072 c 40 28 1436 803 bf 0.58 0.936667 0.413333 c 40 28 1476 803 bf 0.0126087 0.812754
 0.987246 c 40 28 1516 803 bf 0.567391 0.933913 0.426087 c 40 28 1556 803 bf 40 28 1596 803 bf 0.504348 0.920145 0.489855 c 40 28 1636 803 bf 0.453913 0.90913 0.54087 c 40 28 1676 803 bf 0.516957 0.922899 0.477101 c 40 28 1716 803 bf 0.441304
 0.906377 0.553623 c 40 28 1756 803 bf 0.68087 0.958696 0.311304 c 40 28 1796 803 bf 0.516957 0.922899 0.477101 c 40 28 1836 803 bf 0.630435 0.947681 0.362319 c 40 28 1876 803 bf 40 28 1916 803 bf 0.340435 0.884348 0.655652 c 40 28 1956 803 bf 0
 0.67814 0.920233 c 40 29 435 831 bf 0.491739 0.917391 0.502609 c 40 29 475 831 bf 0.441304 0.906377 0.553623 c 40 29 515 831 bf 0.516957 0.922899 0.477101 c 40 29 555 831 bf 0 0.53686 0.834767 c 40 29 595 831 bf 0.441304 0.906377 0.553623 c 40 29
 635 831 bf 0 0.405 0.755 c 40 29 675 831 bf 0.441304 0.906377 0.553623 c 40 29 715 831 bf 0.466522 0.911884 0.528116 c 40 29 755 831 bf 0.554783 0.931159 0.438841 c 40 29 795 831 bf 0.504348 0.920145 0.489855 c 40 29 835 831 bf 0.453913 0.90913
 0.54087 c 40 29 875 831 bf 0.428696 0.903623 0.566377 c 40 29 915 831 bf 0.504348 0.920145 0.489855 c 40 29 955 831 bf 0.529565 0.925652 0.464348 c 40 29 995 831 bf 40 29 1035 831 bf 40 29 1075 831 bf 0.47913 0.914638 0.515362 c 40 29 1115 831 bf 40
 29 1155 831 bf 0.542174 0.928406 0.451594 c 40 29 1195 831 bf 0.529565 0.925652 0.464348 c 41 29 1235 831 bf 0.521951 0.00487805 0 c 40 29 1276 831 bf 0.327826 0.881594 0.668406 c 40 29 1316 831 bf 0.504348 0.920145 0.489855 c 40 29 1356 831 bf
 0.516957 0.922899 0.477101 c 40 29 1396 831 bf 0.58 0.936667 0.413333 c 40 29 1436 831 bf 0.567391 0.933913 0.426087 c 40 29 1476 831 bf 0.554783 0.931159 0.438841 c 40 29 1516 831 bf 0.504348 0.920145 0.489855 c 40 29 1556 831 bf 0.453913 0.90913
 0.54087 c 40 29 1596 831 bf 0.504348 0.920145 0.489855 c 40 29 1636 831 bf 0.567391 0.933913 0.426087 c 40 29 1676 831 bf 0.453913 0.90913 0.54087 c 40 29 1716 831 bf 0.516957 0.922899 0.477101 c 40 29 1756 831 bf 0.567391 0.933913 0.426087 c 40 29
 1796 831 bf 0.516957 0.922899 0.477101 c 40 29 1836 831 bf 0.504348 0.920145 0.489855 c 40 29 1876 831 bf 40 29 1916 831 bf 0.567391 0.933913 0.426087 c 40 29 1956 831 bf 40 28 435 860 bf 0.504348 0.920145 0.489855 c 40 28 475 860 bf 0.10087
 0.832029 0.897971 c 40 28 515 860 bf 0.567391 0.933913 0.426087 c 40 28 555 860 bf 40 28 595 860 bf 0.516957 0.922899 0.477101 c 40 28 635 860 bf 0.617826 0.944928 0.375072 c 40 28 675 860 bf 0.47913 0.914638 0.515362 c 40 28 715 860 bf 0.29
 0.873333 0.706667 c 40 28 755 860 bf 0.516957 0.922899 0.477101 c 40 28 795 860 bf 0.529565 0.925652 0.464348 c 40 28 835 860 bf 0.516957 0.922899 0.477101 c 40 28 875 860 bf 40 28 915 860 bf 0.453913 0.90913 0.54087 c 40 28 955 860 bf 0.516957
 0.922899 0.477101 c 40 28 995 860 bf 0.529565 0.925652 0.464348 c 40 28 1035 860 bf 0.516957 0.922899 0.477101 c 40 28 1075 860 bf 0.542174 0.928406 0.451594 c 40 28 1115 860 bf 0.516957 0.922899 0.477101 c 40 28 1155 860 bf 0.529565 0.925652
 0.464348 c 40 28 1195 860 bf 0.521951 0.00487805 0 c 41 28 1235 860 bf 0.529565 0.925652 0.464348 c 40 28 1276 860 bf 0.466522 0.911884 0.528116 c 40 28 1316 860 bf 40 28 1356 860 bf 0.516957 0.922899 0.477101 c 40 28 1396 860 bf 40 28 1436 860 bf
 40 28 1476 860 bf 0.529565 0.925652 0.464348 c 40 28 1516 860 bf 0.516957 0.922899 0.477101 c 40 28 1556 860 bf 40 28 1596 860 bf 40 28 1636 860 bf 0.529565 0.925652 0.464348 c 40 28 1676 860 bf 0.516957 0.922899 0.477101 c 40 28 1716 860 bf 40 28
 1756 860 bf 40 28 1796 860 bf 40 28 1836 860 bf 40 28 1876 860 bf 40 28 1916 860 bf 40 28 1956 860 bf 0.277391 0.87058 0.71942 c 40 29 435 888 bf 0.0378261 0.818261 0.961739 c 40 29 475 888 bf 0.504348 0.920145 0.489855 c 40 29 515 888 bf 0.516957
 0.922899 0.477101 c 40 29 555 888 bf 0.466522 0.911884 0.528116 c 40 29 595 888 bf 0.706087 0.964203 0.285797 c 40 29 635 888 bf 0.441304 0.906377 0.553623 c 40 29 675 888 bf 0.878814 0.945763 0.111864 c 40 29 715 888 bf 0.516957 0.922899 0.477101 c
 40 29 755 888 bf 0.47913 0.914638 0.515362 c 40 29 795 888 bf 0.453913 0.90913 0.54087 c 40 29 835 888 bf 0.58 0.936667 0.413333 c 40 29 875 888 bf 0.76913 0.977971 0.222029 c 40 29 915 888 bf 0.47913 0.914638 0.515362 c 40 29 955 888 bf 0.453913
 0.90913 0.54087 c 40 29 995 888 bf 0.504348 0.920145 0.489855 c 40 29 1035 888 bf 0.491739 0.917391 0.502609 c 40 29 1075 888 bf 0.453913 0.90913 0.54087 c 40 29 1115 888 bf 0.327826 0.881594 0.668406 c 40 29 1155 888 bf 0.521951 0.00487805 0 c 40
 29 1195 888 bf 0.529565 0.925652 0.464348 c 41 29 1235 888 bf 0.542174 0.928406 0.451594 c 40 29 1276 888 bf 0.605217 0.942174 0.387826 c 40 29 1316 888 bf 0.466522 0.911884 0.528116 c 40 29 1356 888 bf 0.58 0.936667 0.413333 c 40 29 1396 888 bf
 0.466522 0.911884 0.528116 c 40 29 1436 888 bf 0.529565 0.925652 0.464348 c 40 29 1476 888 bf 0.453913 0.90913 0.54087 c 40 29 1516 888 bf 0.504348 0.920145 0.489855 c 40 29 1556 888 bf 0.617826 0.944928 0.375072 c 40 29 1596 888 bf 0.504348
 0.920145 0.489855 c 40 29 1636 888 bf 0.491739 0.917391 0.502609 c 40 29 1676 888 bf 0.542174 0.928406 0.451594 c 40 29 1716 888 bf 0.504348 0.920145 0.489855 c 40 29 1756 888 bf 0.39087 0.895362 0.604638 c 40 29 1796 888 bf 0.516957 0.922899
 0.477101 c 40 29 1836 888 bf 0.453913 0.90913 0.54087 c 40 29 1876 888 bf 40 29 1916 888 bf 0.516957 0.922899 0.477101 c 40 29 1956 888 bf 40 29 435 917 bf 0.0882609 0.829275 0.910725 c 40 29 475 917 bf 0.441304 0.906377 0.553623 c 40 29 515 917 bf
 0.554783 0.931159 0.438841 c 40 29 555 917 bf 0.542174 0.928406 0.451594 c 40 29 595 917 bf 0.605217 0.942174 0.387826 c 40 29 635 917 bf 0.542174 0.928406 0.451594 c 40 29 675 917 bf 0.900847 0.81017 0.0915254 c 40 29 715 917 bf 0.491739 0.917391
 0.502609 c 40 29 755 917 bf 40 29 795 917 bf 0.453913 0.90913 0.54087 c 40 29 835 917 bf 0.643043 0.950435 0.349565 c 40 29 875 917 bf 0.87661 0.959322 0.113898 c 40 29 915 917 bf 0.466522 0.911884 0.528116 c 40 29 955 917 bf 0.416087 0.90087
 0.57913 c 40 29 995 917 bf 0.491739 0.917391 0.502609 c 40 29 1035 917 bf 0.47913 0.914638 0.515362 c 40 29 1075 917 bf 0.365652 0.889855 0.630145 c 40 29 1115 917 bf 0.521951 0.00487805 0 c 40 29 1155 917 bf 0.327826 0.881594 0.668406 c 40 29 1195
 917 bf 0.516957 0.922899 0.477101 c 41 29 1235 917 bf 0.47913 0.914638 0.515362 c 40 29 1276 917 bf 0.567391 0.933913 0.426087 c 40 29 1316 917 bf 0.529565 0.925652 0.464348 c 40 29 1356 917 bf 0.617826 0.944928 0.375072 c 40 29 1396 917 bf 0.47913
 0.914638 0.515362 c 40 29 1436 917 bf 0.567391 0.933913 0.426087 c 40 29 1476 917 bf 0.466522 0.911884 0.528116 c 40 29 1516 917 bf 0.516957 0.922899 0.477101 c 40 29 1556 917 bf 0.643043 0.950435 0.349565 c 40 29 1596 917 bf 0.491739 0.917391
 0.502609 c 40 29 1636 917 bf 0.47913 0.914638 0.515362 c 40 29 1676 917 bf 0.58 0.936667 0.413333 c 40 29 1716 917 bf 0.516957 0.922899 0.477101 c 40 29 1756 917 bf 0.441304 0.906377 0.553623 c 40 29 1796 917 bf 0.516957 0.922899 0.477101 c 40 29
 1836 917 bf 0.453913 0.90913 0.54087 c 40 29 1876 917 bf 40 29 1916 917 bf 0.529565 0.925652 0.464348 c 40 29 1956 917 bf 0.630435 0.947681 0.362319 c 40 28 435 946 bf 0.466522 0.911884 0.528116 c 40 28 475 946 bf 0.929492 0.633898 0.0650847 c 40 28
 515 946 bf 0.491739 0.917391 0.502609 c 40 28 555 946 bf 0.58 0.936667 0.413333 c 40 28 595 946 bf 0.453913 0.90913 0.54087 c 40 28 635 946 bf 0.592609 0.93942 0.40058 c 40 28 675 946 bf 0.743913 0.972464 0.247536 c 40 28 715 946 bf 0.617826
 0.944928 0.375072 c 40 28 755 946 bf 0.516957 0.922899 0.477101 c 40 28 795 946 bf 40 28 835 946 bf 0.605217 0.942174 0.387826 c 40 28 875 946 bf 0.731304 0.96971 0.26029 c 40 28 915 946 bf 0.567391 0.933913 0.426087 c 40 28 955 946 bf 0.47913
 0.914638 0.515362 c 40 28 995 946 bf 40 28 1035 946 bf 0.504348 0.920145 0.489855 c 40 28 1075 946 bf 0.521951 0.00487805 0 c 40 28 1115 946 bf 0.365652 0.889855 0.630145 c 40 28 1155 946 bf 0.453913 0.90913 0.54087 c 40 28 1195 946 bf 0.542174
 0.928406 0.451594 c 41 28 1235 946 bf 0.47913 0.914638 0.515362 c 40 28 1276 946 bf 0.554783 0.931159 0.438841 c 40 28 1316 946 bf 40 28 1356 946 bf 0.605217 0.942174 0.387826 c 40 28 1396 946 bf 0.529565 0.925652 0.464348 c 40 28 1436 946 bf 40 28
 1476 946 bf 0.327826 0.881594 0.668406 c 40 28 1516 946 bf 0.516957 0.922899 0.477101 c 40 28 1556 946 bf 0.529565 0.925652 0.464348 c 40 28 1596 946 bf 40 28 1636 946 bf 0.554783 0.931159 0.438841 c 40 28 1676 946 bf 40 28 1716 946 bf 0.529565
 0.925652 0.464348 c 40 28 1756 946 bf 0.542174 0.928406 0.451594 c 40 28 1796 946 bf 0.516957 0.922899 0.477101 c 40 28 1836 946 bf 0.554783 0.931159 0.438841 c 40 28 1876 946 bf 40 28 1916 946 bf 0.516957 0.922899 0.477101 c 40 28 1956 946 bf
 0.47913 0.914638 0.515362 c 40 29 435 974 bf 0.428696 0.903623 0.566377 c 40 29 475 974 bf 0.516957 0.922899 0.477101 c 40 29 515 974 bf 40 29 555 974 bf 0.491739 0.917391 0.502609 c 40 29 595 974 bf 0.592609 0.93942 0.40058 c 40 29 635 974 bf
 0.491739 0.917391 0.502609 c 40 29 675 974 bf 0.47913 0.914638 0.515362 c 40 29 715 974 bf 0.529565 0.925652 0.464348 c 40 29 755 974 bf 0.504348 0.920145 0.489855 c 40 29 795 974 bf 40 29 835 974 bf 0.491739 0.917391 0.502609 c 40 29 875 974 bf
 0.516957 0.922899 0.477101 c 40 29 915 974 bf 0.504348 0.920145 0.489855 c 40 29 955 974 bf 40 29 995 974 bf 0.516957 0.922899 0.477101 c 40 29 1035 974 bf 0.521951 0.00487805 0 c 40 29 1075 974 bf 0.504348 0.920145 0.489855 c 40 29 1115 974 bf
 0.47913 0.914638 0.515362 c 40 29 1155 974 bf 0.491739 0.917391 0.502609 c 40 29 1195 974 bf 0.516957 0.922899 0.477101 c 41 29 1235 974 bf 0.529565 0.925652 0.464348 c 40 29 1276 974 bf 0.542174 0.928406 0.451594 c 40 29 1316 974 bf 0.504348
 0.920145 0.489855 c 40 29 1356 974 bf 0.491739 0.917391 0.502609 c 40 29 1396 974 bf 0.504348 0.920145 0.489855 c 40 29 1436 974 bf 40 29 1476 974 bf 0.529565 0.925652 0.464348 c 40 29 1516 974 bf 0.516957 0.922899 0.477101 c 40 29 1556 974 bf 40 29
 1596 974 bf 40 29 1636 974 bf 40 29 1676 974 bf 40 29 1716 974 bf 40 29 1756 974 bf 0.47913 0.914638 0.515362 c 40 29 1796 974 bf 0.516957 0.922899 0.477101 c 40 29 1836 974 bf 0.504348 0.920145 0.489855 c 40 29 1876 974 bf 40 29 1916 974 bf
 0.529565 0.925652 0.464348 c 40 29 1956 974 bf 0.47913 0.914638 0.515362 c 40 29 435 1003 bf 0.39087 0.895362 0.604638 c 40 29 475 1003 bf 0.819565 0.988985 0.171014 c 40 29 515 1003 bf 0.466522 0.911884 0.528116 c 40 29 555 1003 bf 0.504348
 0.920145 0.489855 c 40 29 595 1003 bf 0.542174 0.928406 0.451594 c 40 29 635 1003 bf 0.491739 0.917391 0.502609 c 40 29 675 1003 bf 0.643043 0.950435 0.349565 c 40 29 715 1003 bf 0.88322 0.918644 0.107797 c 40 29 755 1003 bf 0.504348 0.920145
 0.489855 c 40 29 795 1003 bf 40 29 835 1003 bf 0.516957 0.922899 0.477101 c 40 29 875 1003 bf 0.554783 0.931159 0.438841 c 40 29 915 1003 bf 0.516957 0.922899 0.477101 c 40 29 955 1003 bf 0.491739 0.917391 0.502609 c 40 29 995 1003 bf 0.521951
 0.00487805 0 c 40 29 1035 1003 bf 0.516957 0.922899 0.477101 c 40 29 1075 1003 bf 0.47913 0.914638 0.515362 c 40 29 1115 1003 bf 0.491739 0.917391 0.502609 c 40 29 1155 1003 bf 0.504348 0.920145 0.489855 c 40 29 1195 1003 bf 0.529565 0.925652
 0.464348 c 41 29 1235 1003 bf 40 29 1276 1003 bf 0.516957 0.922899 0.477101 c 40 29 1316 1003 bf 40 29 1356 1003 bf 40 29 1396 1003 bf 40 29 1436 1003 bf 40 29 1476 1003 bf 0.504348 0.920145 0.489855 c 40 29 1516 1003 bf 0.516957 0.922899 0.477101 c
 40 29 1556 1003 bf 40 29 1596 1003 bf 0.504348 0.920145 0.489855 c 40 29 1636 1003 bf 40 29 1676 1003 bf 0.516957 0.922899 0.477101 c 40 29 1716 1003 bf 40 29 1756 1003 bf 0.504348 0.920145 0.489855 c 40 29 1796 1003 bf 0.516957 0.922899 0.477101 c
 40 29 1836 1003 bf 40 29 1876 1003 bf 40 29 1916 1003 bf 0.491739 0.917391 0.502609 c 40 29 1956 1003 bf 0.29 0.873333 0.706667 c 40 28 435 1032 bf 0 0.715814 0.943023 c 40 28 475 1032 bf 0.47913 0.914638 0.515362 c 40 28 515 1032 bf 0.516957
 0.922899 0.477101 c 40 28 555 1032 bf 0.466522 0.911884 0.528116 c 40 28 595 1032 bf 0.743913 0.972464 0.247536 c 40 28 635 1032 bf 0.453913 0.90913 0.54087 c 40 28 675 1032 bf 0.940508 0.566102 0.0549153 c 40 28 715 1032 bf 0.491739 0.917391
 0.502609 c 40 28 755 1032 bf 0.47913 0.914638 0.515362 c 40 28 795 1032 bf 0.466522 0.911884 0.528116 c 40 28 835 1032 bf 0.491739 0.917391 0.502609 c 40 28 875 1032 bf 0.504348 0.920145 0.489855 c 40 28 915 1032 bf 0.466522 0.911884 0.528116 c 40
 28 955 1032 bf 0.521951 0.00487805 0 c 40 28 995 1032 bf 0.491739 0.917391 0.502609 c 40 28 1035 1032 bf 0.504348 0.920145 0.489855 c 40 28 1075 1032 bf 0.47913 0.914638 0.515362 c 40 28 1115 1032 bf 0.416087 0.90087 0.57913 c 40 28 1155 1032 bf
 0.453913 0.90913 0.54087 c 40 28 1195 1032 bf 0.516957 0.922899 0.477101 c 41 28 1235 1032 bf 0.529565 0.925652 0.464348 c 40 28 1276 1032 bf 0.554783 0.931159 0.438841 c 40 28 1316 1032 bf 0.504348 0.920145 0.489855 c 40 28 1356 1032 bf 0.453913
 0.90913 0.54087 c 40 28 1396 1032 bf 0.491739 0.917391 0.502609 c 40 28 1436 1032 bf 0.516957 0.922899 0.477101 c 40 28 1476 1032 bf 0.529565 0.925652 0.464348 c 40 28 1516 1032 bf 40 28 1556 1032 bf 0.567391 0.933913 0.426087 c 40 28 1596 1032 bf
 0.47913 0.914638 0.515362 c 40 28 1636 1032 bf 0.453913 0.90913 0.54087 c 40 28 1676 1032 bf 0.529565 0.925652 0.464348 c 40 28 1716 1032 bf 0.516957 0.922899 0.477101 c 40 28 1756 1032 bf 0.441304 0.906377 0.553623 c 40 28 1796 1032 bf 0.516957
 0.922899 0.477101 c 40 28 1836 1032 bf 0.466522 0.911884 0.528116 c 40 28 1876 1032 bf 40 28 1916 1032 bf 0.542174 0.928406 0.451594 c 40 28 1956 1032 bf 0.416087 0.90087 0.57913 c 40 29 435 1060 bf 0.239565 0.862319 0.757681 c 40 29 475 1060 bf 1
 0.2 0 c 40 29 515 1060 bf 0.441304 0.906377 0.553623 c 40 29 555 1060 bf 0.529565 0.925652 0.464348 c 40 29 595 1060 bf 0.605217 0.942174 0.387826 c 40 29 635 1060 bf 0.516957 0.922899 0.477101 c 40 29 675 1060 bf 0.878814 0.945763 0.111864 c 40 29
 715 1060 bf 0.796829 0.117073 0 c 40 29 755 1060 bf 0.504348 0.920145 0.489855 c 40 29 795 1060 bf 0.491739 0.917391 0.502609 c 40 29 835 1060 bf 0.529565 0.925652 0.464348 c 40 29 875 1060 bf 0.617826 0.944928 0.375072 c 40 29 915 1060 bf 0.521951
 0.00487805 0 c 40 29 955 1060 bf 0.466522 0.911884 0.528116 c 40 29 995 1060 bf 0.516957 0.922899 0.477101 c 40 29 1035 1060 bf 0.504348 0.920145 0.489855 c 40 29 1075 1060 bf 0.567391 0.933913 0.426087 c 40 29 1115 1060 bf 0.466522 0.911884
 0.528116 c 40 29 1155 1060 bf 0.47913 0.914638 0.515362 c 40 29 1195 1060 bf 0.453913 0.90913 0.54087 c 41 29 1235 1060 bf 0.504348 0.920145 0.489855 c 40 29 1276 1060 bf 0.491739 0.917391 0.502609 c 40 29 1316 1060 bf 0.466522 0.911884 0.528116 c
 40 29 1356 1060 bf 0.491739 0.917391 0.502609 c 40 29 1396 1060 bf 40 29 1436 1060 bf 0.516957 0.922899 0.477101 c 40 29 1476 1060 bf 0.567391 0.933913 0.426087 c 40 29 1516 1060 bf 0.516957 0.922899 0.477101 c 40 29 1556 1060 bf 0.542174 0.928406
 0.451594 c 40 29 1596 1060 bf 0.504348 0.920145 0.489855 c 40 29 1636 1060 bf 0.491739 0.917391 0.502609 c 40 29 1676 1060 bf 0.542174 0.928406 0.451594 c 40 29 1716 1060 bf 0.516957 0.922899 0.477101 c 40 29 1756 1060 bf 0.47913 0.914638 0.515362 c
 40 29 1796 1060 bf 0.516957 0.922899 0.477101 c 40 29 1836 1060 bf 0.504348 0.920145 0.489855 c 40 29 1876 1060 bf 40 29 1916 1060 bf 0.516957 0.922899 0.477101 c 40 29 1956 1060 bf 0.542174 0.928406 0.451594 c 40 28 435 1089 bf 0 0.612209 0.880349
 c 40 28 475 1089 bf 0.68087 0.958696 0.311304 c 40 28 515 1089 bf 0.441304 0.906377 0.553623 c 40 28 555 1089 bf 0.529565 0.925652 0.464348 c 40 28 595 1089 bf 0.567391 0.933913 0.426087 c 40 28 635 1089 bf 0.554783 0.931159 0.438841 c 40 28 675
 1089 bf 0.933898 0.60678 0.061017 c 40 28 715 1089 bf 0.655652 0.953188 0.336812 c 40 28 755 1089 bf 0.47913 0.914638 0.515362 c 40 28 795 1089 bf 0.302609 0.876087 0.693913 c 40 28 835 1089 bf 0.58 0.936667 0.413333 c 40 28 875 1089 bf 0.521951
 0.00487805 0 c 40 28 915 1089 bf 0.617826 0.944928 0.375072 c 40 28 955 1089 bf 0.504348 0.920145 0.489855 c 40 28 995 1089 bf 0.554783 0.931159 0.438841 c 40 28 1035 1089 bf 0.516957 0.922899 0.477101 c 40 28 1075 1089 bf 0.731304 0.96971 0.26029 c
 40 28 1115 1089 bf 0.87661 0.959322 0.113898 c 40 28 1155 1089 bf 0.76913 0.977971 0.222029 c 40 28 1195 1089 bf 0.516957 0.922899 0.477101 c 41 28 1235 1089 bf 0.428696 0.903623 0.566377 c 40 28 1276 1089 bf 0.592609 0.93942 0.40058 c 40 28 1316
 1089 bf 0.643043 0.950435 0.349565 c 40 28 1356 1089 bf 0.907458 0.769492 0.0854237 c 40 28 1396 1089 bf 0.39087 0.895362 0.604638 c 40 28 1436 1089 bf 0.529565 0.925652 0.464348 c 40 28 1476 1089 bf 0.441304 0.906377 0.553623 c 40 28 1516 1089 bf
 0.403478 0.898116 0.591884 c 40 28 1556 1089 bf 0.491739 0.917391 0.502609 c 40 28 1596 1089 bf 0.529565 0.925652 0.464348 c 40 28 1636 1089 bf 0.643043 0.950435 0.349565 c 40 28 1676 1089 bf 0.819565 0.988985 0.171014 c 40 28 1716 1089 bf 0.617826
 0.944928 0.375072 c 40 28 1756 1089 bf 0.29 0.873333 0.706667 c 40 28 1796 1089 bf 0.516957 0.922899 0.477101 c 40 28 1836 1089 bf 0.403478 0.898116 0.591884 c 40 28 1876 1089 bf 40 28 1916 1089 bf 0.18913 0.851304 0.808696 c 40 28 1956 1089 bf
 0.516957 0.922899 0.477101 c 40 29 435 1117 bf 0.76913 0.977971 0.222029 c 40 29 475 1117 bf 0.643043 0.950435 0.349565 c 40 29 515 1117 bf 0.617826 0.944928 0.375072 c 40 29 555 1117 bf 0.542174 0.928406 0.451594 c 40 29 595 1117 bf 0.872203
 0.986441 0.117966 c 40 29 635 1117 bf 0.542174 0.928406 0.451594 c 40 29 675 1117 bf 0.643043 0.950435 0.349565 c 40 29 715 1117 bf 0.617826 0.944928 0.375072 c 40 29 755 1117 bf 0.47913 0.914638 0.515362 c 40 29 795 1117 bf 0.466522 0.911884
 0.528116 c 40 29 835 1117 bf 0.521951 0.00487805 0 c 40 29 875 1117 bf 0.58 0.936667 0.413333 c 40 29 915 1117 bf 0.529565 0.925652 0.464348 c 40 29 955 1117 bf 0.491739 0.917391 0.502609 c 40 29 995 1117 bf 0.516957 0.922899 0.477101 c 40 29 1035
 1117 bf 0.491739 0.917391 0.502609 c 40 29 1075 1117 bf 0.605217 0.942174 0.387826 c 40 29 1115 1117 bf 0.643043 0.950435 0.349565 c 40 29 1155 1117 bf 0.58 0.936667 0.413333 c 40 29 1195 1117 bf 0.516957 0.922899 0.477101 c 41 29 1235 1117 bf
 0.453913 0.90913 0.54087 c 40 29 1276 1117 bf 0.554783 0.931159 0.438841 c 40 29 1316 1117 bf 0.47913 0.914638 0.515362 c 40 29 1356 1117 bf 0.718696 0.966956 0.273043 c 40 29 1396 1117 bf 0.29 0.873333 0.706667 c 40 29 1436 1117 bf 0.453913 0.90913
 0.54087 c 40 29 1476 1117 bf 0.441304 0.906377 0.553623 c 40 29 1516 1117 bf 0.914068 0.728814 0.079322 c 40 29 1556 1117 bf 0.832174 0.991739 0.158261 c 40 29 1596 1117 bf 0.428696 0.903623 0.566377 c 40 29 1636 1117 bf 0.252174 0.865072 0.744928 c
 40 29 1676 1117 bf 0.47913 0.914638 0.515362 c 40 29 1716 1117 bf 0.378261 0.892609 0.617391 c 40 29 1756 1117 bf 0.441304 0.906377 0.553623 c 40 29 1796 1117 bf 0.516957 0.922899 0.477101 c 40 29 1836 1117 bf 0.428696 0.903623 0.566377 c 40 29 1876
 1117 bf 40 29 1916 1117 bf 0.903051 0.79661 0.0894915 c 40 29 1956 1117 bf 0.453913 0.90913 0.54087 c 40 29 435 1146 bf 0.643043 0.950435 0.349565 c 40 29 475 1146 bf 0.47913 0.914638 0.515362 c 40 29 515 1146 bf 0.39087 0.895362 0.604638 c 40 29
 555 1146 bf 0.453913 0.90913 0.54087 c 40 29 595 1146 bf 0.0378261 0.818261 0.961739 c 40 29 635 1146 bf 0.416087 0.90087 0.57913 c 40 29 675 1146 bf 0.378261 0.892609 0.617391 c 40 29 715 1146 bf 0.542174 0.928406 0.451594 c 40 29 755 1146 bf
 0.453913 0.90913 0.54087 c 40 29 795 1146 bf 0.521951 0.00487805 0 c 40 29 835 1146 bf 0.466522 0.911884 0.528116 c 40 29 875 1146 bf 0.302609 0.876087 0.693913 c 40 29 915 1146 bf 0.491739 0.917391 0.502609 c 40 29 955 1146 bf 0.466522 0.911884
 0.528116 c 40 29 995 1146 bf 0.504348 0.920145 0.489855 c 40 29 1035 1146 bf 40 29 1075 1146 bf 0.516957 0.922899 0.477101 c 40 29 1115 1146 bf 0.453913 0.90913 0.54087 c 40 29 1155 1146 bf 40 29 1195 1146 bf 0.529565 0.925652 0.464348 c 41 29 1235
 1146 bf 0.504348 0.920145 0.489855 c 40 29 1276 1146 bf 0.592609 0.93942 0.40058 c 40 29 1316 1146 bf 40 29 1356 1146 bf 40 29 1396 1146 bf 0.567391 0.933913 0.426087 c 40 29 1436 1146 bf 0.529565 0.925652 0.464348 c 40 29 1476 1146 bf 0.516957
 0.922899 0.477101 c 40 29 1516 1146 bf 40 29 1556 1146 bf 40 29 1596 1146 bf 0.491739 0.917391 0.502609 c 40 29 1636 1146 bf 0.466522 0.911884 0.528116 c 40 29 1676 1146 bf 0.453913 0.90913 0.54087 c 40 29 1716 1146 bf 0.466522 0.911884 0.528116 c
 40 29 1756 1146 bf 0.315217 0.878841 0.681159 c 40 29 1796 1146 bf 0.516957 0.922899 0.477101 c 40 29 1836 1146 bf 0.428696 0.903623 0.566377 c 40 29 1876 1146 bf 40 29 1916 1146 bf 0.567391 0.933913 0.426087 c 40 29 1956 1146 bf 0.466522 0.911884
 0.528116 c 40 28 435 1175 bf 0.706087 0.964203 0.285797 c 40 28 475 1175 bf 0.315217 0.878841 0.681159 c 40 28 515 1175 bf 0.0882609 0.829275 0.910725 c 40 28 555 1175 bf 0.428696 0.903623 0.566377 c 40 28 595 1175 bf 0.214348 0.856812 0.783188 c 40
 28 635 1175 bf 0.441304 0.906377 0.553623 c 40 28 675 1175 bf 0.466522 0.911884 0.528116 c 40 28 715 1175 bf 0.327826 0.881594 0.668406 c 40 28 755 1175 bf 0.521951 0.00487805 0 c 40 28 795 1175 bf 0.453913 0.90913 0.54087 c 40 28 835 1175 bf
 0.47913 0.914638 0.515362 c 40 28 875 1175 bf 40 28 915 1175 bf 0.504348 0.920145 0.489855 c 40 28 955 1175 bf 0.47913 0.914638 0.515362 c 40 28 995 1175 bf 0.504348 0.920145 0.489855 c 40 28 1035 1175 bf 40 28 1075 1175 bf 0.516957 0.922899
 0.477101 c 40 28 1115 1175 bf 0.491739 0.917391 0.502609 c 40 28 1155 1175 bf 0.47913 0.914638 0.515362 c 40 28 1195 1175 bf 0.516957 0.922899 0.477101 c 41 28 1235 1175 bf 0.554783 0.931159 0.438841 c 40 28 1276 1175 bf 0.592609 0.93942 0.40058 c
 40 28 1316 1175 bf 0.504348 0.920145 0.489855 c 40 28 1356 1175 bf 0.428696 0.903623 0.566377 c 40 28 1396 1175 bf 0.504348 0.920145 0.489855 c 40 28 1436 1175 bf 40 28 1476 1175 bf 0.516957 0.922899 0.477101 c 40 28 1516 1175 bf 40 28 1556 1175 bf
 0.504348 0.920145 0.489855 c 40 28 1596 1175 bf 0.516957 0.922899 0.477101 c 40 28 1636 1175 bf 0.47913 0.914638 0.515362 c 40 28 1676 1175 bf 0.491739 0.917391 0.502609 c 40 28 1716 1175 bf 0.504348 0.920145 0.489855 c 40 28 1756 1175 bf 0.340435
 0.884348 0.655652 c 40 28 1796 1175 bf 0.516957 0.922899 0.477101 c 40 28 1836 1175 bf 0.453913 0.90913 0.54087 c 40 28 1876 1175 bf 40 28 1916 1175 bf 0.542174 0.928406 0.451594 c 40 28 1956 1175 bf 0.453913 0.90913 0.54087 c 40 29 435 1203 bf
 0.18913 0.851304 0.808696 c 40 29 475 1203 bf 0.820732 0.126829 0 c 40 29 515 1203 bf 0.832174 0.991739 0.158261 c 40 29 555 1203 bf 0.617826 0.944928 0.375072 c 40 29 595 1203 bf 0.832174 0.991739 0.158261 c 40 29 635 1203 bf 0.605217 0.942174
 0.387826 c 40 29 675 1203 bf 0.892034 0.864407 0.099661 c 40 29 715 1203 bf 0.521951 0.00487805 0 c 40 29 755 1203 bf 0.327826 0.881594 0.668406 c 40 29 795 1203 bf 0.542174 0.928406 0.451594 c 40 29 835 1203 bf 0.617826 0.944928 0.375072 c 40 29
 875 1203 bf 0.655652 0.953188 0.336812 c 40 29 915 1203 bf 0.796829 0.117073 0 c 40 29 955 1203 bf 0.491739 0.917391 0.502609 c 40 29 995 1203 bf 0.88322 0.918644 0.107797 c 40 29 1035 1203 bf 0.529565 0.925652 0.464348 c 40 29 1075 1203 bf 0.617826
 0.944928 0.375072 c 40 29 1115 1203 bf 0.491739 0.917391 0.502609 c 40 29 1155 1203 bf 0.516957 0.922899 0.477101 c 40 29 1195 1203 bf 0.29 0.873333 0.706667 c 41 29 1235 1203 bf 0.466522 0.911884 0.528116 c 40 29 1276 1203 bf 0.516957 0.922899
 0.477101 c 40 29 1316 1203 bf 0.201739 0.854058 0.795942 c 40 29 1356 1203 bf 0.529565 0.925652 0.464348 c 40 29 1396 1203 bf 0.466522 0.911884 0.528116 c 40 29 1436 1203 bf 0.504348 0.920145 0.489855 c 40 29 1476 1203 bf 0.706087 0.964203 0.285797
 c 40 29 1516 1203 bf 0.529565 0.925652 0.464348 c 40 29 1556 1203 bf 0.58 0.936667 0.413333 c 40 29 1596 1203 bf 0.504348 0.920145 0.489855 c 40 29 1636 1203 bf 0.491739 0.917391 0.502609 c 40 29 1676 1203 bf 0.567391 0.933913 0.426087 c 40 29 1716
 1203 bf 0.529565 0.925652 0.464348 c 40 29 1756 1203 bf 0.453913 0.90913 0.54087 c 40 29 1796 1203 bf 0.516957 0.922899 0.477101 c 40 29 1836 1203 bf 0.252174 0.865072 0.744928 c 40 29 1876 1203 bf 40 29 1916 1203 bf 0.605217 0.942174 0.387826 c 40
 29 1956 1203 bf 0.428696 0.903623 0.566377 c 40 29 435 1232 bf 0 0.499186 0.811977 c 40 29 475 1232 bf 0.894237 0.850847 0.0976271 c 40 29 515 1232 bf 0.731304 0.96971 0.26029 c 40 29 555 1232 bf 0.643043 0.950435 0.349565 c 40 29 595 1232 bf
 0.889831 0.877966 0.101695 c 40 29 635 1232 bf 0.668261 0.955942 0.324058 c 40 29 675 1232 bf 0.521951 0.00487805 0 c 40 29 715 1232 bf 0.892034 0.864407 0.099661 c 40 29 755 1232 bf 0.466522 0.911884 0.528116 c 40 29 795 1232 bf 0.378261 0.892609
 0.617391 c 40 29 835 1232 bf 0.643043 0.950435 0.349565 c 40 29 875 1232 bf 0.933898 0.60678 0.061017 c 40 29 915 1232 bf 0.878814 0.945763 0.111864 c 40 29 955 1232 bf 0.940508 0.566102 0.0549153 c 40 29 995 1232 bf 0.643043 0.950435 0.349565 c 40
 29 1035 1232 bf 0.47913 0.914638 0.515362 c 40 29 1075 1232 bf 0.743913 0.972464 0.247536 c 40 29 1115 1232 bf 0.900847 0.81017 0.0915254 c 40 29 1155 1232 bf 0.878814 0.945763 0.111864 c 40 29 1195 1232 bf 0.47913 0.914638 0.515362 c 41 29 1235
 1232 bf 0.441304 0.906377 0.553623 c 40 29 1276 1232 bf 0.466522 0.911884 0.528116 c 40 29 1316 1232 bf 0.491739 0.917391 0.502609 c 40 29 1356 1232 bf 0.542174 0.928406 0.451594 c 40 29 1396 1232 bf 0.516957 0.922899 0.477101 c 40 29 1436 1232 bf
 0.567391 0.933913 0.426087 c 40 29 1476 1232 bf 0.428696 0.903623 0.566377 c 40 29 1516 1232 bf 0.529565 0.925652 0.464348 c 40 29 1556 1232 bf 0.718696 0.966956 0.273043 c 40 29 1596 1232 bf 0.47913 0.914638 0.515362 c 40 29 1636 1232 bf 0.428696
 0.903623 0.566377 c 40 29 1676 1232 bf 0.630435 0.947681 0.362319 c 40 29 1716 1232 bf 0.529565 0.925652 0.464348 c 40 29 1756 1232 bf 0.0252174 0.815507 0.974493 c 40 29 1796 1232 bf 0.516957 0.922899 0.477101 c 40 29 1836 1232 bf 0.416087 0.90087
 0.57913 c 40 29 1876 1232 bf 40 29 1916 1232 bf 0.378261 0.892609 0.617391 c 40 29 1956 1232 bf 0.995593 0.227119 0.0040678 c 40 28 435 1261 bf 0.617826 0.944928 0.375072 c 40 28 475 1261 bf 0.58 0.936667 0.413333 c 40 28 515 1261 bf 0.938305
 0.579661 0.0569492 c 40 28 555 1261 bf 0.868537 0.146341 0 c 40 28 595 1261 bf 0.781739 0.980725 0.209275 c 40 28 635 1261 bf 0.521951 0.00487805 0 c 40 28 675 1261 bf 0.668261 0.955942 0.324058 c 40 28 715 1261 bf 0.605217 0.942174 0.387826 c 40 28
 755 1261 bf 0.441304 0.906377 0.553623 c 40 28 795 1261 bf 0.416087 0.90087 0.57913 c 40 28 835 1261 bf 0.542174 0.928406 0.451594 c 40 28 875 1261 bf 0.554783 0.931159 0.438841 c 40 28 915 1261 bf 0.516957 0.922899 0.477101 c 40 28 955 1261 bf
 0.453913 0.90913 0.54087 c 40 28 995 1261 bf 0.491739 0.917391 0.502609 c 40 28 1035 1261 bf 40 28 1075 1261 bf 0.592609 0.93942 0.40058 c 40 28 1115 1261 bf 0.542174 0.928406 0.451594 c 40 28 1155 1261 bf 0.441304 0.906377 0.553623 c 40 28 1195
 1261 bf 0.617826 0.944928 0.375072 c 41 28 1235 1261 bf 0 0.405 0.755 c 40 28 1276 1261 bf 0.113478 0.834783 0.885217 c 40 28 1316 1261 bf 0.529565 0.925652 0.464348 c 40 28 1356 1261 bf 0.605217 0.942174 0.387826 c 40 28 1396 1261 bf 0.365652
 0.889855 0.630145 c 40 28 1436 1261 bf 0.428696 0.903623 0.566377 c 40 28 1476 1261 bf 0.327826 0.881594 0.668406 c 40 28 1516 1261 bf 0.529565 0.925652 0.464348 c 40 28 1556 1261 bf 0.58 0.936667 0.413333 c 40 28 1596 1261 bf 0.554783 0.931159
 0.438841 c 40 28 1636 1261 bf 0.542174 0.928406 0.451594 c 40 28 1676 1261 bf 0.567391 0.933913 0.426087 c 40 28 1716 1261 bf 40 28 1756 1261 bf 0.264783 0.867826 0.732174 c 40 28 1796 1261 bf 0.516957 0.922899 0.477101 c 40 28 1836 1261 bf 0.378261
 0.892609 0.617391 c 40 28 1876 1261 bf 40 28 1916 1261 bf 0.315217 0.878841 0.681159 c 40 28 1956 1261 bf 0.630435 0.947681 0.362319 c 40 29 435 1289 bf 0.76913 0.977971 0.222029 c 40 29 475 1289 bf 0.743913 0.972464 0.247536 c 40 29 515 1289 bf
 0.920678 0.688136 0.0732203 c 40 29 555 1289 bf 0.655652 0.953188 0.336812 c 40 29 595 1289 bf 0.521951 0.00487805 0 c 40 29 635 1289 bf 0.781739 0.980725 0.209275 c 40 29 675 1289 bf 0.889831 0.877966 0.101695 c 40 29 715 1289 bf 0.832174 0.991739
 0.158261 c 40 29 755 1289 bf 0.214348 0.856812 0.783188 c 40 29 795 1289 bf 0.0378261 0.818261 0.961739 c 40 29 835 1289 bf 0.872203 0.986441 0.117966 c 40 29 875 1289 bf 0.567391 0.933913 0.426087 c 40 29 915 1289 bf 0.605217 0.942174 0.387826 c 40
 29 955 1289 bf 0.743913 0.972464 0.247536 c 40 29 995 1289 bf 0.542174 0.928406 0.451594 c 40 29 1035 1289 bf 0.592609 0.93942 0.40058 c 40 29 1075 1289 bf 0.453913 0.90913 0.54087 c 40 29 1115 1289 bf 0.605217 0.942174 0.387826 c 40 29 1155 1289 bf
 0.706087 0.964203 0.285797 c 40 29 1195 1289 bf 0.516957 0.922899 0.477101 c 41 29 1235 1289 bf 0.441304 0.906377 0.553623 c 40 29 1276 1289 bf 0.315217 0.878841 0.681159 c 40 29 1316 1289 bf 0.441304 0.906377 0.553623 c 40 29 1356 1289 bf 0
 0.800581 0.994302 c 40 29 1396 1289 bf 0.353043 0.887101 0.642899 c 40 29 1436 1289 bf 0.416087 0.90087 0.57913 c 40 29 1476 1289 bf 0.617826 0.944928 0.375072 c 40 29 1516 1289 bf 40 29 1556 1289 bf 0.731304 0.96971 0.26029 c 40 29 1596 1289 bf
 0.567391 0.933913 0.426087 c 40 29 1636 1289 bf 0.466522 0.911884 0.528116 c 40 29 1676 1289 bf 0.542174 0.928406 0.451594 c 40 29 1716 1289 bf 0.554783 0.931159 0.438841 c 40 29 1756 1289 bf 0.441304 0.906377 0.553623 c 40 29 1796 1289 bf 0.516957
 0.922899 0.477101 c 40 29 1836 1289 bf 0.126087 0.837536 0.872464 c 40 29 1876 1289 bf 0.138696 0.84029 0.85971 c 40 29 1916 1289 bf 0.630435 0.947681 0.362319 c 40 29 1956 1289 bf 0.944915 0.538983 0.0508475 c 40 28 435 1318 bf 0.58 0.936667
 0.413333 c 40 28 475 1318 bf 0.617826 0.944928 0.375072 c 40 28 515 1318 bf 0.929492 0.633898 0.0650847 c 40 28 555 1318 bf 0.521951 0.00487805 0 c 40 28 595 1318 bf 0.655652 0.953188 0.336812 c 40 28 635 1318 bf 0.868537 0.146341 0 c 40 28 675 1318
 bf 0.643043 0.950435 0.349565 c 40 28 715 1318 bf 0.617826 0.944928 0.375072 c 40 28 755 1318 bf 0.428696 0.903623 0.566377 c 40 28 795 1318 bf 0.453913 0.90913 0.54087 c 40 28 835 1318 bf 0.542174 0.928406 0.451594 c 40 28 875 1318 bf 0.529565
 0.925652 0.464348 c 40 28 915 1318 bf 40 28 955 1318 bf 0.466522 0.911884 0.528116 c 40 28 995 1318 bf 0.504348 0.920145 0.489855 c 40 28 1035 1318 bf 0.491739 0.917391 0.502609 c 40 28 1075 1318 bf 0.58 0.936667 0.413333 c 40 28 1115 1318 bf
 0.542174 0.928406 0.451594 c 40 28 1155 1318 bf 0.466522 0.911884 0.528116 c 40 28 1195 1318 bf 0.567391 0.933913 0.426087 c 41 28 1235 1318 bf 0 0.53686 0.834767 c 40 28 1276 1318 bf 0.201739 0.854058 0.795942 c 40 28 1316 1318 bf 0.516957 0.922899
 0.477101 c 40 28 1356 1318 bf 0.605217 0.942174 0.387826 c 40 28 1396 1318 bf 0.39087 0.895362 0.604638 c 40 28 1436 1318 bf 0.491739 0.917391 0.502609 c 40 28 1476 1318 bf 0.29 0.873333 0.706667 c 40 28 1516 1318 bf 0.554783 0.931159 0.438841 c 40
 28 1556 1318 bf 0.567391 0.933913 0.426087 c 40 28 1596 1318 bf 0.542174 0.928406 0.451594 c 40 28 1636 1318 bf 40 28 1676 1318 bf 0.554783 0.931159 0.438841 c 40 28 1716 1318 bf 40 28 1756 1318 bf 0.315217 0.878841 0.681159 c 40 28 1796 1318 bf
 0.516957 0.922899 0.477101 c 40 28 1836 1318 bf 0.403478 0.898116 0.591884 c 40 28 1876 1318 bf 40 28 1916 1318 bf 0.340435 0.884348 0.655652 c 40 28 1956 1318 bf 0.907458 0.769492 0.0854237 c 40 29 435 1346 bf 0.630435 0.947681 0.362319 c 40 29 475
 1346 bf 0.743913 0.972464 0.247536 c 40 29 515 1346 bf 0.521951 0.00487805 0 c 40 29 555 1346 bf 0.929492 0.633898 0.0650847 c 40 29 595 1346 bf 0.920678 0.688136 0.0732203 c 40 29 635 1346 bf 0.938305 0.579661 0.0569492 c 40 29 675 1346 bf 0.731304
 0.96971 0.26029 c 40 29 715 1346 bf 0.832174 0.991739 0.158261 c 40 29 755 1346 bf 0.0882609 0.829275 0.910725 c 40 29 795 1346 bf 0.39087 0.895362 0.604638 c 40 29 835 1346 bf 0.617826 0.944928 0.375072 c 40 29 875 1346 bf 0.441304 0.906377
 0.553623 c 40 29 915 1346 bf 40 29 955 1346 bf 0.516957 0.922899 0.477101 c 40 29 995 1346 bf 0.466522 0.911884 0.528116 c 40 29 1035 1346 bf 0.516957 0.922899 0.477101 c 40 29 1075 1346 bf 0.491739 0.917391 0.502609 c 40 29 1115 1346 bf 0.554783
 0.931159 0.438841 c 40 29 1155 1346 bf 0.516957 0.922899 0.477101 c 40 29 1195 1346 bf 0.567391 0.933913 0.426087 c 41 29 1235 1346 bf 0.516957 0.922899 0.477101 c 40 29 1276 1346 bf 0 0.621628 0.886047 c 40 29 1316 1346 bf 0.0882609 0.829275
 0.910725 c 40 29 1356 1346 bf 0.630435 0.947681 0.362319 c 40 29 1396 1346 bf 0.340435 0.884348 0.655652 c 40 29 1436 1346 bf 0.441304 0.906377 0.553623 c 40 29 1476 1346 bf 0.592609 0.93942 0.40058 c 40 29 1516 1346 bf 0.516957 0.922899 0.477101 c
 40 29 1556 1346 bf 0.592609 0.93942 0.40058 c 40 29 1596 1346 bf 0.542174 0.928406 0.451594 c 40 29 1636 1346 bf 0.567391 0.933913 0.426087 c 40 29 1676 1346 bf 0.542174 0.928406 0.451594 c 40 29 1716 1346 bf 0.58 0.936667 0.413333 c 40 29 1756 1346
 bf 0.226957 0.859565 0.770435 c 40 29 1796 1346 bf 0.516957 0.922899 0.477101 c 40 29 1836 1346 bf 0 0.81 1 c 40 29 1876 1346 bf 0.0252174 0.815507 0.974493 c 40 29 1916 1346 bf 0.605217 0.942174 0.387826 c 40 29 1956 1346 bf 0.47913 0.914638
 0.515362 c 40 29 435 1375 bf 0.252174 0.865072 0.744928 c 40 29 475 1375 bf 0.521951 0.00487805 0 c 40 29 515 1375 bf 0.743913 0.972464 0.247536 c 40 29 555 1375 bf 0.617826 0.944928 0.375072 c 40 29 595 1375 bf 0.743913 0.972464 0.247536 c 40 29
 635 1375 bf 0.58 0.936667 0.413333 c 40 29 675 1375 bf 0.894237 0.850847 0.0976271 c 40 29 715 1375 bf 0.820732 0.126829 0 c 40 29 755 1375 bf 0.315217 0.878841 0.681159 c 40 29 795 1375 bf 0.47913 0.914638 0.515362 c 40 29 835 1375 bf 0.643043
 0.950435 0.349565 c 40 29 875 1375 bf 0.68087 0.958696 0.311304 c 40 29 915 1375 bf 1 0.2 0 c 40 29 955 1375 bf 0.47913 0.914638 0.515362 c 40 29 995 1375 bf 0.819565 0.988985 0.171014 c 40 29 1035 1375 bf 0.516957 0.922899 0.477101 c 40 29 1075
 1375 bf 0.929492 0.633898 0.0650847 c 40 29 1115 1375 bf 0.441304 0.906377 0.553623 c 40 29 1155 1375 bf 0.504348 0.920145 0.489855 c 40 29 1195 1375 bf 0.10087 0.832029 0.897971 c 41 29 1235 1375 bf 0.441304 0.906377 0.553623 c 40 29 1276 1375 bf
 0.743913 0.972464 0.247536 c 40 29 1316 1375 bf 0.0756522 0.826522 0.923478 c 40 29 1356 1375 bf 0.554783 0.931159 0.438841 c 40 29 1396 1375 bf 0.466522 0.911884 0.528116 c 40 29 1436 1375 bf 0.516957 0.922899 0.477101 c 40 29 1476 1375 bf 0.453913
 0.90913 0.54087 c 40 29 1516 1375 bf 0.529565 0.925652 0.464348 c 40 29 1556 1375 bf 0.592609 0.93942 0.40058 c 40 29 1596 1375 bf 0.504348 0.920145 0.489855 c 40 29 1636 1375 bf 0.47913 0.914638 0.515362 c 40 29 1676 1375 bf 0.554783 0.931159
 0.438841 c 40 29 1716 1375 bf 0.516957 0.922899 0.477101 c 40 29 1756 1375 bf 0.466522 0.911884 0.528116 c 40 29 1796 1375 bf 0.516957 0.922899 0.477101 c 40 29 1836 1375 bf 0.416087 0.90087 0.57913 c 40 29 1876 1375 bf 40 29 1916 1375 bf 0.617826
 0.944928 0.375072 c 40 29 1956 1375 bf 0.76913 0.977971 0.222029 c 40 28 435 1404 bf 0.521951 0.00487805 0 c 40 28 475 1404 bf 0.252174 0.865072 0.744928 c 40 28 515 1404 bf 0.630435 0.947681 0.362319 c 40 28 555 1404 bf 0.58 0.936667 0.413333 c 40
 28 595 1404 bf 0.76913 0.977971 0.222029 c 40 28 635 1404 bf 0.617826 0.944928 0.375072 c 40 28 675 1404 bf 0 0.499186 0.811977 c 40 28 715 1404 bf 0.18913 0.851304 0.808696 c 40 28 755 1404 bf 0.706087 0.964203 0.285797 c 40 28 795 1404 bf 0.643043
 0.950435 0.349565 c 40 28 835 1404 bf 0.76913 0.977971 0.222029 c 40 28 875 1404 bf 0 0.612209 0.880349 c 40 28 915 1404 bf 0.239565 0.862319 0.757681 c 40 28 955 1404 bf 0 0.715814 0.943023 c 40 28 995 1404 bf 0.39087 0.895362 0.604638 c 40 28 1035
 1404 bf 0.428696 0.903623 0.566377 c 40 28 1075 1404 bf 0.466522 0.911884 0.528116 c 40 28 1115 1404 bf 0.0882609 0.829275 0.910725 c 40 28 1155 1404 bf 0.0378261 0.818261 0.961739 c 40 28 1195 1404 bf 0.504348 0.920145 0.489855 c 41 28 1235 1404 bf
 0.491739 0.917391 0.502609 c 40 28 1276 1404 bf 0.353043 0.887101 0.642899 c 40 28 1316 1404 bf 0.58 0.936667 0.413333 c 40 28 1356 1404 bf 0.226957 0.859565 0.770435 c 40 28 1396 1404 bf 0.315217 0.878841 0.681159 c 40 28 1436 1404 bf 0.39087
 0.895362 0.604638 c 40 28 1476 1404 bf 0.592609 0.93942 0.40058 c 40 28 1516 1404 bf 0.655652 0.953188 0.336812 c 40 28 1556 1404 bf 0.58 0.936667 0.413333 c 40 28 1596 1404 bf 0.542174 0.928406 0.451594 c 40 28 1636 1404 bf 0.416087 0.90087 0.57913
 c 40 28 1676 1404 bf 0.378261 0.892609 0.617391 c 40 28 1716 1404 bf 0.491739 0.917391 0.502609 c 40 28 1756 1404 bf 0.315217 0.878841 0.681159 c 40 28 1796 1404 bf 0.516957 0.922899 0.477101 c 40 28 1836 1404 bf 0.68087 0.958696 0.311304 c 40 28
 1876 1404 bf 40 28 1916 1404 bf 0.819565 0.988985 0.171014 c 40 28 1956 1404 bf 0.521951 0.00487805 0 c 40 29 435 1432 bf 0.76913 0.977971 0.222029 c 40 29 475 1432 bf 0.47913 0.914638 0.515362 c 40 29 515 1432 bf 0.907458 0.769492 0.0854237 c 40 29
 555 1432 bf 0.944915 0.538983 0.0508475 c 40 29 595 1432 bf 0.630435 0.947681 0.362319 c 40 29 635 1432 bf 0.995593 0.227119 0.0040678 c 40 29 675 1432 bf 0.428696 0.903623 0.566377 c 40 29 715 1432 bf 0.453913 0.90913 0.54087 c 40 29 755 1432 bf
 0.466522 0.911884 0.528116 c 40 29 795 1432 bf 0.453913 0.90913 0.54087 c 40 29 835 1432 bf 0.516957 0.922899 0.477101 c 40 29 875 1432 bf 0.542174 0.928406 0.451594 c 40 29 915 1432 bf 0.416087 0.90087 0.57913 c 40 29 955 1432 bf 0.29 0.873333
 0.706667 c 40 29 995 1432 bf 0.47913 0.914638 0.515362 c 40 29 1035 1432 bf 40 29 1075 1432 bf 0.630435 0.947681 0.362319 c 40 29 1115 1432 bf 0.516957 0.922899 0.477101 c 40 29 1155 1432 bf 0.277391 0.87058 0.71942 c 40 29 1195 1432 bf 0.567391
 0.933913 0.426087 c 41 29 1235 1432 bf 0 0.67814 0.920233 c 40 29 1276 1432 bf 0.176522 0.848551 0.821449 c 40 29 1316 1432 bf 0.655652 0.953188 0.336812 c 40 29 1356 1432 bf 0.643043 0.950435 0.349565 c 40 29 1396 1432 bf 0.39087 0.895362 0.604638
 c 40 29 1436 1432 bf 0.428696 0.903623 0.566377 c 40 29 1476 1432 bf 0.176522 0.848551 0.821449 c 40 29 1516 1432 bf 0.504348 0.920145 0.489855 c 40 29 1556 1432 bf 40 29 1596 1432 bf 0.554783 0.931159 0.438841 c 40 29 1636 1432 bf 40 29 1676 1432
 bf 0.542174 0.928406 0.451594 c 40 29 1716 1432 bf 0.554783 0.931159 0.438841 c 40 29 1756 1432 bf 0.39087 0.895362 0.604638 c 40 29 1796 1432 bf 0.516957 0.922899 0.477101 c 40 29 1836 1432 bf 0.428696 0.903623 0.566377 c 40 29 1876 1432 bf 40 29
 1916 1432 bf 0.403478 0.898116 0.591884 c 40 29 1956 1432 bf 1 1 1 c black 435 344 m 1561 X s
 gsave  2268 1538 0 0 C 462.666 19.5493 t 90 r /Helvetica findfont 29.3239 sf 0 0 m (norm_Wmeg_VBFRatio) show NC gr 
 gsave  2268 1538 0 0 C 505.023 120.554 t 90 r /Helvetica findfont 29.3239 sf 0 0 m (norm_Wmerged) show NC gr 
 gsave  2268 1538 0 0 C 544.122 202.009 t 90 r /Helvetica findfont 29.3239 sf 0 0 m (norm_Zhf) show NC gr 
 gsave  2268 1538 0 0 C 583.22 211.784 t 90 r /Helvetica findfont 29.3239 sf 0 0 m (norm_Zlf) show NC gr 
 gsave  2268 1538 0 0 C 622.319 29.3239 t 90 r /Helvetica findfont 29.3239 sf 0 0 m (norm_Zmeg_VBFRatio) show NC gr 
 gsave  2268 1538 0 0 C 664.676 130.329 t 90 r /Helvetica findfont 29.3239 sf 0 0 m (norm_Zmerged) show NC gr 
 gsave  2268 1538 0 0 C 703.774 45.615 t 90 r /Helvetica findfont 29.3239 sf 0 0 m (norm_Zres_VBFRatio) show NC gr 
 gsave  2268 1538 0 0 C 742.873 120.554 t 90 r /Helvetica findfont 29.3239 sf 0 0 m (norm_ttbar0Lep) show NC gr 
 gsave  2268 1538 0 0 C 781.971 120.554 t 90 r /Helvetica findfont 29.3239 sf 0 0 m (norm_ttbar2Lep) show NC gr 
 gsave  2268 1538 0 0 C 824.328 -289.981 t 90 r /Helvetica findfont 29.3239 sf 0 0 m (EL_EFF_ID_TOTAL_1NPCOR_PLUS_UNCOR) show NC gr 
 gsave  2268 1538 0 0 C 863.427 -299.756 t 90 r /Helvetica findfont 29.3239 sf 0 0 m (EL_EFF_Iso_TOTAL_1NPCOR_PLUS_UNCOR) show NC gr 
 gsave  2268 1538 0 0 C 902.525 91.23 t 90 r /Helvetica findfont 29.3239 sf 0 0 m (FATJET_ZV_D2R) show NC gr 
 gsave  2268 1538 0 0 C 944.882 91.23 t 90 r /Helvetica findfont 29.3239 sf 0 0 m (FATJET_ZV_JMR) show NC gr 
 gsave  2268 1538 0 0 C 983.98 61.9061 t 90 r /Helvetica findfont 29.3239 sf 0 0 m (FT_EFF_Eigen_B_0) show NC gr 
 gsave  2268 1538 0 0 C 1023.08 -52.1314 t 90 r /Helvetica findfont 29.3239 sf 0 0 m (FT_EFF_Eigen_B_0_TrkJets) show NC gr 
 gsave  2268 1538 0 0 C 1062.18 65.1643 t 90 r /Helvetica findfont 29.3239 sf 0 0 m (FT_EFF_Eigen_B_1) show NC gr 
 gsave  2268 1538 0 0 C 1104.53 -52.1314 t 90 r /Helvetica findfont 29.3239 sf 0 0 m (FT_EFF_Eigen_B_1_TrkJets) show NC gr 
 gsave  2268 1538 0 0 C 1143.63 58.6478 t 90 r /Helvetica findfont 29.3239 sf 0 0 m (FT_EFF_Eigen_C_0) show NC gr 
 gsave  2268 1538 0 0 C 1182.73 -52.1314 t 90 r /Helvetica findfont 29.3239 sf 0 0 m (FT_EFF_Eigen_C_0_TrkJets) show NC gr 
 gsave  2268 1538 0 0 C 1225.09 -94.4882 t 90 r /Helvetica findfont 29.3239 sf 0 0 m (FT_EFF_Eigen_Light_0_TrkJets) show NC gr 
 gsave  2268 1538 0 0 C 1264.19 -120.554 t 90 r /Helvetica findfont 29.3239 sf 0 0 m (JET_21NP_JET_BJES_Response) show NC gr 
 gsave  2268 1538 0 0 C 1303.29 -273.69 t 90 r /Helvetica findfont 29.3239 sf 0 0 m (JET_21NP_JET_EtaIntercalibration_Modelling) show NC gr 
 gsave  2268 1538 0 0 C 1342.38 -156.394 t 90 r /Helvetica findfont 29.3239 sf 0 0 m (JET_21NP_JET_Flavor_Composition) show NC gr 
 gsave  2268 1538 0 0 C 1384.74 -169.427 t 90 r /Helvetica findfont 29.3239 sf 0 0 m (JET_21NP_JET_Pileup_RhoTopology) show NC gr 
 gsave  2268 1538 0 0 C 1423.84 -3.25821 t 90 r /Helvetica findfont 29.3239 sf 0 0 m (JET_Comb_Baseline_Kin) show NC gr 
 gsave  2268 1538 0 0 C 1462.94 -16.2911 t 90 r /Helvetica findfont 29.3239 sf 0 0 m (JET_Comb_Modelling_Kin) show NC gr 
 gsave  2268 1538 0 0 C 1505.29 -3.25821 t 90 r /Helvetica findfont 29.3239 sf 0 0 m (JET_Comb_Tracking_Kin) show NC gr 
 gsave  2268 1538 0 0 C 1544.39 26.0657 t 90 r /Helvetica findfont 29.3239 sf 0 0 m (JET_JER_SINGLE_NP) show NC gr 
 gsave  2268 1538 0 0 C 1583.49 9.77464 t 90 r /Helvetica findfont 29.3239 sf 0 0 m (JET_Rtrk_Baseline_Sub) show NC gr 
 gsave  2268 1538 0 0 C 1622.59 -3.25821 t 90 r /Helvetica findfont 29.3239 sf 0 0 m (JET_Rtrk_Modelling_Sub) show NC gr 
 gsave  2268 1538 0 0 C 1664.95 -19.5493 t 90 r /Helvetica findfont 29.3239 sf 0 0 m (MODEL_Wjets_MadGraph) show NC gr 
 gsave  2268 1538 0 0 C 1704.05 -9.77464 t 90 r /Helvetica findfont 29.3239 sf 0 0 m (MODEL_Zjets_MadGraph) show NC gr 
 gsave  2268 1538 0 0 C 1743.14 -81.4553 t 90 r /Helvetica findfont 29.3239 sf 0 0 m (MODEL_ttbar_Herwig_Fat1_L0) show NC gr 
 gsave  2268 1538 0 0 C 1782.24 -117.296 t 90 r /Helvetica findfont 29.3239 sf 0 0 m (MODEL_ttbar_aMcAtNlo_Fat1_L0) show NC gr 
 gsave  2268 1538 0 0 C 1824.6 91.23 t 90 r /Helvetica findfont 29.3239 sf 0 0 m (MUON_EFF_SYS) show NC gr 
 gsave  2268 1538 0 0 C 1863.7 -29.3239 t 90 r /Helvetica findfont 29.3239 sf 0 0 m (MUON_EFF_SYS_LOWPT) show NC gr 
 gsave  2268 1538 0 0 C 1902.8 55.3896 t 90 r /Helvetica findfont 29.3239 sf 0 0 m (MUON_TTVA_STAT) show NC gr 
 gsave  2268 1538 0 0 C 1945.15 71.6807 t 90 r /Helvetica findfont 29.3239 sf 0 0 m (MUON_TTVA_SYS) show NC gr 
 gsave  2268 1538 0 0 C 1984.25 127.07 t 90 r /Helvetica findfont 29.3239 sf 0 0 m (PRW_DATASF) show NC gr  435 376 m -32 Y s 475 376 m -32 Y s 515 376 m -32 Y s 555 376 m -32 Y s 595 376 m -32 Y s 635 376 m -32 Y s 675 376 m -32 Y s 715 376 m -32 Y
 s 755 376 m -32 Y s 795 376 m -32 Y s 835 376 m -32 Y s 875 376 m -32 Y s 915 376 m -32 Y s 955 376 m -32 Y s 995 376 m -32 Y s 1035 376 m -32 Y s 1075 376 m -32 Y s 1115 376 m -32 Y s 1155 376 m -32 Y s 1195 376 m -32 Y s 1235 376 m -32 Y s 1276
 376 m -32 Y s 1316 376 m -32 Y s 1356 376 m -32 Y s 1396 376 m -32 Y s 1436 376 m -32 Y s 1476 376 m -32 Y s 1516 376 m -32 Y s 1556 376 m -32 Y s 1596 376 m -32 Y s 1636 376 m -32 Y s 1676 376 m -32 Y s 1716 376 m -32 Y s 1756 376 m -32 Y s 1796
 376 m -32 Y s 1836 376 m -32 Y s 1876 376 m -32 Y s 1916 376 m -32 Y s 1956 376 m -32 Y s 1996 376 m -32 Y s 435 1461 m 1561 X s 435 1429 m 32 Y s 475 1429 m 32 Y s 515 1429 m 32 Y s 555 1429 m 32 Y s 595 1429 m 32 Y s 635 1429 m 32 Y s 675 1429 m
 32 Y s 715 1429 m 32 Y s 755 1429 m 32 Y s 795 1429 m 32 Y s 835 1429 m 32 Y s 875 1429 m 32 Y s 915 1429 m 32 Y s 955 1429 m 32 Y s 995 1429 m 32 Y s 1035 1429 m 32 Y s 1075 1429 m 32 Y s 1115 1429 m 32 Y s 1155 1429 m 32 Y s 1195 1429 m 32 Y s
 1235 1429 m 32 Y s 1276 1429 m 32 Y s 1316 1429 m 32 Y s 1356 1429 m 32 Y s 1396 1429 m 32 Y s 1436 1429 m 32 Y s 1476 1429 m 32 Y s 1516 1429 m 32 Y s 1556 1429 m 32 Y s 1596 1429 m 32 Y s 1636 1429 m 32 Y s 1676 1429 m 32 Y s 1716 1429 m 32 Y s
 1756 1429 m 32 Y s 1796 1429 m 32 Y s 1836 1429 m 32 Y s 1876 1429 m 32 Y s 1916 1429 m 32 Y s 1956 1429 m 32 Y s 1996 1429 m 32 Y s 435 344 m 1117 Y s
 gsave  2268 1538 0 0 C 208.526 351.887 t 0 r /Helvetica findfont 29.3239 sf 0 0 m (PRW_DATASF) show NC gr 
 gsave  2268 1538 0 0 C 153.136 377.953 t 0 r /Helvetica findfont 29.3239 sf 0 0 m (MUON_TTVA_SYS) show NC gr 
 gsave  2268 1538 0 0 C 136.845 407.277 t 0 r /Helvetica findfont 29.3239 sf 0 0 m (MUON_TTVA_STAT) show NC gr 
 gsave  2268 1538 0 0 C 52.1314 436.601 t 0 r /Helvetica findfont 29.3239 sf 0 0 m (MUON_EFF_SYS_LOWPT) show NC gr 
 gsave  2268 1538 0 0 C 172.685 465.924 t 0 r /Helvetica findfont 29.3239 sf 0 0 m (MUON_EFF_SYS) show NC gr 
 gsave  2268 1538 0 0 C -35.8403 495.248 t 0 r /Helvetica findfont 29.3239 sf 0 0 m (MODEL_ttbar_aMcAtNlo_Fat1_L0) show NC gr 
 gsave  2268 1538 0 0 C 0 521.314 t 0 r /Helvetica findfont 29.3239 sf 0 0 m (MODEL_ttbar_Herwig_Fat1_L0) show NC gr 
 gsave  2268 1538 0 0 C 71.6807 550.638 t 0 r /Helvetica findfont 29.3239 sf 0 0 m (MODEL_Zjets_MadGraph) show NC gr 
 gsave  2268 1538 0 0 C 61.9061 579.962 t 0 r /Helvetica findfont 29.3239 sf 0 0 m (MODEL_Wjets_MadGraph) show NC gr 
 gsave  2268 1538 0 0 C 78.1971 609.286 t 0 r /Helvetica findfont 29.3239 sf 0 0 m (JET_Rtrk_Modelling_Sub) show NC gr 
 gsave  2268 1538 0 0 C 91.23 635.352 t 0 r /Helvetica findfont 29.3239 sf 0 0 m (JET_Rtrk_Baseline_Sub) show NC gr 
 gsave  2268 1538 0 0 C 107.521 664.676 t 0 r /Helvetica findfont 29.3239 sf 0 0 m (JET_JER_SINGLE_NP) show NC gr 
 gsave  2268 1538 0 0 C 78.1971 693.999 t 0 r /Helvetica findfont 29.3239 sf 0 0 m (JET_Comb_Tracking_Kin) show NC gr 
 gsave  2268 1538 0 0 C 65.1643 723.323 t 0 r /Helvetica findfont 29.3239 sf 0 0 m (JET_Comb_Modelling_Kin) show NC gr 
 gsave  2268 1538 0 0 C 78.1971 752.647 t 0 r /Helvetica findfont 29.3239 sf 0 0 m (JET_Comb_Baseline_Kin) show NC gr 
 gsave  2268 1538 0 0 C -87.9718 778.713 t 0 r /Helvetica findfont 29.3239 sf 0 0 m (JET_21NP_JET_Pileup_RhoTopology) show NC gr 
 gsave  2268 1538 0 0 C -74.9389 808.037 t 0 r /Helvetica findfont 29.3239 sf 0 0 m (JET_21NP_JET_Flavor_Composition) show NC gr 
 gsave  2268 1538 0 0 C -192.235 837.361 t 0 r /Helvetica findfont 29.3239 sf 0 0 m (JET_21NP_JET_EtaIntercalibration_Modelling) show NC gr 
 gsave  2268 1538 0 0 C -39.0986 866.685 t 0 r /Helvetica findfont 29.3239 sf 0 0 m (JET_21NP_JET_BJES_Response) show NC gr 
 gsave  2268 1538 0 0 C -13.0329 896.009 t 0 r /Helvetica findfont 29.3239 sf 0 0 m (FT_EFF_Eigen_Light_0_TrkJets) show NC gr 
 gsave  2268 1538 0 0 C 29.3239 922.074 t 0 r /Helvetica findfont 29.3239 sf 0 0 m (FT_EFF_Eigen_C_0_TrkJets) show NC gr 
 gsave  2268 1538 0 0 C 140.103 951.398 t 0 r /Helvetica findfont 29.3239 sf 0 0 m (FT_EFF_Eigen_C_0) show NC gr 
 gsave  2268 1538 0 0 C 29.3239 980.722 t 0 r /Helvetica findfont 29.3239 sf 0 0 m (FT_EFF_Eigen_B_1_TrkJets) show NC gr 
 gsave  2268 1538 0 0 C 146.62 1010.05 t 0 r /Helvetica findfont 29.3239 sf 0 0 m (FT_EFF_Eigen_B_1) show NC gr 
 gsave  2268 1538 0 0 C 29.3239 1036.11 t 0 r /Helvetica findfont 29.3239 sf 0 0 m (FT_EFF_Eigen_B_0_TrkJets) show NC gr 
 gsave  2268 1538 0 0 C 143.361 1065.44 t 0 r /Helvetica findfont 29.3239 sf 0 0 m (FT_EFF_Eigen_B_0) show NC gr 
 gsave  2268 1538 0 0 C 172.685 1094.76 t 0 r /Helvetica findfont 29.3239 sf 0 0 m (FATJET_ZV_JMR) show NC gr 
 gsave  2268 1538 0 0 C 172.685 1124.08 t 0 r /Helvetica findfont 29.3239 sf 0 0 m (FATJET_ZV_D2R) show NC gr 
 gsave  2268 1538 0 0 C -218.3 1153.41 t 0 r /Helvetica findfont 29.3239 sf 0 0 m (EL_EFF_Iso_TOTAL_1NPCOR_PLUS_UNCOR) show NC gr 
 gsave  2268 1538 0 0 C -208.526 1179.47 t 0 r /Helvetica findfont 29.3239 sf 0 0 m (EL_EFF_ID_TOTAL_1NPCOR_PLUS_UNCOR) show NC gr 
 gsave  2268 1538 0 0 C 202.009 1208.8 t 0 r /Helvetica findfont 29.3239 sf 0 0 m (norm_ttbar2Lep) show NC gr 
 gsave  2268 1538 0 0 C 202.009 1238.12 t 0 r /Helvetica findfont 29.3239 sf 0 0 m (norm_ttbar0Lep) show NC gr 
 gsave  2268 1538 0 0 C 127.07 1267.44 t 0 r /Helvetica findfont 29.3239 sf 0 0 m (norm_Zres_VBFRatio) show NC gr 
 gsave  2268 1538 0 0 C 211.784 1296.77 t 0 r /Helvetica findfont 29.3239 sf 0 0 m (norm_Zmerged) show NC gr 
 gsave  2268 1538 0 0 C 110.779 1322.83 t 0 r /Helvetica findfont 29.3239 sf 0 0 m (norm_Zmeg_VBFRatio) show NC gr 
 gsave  2268 1538 0 0 C 293.239 1352.16 t 0 r /Helvetica findfont 29.3239 sf 0 0 m (norm_Zlf) show NC gr 
 gsave  2268 1538 0 0 C 283.465 1381.48 t 0 r /Helvetica findfont 29.3239 sf 0 0 m (norm_Zhf) show NC gr 
 gsave  2268 1538 0 0 C 202.009 1410.81 t 0 r /Helvetica findfont 29.3239 sf 0 0 m (norm_Wmerged) show NC gr 
 gsave  2268 1538 0 0 C 101.005 1440.13 t 0 r /Helvetica findfont 29.3239 sf 0 0 m (norm_Wmeg_VBFRatio) show NC gr  485 344 m -50 X s 485 373 m -50 X s 485 402 m -50 X s 485 430 m -50 X s 485 459 m -50 X s 485 488 m -50 X s 485 516 m -50 X s 485 545
 m -50 X s 485 574 m -50 X s 485 602 m -50 X s 485 631 m -50 X s 485 659 m -50 X s 485 688 m -50 X s 485 717 m -50 X s 485 745 m -50 X s 485 774 m -50 X s 485 803 m -50 X s 485 831 m -50 X s 485 860 m -50 X s 485 888 m -50 X s 485 917 m -50 X s 485
 946 m -50 X s 485 974 m -50 X s 485 1003 m -50 X s 485 1032 m -50 X s 485 1060 m -50 X s 485 1089 m -50 X s 485 1117 m -50 X s 485 1146 m -50 X s 485 1175 m -50 X s 485 1203 m -50 X s 485 1232 m -50 X s 485 1261 m -50 X s 485 1289 m -50 X s 485 1318
 m -50 X s 485 1346 m -50 X s 485 1375 m -50 X s 485 1404 m -50 X s 485 1432 m -50 X s 485 1461 m -50 X s 1996 344 m 1117 Y s 1946 344 m 50 X s 1946 373 m 50 X s 1946 402 m 50 X s 1946 430 m 50 X s 1946 459 m 50 X s 1946 488 m 50 X s 1946 516 m 50 X
 s 1946 545 m 50 X s 1946 574 m 50 X s 1946 602 m 50 X s 1946 631 m 50 X s 1946 659 m 50 X s 1946 688 m 50 X s 1946 717 m 50 X s 1946 745 m 50 X s 1946 774 m 50 X s 1946 803 m 50 X s 1946 831 m 50 X s 1946 860 m 50 X s 1946 888 m 50 X s 1946 917 m 50
 X s 1946 946 m 50 X s 1946 974 m 50 X s 1946 1003 m 50 X s 1946 1032 m 50 X s 1946 1060 m 50 X s 1946 1089 m 50 X s 1946 1117 m 50 X s 1946 1146 m 50 X s 1946 1175 m 50 X s 1946 1203 m 50 X s 1946 1232 m 50 X s 1946 1261 m 50 X s 1946 1289 m 50 X s
 1946 1318 m 50 X s 1946 1346 m 50 X s 1946 1375 m 50 X s 1946 1404 m 50 X s 1946 1432 m 50 X s 1946 1461 m 50 X s 0 0 0.51 c 102 5 2007 344 bf 0 0.0094186 0.515698 c 102 4 2007 349 bf 0 0.0188372 0.521395 c 102 5 2007 353 bf 0 0.0282558 0.527093 c
 102 4 2007 358 bf 0 0.0376744 0.532791 c 102 4 2007 362 bf 0 0.047093 0.538488 c 102 5 2007 366 bf 0 0.0565116 0.544186 c 102 4 2007 371 bf 0 0.0659302 0.549884 c 102 5 2007 375 bf 0 0.0753488 0.555581 c 102 4 2007 380 bf 0 0.0847674 0.561279 c 102
 4 2007 384 bf 0 0.094186 0.566977 c 102 5 2007 388 bf 0 0.103605 0.572674 c 102 4 2007 393 bf 0 0.113023 0.578372 c 102 4 2007 397 bf 0 0.122442 0.58407 c 102 5 2007 401 bf 0 0.13186 0.589767 c 102 4 2007 406 bf 0 0.141279 0.595465 c 102 5 2007 410
 bf 0 0.150698 0.601163 c 102 4 2007 415 bf 0 0.160116 0.60686 c 102 4 2007 419 bf 0 0.169535 0.612558 c 102 5 2007 423 bf 0 0.178953 0.618256 c 102 4 2007 428 bf 0 0.188372 0.623953 c 102 4 2007 432 bf 0 0.197791 0.629651 c 102 5 2007 436 bf 0
 0.207209 0.635349 c 102 4 2007 441 bf 0 0.216628 0.641047 c 102 5 2007 445 bf 0 0.226047 0.646744 c 102 4 2007 450 bf 0 0.235465 0.652442 c 102 4 2007 454 bf 0 0.244884 0.65814 c 102 5 2007 458 bf 0 0.254302 0.663837 c 102 4 2007 463 bf 0 0.263721
 0.669535 c 102 4 2007 467 bf 0 0.27314 0.675233 c 102 5 2007 471 bf 0 0.282558 0.68093 c 102 4 2007 476 bf 0 0.291977 0.686628 c 102 5 2007 480 bf 0 0.301395 0.692326 c 102 4 2007 485 bf 0 0.310814 0.698023 c 102 4 2007 489 bf 0 0.320233 0.703721 c
 102 5 2007 493 bf 0 0.329651 0.709419 c 102 4 2007 498 bf 0 0.33907 0.715116 c 102 4 2007 502 bf 0 0.348488 0.720814 c 102 5 2007 506 bf 0 0.357907 0.726512 c 102 4 2007 511 bf 0 0.367326 0.732209 c 102 5 2007 515 bf 0 0.376744 0.737907 c 102 4 2007
 520 bf 0 0.386163 0.743605 c 102 4 2007 524 bf 0 0.395581 0.749302 c 102 5 2007 528 bf 0 0.405 0.755 c 102 4 2007 533 bf 0 0.414419 0.760698 c 102 5 2007 537 bf 0 0.423837 0.766395 c 102 4 2007 542 bf 0 0.433256 0.772093 c 102 4 2007 546 bf 0
 0.442674 0.777791 c 102 5 2007 550 bf 0 0.452093 0.783488 c 102 4 2007 555 bf 0 0.461512 0.789186 c 102 4 2007 559 bf 0 0.47093 0.794884 c 102 5 2007 563 bf 0 0.480349 0.800581 c 102 4 2007 568 bf 0 0.489767 0.806279 c 102 5 2007 572 bf 0 0.499186
 0.811977 c 102 4 2007 577 bf 0 0.508605 0.817674 c 102 4 2007 581 bf 0 0.518023 0.823372 c 102 5 2007 585 bf 0 0.527442 0.82907 c 102 4 2007 590 bf 0 0.53686 0.834767 c 102 4 2007 594 bf 0 0.546279 0.840465 c 102 5 2007 598 bf 0 0.555698 0.846163 c
 102 4 2007 603 bf 0 0.565116 0.85186 c 102 5 2007 607 bf 0 0.574535 0.857558 c 102 4 2007 612 bf 0 0.583953 0.863256 c 102 4 2007 616 bf 0 0.593372 0.868953 c 102 5 2007 620 bf 0 0.602791 0.874651 c 102 4 2007 625 bf 0 0.612209 0.880349 c 102 4 2007
 629 bf 0 0.621628 0.886047 c 102 5 2007 633 bf 0 0.631047 0.891744 c 102 4 2007 638 bf 0 0.640465 0.897442 c 102 5 2007 642 bf 0 0.649884 0.90314 c 102 4 2007 647 bf 0 0.659302 0.908837 c 102 4 2007 651 bf 0 0.668721 0.914535 c 102 5 2007 655 bf 0
 0.67814 0.920233 c 102 4 2007 660 bf 0 0.687558 0.92593 c 102 4 2007 664 bf 0 0.696977 0.931628 c 102 5 2007 668 bf 0 0.706395 0.937326 c 102 4 2007 673 bf 0 0.715814 0.943023 c 102 5 2007 677 bf 0 0.725233 0.948721 c 102 4 2007 682 bf 0 0.734651
 0.954419 c 102 4 2007 686 bf 0 0.74407 0.960116 c 102 5 2007 690 bf 0 0.753488 0.965814 c 102 4 2007 695 bf 0 0.762907 0.971512 c 102 5 2007 699 bf 0 0.772326 0.977209 c 102 4 2007 704 bf 0 0.781744 0.982907 c 102 4 2007 708 bf 0 0.791163 0.988605 c
 102 5 2007 712 bf 0 0.800581 0.994302 c 102 4 2007 717 bf 0 0.81 1 c 102 4 2007 721 bf 0.0126087 0.812754 0.987246 c 102 5 2007 725 bf 0.0252174 0.815507 0.974493 c 102 4 2007 730 bf 0.0378261 0.818261 0.961739 c 102 5 2007 734 bf 0.0504348 0.821014
 0.948986 c 102 4 2007 739 bf 0.0630435 0.823768 0.936232 c 102 4 2007 743 bf 0.0756522 0.826522 0.923478 c 102 5 2007 747 bf 0.0882609 0.829275 0.910725 c 102 4 2007 752 bf 0.10087 0.832029 0.897971 c 102 4 2007 756 bf 0.113478 0.834783 0.885217 c
 102 5 2007 760 bf 0.126087 0.837536 0.872464 c 102 4 2007 765 bf 0.138696 0.84029 0.85971 c 102 5 2007 769 bf 0.151304 0.843044 0.846957 c 102 4 2007 774 bf 0.163913 0.845797 0.834203 c 102 4 2007 778 bf 0.176522 0.848551 0.821449 c 102 5 2007 782
 bf 0.18913 0.851304 0.808696 c 102 4 2007 787 bf 0.201739 0.854058 0.795942 c 102 4 2007 791 bf 0.214348 0.856812 0.783188 c 102 5 2007 795 bf 0.226957 0.859565 0.770435 c 102 4 2007 800 bf 0.239565 0.862319 0.757681 c 102 5 2007 804 bf 0.252174
 0.865072 0.744928 c 102 4 2007 809 bf 0.264783 0.867826 0.732174 c 102 4 2007 813 bf 0.277391 0.87058 0.71942 c 102 5 2007 817 bf 0.29 0.873333 0.706667 c 102 4 2007 822 bf 0.302609 0.876087 0.693913 c 102 4 2007 826 bf 0.315217 0.878841 0.681159 c
 102 5 2007 830 bf 0.327826 0.881594 0.668406 c 102 4 2007 835 bf 0.340435 0.884348 0.655652 c 102 5 2007 839 bf 0.353043 0.887101 0.642899 c 102 4 2007 844 bf 0.365652 0.889855 0.630145 c 102 4 2007 848 bf 0.378261 0.892609 0.617391 c 102 5 2007 852
 bf 0.39087 0.895362 0.604638 c 102 4 2007 857 bf 0.403478 0.898116 0.591884 c 102 5 2007 861 bf 0.416087 0.90087 0.57913 c 102 4 2007 866 bf 0.428696 0.903623 0.566377 c 102 4 2007 870 bf 0.441304 0.906377 0.553623 c 102 5 2007 874 bf 0.453913
 0.90913 0.54087 c 102 4 2007 879 bf 0.466522 0.911884 0.528116 c 102 4 2007 883 bf 0.47913 0.914638 0.515362 c 102 5 2007 887 bf 0.491739 0.917391 0.502609 c 102 4 2007 892 bf 0.504348 0.920145 0.489855 c 102 5 2007 896 bf 0.516957 0.922899 0.477101
 c 102 4 2007 901 bf 0.529565 0.925652 0.464348 c 102 4 2007 905 bf 0.542174 0.928406 0.451594 c 102 5 2007 909 bf 0.554783 0.931159 0.438841 c 102 4 2007 914 bf 0.567391 0.933913 0.426087 c 102 4 2007 918 bf 0.58 0.936667 0.413333 c 102 5 2007 922
 bf 0.592609 0.93942 0.40058 c 102 4 2007 927 bf 0.605217 0.942174 0.387826 c 102 5 2007 931 bf 0.617826 0.944928 0.375072 c 102 4 2007 936 bf 0.630435 0.947681 0.362319 c 102 4 2007 940 bf 0.643043 0.950435 0.349565 c 102 5 2007 944 bf 0.655652
 0.953188 0.336812 c 102 4 2007 949 bf 0.668261 0.955942 0.324058 c 102 4 2007 953 bf 0.68087 0.958696 0.311304 c 102 5 2007 957 bf 0.693478 0.961449 0.298551 c 102 4 2007 962 bf 0.706087 0.964203 0.285797 c 102 5 2007 966 bf 0.718696 0.966956
 0.273043 c 102 4 2007 971 bf 0.731304 0.96971 0.26029 c 102 4 2007 975 bf 0.743913 0.972464 0.247536 c 102 5 2007 979 bf 0.756522 0.975217 0.234783 c 102 4 2007 984 bf 0.76913 0.977971 0.222029 c 102 4 2007 988 bf 0.781739 0.980725 0.209275 c 102 5
 2007 992 bf 0.794348 0.983478 0.196522 c 102 4 2007 997 bf 0.806957 0.986232 0.183768 c 102 5 2007 1001 bf 0.819565 0.988985 0.171014 c 102 4 2007 1006 bf 0.832174 0.991739 0.158261 c 102 4 2007 1010 bf 0.844783 0.994493 0.145507 c 102 5 2007 1014
 bf 0.857391 0.997246 0.132754 c 102 4 2007 1019 bf 0.87 1 0.12 c 102 5 2007 1023 bf 0.872203 0.986441 0.117966 c 102 4 2007 1028 bf 0.874407 0.972881 0.115932 c 102 4 2007 1032 bf 0.87661 0.959322 0.113898 c 102 5 2007 1036 bf 0.878814 0.945763
 0.111864 c 102 4 2007 1041 bf 0.881017 0.932203 0.109831 c 102 4 2007 1045 bf 0.88322 0.918644 0.107797 c 102 5 2007 1049 bf 0.885424 0.905085 0.105763 c 102 4 2007 1054 bf 0.887627 0.891525 0.103729 c 102 5 2007 1058 bf 0.889831 0.877966 0.101695 c
 102 4 2007 1063 bf 0.892034 0.864407 0.099661 c 102 4 2007 1067 bf 0.894237 0.850847 0.0976271 c 102 5 2007 1071 bf 0.896441 0.837288 0.0955932 c 102 4 2007 1076 bf 0.898644 0.823729 0.0935593 c 102 4 2007 1080 bf 0.900847 0.81017 0.0915254 c 102 5
 2007 1084 bf 0.903051 0.79661 0.0894915 c 102 4 2007 1089 bf 0.905254 0.783051 0.0874576 c 102 5 2007 1093 bf 0.907458 0.769492 0.0854237 c 102 4 2007 1098 bf 0.909661 0.755932 0.0833898 c 102 4 2007 1102 bf 0.911864 0.742373 0.0813559 c 102 5 2007
 1106 bf 0.914068 0.728814 0.079322 c 102 4 2007 1111 bf 0.916271 0.715254 0.0772881 c 102 4 2007 1115 bf 0.918475 0.701695 0.0752542 c 102 5 2007 1119 bf 0.920678 0.688136 0.0732203 c 102 4 2007 1124 bf 0.922881 0.674576 0.0711864 c 102 5 2007 1128
 bf 0.925085 0.661017 0.0691525 c 102 4 2007 1133 bf 0.927288 0.647458 0.0671186 c 102 4 2007 1137 bf 0.929492 0.633898 0.0650847 c 102 5 2007 1141 bf 0.931695 0.620339 0.0630508 c 102 4 2007 1146 bf 0.933898 0.60678 0.061017 c 102 4 2007 1150 bf
 0.936102 0.59322 0.0589831 c 102 5 2007 1154 bf 0.938305 0.579661 0.0569492 c 102 4 2007 1159 bf 0.940508 0.566102 0.0549153 c 102 5 2007 1163 bf 0.942712 0.552542 0.0528814 c 102 4 2007 1168 bf 0.944915 0.538983 0.0508475 c 102 4 2007 1172 bf
 0.947119 0.525424 0.0488136 c 102 5 2007 1176 bf 0.949322 0.511864 0.0467797 c 102 4 2007 1181 bf 0.951525 0.498305 0.0447458 c 102 5 2007 1185 bf 0.953729 0.484746 0.0427119 c 102 4 2007 1190 bf 0.955932 0.471186 0.040678 c 102 4 2007 1194 bf
 0.958136 0.457627 0.0386441 c 102 5 2007 1198 bf 0.960339 0.444068 0.0366102 c 102 4 2007 1203 bf 0.962542 0.430508 0.0345763 c 102 4 2007 1207 bf 0.964746 0.416949 0.0325424 c 102 5 2007 1211 bf 0.966949 0.40339 0.0305085 c 102 4 2007 1216 bf
 0.969153 0.38983 0.0284746 c 102 5 2007 1220 bf 0.971356 0.376271 0.0264407 c 102 4 2007 1225 bf 0.973559 0.362712 0.0244068 c 102 4 2007 1229 bf 0.975763 0.349153 0.0223729 c 102 5 2007 1233 bf 0.977966 0.335593 0.020339 c 102 4 2007 1238 bf
 0.980169 0.322034 0.0183051 c 102 4 2007 1242 bf 0.982373 0.308475 0.0162712 c 102 5 2007 1246 bf 0.984576 0.294915 0.0142373 c 102 4 2007 1251 bf 0.98678 0.281356 0.0122034 c 102 5 2007 1255 bf 0.988983 0.267797 0.0101695 c 102 4 2007 1260 bf
 0.991186 0.254237 0.00813559 c 102 4 2007 1264 bf 0.99339 0.240678 0.00610169 c 102 5 2007 1268 bf 0.995593 0.227119 0.0040678 c 102 4 2007 1273 bf 0.997797 0.213559 0.0020339 c 102 4 2007 1277 bf 1 0.2 0 c 102 5 2007 1281 bf 0.988049 0.195122 0 c
 102 4 2007 1286 bf 0.976098 0.190244 0 c 102 5 2007 1290 bf 0.964146 0.185366 0 c 102 4 2007 1295 bf 0.952195 0.180488 0 c 102 4 2007 1299 bf 0.940244 0.17561 0 c 102 5 2007 1303 bf 0.928293 0.170732 0 c 102 4 2007 1308 bf 0.916341 0.165854 0 c 102
 4 2007 1312 bf 0.90439 0.160976 0 c 102 5 2007 1316 bf 0.892439 0.156098 0 c 102 4 2007 1321 bf 0.880488 0.15122 0 c 102 5 2007 1325 bf 0.868537 0.146341 0 c 102 4 2007 1330 bf 0.856585 0.141463 0 c 102 4 2007 1334 bf 0.844634 0.136585 0 c 102 5
 2007 1338 bf 0.832683 0.131707 0 c 102 4 2007 1343 bf 0.820732 0.126829 0 c 102 5 2007 1347 bf 0.80878 0.121951 0 c 102 4 2007 1352 bf 0.796829 0.117073 0 c 102 4 2007 1356 bf 0.784878 0.112195 0 c 102 5 2007 1360 bf 0.772927 0.107317 0 c 102 4 2007
 1365 bf 0.760976 0.102439 0 c 102 4 2007 1369 bf 0.749024 0.097561 0 c 102 5 2007 1373 bf 0.737073 0.0926829 0 c 102 4 2007 1378 bf 0.725122 0.0878049 0 c 102 5 2007 1382 bf 0.713171 0.0829268 0 c 102 4 2007 1387 bf 0.701219 0.0780488 0 c 102 4 2007
 1391 bf 0.689268 0.0731707 0 c 102 5 2007 1395 bf 0.677317 0.0682927 0 c 102 4 2007 1400 bf 0.665366 0.0634146 0 c 102 4 2007 1404 bf 0.653415 0.0585366 0 c 102 5 2007 1408 bf 0.641463 0.0536585 0 c 102 4 2007 1413 bf 0.629512 0.0487805 0 c 102 5
 2007 1417 bf 0.617561 0.0439024 0 c 102 4 2007 1422 bf 0.60561 0.0390244 0 c 102 4 2007 1426 bf 0.593659 0.0341463 0 c 102 5 2007 1430 bf 0.581707 0.0292683 0 c 102 4 2007 1435 bf 0.569756 0.0243902 0 c 102 4 2007 1439 bf 0.557805 0.0195122 0 c 102
 5 2007 1443 bf 0.545854 0.0146341 0 c 102 4 2007 1448 bf 0.533902 0.0097561 0 c 102 5 2007 1452 bf 0.521951 0.00487805 0 c 102 4 2007 1457 bf black 2109 344 m 1117 Y s 2060 344 m 49 X s 2060 456 m 49 X s 2060 568 m 49 X s 2060 679 m 49 X s 2060 791
 m 49 X s 2060 903 m 49 X s 2060 1014 m 49 X s 2060 1126 m 49 X s 2060 1238 m 49 X s 2060 1349 m 49 X s 2060 1461 m 49 X s 2060 344 m 49 X s
 gsave  2268 1538 0 0 C 2140.65 325.821 t 0 r /Helvetica findfont 42.3568 sf 0 0 m (1) show NC gr 
 gsave  2268 1538 0 0 C 2117.84 325.821 t 0 r /Symbol findfont 42.3568 sf 0 0 m (-) show NC gr 
 gsave  2268 1538 0 0 C 2140.65 439.859 t 0 r /Helvetica findfont 42.3568 sf 0 0 m (0.8) show NC gr 
 gsave  2268 1538 0 0 C 2117.84 439.859 t 0 r /Symbol findfont 42.3568 sf 0 0 m (-) show NC gr 
 gsave  2268 1538 0 0 C 2140.65 553.896 t 0 r /Helvetica findfont 42.3568 sf 0 0 m (0.6) show NC gr 
 gsave  2268 1538 0 0 C 2117.84 553.896 t 0 r /Symbol findfont 42.3568 sf 0 0 m (-) show NC gr 
 gsave  2268 1538 0 0 C 2140.65 664.676 t 0 r /Helvetica findfont 42.3568 sf 0 0 m (0.4) show NC gr 
 gsave  2268 1538 0 0 C 2117.84 664.676 t 0 r /Symbol findfont 42.3568 sf 0 0 m (-) show NC gr 
 gsave  2268 1538 0 0 C 2140.65 775.455 t 0 r /Helvetica findfont 42.3568 sf 0 0 m (0.2) show NC gr 
 gsave  2268 1538 0 0 C 2117.84 775.455 t 0 r /Symbol findfont 42.3568 sf 0 0 m (-) show NC gr 
 gsave  2268 1538 0 0 C 2117.84 889.492 t 0 r /Helvetica findfont 42.3568 sf 0 0 m (0) show NC gr 
 gsave  2268 1538 0 0 C 2117.84 1000.27 t 0 r /Helvetica findfont 42.3568 sf 0 0 m (0.2) show NC gr 
 gsave  2268 1538 0 0 C 2117.84 1111.05 t 0 r /Helvetica findfont 42.3568 sf 0 0 m (0.4) show NC gr 
 gsave  2268 1538 0 0 C 2117.84 1221.83 t 0 r /Helvetica findfont 42.3568 sf 0 0 m (0.6) show NC gr 
 gsave  2268 1538 0 0 C 2117.84 1335.87 t 0 r /Helvetica findfont 42.3568 sf 0 0 m (0.8) show NC gr 
 gsave  2268 1538 0 0 C 2117.84 1443.39 t 0 r /Helvetica findfont 42.3568 sf 0 0 m (1) show NC gr 
 gr  gr showpage
end
%%EOF
