%!PS-Adobe-2.0 EPSF-2.0
%%BoundingBox:  0 0 567 212
%%Title: : c
%%Creator: ROOT Version 6.06/02
%%CreationDate: Wed May 17 23:31:10 2017
%%DocumentNeededResources: ProcSet (FontSetInit)
%%EndComments
%%BeginProlog
80 dict begin
/s {stroke} def /l {lineto} def /m {moveto} def /t {translate} def
/r {rotate} def /rl {roll}  def /R {repeat} def
/d {rlineto} def /rm {rmoveto} def /gr {grestore} def /f {eofill} def
/c {setrgbcolor} def /black {0 setgray} def /sd {setdash} def
/cl {closepath} def /sf {scalefont setfont} def /lw {setlinewidth} def
/box {m dup 0 exch d exch 0 d 0 exch neg d cl} def
/NC{systemdict begin initclip end}def/C{NC box clip newpath}def
/bl {box s} def /bf {gsave box gsave f grestore 1 lw [] 0 sd s grestore} def /Y { 0 exch d} def /X { 0 d} def 
/K {{pop pop 0 moveto} exch kshow} bind def
/ita {/ang 15 def gsave [1 0 ang dup sin exch cos div 1 0 0] concat} def 
/mp {newpath /y exch def /x exch def} def
/side {[w .77 mul w .23 mul] .385 w mul sd w 0 l currentpoint t -144 r} def
/mr {mp x y w2 0 360 arc} def /m24 {mr s} def /m20 {mr f} def
/mb {mp x y w2 add m w2 neg 0 d 0 w neg d w 0 d 0 w d cl} def
/mt {mp x y w2 add m w2 neg w neg d w 0 d cl} def
/m21 {mb f} def /m25 {mb s} def /m22 {mt f} def /m26{mt s} def
/m23 {mp x y w2 sub m w2 w d w neg 0 d cl f} def
/m27 {mp x y w2 add m w3 neg w2 neg d w3 w2 neg d w3 w2 d cl s} def
/m28 {mp x w2 sub y w2 sub w3 add m w3 0 d  0 w3 neg d w3 0 d 0 w3 d w3 0 d  0 w3 d w3 neg 0 d 0 w3 d w3 neg 0 d 0 w3 neg d w3 neg 0 d cl s } def
/m29 {mp gsave x w2 sub y w2 add w3 sub m currentpoint t 4 {side} repeat cl fill gr} def
/m30 {mp gsave x w2 sub y w2 add w3 sub m currentpoint t 4 {side} repeat cl s gr} def
/m31 {mp x y w2 sub m 0 w d x w2 sub y m w 0 d x w2 sub y w2 add m w w neg d x w2 sub y w2 sub m w w d s} def
/m32 {mp x y w2 sub m w2 w d w neg 0 d cl s} def
/m33 {mp x y w2 add m w3 neg w2 neg d w3 w2 neg d w3 w2 d cl f} def
/m34 {mp x w2 sub y w2 sub w3 add m w3 0 d  0 w3 neg d w3 0 d 0 w3 d w3 0 d  0 w3 d w3 neg 0 d 0 w3 d w3 neg 0 d 0 w3 neg d w3 neg 0 d cl f } def
/m2 {mp x y w2 sub m 0 w d x w2 sub y m w 0 d s} def
/m5 {mp x w2 sub y w2 sub m w w d x w2 sub y w2 add m w w neg d s} def
%%IncludeResource: ProcSet (FontSetInit)
%%IncludeResource: font Times-Roman
%%IncludeResource: font Times-Italic
%%IncludeResource: font Times-Bold
%%IncludeResource: font Times-BoldItalic
%%IncludeResource: font Helvetica
%%IncludeResource: font Helvetica-Oblique
%%IncludeResource: font Helvetica-Bold
%%IncludeResource: font Helvetica-BoldOblique
%%IncludeResource: font Courier
%%IncludeResource: font Courier-Oblique
%%IncludeResource: font Courier-Bold
%%IncludeResource: font Courier-BoldOblique
%%IncludeResource: font Symbol
%%IncludeResource: font ZapfDingbats
/reEncode {exch findfont dup length dict begin {1 index /FID eq  {pop pop} {def} ifelse } forall /Encoding exch def currentdict end dup /FontName get exch definefont pop } def [/Times-Bold /Times-Italic /Times-BoldItalic /Helvetica /Helvetica-Oblique
 /Helvetica-Bold /Helvetica-BoldOblique /Courier /Courier-Oblique /Courier-Bold /Courier-BoldOblique /Times-Roman /AvantGarde-Book /AvantGarde-BookOblique /AvantGarde-Demi /AvantGarde-DemiOblique /Bookman-Demi /Bookman-DemiItalic /Bookman-Light
 /Bookman-LightItalic /Helvetica-Narrow /Helvetica-Narrow-Bold /Helvetica-Narrow-BoldOblique /Helvetica-Narrow-Oblique /NewCenturySchlbk-Roman /NewCenturySchlbk-Bold /NewCenturySchlbk-BoldItalic /NewCenturySchlbk-Italic /Palatino-Bold
 /Palatino-BoldItalic /Palatino-Italic /Palatino-Roman ] {ISOLatin1Encoding reEncode } forall
%%EndProlog
%%BeginSetup
%%EndSetup
newpath  gsave  .25 .25 scale  gsave  0 0 t black[  ] 0 sd 3 lw 1 1 1 c 2268 847 0 0 bf black 1 1 1 c 2077 398 109 407 bf black 2077 398 109 407 bl 1 1 1 c 2077 398 109 407 bf black 2077 398 109 407 bl 109 407 m 2077 X s
 gsave  2268 847 0 0 C 120.672 232.236 t 90 r /Helvetica findfont 15.9378 sf 0 0 m (norm_Wmeg_VBFRatio) show NC gr 
 gsave  2268 847 0 0 C 138.886 286.88 t 90 r /Helvetica findfont 15.9378 sf 0 0 m (norm_Wmerged) show NC gr 
 gsave  2268 847 0 0 C 154.824 332.416 t 90 r /Helvetica findfont 15.9378 sf 0 0 m (norm_Zhf) show NC gr 
 gsave  2268 847 0 0 C 170.762 336.97 t 90 r /Helvetica findfont 15.9378 sf 0 0 m (norm_Zlf) show NC gr 
 gsave  2268 847 0 0 C 188.976 236.79 t 90 r /Helvetica findfont 15.9378 sf 0 0 m (norm_Zmeg_VBFRatio) show NC gr 
 gsave  2268 847 0 0 C 204.914 291.433 t 90 r /Helvetica findfont 15.9378 sf 0 0 m (norm_Zmerged) show NC gr 
 gsave  2268 847 0 0 C 220.852 245.897 t 90 r /Helvetica findfont 15.9378 sf 0 0 m (norm_Zres_VBFRatio) show NC gr 
 gsave  2268 847 0 0 C 236.79 286.88 t 90 r /Helvetica findfont 15.9378 sf 0 0 m (norm_ttbar0Lep) show NC gr 
 gsave  2268 847 0 0 C 252.727 286.88 t 90 r /Helvetica findfont 15.9378 sf 0 0 m (norm_ttbar2Lep) show NC gr 
 gsave  2268 847 0 0 C 270.942 291.433 t 90 r /Helvetica findfont 15.9378 sf 0 0 m (LUMI_2015_16) show NC gr 
 gsave  2268 847 0 0 C 286.88 264.112 t 90 r /Helvetica findfont 15.9378 sf 0 0 m (MET_JetTrk_Scale) show NC gr 
 gsave  2268 847 0 0 C 302.818 225.406 t 90 r /Helvetica findfont 15.9378 sf 0 0 m (MET_SoftTrk_ResoPara) show NC gr 
 gsave  2268 847 0 0 C 318.755 225.406 t 90 r /Helvetica findfont 15.9378 sf 0 0 m (MET_SoftTrk_ResoPerp) show NC gr 
 gsave  2268 847 0 0 C 334.693 257.281 t 90 r /Helvetica findfont 15.9378 sf 0 0 m (MET_SoftTrk_Scale) show NC gr 
 gsave  2268 847 0 0 C 350.631 273.219 t 90 r /Helvetica findfont 15.9378 sf 0 0 m (TheoryPDF_0Lep) show NC gr 
 gsave  2268 847 0 0 C 368.845 273.219 t 90 r /Helvetica findfont 15.9378 sf 0 0 m (TheoryPDF_2Lep) show NC gr 
 gsave  2268 847 0 0 C 384.783 270.942 t 90 r /Helvetica findfont 15.9378 sf 0 0 m (TheoryQCD_0Lep) show NC gr 
 gsave  2268 847 0 0 C 400.721 270.942 t 90 r /Helvetica findfont 15.9378 sf 0 0 m (TheoryQCD_2Lep) show NC gr 
 gsave  2268 847 0 0 C 416.659 195.807 t 90 r /Helvetica findfont 15.9378 sf 0 0 m (MODEL_VV_PwPy_Fat1_L2) show NC gr 
 gsave  2268 847 0 0 C 432.597 236.79 t 90 r /Helvetica findfont 15.9378 sf 0 0 m (MODEL_VV_PwPy_L2) show NC gr 
 gsave  2268 847 0 0 C 450.811 341.524 t 90 r /Helvetica findfont 15.9378 sf 0 0 m (VVNorm) show NC gr 
 gsave  2268 847 0 0 C 466.749 227.682 t 90 r /Helvetica findfont 15.9378 sf 0 0 m (EG_RESOLUTION_ALL) show NC gr 
 gsave  2268 847 0 0 C 482.687 277.773 t 90 r /Helvetica findfont 15.9378 sf 0 0 m (EG_SCALE_ALL) show NC gr 
 gsave  2268 847 0 0 C 498.624 63.7511 t 90 r /Helvetica findfont 15.9378 sf 0 0 m (EL_EFF_ID_TOTAL_1NPCOR_PLUS_UNCOR) show NC gr 
 gsave  2268 847 0 0 C 514.562 59.1974 t 90 r /Helvetica findfont 15.9378 sf 0 0 m (EL_EFF_Iso_TOTAL_1NPCOR_PLUS_UNCOR) show NC gr 
 gsave  2268 847 0 0 C 530.5 43.2597 t 90 r /Helvetica findfont 15.9378 sf 0 0 m (EL_EFF_Reco_TOTAL_1NPCOR_PLUS_UNCOR) show NC gr 
 gsave  2268 847 0 0 C 548.715 29.5987 t 90 r /Helvetica findfont 15.9378 sf 0 0 m (EL_EFF_Trigger_TOTAL_1NPCOR_PLUS_UNCOR) show NC gr 
 gsave  2268 847 0 0 C 564.652 270.942 t 90 r /Helvetica findfont 15.9378 sf 0 0 m (FATJET_ZV_D2R) show NC gr 
 gsave  2268 847 0 0 C 580.59 273.219 t 90 r /Helvetica findfont 15.9378 sf 0 0 m (FATJET_ZV_JER) show NC gr 
 gsave  2268 847 0 0 C 596.528 270.942 t 90 r /Helvetica findfont 15.9378 sf 0 0 m (FATJET_ZV_JMR) show NC gr 
 gsave  2268 847 0 0 C 612.466 255.004 t 90 r /Helvetica findfont 15.9378 sf 0 0 m (FT_EFF_Eigen_B_0) show NC gr 
 gsave  2268 847 0 0 C 630.68 193.53 t 90 r /Helvetica findfont 15.9378 sf 0 0 m (FT_EFF_Eigen_B_0_TrkJets) show NC gr 
 gsave  2268 847 0 0 C 646.618 257.281 t 90 r /Helvetica findfont 15.9378 sf 0 0 m (FT_EFF_Eigen_B_1) show NC gr 
 gsave  2268 847 0 0 C 662.556 193.53 t 90 r /Helvetica findfont 15.9378 sf 0 0 m (FT_EFF_Eigen_B_1_TrkJets) show NC gr 
 gsave  2268 847 0 0 C 678.494 255.004 t 90 r /Helvetica findfont 15.9378 sf 0 0 m (FT_EFF_Eigen_B_2) show NC gr 
 gsave  2268 847 0 0 C 694.431 193.53 t 90 r /Helvetica findfont 15.9378 sf 0 0 m (FT_EFF_Eigen_B_2_TrkJets) show NC gr 
 gsave  2268 847 0 0 C 712.646 255.004 t 90 r /Helvetica findfont 15.9378 sf 0 0 m (FT_EFF_Eigen_C_0) show NC gr 
 gsave  2268 847 0 0 C 728.584 193.53 t 90 r /Helvetica findfont 15.9378 sf 0 0 m (FT_EFF_Eigen_C_0_TrkJets) show NC gr 
 gsave  2268 847 0 0 C 744.521 257.281 t 90 r /Helvetica findfont 15.9378 sf 0 0 m (FT_EFF_Eigen_C_1) show NC gr 
 gsave  2268 847 0 0 C 760.459 193.53 t 90 r /Helvetica findfont 15.9378 sf 0 0 m (FT_EFF_Eigen_C_1_TrkJets) show NC gr 
 gsave  2268 847 0 0 C 776.397 255.004 t 90 r /Helvetica findfont 15.9378 sf 0 0 m (FT_EFF_Eigen_C_2) show NC gr 
 gsave  2268 847 0 0 C 792.335 193.53 t 90 r /Helvetica findfont 15.9378 sf 0 0 m (FT_EFF_Eigen_C_2_TrkJets) show NC gr 
 gsave  2268 847 0 0 C 810.549 255.004 t 90 r /Helvetica findfont 15.9378 sf 0 0 m (FT_EFF_Eigen_C_3) show NC gr 
 gsave  2268 847 0 0 C 826.487 193.53 t 90 r /Helvetica findfont 15.9378 sf 0 0 m (FT_EFF_Eigen_C_3_TrkJets) show NC gr 
 gsave  2268 847 0 0 C 842.425 232.236 t 90 r /Helvetica findfont 15.9378 sf 0 0 m (FT_EFF_Eigen_Light_0) show NC gr 
 gsave  2268 847 0 0 C 858.363 170.762 t 90 r /Helvetica findfont 15.9378 sf 0 0 m (FT_EFF_Eigen_Light_0_TrkJets) show NC gr 
 gsave  2268 847 0 0 C 874.3 234.513 t 90 r /Helvetica findfont 15.9378 sf 0 0 m (FT_EFF_Eigen_Light_1) show NC gr 
 gsave  2268 847 0 0 C 892.515 170.762 t 90 r /Helvetica findfont 15.9378 sf 0 0 m (FT_EFF_Eigen_Light_1_TrkJets) show NC gr 
 gsave  2268 847 0 0 C 908.453 229.959 t 90 r /Helvetica findfont 15.9378 sf 0 0 m (FT_EFF_Eigen_Light_2) show NC gr 
 gsave  2268 847 0 0 C 924.391 170.762 t 90 r /Helvetica findfont 15.9378 sf 0 0 m (FT_EFF_Eigen_Light_2_TrkJets) show NC gr 
 gsave  2268 847 0 0 C 940.328 232.236 t 90 r /Helvetica findfont 15.9378 sf 0 0 m (FT_EFF_Eigen_Light_3) show NC gr 
 gsave  2268 847 0 0 C 956.266 170.762 t 90 r /Helvetica findfont 15.9378 sf 0 0 m (FT_EFF_Eigen_Light_3_TrkJets) show NC gr 
 gsave  2268 847 0 0 C 972.204 229.959 t 90 r /Helvetica findfont 15.9378 sf 0 0 m (FT_EFF_Eigen_Light_4) show NC gr 
 gsave  2268 847 0 0 C 990.418 170.762 t 90 r /Helvetica findfont 15.9378 sf 0 0 m (FT_EFF_Eigen_Light_4_TrkJets) show NC gr 
 gsave  2268 847 0 0 C 1006.36 241.343 t 90 r /Helvetica findfont 15.9378 sf 0 0 m (FT_EFF_extrapolation) show NC gr 
 gsave  2268 847 0 0 C 1022.29 179.869 t 90 r /Helvetica findfont 15.9378 sf 0 0 m (FT_EFF_extrapolation_TrkJets) show NC gr 
 gsave  2268 847 0 0 C 1038.23 147.994 t 90 r /Helvetica findfont 15.9378 sf 0 0 m (FT_EFF_extrapolation_from_charm) show NC gr 
 gsave  2268 847 0 0 C 1054.17 86.5193 t 90 r /Helvetica findfont 15.9378 sf 0 0 m (FT_EFF_extrapolation_from_charm_TrkJets) show NC gr 
 gsave  2268 847 0 0 C 1072.38 157.101 t 90 r /Helvetica findfont 15.9378 sf 0 0 m (JET_21NP_JET_BJES_Response) show NC gr 
 gsave  2268 847 0 0 C 1088.32 179.869 t 90 r /Helvetica findfont 15.9378 sf 0 0 m (JET_21NP_JET_EffectiveNP_1) show NC gr 
 gsave  2268 847 0 0 C 1104.26 175.315 t 90 r /Helvetica findfont 15.9378 sf 0 0 m (JET_21NP_JET_EffectiveNP_2) show NC gr 
 gsave  2268 847 0 0 C 1120.2 175.315 t 90 r /Helvetica findfont 15.9378 sf 0 0 m (JET_21NP_JET_EffectiveNP_3) show NC gr 
 gsave  2268 847 0 0 C 1136.14 175.315 t 90 r /Helvetica findfont 15.9378 sf 0 0 m (JET_21NP_JET_EffectiveNP_4) show NC gr 
 gsave  2268 847 0 0 C 1152.07 175.315 t 90 r /Helvetica findfont 15.9378 sf 0 0 m (JET_21NP_JET_EffectiveNP_5) show NC gr 
 gsave  2268 847 0 0 C 1170.29 175.315 t 90 r /Helvetica findfont 15.9378 sf 0 0 m (JET_21NP_JET_EffectiveNP_6) show NC gr 
 gsave  2268 847 0 0 C 1186.23 175.315 t 90 r /Helvetica findfont 15.9378 sf 0 0 m (JET_21NP_JET_EffectiveNP_7) show NC gr 
 gsave  2268 847 0 0 C 1202.16 113.841 t 90 r /Helvetica findfont 15.9378 sf 0 0 m (JET_21NP_JET_EffectiveNP_8restTerm) show NC gr 
 gsave  2268 847 0 0 C 1218.1 72.8584 t 90 r /Helvetica findfont 15.9378 sf 0 0 m (JET_21NP_JET_EtaIntercalibration_Modelling) show NC gr 
 gsave  2268 847 0 0 C 1234.04 54.6438 t 90 r /Helvetica findfont 15.9378 sf 0 0 m (JET_21NP_JET_EtaIntercalibration_NonClosure) show NC gr 
 gsave  2268 847 0 0 C 1252.25 75.1352 t 90 r /Helvetica findfont 15.9378 sf 0 0 m (JET_21NP_JET_EtaIntercalibration_TotalStat) show NC gr 
 gsave  2268 847 0 0 C 1268.19 136.609 t 90 r /Helvetica findfont 15.9378 sf 0 0 m (JET_21NP_JET_Flavor_Composition) show NC gr 
 gsave  2268 847 0 0 C 1284.13 152.547 t 90 r /Helvetica findfont 15.9378 sf 0 0 m (JET_21NP_JET_Flavor_Response) show NC gr 
 gsave  2268 847 0 0 C 1300.07 159.378 t 90 r /Helvetica findfont 15.9378 sf 0 0 m (JET_21NP_JET_Pileup_OffsetMu) show NC gr 
 gsave  2268 847 0 0 C 1316 147.994 t 90 r /Helvetica findfont 15.9378 sf 0 0 m (JET_21NP_JET_Pileup_OffsetNPV) show NC gr 
 gsave  2268 847 0 0 C 1331.94 173.039 t 90 r /Helvetica findfont 15.9378 sf 0 0 m (JET_21NP_JET_Pileup_PtTerm) show NC gr 
 gsave  2268 847 0 0 C 1350.16 129.779 t 90 r /Helvetica findfont 15.9378 sf 0 0 m (JET_21NP_JET_Pileup_RhoTopology) show NC gr 
 gsave  2268 847 0 0 C 1366.09 120.672 t 90 r /Helvetica findfont 15.9378 sf 0 0 m (JET_21NP_JET_PunchThrough_MC15) show NC gr 
 gsave  2268 847 0 0 C 1382.03 218.575 t 90 r /Helvetica findfont 15.9378 sf 0 0 m (JET_Comb_Baseline_Kin) show NC gr 
 gsave  2268 847 0 0 C 1397.97 211.745 t 90 r /Helvetica findfont 15.9378 sf 0 0 m (JET_Comb_Modelling_Kin) show NC gr 
 gsave  2268 847 0 0 C 1413.91 216.298 t 90 r /Helvetica findfont 15.9378 sf 0 0 m (JET_Comb_TotalStat_Kin) show NC gr 
 gsave  2268 847 0 0 C 1432.12 218.575 t 90 r /Helvetica findfont 15.9378 sf 0 0 m (JET_Comb_Tracking_Kin) show NC gr 
 gsave  2268 847 0 0 C 1448.06 234.513 t 90 r /Helvetica findfont 15.9378 sf 0 0 m (JET_JER_SINGLE_NP) show NC gr 
 gsave  2268 847 0 0 C 1464 225.406 t 90 r /Helvetica findfont 15.9378 sf 0 0 m (JET_Rtrk_Baseline_Sub) show NC gr 
 gsave  2268 847 0 0 C 1479.94 218.575 t 90 r /Helvetica findfont 15.9378 sf 0 0 m (JET_Rtrk_Modelling_Sub) show NC gr 
 gsave  2268 847 0 0 C 1495.87 223.129 t 90 r /Helvetica findfont 15.9378 sf 0 0 m (JET_Rtrk_TotalStat_Sub) show NC gr 
 gsave  2268 847 0 0 C 1514.09 225.406 t 90 r /Helvetica findfont 15.9378 sf 0 0 m (JET_Rtrk_Tracking_Sub) show NC gr 
 gsave  2268 847 0 0 C 1530.03 236.79 t 90 r /Helvetica findfont 15.9378 sf 0 0 m (MODEL_Wjets_CKKW) show NC gr 
 gsave  2268 847 0 0 C 1545.96 259.558 t 90 r /Helvetica findfont 15.9378 sf 0 0 m (MODEL_Wjets_Fac) show NC gr 
 gsave  2268 847 0 0 C 1561.9 211.745 t 90 r /Helvetica findfont 15.9378 sf 0 0 m (MODEL_Wjets_MadGraph) show NC gr 
 gsave  2268 847 0 0 C 1577.84 252.727 t 90 r /Helvetica findfont 15.9378 sf 0 0 m (MODEL_Wjets_QSF) show NC gr 
 gsave  2268 847 0 0 C 1593.78 229.959 t 90 r /Helvetica findfont 15.9378 sf 0 0 m (MODEL_Wjets_Renorm) show NC gr 
 gsave  2268 847 0 0 C 1611.99 113.841 t 90 r /Helvetica findfont 15.9378 sf 0 0 m (MODEL_ZjetsAR_DMergedHPSROfggH) show NC gr 
 gsave  2268 847 0 0 C 1627.93 116.118 t 90 r /Helvetica findfont 15.9378 sf 0 0 m (MODEL_ZjetsAR_DMergedLPSROfggH) show NC gr 
 gsave  2268 847 0 0 C 1643.87 109.288 t 90 r /Helvetica findfont 15.9378 sf 0 0 m (MODEL_ZjetsAR_DResolvedSROfVBFH) show NC gr 
 gsave  2268 847 0 0 C 1659.8 136.609 t 90 r /Helvetica findfont 15.9378 sf 0 0 m (MODEL_ZjetsAR_DTaggedSROfggH) show NC gr 
 gsave  2268 847 0 0 C 1675.74 120.672 t 90 r /Helvetica findfont 15.9378 sf 0 0 m (MODEL_ZjetsAR_DUntaggedSROfggH) show NC gr 
 gsave  2268 847 0 0 C 1693.96 243.62 t 90 r /Helvetica findfont 15.9378 sf 0 0 m (MODEL_Zjets_CKKW) show NC gr 
 gsave  2268 847 0 0 C 1709.89 264.112 t 90 r /Helvetica findfont 15.9378 sf 0 0 m (MODEL_Zjets_Fac) show NC gr 
 gsave  2268 847 0 0 C 1725.83 216.298 t 90 r /Helvetica findfont 15.9378 sf 0 0 m (MODEL_Zjets_MadGraph) show NC gr 
 gsave  2268 847 0 0 C 1741.77 259.558 t 90 r /Helvetica findfont 15.9378 sf 0 0 m (MODEL_Zjets_QSF) show NC gr 
 gsave  2268 847 0 0 C 1757.71 234.513 t 90 r /Helvetica findfont 15.9378 sf 0 0 m (MODEL_Zjets_Renorm) show NC gr 
 gsave  2268 847 0 0 C 1773.65 177.592 t 90 r /Helvetica findfont 15.9378 sf 0 0 m (MODEL_ttbar_Herwig_Fat1_L0) show NC gr 
 gsave  2268 847 0 0 C 1791.86 177.592 t 90 r /Helvetica findfont 15.9378 sf 0 0 m (MODEL_ttbar_Herwig_Fat1_L2) show NC gr 
 gsave  2268 847 0 0 C 1807.8 218.575 t 90 r /Helvetica findfont 15.9378 sf 0 0 m (MODEL_ttbar_Herwig_L2) show NC gr 
 gsave  2268 847 0 0 C 1823.74 157.101 t 90 r /Helvetica findfont 15.9378 sf 0 0 m (MODEL_ttbar_aMcAtNlo_Fat1_L0) show NC gr 
 gsave  2268 847 0 0 C 1839.67 198.084 t 90 r /Helvetica findfont 15.9378 sf 0 0 m (MODEL_ttbar_aMcAtNlo_L2) show NC gr 
 gsave  2268 847 0 0 C 1855.61 204.914 t 90 r /Helvetica findfont 15.9378 sf 0 0 m (MODEL_ttbar_rad_Fat1_L0) show NC gr 
 gsave  2268 847 0 0 C 1873.83 202.637 t 90 r /Helvetica findfont 15.9378 sf 0 0 m (MODEL_ttbar_rad_Fat1_L2) show NC gr 
 gsave  2268 847 0 0 C 1889.76 243.62 t 90 r /Helvetica findfont 15.9378 sf 0 0 m (MODEL_ttbar_rad_L2) show NC gr 
 gsave  2268 847 0 0 C 1905.7 261.835 t 90 r /Helvetica findfont 15.9378 sf 0 0 m (MUON_EFF_STAT) show NC gr 
 gsave  2268 847 0 0 C 1921.64 198.084 t 90 r /Helvetica findfont 15.9378 sf 0 0 m (MUON_EFF_STAT_LOWPT) show NC gr 
 gsave  2268 847 0 0 C 1937.58 270.942 t 90 r /Helvetica findfont 15.9378 sf 0 0 m (MUON_EFF_SYS) show NC gr 
 gsave  2268 847 0 0 C 1953.51 204.914 t 90 r /Helvetica findfont 15.9378 sf 0 0 m (MUON_EFF_SYS_LOWPT) show NC gr 
 gsave  2268 847 0 0 C 1971.73 166.208 t 90 r /Helvetica findfont 15.9378 sf 0 0 m (MUON_EFF_TrigStatUncertainty) show NC gr 
 gsave  2268 847 0 0 C 1987.67 191.253 t 90 r /Helvetica findfont 15.9378 sf 0 0 m (MUON_EFF_TrigtUncertainty) show NC gr 
 gsave  2268 847 0 0 C 2003.6 327.863 t 90 r /Helvetica findfont 15.9378 sf 0 0 m (MUON_ID) show NC gr 
 gsave  2268 847 0 0 C 2019.54 266.388 t 90 r /Helvetica findfont 15.9378 sf 0 0 m (MUON_ISO_STAT) show NC gr 
 gsave  2268 847 0 0 C 2035.48 275.496 t 90 r /Helvetica findfont 15.9378 sf 0 0 m (MUON_ISO_SYS) show NC gr 
 gsave  2268 847 0 0 C 2053.7 318.755 t 90 r /Helvetica findfont 15.9378 sf 0 0 m (MUON_MS) show NC gr 
 gsave  2268 847 0 0 C 2069.63 195.807 t 90 r /Helvetica findfont 15.9378 sf 0 0 m (MUON_SAGITTA_RESBIAS) show NC gr 
 gsave  2268 847 0 0 C 2085.57 229.959 t 90 r /Helvetica findfont 15.9378 sf 0 0 m (MUON_SAGITTA_RHO) show NC gr 
 gsave  2268 847 0 0 C 2101.51 291.433 t 90 r /Helvetica findfont 15.9378 sf 0 0 m (MUON_SCALE) show NC gr 
 gsave  2268 847 0 0 C 2117.45 252.727 t 90 r /Helvetica findfont 15.9378 sf 0 0 m (MUON_TTVA_STAT) show NC gr 
 gsave  2268 847 0 0 C 2135.66 261.835 t 90 r /Helvetica findfont 15.9378 sf 0 0 m (MUON_TTVA_SYS) show NC gr 
 gsave  2268 847 0 0 C 2151.6 291.433 t 90 r /Helvetica findfont 15.9378 sf 0 0 m (PRW_DATASF) show NC gr 
 gsave  2268 847 0 0 C 2167.54 327.863 t 90 r /Helvetica findfont 15.9378 sf 0 0 m (StopNorm) show NC gr 
 gsave  2268 847 0 0 C 2183.47 255.004 t 90 r /Helvetica findfont 15.9378 sf 0 0 m (ttbar0Lep_VBFRatio) show NC gr  109 430 m -23 Y s 191 430 m -23 Y s 272 430 m -23 Y s 354 430 m -23 Y s 436 430 m -23 Y s 518 430 m -23 Y s 600 430 m -23 Y s 681 430
 m -23 Y s 763 430 m -23 Y s 845 430 m -23 Y s 927 430 m -23 Y s 1008 430 m -23 Y s 1090 430 m -23 Y s 1172 430 m -23 Y s 1254 430 m -23 Y s 1336 430 m -23 Y s 1417 430 m -23 Y s 1499 430 m -23 Y s 1581 430 m -23 Y s 1663 430 m -23 Y s 1744 430 m -23
 Y s 1826 430 m -23 Y s 1908 430 m -23 Y s 1990 430 m -23 Y s 2072 430 m -23 Y s 2153 430 m -23 Y s 2153 430 m -23 Y s 109 805 m 2077 X s 109 781 m 24 Y s 191 781 m 24 Y s 272 781 m 24 Y s 354 781 m 24 Y s 436 781 m 24 Y s 518 781 m 24 Y s 600 781 m
 24 Y s 681 781 m 24 Y s 763 781 m 24 Y s 845 781 m 24 Y s 927 781 m 24 Y s 1008 781 m 24 Y s 1090 781 m 24 Y s 1172 781 m 24 Y s 1254 781 m 24 Y s 1336 781 m 24 Y s 1417 781 m 24 Y s 1499 781 m 24 Y s 1581 781 m 24 Y s 1663 781 m 24 Y s 1744 781 m
 24 Y s 1826 781 m 24 Y s 1908 781 m 24 Y s 1990 781 m 24 Y s 2072 781 m 24 Y s 2153 781 m 24 Y s 2153 781 m 24 Y s 109 407 m 398 Y s
 gsave  2268 847 0 0 C 61.4742 769.566 t 90 r /Helvetica findfont 22.7682 sf 0 0 m (Pull) show NC gr  141 435 m -32 X s 125 446 m -16 X s 125 458 m -16 X s 125 469 m -16 X s 125 480 m -16 X s 141 492 m -32 X s 125 503 m -16 X s 125 515 m -16 X s 125
 526 m -16 X s 125 537 m -16 X s 141 549 m -32 X s 125 560 m -16 X s 125 571 m -16 X s 125 583 m -16 X s 125 594 m -16 X s 141 606 m -32 X s 125 617 m -16 X s 125 628 m -16 X s 125 640 m -16 X s 125 651 m -16 X s 141 662 m -32 X s 125 674 m -16 X s
 125 685 m -16 X s 125 697 m -16 X s 125 708 m -16 X s 141 719 m -32 X s 125 731 m -16 X s 125 742 m -16 X s 125 753 m -16 X s 125 765 m -16 X s 141 776 m -32 X s 141 435 m -32 X s 125 424 m -16 X s 125 412 m -16 X s 141 776 m -32 X s 125 788 m -16 X
 s 125 799 m -16 X s
 gsave  2268 847 0 0 C 81.9657 428.043 t 0 r /Helvetica findfont 22.7682 sf 0 0 m (3) show NC gr 
 gsave  2268 847 0 0 C 68.3047 428.043 t 0 r /Symbol findfont 22.7682 sf 0 0 m (-) show NC gr 
 gsave  2268 847 0 0 C 81.9657 482.687 t 0 r /Helvetica findfont 22.7682 sf 0 0 m (2) show NC gr 
 gsave  2268 847 0 0 C 68.3047 482.687 t 0 r /Symbol findfont 22.7682 sf 0 0 m (-) show NC gr 
 gsave  2268 847 0 0 C 86.5193 539.607 t 0 r /Helvetica findfont 22.7682 sf 0 0 m (1) show NC gr 
 gsave  2268 847 0 0 C 72.8584 539.607 t 0 r /Symbol findfont 22.7682 sf 0 0 m (-) show NC gr 
 gsave  2268 847 0 0 C 81.9657 596.528 t 0 r /Helvetica findfont 22.7682 sf 0 0 m (0) show NC gr 
 gsave  2268 847 0 0 C 86.5193 651.172 t 0 r /Helvetica findfont 22.7682 sf 0 0 m (1) show NC gr 
 gsave  2268 847 0 0 C 81.9657 708.092 t 0 r /Helvetica findfont 22.7682 sf 0 0 m (2) show NC gr 
 gsave  2268 847 0 0 C 81.9657 767.29 t 0 r /Helvetica findfont 22.7682 sf 0 0 m (3) show NC gr  2186 407 m 398 Y s 2154 435 m 32 X s 2170 446 m 16 X s 2170 458 m 16 X s 2170 469 m 16 X s 2170 480 m 16 X s 2154 492 m 32 X s 2170 503 m 16 X s 2170 515
 m 16 X s 2170 526 m 16 X s 2170 537 m 16 X s 2154 549 m 32 X s 2170 560 m 16 X s 2170 571 m 16 X s 2170 583 m 16 X s 2170 594 m 16 X s 2154 606 m 32 X s 2170 617 m 16 X s 2170 628 m 16 X s 2170 640 m 16 X s 2170 651 m 16 X s 2154 662 m 32 X s 2170
 674 m 16 X s 2170 685 m 16 X s 2170 697 m 16 X s 2170 708 m 16 X s 2154 719 m 32 X s 2170 731 m 16 X s 2170 742 m 16 X s 2170 753 m 16 X s 2170 765 m 16 X s 2154 776 m 32 X s 2154 435 m 32 X s 2170 424 m 16 X s 2170 412 m 16 X s 2154 776 m 32 X s
 2170 788 m 16 X s 2170 799 m 16 X s 6 lw 1 1 1 c black 3 lw /w 22 def /w2 {w 2 div} def /w3 {w 3 div} def 117 646 133 670 150 682 166 669 182 649 199 667 215 644 232 662 248 663 264 601 461 604 477 610 493 585 510 576 526 599 542 602 559 612 575 601
 591 612 608 584 624 603 640 603 657 595 673 607 689 606 706 600 722 595 739 610 755 602 771 605 788 603 804 607 820 608 837 631 853 602 869 604 886 607 902 602 918 605 935 604 951 605 968 602 984 605 1000 610 1017 606 1033 606 1049 607 1066 596 1082
 599 1098 640 1115 597 1131 601 1147 612 1164 593 1180 603 1197 606 1213 641 1229 574 1246 591 1262 596 1278 594 1295 628 1311 618 1327 600 1344 538 1360 606 1376 573 1393 623 1409 602 1426 532 1442 614 1458 614 1475 600 1491 610 1507 611 281 624 297
 614 313 611 330 627 411 633 428 609 1524 606 1540 606 1556 605 1573 606 1589 606 1605 568 1622 607 1638 647 1655 610 1671 584 1687 604 1704 605 1720 591 1736 605 1753 604 1769 577 1785 605 1802 597 1818 626 100 { m20} R 1834 601 1851 604 1867 606
 1883 603 1900 599 1916 606 1933 549 1949 606 1965 603 1982 601 1998 628 2014 606 2031 598 2047 620 2063 609 2080 628 2096 603 2112 601 2129 600 2145 604 2162 604 346 606 362 606 379 606 395 606 444 592 2178 598 27 { m20} R 6 lw 264 610 m 47 Y s 264
 657 m cl s 264 592 m -47 Y s 264 545 m cl s 461 614 m 46 Y s 461 660 m cl s 461 595 m -46 Y s 461 549 m cl s 477 619 m 46 Y s 477 665 m cl s 477 601 m -45 Y s 477 556 m cl s 493 594 m 46 Y s 493 640 m cl s 493 576 m -47 Y s 493 529 m cl s 510 585 m
 45 Y s 510 630 m cl s 510 567 m -45 Y s 510 522 m cl s 526 608 m 47 Y s 526 655 m cl s 526 590 m -48 Y s 526 542 m cl s 542 611 m 48 Y s 542 659 m cl s 542 593 m -47 Y s 542 546 m cl s 559 621 m 2 Y s 559 623 m cl s 559 603 m -2 Y s 559 601 m cl s
 575 610 m 43 Y s 575 653 m cl s 575 592 m -43 Y s 575 549 m cl s 591 621 m 7 Y s 591 628 m cl s 591 603 m -8 Y s 591 595 m cl s 608 593 m 45 Y s 608 638 m cl s 608 575 m -44 Y s 608 531 m cl s 624 613 m 46 Y s 624 659 m cl s 624 594 m -46 Y s 624
 548 m cl s 640 612 m 47 Y s 640 659 m cl s 640 594 m -47 Y s 640 547 m cl s 657 604 m 47 Y s 657 651 m cl s 657 586 m -48 Y s 657 538 m cl s 673 616 m 47 Y s 673 663 m cl s 673 597 m -47 Y s 673 550 m cl s 689 615 m 48 Y s 689 663 m cl s 689 597 m
 -47 Y s 689 550 m cl s 706 609 m 40 Y s 706 649 m cl s 706 590 m -39 Y s 706 551 m cl s 722 604 m 43 Y s 722 647 m cl s 722 586 m -43 Y s 722 543 m cl s 739 619 m 46 Y s 739 665 m cl s 739 601 m -47 Y s 739 554 m cl s 755 611 m 47 Y s 755 658 m cl s
 755 592 m -47 Y s 755 545 m cl s 771 614 m 48 Y s 771 662 m cl s 771 596 m -47 Y s 771 549 m cl s 788 612 m 47 Y s 788 659 m cl s 788 594 m -48 Y s 788 546 m cl s 804 616 m 47 Y s 804 663 m cl s 804 598 m -48 Y s 804 550 m cl s 820 617 m 47 Y s 820
 664 m cl s 820 599 m -48 Y s 820 551 m cl s 837 640 m 39 Y s 837 679 m cl s 837 622 m -39 Y s 837 583 m cl s 853 611 m 44 Y s 853 655 m cl s 853 592 m -44 Y s 853 548 m cl s 869 613 m 48 Y s 869 661 m cl s 869 595 m -48 Y s 869 547 m cl s 886 616 m
 47 Y s 886 663 m cl s 886 598 m -46 Y s 886 552 m cl s 902 611 m 48 Y s 902 659 m cl s 902 593 m -47 Y s 902 546 m cl s 918 615 m 47 Y s 918 662 m cl s 918 596 m -47 Y s 918 549 m cl s 935 613 m 47 Y s 935 660 m cl s 935 595 m -48 Y s 935 547 m cl s
 951 614 m 48 Y s 951 662 m cl s 951 596 m -47 Y s 951 549 m cl s 968 611 m 47 Y s 968 658 m cl s 968 592 m -47 Y s 968 545 m cl s 984 614 m 47 Y s 984 661 m cl s 984 595 m -47 Y s 984 548 m cl s 1000 619 m 47 Y s 1000 666 m cl s 1000 601 m -48 Y s
 1000 553 m cl s 1017 616 m 47 Y s 1017 663 m cl s 1017 597 m -47 Y s 1017 550 m cl s 1033 615 m 48 Y s 1033 663 m cl s 1033 597 m -47 Y s 1033 550 m cl s 1049 616 m 48 Y s 1049 664 m cl s 1049 598 m -47 Y s 1049 551 m cl s 1066 605 m 46 Y s 1066 651
 m cl s 1066 587 m -47 Y s 1066 540 m cl s 1082 608 m 44 Y s 1082 652 m cl s 1082 590 m -44 Y s 1082 546 m cl s 1098 650 m 45 Y s 1098 695 m cl s 1098 631 m -45 Y s 1098 586 m cl s 1115 606 m 46 Y s 1115 652 m cl s 1115 588 m -46 Y s 1115 542 m cl s
 1131 610 m 47 Y s 1131 657 m cl s 1131 592 m -47 Y s 1131 545 m cl s 1147 621 m 47 Y s 1147 668 m cl s 1147 603 m -47 Y s 1147 556 m cl s 1164 602 m 47 Y s 1164 649 m cl s 1164 584 m -47 Y s 1164 537 m cl s 1180 612 m 48 Y s 1180 660 m cl s 1180 594
 m -47 Y s 1180 547 m cl s 1197 615 m 47 Y s 1197 662 m cl s 1197 597 m -47 Y s 1197 550 m cl s 1213 650 m 39 Y s 1213 689 m cl s 1213 632 m -39 Y s 1213 593 m cl s 1229 583 m 44 Y s 1229 627 m cl s 1229 565 m -45 Y s 1229 520 m cl s 1246 600 m 46 Y
 s 1246 646 m cl s 1246 582 m -46 Y s 1246 536 m cl s 1262 605 m 27 Y s 1262 632 m cl s 1262 587 m -27 Y s 1262 560 m cl s 1278 603 m 44 Y s 1278 647 m cl s 1278 585 m -45 Y s 1278 540 m cl s 1295 638 m 44 Y s 1295 682 m cl s 1295 619 m -44 Y s 1295
 575 m cl s 1311 627 m 43 Y s 1311 670 m cl s 1311 609 m -43 Y s 1311 566 m cl s 1327 609 m 44 Y s 1327 653 m cl s 1327 591 m -44 Y s 1327 547 m cl s 1344 547 m 32 Y s 1344 579 m cl s 1344 529 m -32 Y s 1344 497 m cl s 1360 615 m 47 Y s 1360 662 m cl
 s 1360 597 m -48 Y s 1360 549 m cl s 1376 582 m 17 Y s 1376 599 m cl s 1376 564 m -17 Y s 1376 547 m cl s 1393 633 m 38 Y s 1393 671 m cl s 1393 614 m -38 Y s 1393 576 m cl s 1409 611 m 47 Y s 1409 658 m cl s 1409 593 m -46 Y s 1409 547 m cl s 1426
 541 m 40 Y s 1426 581 m cl s 1426 523 m -40 Y s 1426 483 m cl s 1442 623 m 18 Y s 1442 641 m cl s 1442 604 m -18 Y s 1442 586 m cl s 1458 623 m 41 Y s 1458 664 m cl s 1458 605 m -40 Y s 1458 565 m cl s 1475 610 m 24 Y s 1475 634 m cl s 1475 591 m
 -24 Y s 1475 567 m cl s 1491 619 m 47 Y s 1491 666 m cl s 1491 601 m -47 Y s 1491 554 m cl s 1507 620 m 47 Y s 1507 667 m cl s 1507 602 m -47 Y s 1507 555 m cl s 281 633 m 46 Y s 281 679 m cl s 281 615 m -46 Y s 281 569 m cl s 297 623 m 44 Y s 297
 667 m cl s 297 605 m -43 Y s 297 562 m cl s 313 621 m 43 Y s 313 664 m cl s 313 602 m -43 Y s 313 559 m cl s 330 636 m 45 Y s 330 681 m cl s 330 618 m -45 Y s 330 573 m cl s 411 642 m 46 Y s 411 688 m cl s 411 624 m -47 Y s 411 577 m cl s 428 618 m
 47 Y s 428 665 m cl s 428 600 m -47 Y s 428 553 m cl s 1524 615 m 47 Y s 1524 662 m cl s 1524 596 m -47 Y s 1524 549 m cl s 1540 615 m 47 Y s 1540 662 m cl s 1540 596 m -47 Y s 1540 549 m cl s 1556 614 m 41 Y s 1556 655 m cl s 1556 596 m -42 Y s
 1556 554 m cl s 1573 615 m 47 Y s 1573 662 m cl s 1573 596 m -47 Y s 1573 549 m cl s 1589 615 m 47 Y s 1589 662 m cl s 1589 596 m -47 Y s 1589 549 m cl s 1605 577 m 28 Y s 1605 605 m cl s 1605 559 m -29 Y s 1605 530 m cl s 1622 616 m 29 Y s 1622 645
 m cl s 1622 598 m -30 Y s 1622 568 m cl s 1638 656 m 18 Y s 1638 674 m cl s 1638 638 m -18 Y s 1638 620 m cl s 1655 619 m 23 Y s 1655 642 m cl s 1655 601 m -23 Y s 1655 578 m cl s 1671 593 m 36 Y s 1671 629 m cl s 1671 575 m -37 Y s 1671 538 m cl s
 1687 613 m 47 Y s 1687 660 m cl s 1687 595 m -47 Y s 1687 548 m cl s 1704 614 m 48 Y s 1704 662 m cl s 1704 596 m -47 Y s 1704 549 m cl s 1720 600 m 22 Y s 1720 622 m cl s 1720 582 m -22 Y s 1720 560 m cl s 1736 614 m 47 Y s 1736 661 m cl s 1736 595
 m -47 Y s 1736 548 m cl s 1753 614 m 47 Y s 1753 661 m cl s 1753 595 m -47 Y s 1753 548 m cl s 1769 586 m 19 Y s 1769 605 m cl s 1769 567 m -19 Y s 1769 548 m cl s 1785 614 m 48 Y s 1785 662 m cl s 1785 596 m -47 Y s 1785 549 m cl s 1802 606 m 25 Y
 s 1802 631 m cl s 1802 587 m -25 Y s 1802 562 m cl s 1818 635 m 43 Y s 1818 678 m cl s 1818 617 m -42 Y s 1818 575 m cl s 1834 610 m 46 Y s 1834 656 m cl s 1834 592 m -46 Y s 1834 546 m cl s 1851 613 m 47 Y s 1851 660 m cl s 1851 595 m -48 Y s 1851
 547 m cl s 1867 615 m 48 Y s 1867 663 m cl s 1867 597 m -47 Y s 1867 550 m cl s 1883 612 m 47 Y s 1883 659 m cl s 1883 594 m -47 Y s 1883 547 m cl s 1900 608 m 47 Y s 1900 655 m cl s 1900 590 m -48 Y s 1900 542 m cl s 1916 615 m 47 Y s 1916 662 m cl
 s 1916 596 m -47 Y s 1916 549 m cl s 1933 558 m 41 Y s 1933 599 m cl s 1933 539 m -41 Y s 1933 498 m cl s 1949 615 m 47 Y s 1949 662 m cl s 1949 597 m -48 Y s 1949 549 m cl s 1965 612 m 47 Y s 1965 659 m cl s 1965 594 m -48 Y s 1965 546 m cl s 1982
 610 m 48 Y s 1982 658 m cl s 1982 592 m -47 Y s 1982 545 m cl s 1998 637 m 47 Y s 1998 684 m cl s 1998 619 m -47 Y s 1998 572 m cl s 2014 615 m 47 Y s 2014 662 m cl s 2014 596 m -47 Y s 2014 549 m cl s 2031 607 m 47 Y s 2031 654 m cl s 2031 589 m
 -48 Y s 2031 541 m cl s 2047 629 m 47 Y s 2047 676 m cl s 2047 611 m -47 Y s 2047 564 m cl s 2063 618 m 46 Y s 2063 664 m cl s 2063 600 m -47 Y s 2063 553 m cl s 2080 637 m 45 Y s 2080 682 m cl s 2080 618 m -44 Y s 2080 574 m cl s 2096 612 m 47 Y s
 2096 659 m cl s 2096 594 m -48 Y s 2096 546 m cl s 2112 611 m 43 Y s 2112 654 m cl s 2112 592 m -44 Y s 2112 548 m cl s 2129 609 m 44 Y s 2129 653 m cl s 2129 591 m -44 Y s 2129 547 m cl s 2145 613 m 28 Y s 2145 641 m cl s 2145 595 m -28 Y s 2145
 567 m cl s 2162 613 m 47 Y s 2162 660 m cl s 2162 594 m -47 Y s 2162 547 m cl s 346 615 m 47 Y s 346 662 m cl s 346 596 m -47 Y s 346 549 m cl s 362 615 m 47 Y s 362 662 m cl s 362 596 m -47 Y s 362 549 m cl s 379 615 m 47 Y s 379 662 m cl s 379 596
 m -47 Y s 379 549 m cl s 395 615 m 47 Y s 395 662 m cl s 395 596 m -47 Y s 395 549 m cl s 444 601 m 44 Y s 444 645 m cl s 444 583 m -43 Y s 444 540 m cl s 2178 607 m 27 Y s 2178 634 m cl s 2178 589 m -27 Y s 2178 562 m cl s 1 1 0 c black 3 lw 1 1 0
 c 109 719 m 2077 X -227 Y -2077 X f 6 lw black 0 1 0 c black 3 lw 0 1 0 c 109 662 m 2077 X -113 Y -2077 X f 6 lw black 264 610 m 47 Y s 264 657 m cl s 264 592 m -47 Y s 264 545 m cl s 461 614 m 46 Y s 461 660 m cl s 461 595 m -46 Y s 461 549 m cl s
 477 619 m 46 Y s 477 665 m cl s 477 601 m -45 Y s 477 556 m cl s 493 594 m 46 Y s 493 640 m cl s 493 576 m -47 Y s 493 529 m cl s 510 585 m 45 Y s 510 630 m cl s 510 567 m -45 Y s 510 522 m cl s 526 608 m 47 Y s 526 655 m cl s 526 590 m -48 Y s 526
 542 m cl s 542 611 m 48 Y s 542 659 m cl s 542 593 m -47 Y s 542 546 m cl s 559 621 m 2 Y s 559 623 m cl s 559 603 m -2 Y s 559 601 m cl s 575 610 m 43 Y s 575 653 m cl s 575 592 m -43 Y s 575 549 m cl s 591 621 m 7 Y s 591 628 m cl s 591 603 m -8 Y
 s 591 595 m cl s 608 593 m 45 Y s 608 638 m cl s 608 575 m -44 Y s 608 531 m cl s 624 613 m 46 Y s 624 659 m cl s 624 594 m -46 Y s 624 548 m cl s 640 612 m 47 Y s 640 659 m cl s 640 594 m -47 Y s 640 547 m cl s 657 604 m 47 Y s 657 651 m cl s 657
 586 m -48 Y s 657 538 m cl s 673 616 m 47 Y s 673 663 m cl s 673 597 m -47 Y s 673 550 m cl s 689 615 m 48 Y s 689 663 m cl s 689 597 m -47 Y s 689 550 m cl s 706 609 m 40 Y s 706 649 m cl s 706 590 m -39 Y s 706 551 m cl s 722 604 m 43 Y s 722 647
 m cl s 722 586 m -43 Y s 722 543 m cl s 739 619 m 46 Y s 739 665 m cl s 739 601 m -47 Y s 739 554 m cl s 755 611 m 47 Y s 755 658 m cl s 755 592 m -47 Y s 755 545 m cl s 771 614 m 48 Y s 771 662 m cl s 771 596 m -47 Y s 771 549 m cl s 788 612 m 47 Y
 s 788 659 m cl s 788 594 m -48 Y s 788 546 m cl s 804 616 m 47 Y s 804 663 m cl s 804 598 m -48 Y s 804 550 m cl s 820 617 m 47 Y s 820 664 m cl s 820 599 m -48 Y s 820 551 m cl s 837 640 m 39 Y s 837 679 m cl s 837 622 m -39 Y s 837 583 m cl s 853
 611 m 44 Y s 853 655 m cl s 853 592 m -44 Y s 853 548 m cl s 869 613 m 48 Y s 869 661 m cl s 869 595 m -48 Y s 869 547 m cl s 886 616 m 47 Y s 886 663 m cl s 886 598 m -46 Y s 886 552 m cl s 902 611 m 48 Y s 902 659 m cl s 902 593 m -47 Y s 902 546
 m cl s 918 615 m 47 Y s 918 662 m cl s 918 596 m -47 Y s 918 549 m cl s 935 613 m 47 Y s 935 660 m cl s 935 595 m -48 Y s 935 547 m cl s 951 614 m 48 Y s 951 662 m cl s 951 596 m -47 Y s 951 549 m cl s 968 611 m 47 Y s 968 658 m cl s 968 592 m -47 Y
 s 968 545 m cl s 984 614 m 47 Y s 984 661 m cl s 984 595 m -47 Y s 984 548 m cl s 1000 619 m 47 Y s 1000 666 m cl s 1000 601 m -48 Y s 1000 553 m cl s 1017 616 m 47 Y s 1017 663 m cl s 1017 597 m -47 Y s 1017 550 m cl s 1033 615 m 48 Y s 1033 663 m
 cl s 1033 597 m -47 Y s 1033 550 m cl s 1049 616 m 48 Y s 1049 664 m cl s 1049 598 m -47 Y s 1049 551 m cl s 1066 605 m 46 Y s 1066 651 m cl s 1066 587 m -47 Y s 1066 540 m cl s 1082 608 m 44 Y s 1082 652 m cl s 1082 590 m -44 Y s 1082 546 m cl s
 1098 650 m 45 Y s 1098 695 m cl s 1098 631 m -45 Y s 1098 586 m cl s 1115 606 m 46 Y s 1115 652 m cl s 1115 588 m -46 Y s 1115 542 m cl s 1131 610 m 47 Y s 1131 657 m cl s 1131 592 m -47 Y s 1131 545 m cl s 1147 621 m 47 Y s 1147 668 m cl s 1147 603
 m -47 Y s 1147 556 m cl s 1164 602 m 47 Y s 1164 649 m cl s 1164 584 m -47 Y s 1164 537 m cl s 1180 612 m 48 Y s 1180 660 m cl s 1180 594 m -47 Y s 1180 547 m cl s 1197 615 m 47 Y s 1197 662 m cl s 1197 597 m -47 Y s 1197 550 m cl s 1213 650 m 39 Y
 s 1213 689 m cl s 1213 632 m -39 Y s 1213 593 m cl s 1229 583 m 44 Y s 1229 627 m cl s 1229 565 m -45 Y s 1229 520 m cl s 1246 600 m 46 Y s 1246 646 m cl s 1246 582 m -46 Y s 1246 536 m cl s 1262 605 m 27 Y s 1262 632 m cl s 1262 587 m -27 Y s 1262
 560 m cl s 1278 603 m 44 Y s 1278 647 m cl s 1278 585 m -45 Y s 1278 540 m cl s 1295 638 m 44 Y s 1295 682 m cl s 1295 619 m -44 Y s 1295 575 m cl s 1311 627 m 43 Y s 1311 670 m cl s 1311 609 m -43 Y s 1311 566 m cl s 1327 609 m 44 Y s 1327 653 m cl
 s 1327 591 m -44 Y s 1327 547 m cl s 1344 547 m 32 Y s 1344 579 m cl s 1344 529 m -32 Y s 1344 497 m cl s 1360 615 m 47 Y s 1360 662 m cl s 1360 597 m -48 Y s 1360 549 m cl s 1376 582 m 17 Y s 1376 599 m cl s 1376 564 m -17 Y s 1376 547 m cl s 1393
 633 m 38 Y s 1393 671 m cl s 1393 614 m -38 Y s 1393 576 m cl s 1409 611 m 47 Y s 1409 658 m cl s 1409 593 m -46 Y s 1409 547 m cl s 1426 541 m 40 Y s 1426 581 m cl s 1426 523 m -40 Y s 1426 483 m cl s 1442 623 m 18 Y s 1442 641 m cl s 1442 604 m
 -18 Y s 1442 586 m cl s 1458 623 m 41 Y s 1458 664 m cl s 1458 605 m -40 Y s 1458 565 m cl s 1475 610 m 24 Y s 1475 634 m cl s 1475 591 m -24 Y s 1475 567 m cl s 1491 619 m 47 Y s 1491 666 m cl s 1491 601 m -47 Y s 1491 554 m cl s 1507 620 m 47 Y s
 1507 667 m cl s 1507 602 m -47 Y s 1507 555 m cl s 281 633 m 46 Y s 281 679 m cl s 281 615 m -46 Y s 281 569 m cl s 297 623 m 44 Y s 297 667 m cl s 297 605 m -43 Y s 297 562 m cl s 313 621 m 43 Y s 313 664 m cl s 313 602 m -43 Y s 313 559 m cl s 330
 636 m 45 Y s 330 681 m cl s 330 618 m -45 Y s 330 573 m cl s 411 642 m 46 Y s 411 688 m cl s 411 624 m -47 Y s 411 577 m cl s 428 618 m 47 Y s 428 665 m cl s 428 600 m -47 Y s 428 553 m cl s 1524 615 m 47 Y s 1524 662 m cl s 1524 596 m -47 Y s 1524
 549 m cl s 1540 615 m 47 Y s 1540 662 m cl s 1540 596 m -47 Y s 1540 549 m cl s 1556 614 m 41 Y s 1556 655 m cl s 1556 596 m -42 Y s 1556 554 m cl s 1573 615 m 47 Y s 1573 662 m cl s 1573 596 m -47 Y s 1573 549 m cl s 1589 615 m 47 Y s 1589 662 m cl
 s 1589 596 m -47 Y s 1589 549 m cl s 1605 577 m 28 Y s 1605 605 m cl s 1605 559 m -29 Y s 1605 530 m cl s 1622 616 m 29 Y s 1622 645 m cl s 1622 598 m -30 Y s 1622 568 m cl s 1638 656 m 18 Y s 1638 674 m cl s 1638 638 m -18 Y s 1638 620 m cl s 1655
 619 m 23 Y s 1655 642 m cl s 1655 601 m -23 Y s 1655 578 m cl s 1671 593 m 36 Y s 1671 629 m cl s 1671 575 m -37 Y s 1671 538 m cl s 1687 613 m 47 Y s 1687 660 m cl s 1687 595 m -47 Y s 1687 548 m cl s 1704 614 m 48 Y s 1704 662 m cl s 1704 596 m
 -47 Y s 1704 549 m cl s 1720 600 m 22 Y s 1720 622 m cl s 1720 582 m -22 Y s 1720 560 m cl s 1736 614 m 47 Y s 1736 661 m cl s 1736 595 m -47 Y s 1736 548 m cl s 1753 614 m 47 Y s 1753 661 m cl s 1753 595 m -47 Y s 1753 548 m cl s 1769 586 m 19 Y s
 1769 605 m cl s 1769 567 m -19 Y s 1769 548 m cl s 1785 614 m 48 Y s 1785 662 m cl s 1785 596 m -47 Y s 1785 549 m cl s 1802 606 m 25 Y s 1802 631 m cl s 1802 587 m -25 Y s 1802 562 m cl s 1818 635 m 43 Y s 1818 678 m cl s 1818 617 m -42 Y s 1818
 575 m cl s 1834 610 m 46 Y s 1834 656 m cl s 1834 592 m -46 Y s 1834 546 m cl s 1851 613 m 47 Y s 1851 660 m cl s 1851 595 m -48 Y s 1851 547 m cl s 1867 615 m 48 Y s 1867 663 m cl s 1867 597 m -47 Y s 1867 550 m cl s 1883 612 m 47 Y s 1883 659 m cl
 s 1883 594 m -47 Y s 1883 547 m cl s 1900 608 m 47 Y s 1900 655 m cl s 1900 590 m -48 Y s 1900 542 m cl s 1916 615 m 47 Y s 1916 662 m cl s 1916 596 m -47 Y s 1916 549 m cl s 1933 558 m 41 Y s 1933 599 m cl s 1933 539 m -41 Y s 1933 498 m cl s 1949
 615 m 47 Y s 1949 662 m cl s 1949 597 m -48 Y s 1949 549 m cl s 1965 612 m 47 Y s 1965 659 m cl s 1965 594 m -48 Y s 1965 546 m cl s 1982 610 m 48 Y s 1982 658 m cl s 1982 592 m -47 Y s 1982 545 m cl s 1998 637 m 47 Y s 1998 684 m cl s 1998 619 m
 -47 Y s 1998 572 m cl s 2014 615 m 47 Y s 2014 662 m cl s 2014 596 m -47 Y s 2014 549 m cl s 2031 607 m 47 Y s 2031 654 m cl s 2031 589 m -48 Y s 2031 541 m cl s 2047 629 m 47 Y s 2047 676 m cl s 2047 611 m -47 Y s 2047 564 m cl s 2063 618 m 46 Y s
 2063 664 m cl s 2063 600 m -47 Y s 2063 553 m cl s 2080 637 m 45 Y s 2080 682 m cl s 2080 618 m -44 Y s 2080 574 m cl s 2096 612 m 47 Y s 2096 659 m cl s 2096 594 m -48 Y s 2096 546 m cl s 2112 611 m 43 Y s 2112 654 m cl s 2112 592 m -44 Y s 2112
 548 m cl s 2129 609 m 44 Y s 2129 653 m cl s 2129 591 m -44 Y s 2129 547 m cl s 2145 613 m 28 Y s 2145 641 m cl s 2145 595 m -28 Y s 2145 567 m cl s 2162 613 m 47 Y s 2162 660 m cl s 2162 594 m -47 Y s 2162 547 m cl s 346 615 m 47 Y s 346 662 m cl s
 346 596 m -47 Y s 346 549 m cl s 362 615 m 47 Y s 362 662 m cl s 362 596 m -47 Y s 362 549 m cl s 379 615 m 47 Y s 379 662 m cl s 379 596 m -47 Y s 379 549 m cl s 395 615 m 47 Y s 395 662 m cl s 395 596 m -47 Y s 395 549 m cl s 444 601 m 44 Y s 444
 645 m cl s 444 583 m -43 Y s 444 540 m cl s 2178 607 m 27 Y s 2178 634 m cl s 2178 589 m -27 Y s 2178 562 m cl s 1 1 1 c black 3 lw 117 646 133 670 150 682 166 669 182 649 199 667 215 644 232 662 248 663 264 601 461 604 477 610 493 585 510 576 526
 599 542 602 559 612 575 601 591 612 608 584 624 603 640 603 657 595 673 607 689 606 706 600 722 595 739 610 755 602 771 605 788 603 804 607 820 608 837 631 853 602 869 604 886 607 902 602 918 605 935 604 951 605 968 602 984 605 1000 610 1017 606
 1033 606 1049 607 1066 596 1082 599 1098 640 1115 597 1131 601 1147 612 1164 593 1180 603 1197 606 1213 641 1229 574 1246 591 1262 596 1278 594 1295 628 1311 618 1327 600 1344 538 1360 606 1376 573 1393 623 1409 602 1426 532 1442 614 1458 614 1475
 600 1491 610 1507 611 281 624 297 614 313 611 330 627 411 633 428 609 1524 606 1540 606 1556 605 1573 606 1589 606 1605 568 1622 607 1638 647 1655 610 1671 584 1687 604 1704 605 1720 591 1736 605 1753 604 1769 577 1785 605 1802 597 1818 626 100 {
 m20} R 1834 601 1851 604 1867 606 1883 603 1900 599 1916 606 1933 549 1949 606 1965 603 1982 601 1998 628 2014 606 2031 598 2047 620 2063 609 2080 628 2096 603 2112 601 2129 600 2145 604 2162 604 346 606 362 606 379 606 395 606 444 592 2178 598 27 {
 m20} R 6 lw
 gr  gr showpage
end
%%EOF
