%!PS-Adobe-2.0 EPSF-2.0
%%BoundingBox:  0 0 567 384
%%Title: : c
%%Creator: ROOT Version 6.06/02
%%CreationDate: Wed May 17 21:30:57 2017
%%DocumentNeededResources: ProcSet (FontSetInit)
%%EndComments
%%BeginProlog
80 dict begin
/s {stroke} def /l {lineto} def /m {moveto} def /t {translate} def
/r {rotate} def /rl {roll}  def /R {repeat} def
/d {rlineto} def /rm {rmoveto} def /gr {grestore} def /f {eofill} def
/c {setrgbcolor} def /black {0 setgray} def /sd {setdash} def
/cl {closepath} def /sf {scalefont setfont} def /lw {setlinewidth} def
/box {m dup 0 exch d exch 0 d 0 exch neg d cl} def
/NC{systemdict begin initclip end}def/C{NC box clip newpath}def
/bl {box s} def /bf {gsave box gsave f grestore 1 lw [] 0 sd s grestore} def /Y { 0 exch d} def /X { 0 d} def 
/K {{pop pop 0 moveto} exch kshow} bind def
/ita {/ang 15 def gsave [1 0 ang dup sin exch cos div 1 0 0] concat} def 
/mp {newpath /y exch def /x exch def} def
/side {[w .77 mul w .23 mul] .385 w mul sd w 0 l currentpoint t -144 r} def
/mr {mp x y w2 0 360 arc} def /m24 {mr s} def /m20 {mr f} def
/mb {mp x y w2 add m w2 neg 0 d 0 w neg d w 0 d 0 w d cl} def
/mt {mp x y w2 add m w2 neg w neg d w 0 d cl} def
/m21 {mb f} def /m25 {mb s} def /m22 {mt f} def /m26{mt s} def
/m23 {mp x y w2 sub m w2 w d w neg 0 d cl f} def
/m27 {mp x y w2 add m w3 neg w2 neg d w3 w2 neg d w3 w2 d cl s} def
/m28 {mp x w2 sub y w2 sub w3 add m w3 0 d  0 w3 neg d w3 0 d 0 w3 d w3 0 d  0 w3 d w3 neg 0 d 0 w3 d w3 neg 0 d 0 w3 neg d w3 neg 0 d cl s } def
/m29 {mp gsave x w2 sub y w2 add w3 sub m currentpoint t 4 {side} repeat cl fill gr} def
/m30 {mp gsave x w2 sub y w2 add w3 sub m currentpoint t 4 {side} repeat cl s gr} def
/m31 {mp x y w2 sub m 0 w d x w2 sub y m w 0 d x w2 sub y w2 add m w w neg d x w2 sub y w2 sub m w w d s} def
/m32 {mp x y w2 sub m w2 w d w neg 0 d cl s} def
/m33 {mp x y w2 add m w3 neg w2 neg d w3 w2 neg d w3 w2 d cl f} def
/m34 {mp x w2 sub y w2 sub w3 add m w3 0 d  0 w3 neg d w3 0 d 0 w3 d w3 0 d  0 w3 d w3 neg 0 d 0 w3 d w3 neg 0 d 0 w3 neg d w3 neg 0 d cl f } def
/m2 {mp x y w2 sub m 0 w d x w2 sub y m w 0 d s} def
/m5 {mp x w2 sub y w2 sub m w w d x w2 sub y w2 add m w w neg d s} def
%%IncludeResource: ProcSet (FontSetInit)
%%IncludeResource: font Times-Roman
%%IncludeResource: font Times-Italic
%%IncludeResource: font Times-Bold
%%IncludeResource: font Times-BoldItalic
%%IncludeResource: font Helvetica
%%IncludeResource: font Helvetica-Oblique
%%IncludeResource: font Helvetica-Bold
%%IncludeResource: font Helvetica-BoldOblique
%%IncludeResource: font Courier
%%IncludeResource: font Courier-Oblique
%%IncludeResource: font Courier-Bold
%%IncludeResource: font Courier-BoldOblique
%%IncludeResource: font Symbol
%%IncludeResource: font ZapfDingbats
/reEncode {exch findfont dup length dict begin {1 index /FID eq  {pop pop} {def} ifelse } forall /Encoding exch def currentdict end dup /FontName get exch definefont pop } def [/Times-Bold /Times-Italic /Times-BoldItalic /Helvetica /Helvetica-Oblique
 /Helvetica-Bold /Helvetica-BoldOblique /Courier /Courier-Oblique /Courier-Bold /Courier-BoldOblique /Times-Roman /AvantGarde-Book /AvantGarde-BookOblique /AvantGarde-Demi /AvantGarde-DemiOblique /Bookman-Demi /Bookman-DemiItalic /Bookman-Light
 /Bookman-LightItalic /Helvetica-Narrow /Helvetica-Narrow-Bold /Helvetica-Narrow-BoldOblique /Helvetica-Narrow-Oblique /NewCenturySchlbk-Roman /NewCenturySchlbk-Bold /NewCenturySchlbk-BoldItalic /NewCenturySchlbk-Italic /Palatino-Bold
 /Palatino-BoldItalic /Palatino-Italic /Palatino-Roman ] {ISOLatin1Encoding reEncode } forall
%%EndProlog
%%BeginSetup
%%EndSetup
newpath  gsave  .25 .25 scale  gsave  0 0 t black[  ] 0 sd 3 lw 1 1 1 c 2268 1538 0 0 bf black 1 1 1 c 1561 1117 435 344 bf black 1561 1117 435 344 bl 1 1 1 c 1561 1117 435 344 bf black 1561 1117 435 344 bl 1 1 1 c 0.857391 0.997246 0.132754 c 48 34
 435 344 bf 0.643043 0.950435 0.349565 c 47 34 483 344 bf 0.668261 0.955942 0.324058 c 47 34 530 344 bf 0.731304 0.96971 0.26029 c 48 34 577 344 bf 0.327826 0.881594 0.668406 c 47 34 625 344 bf 0.554783 0.931159 0.438841 c 47 34 672 344 bf 0.504348
 0.920145 0.489855 c 47 34 719 344 bf 0.605217 0.942174 0.387826 c 48 34 766 344 bf 0.894237 0.850847 0.0976271 c 47 34 814 344 bf 0.10087 0.832029 0.897971 c 47 34 861 344 bf 0.516957 0.922899 0.477101 c 47 34 908 344 bf 48 34 955 344 bf 0.504348
 0.920145 0.489855 c 47 34 1003 344 bf 0.516957 0.922899 0.477101 c 47 34 1050 344 bf 0.491739 0.917391 0.502609 c 48 34 1097 344 bf 0.504348 0.920145 0.489855 c 47 34 1145 344 bf 47 34 1192 344 bf 0.529565 0.925652 0.464348 c 47 34 1239 344 bf
 0.18913 0.851304 0.808696 c 48 34 1286 344 bf 0.542174 0.928406 0.451594 c 47 34 1334 344 bf 0.365652 0.889855 0.630145 c 47 34 1381 344 bf 0.29 0.873333 0.706667 c 48 34 1428 344 bf 0.252174 0.865072 0.744928 c 47 34 1476 344 bf 0.491739 0.917391
 0.502609 c 47 34 1523 344 bf 0.428696 0.903623 0.566377 c 47 34 1570 344 bf 0.630435 0.947681 0.362319 c 48 34 1617 344 bf 0.466522 0.911884 0.528116 c 47 34 1665 344 bf 0.315217 0.878841 0.681159 c 47 34 1712 344 bf 0.466522 0.911884 0.528116 c 47
 34 1759 344 bf 0.491739 0.917391 0.502609 c 48 34 1806 344 bf 0.441304 0.906377 0.553623 c 47 34 1854 344 bf 0.554783 0.931159 0.438841 c 47 34 1901 344 bf 0.521951 0.00487805 0 c 48 34 1948 344 bf 0.731304 0.96971 0.26029 c 48 34 435 378 bf
 0.428696 0.903623 0.566377 c 47 34 483 378 bf 0.10087 0.832029 0.897971 c 47 34 530 378 bf 0.138696 0.84029 0.85971 c 48 34 577 378 bf 0.428696 0.903623 0.566377 c 47 34 625 378 bf 0.264783 0.867826 0.732174 c 47 34 672 378 bf 0.466522 0.911884
 0.528116 c 47 34 719 378 bf 0.453913 0.90913 0.54087 c 48 34 766 378 bf 0.542174 0.928406 0.451594 c 47 34 814 378 bf 0.378261 0.892609 0.617391 c 47 34 861 378 bf 0.516957 0.922899 0.477101 c 47 34 908 378 bf 0.47913 0.914638 0.515362 c 48 34 955
 378 bf 0.529565 0.925652 0.464348 c 47 34 1003 378 bf 0.504348 0.920145 0.489855 c 47 34 1050 378 bf 0.529565 0.925652 0.464348 c 48 34 1097 378 bf 0.428696 0.903623 0.566377 c 47 34 1145 378 bf 0.441304 0.906377 0.553623 c 47 34 1192 378 bf
 0.554783 0.931159 0.438841 c 47 34 1239 378 bf 0.617826 0.944928 0.375072 c 48 34 1286 378 bf 0.466522 0.911884 0.528116 c 47 34 1334 378 bf 0.529565 0.925652 0.464348 c 47 34 1381 378 bf 0.453913 0.90913 0.54087 c 48 34 1428 378 bf 0.516957
 0.922899 0.477101 c 47 34 1476 378 bf 47 34 1523 378 bf 0.529565 0.925652 0.464348 c 47 34 1570 378 bf 0.516957 0.922899 0.477101 c 48 34 1617 378 bf 0.567391 0.933913 0.426087 c 47 34 1665 378 bf 0.378261 0.892609 0.617391 c 47 34 1712 378 bf
 0.466522 0.911884 0.528116 c 47 34 1759 378 bf 0.529565 0.925652 0.464348 c 48 34 1806 378 bf 0.504348 0.920145 0.489855 c 47 34 1854 378 bf 0.521951 0.00487805 0 c 47 34 1901 378 bf 0.554783 0.931159 0.438841 c 48 34 1948 378 bf 0.416087 0.90087
 0.57913 c 48 34 435 412 bf 0.542174 0.928406 0.451594 c 47 34 483 412 bf 0.554783 0.931159 0.438841 c 47 34 530 412 bf 0.567391 0.933913 0.426087 c 48 34 577 412 bf 0.554783 0.931159 0.438841 c 47 34 625 412 bf 0.542174 0.928406 0.451594 c 47 34 672
 412 bf 0.504348 0.920145 0.489855 c 47 34 719 412 bf 0.47913 0.914638 0.515362 c 48 34 766 412 bf 0.327826 0.881594 0.668406 c 47 34 814 412 bf 0.58 0.936667 0.413333 c 47 34 861 412 bf 0.529565 0.925652 0.464348 c 47 34 908 412 bf 48 34 955 412 bf
 0.516957 0.922899 0.477101 c 47 34 1003 412 bf 47 34 1050 412 bf 48 34 1097 412 bf 47 34 1145 412 bf 47 34 1192 412 bf 0.47913 0.914638 0.515362 c 47 34 1239 412 bf 0.516957 0.922899 0.477101 c 48 34 1286 412 bf 47 34 1334 412 bf 0.491739 0.917391
 0.502609 c 47 34 1381 412 bf 0.441304 0.906377 0.553623 c 48 34 1428 412 bf 0.491739 0.917391 0.502609 c 47 34 1476 412 bf 0.630435 0.947681 0.362319 c 47 34 1523 412 bf 0.466522 0.911884 0.528116 c 47 34 1570 412 bf 0.378261 0.892609 0.617391 c 48
 34 1617 412 bf 0.416087 0.90087 0.57913 c 47 34 1665 412 bf 0.403478 0.898116 0.591884 c 47 34 1712 412 bf 0 0.518023 0.823372 c 47 34 1759 412 bf 0.542174 0.928406 0.451594 c 48 34 1806 412 bf 0.521951 0.00487805 0 c 47 34 1854 412 bf 0.504348
 0.920145 0.489855 c 47 34 1901 412 bf 0.441304 0.906377 0.553623 c 48 34 1948 412 bf 0.0882609 0.829275 0.910725 c 48 34 435 446 bf 0.504348 0.920145 0.489855 c 47 34 483 446 bf 0.554783 0.931159 0.438841 c 47 34 530 446 bf 0.416087 0.90087 0.57913
 c 48 34 577 446 bf 0.988983 0.267797 0.0101695 c 47 34 625 446 bf 0.504348 0.920145 0.489855 c 47 34 672 446 bf 0.567391 0.933913 0.426087 c 47 34 719 446 bf 0.529565 0.925652 0.464348 c 48 34 766 446 bf 0.39087 0.895362 0.604638 c 47 34 814 446 bf
 0.643043 0.950435 0.349565 c 47 34 861 446 bf 0.529565 0.925652 0.464348 c 47 34 908 446 bf 0.47913 0.914638 0.515362 c 48 34 955 446 bf 0.516957 0.922899 0.477101 c 47 34 1003 446 bf 0.529565 0.925652 0.464348 c 47 34 1050 446 bf 0.516957 0.922899
 0.477101 c 48 34 1097 446 bf 47 34 1145 446 bf 0.529565 0.925652 0.464348 c 47 34 1192 446 bf 0.504348 0.920145 0.489855 c 47 34 1239 446 bf 0.453913 0.90913 0.54087 c 48 34 1286 446 bf 0.58 0.936667 0.413333 c 47 34 1334 446 bf 0.516957 0.922899
 0.477101 c 47 34 1381 446 bf 0.542174 0.928406 0.451594 c 48 34 1428 446 bf 0.516957 0.922899 0.477101 c 47 34 1476 446 bf 0.592609 0.93942 0.40058 c 47 34 1523 446 bf 0.491739 0.917391 0.502609 c 47 34 1570 446 bf 0.567391 0.933913 0.426087 c 48 34
 1617 446 bf 0.327826 0.881594 0.668406 c 47 34 1665 446 bf 0.504348 0.920145 0.489855 c 47 34 1712 446 bf 0.605217 0.942174 0.387826 c 47 34 1759 446 bf 0.521951 0.00487805 0 c 48 34 1806 446 bf 0.542174 0.928406 0.451594 c 47 34 1854 446 bf
 0.529565 0.925652 0.464348 c 47 34 1901 446 bf 0.491739 0.917391 0.502609 c 48 34 1948 446 bf 0.340435 0.884348 0.655652 c 48 34 435 480 bf 0.542174 0.928406 0.451594 c 47 34 483 480 bf 0.504348 0.920145 0.489855 c 47 34 530 480 bf 0.58 0.936667
 0.413333 c 48 34 577 480 bf 0.668261 0.955942 0.324058 c 47 34 625 480 bf 0.592609 0.93942 0.40058 c 47 34 672 480 bf 0.47913 0.914638 0.515362 c 47 34 719 480 bf 0.441304 0.906377 0.553623 c 48 34 766 480 bf 0.416087 0.90087 0.57913 c 47 34 814 480
 bf 0.806957 0.986232 0.183768 c 47 34 861 480 bf 0.542174 0.928406 0.451594 c 47 34 908 480 bf 48 34 955 480 bf 0.516957 0.922899 0.477101 c 47 34 1003 480 bf 0.504348 0.920145 0.489855 c 47 34 1050 480 bf 48 34 1097 480 bf 0.58 0.936667 0.413333 c
 47 34 1145 480 bf 0.554783 0.931159 0.438841 c 47 34 1192 480 bf 0.491739 0.917391 0.502609 c 47 34 1239 480 bf 48 34 1286 480 bf 0.466522 0.911884 0.528116 c 47 34 1334 480 bf 0.504348 0.920145 0.489855 c 47 34 1381 480 bf 0.47913 0.914638 0.515362
 c 48 34 1428 480 bf 0.441304 0.906377 0.553623 c 47 34 1476 480 bf 0.806957 0.986232 0.183768 c 47 34 1523 480 bf 0.592609 0.93942 0.40058 c 47 34 1570 480 bf 0.315217 0.878841 0.681159 c 48 34 1617 480 bf 0.47913 0.914638 0.515362 c 47 34 1665 480
 bf 47 34 1712 480 bf 0.521951 0.00487805 0 c 47 34 1759 480 bf 0.605217 0.942174 0.387826 c 48 34 1806 480 bf 0 0.518023 0.823372 c 47 34 1854 480 bf 0.466522 0.911884 0.528116 c 47 34 1901 480 bf 48 34 1948 480 bf 0.163913 0.845797 0.834203 c 48 33
 435 514 bf 0.542174 0.928406 0.451594 c 47 33 483 514 bf 0.428696 0.903623 0.566377 c 47 33 530 514 bf 0.874407 0.972881 0.115932 c 48 33 577 514 bf 0.403478 0.898116 0.591884 c 47 33 625 514 bf 0.592609 0.93942 0.40058 c 47 33 672 514 bf 0.378261
 0.892609 0.617391 c 47 33 719 514 bf 48 33 766 514 bf 0 0.81 1 c 47 33 814 514 bf 0.554783 0.931159 0.438841 c 47 33 861 514 bf 0.504348 0.920145 0.489855 c 47 33 908 514 bf 0.428696 0.903623 0.566377 c 48 33 955 514 bf 0.516957 0.922899 0.477101 c
 47 33 1003 514 bf 0.491739 0.917391 0.502609 c 47 33 1050 514 bf 0.529565 0.925652 0.464348 c 48 33 1097 514 bf 0.441304 0.906377 0.553623 c 47 33 1145 514 bf 47 33 1192 514 bf 0.668261 0.955942 0.324058 c 47 33 1239 514 bf 0.743913 0.972464
 0.247536 c 48 33 1286 514 bf 0.504348 0.920145 0.489855 c 47 33 1334 514 bf 0.466522 0.911884 0.528116 c 47 33 1381 514 bf 0.226957 0.859565 0.770435 c 48 33 1428 514 bf 0.605217 0.942174 0.387826 c 47 33 1476 514 bf 0.68087 0.958696 0.311304 c 47
 33 1523 514 bf 0.302609 0.876087 0.693913 c 47 33 1570 514 bf 0.428696 0.903623 0.566377 c 48 33 1617 514 bf 0 0.659302 0.908837 c 47 33 1665 514 bf 0.521951 0.00487805 0 c 47 33 1712 514 bf 0.47913 0.914638 0.515362 c 47 33 1759 514 bf 0.504348
 0.920145 0.489855 c 48 33 1806 514 bf 0.403478 0.898116 0.591884 c 47 33 1854 514 bf 0.378261 0.892609 0.617391 c 47 33 1901 514 bf 0.315217 0.878841 0.681159 c 48 33 1948 514 bf 0.958136 0.457627 0.0386441 c 48 34 435 547 bf 0.491739 0.917391
 0.502609 c 47 34 483 547 bf 0.592609 0.93942 0.40058 c 47 34 530 547 bf 0.10087 0.832029 0.897971 c 48 34 577 547 bf 0.39087 0.895362 0.604638 c 47 34 625 547 bf 0.47913 0.914638 0.515362 c 47 34 672 547 bf 0.567391 0.933913 0.426087 c 47 34 719 547
 bf 0.542174 0.928406 0.451594 c 48 34 766 547 bf 0.819565 0.988985 0.171014 c 47 34 814 547 bf 0.87 1 0.12 c 47 34 861 547 bf 0.529565 0.925652 0.464348 c 47 34 908 547 bf 0.453913 0.90913 0.54087 c 48 34 955 547 bf 0.516957 0.922899 0.477101 c 47
 34 1003 547 bf 0.542174 0.928406 0.451594 c 47 34 1050 547 bf 0.516957 0.922899 0.477101 c 48 34 1097 547 bf 0.567391 0.933913 0.426087 c 47 34 1145 547 bf 0.554783 0.931159 0.438841 c 47 34 1192 547 bf 0.504348 0.920145 0.489855 c 47 34 1239 547 bf
 0.353043 0.887101 0.642899 c 48 34 1286 547 bf 0.605217 0.942174 0.387826 c 47 34 1334 547 bf 0.542174 0.928406 0.451594 c 47 34 1381 547 bf 0.58 0.936667 0.413333 c 48 34 1428 547 bf 0.743913 0.972464 0.247536 c 47 34 1476 547 bf 0.756522 0.975217
 0.234783 c 47 34 1523 547 bf 0.466522 0.911884 0.528116 c 47 34 1570 547 bf 48 34 1617 547 bf 0.521951 0.00487805 0 c 47 34 1665 547 bf 0 0.659302 0.908837 c 47 34 1712 547 bf 0.47913 0.914638 0.515362 c 47 34 1759 547 bf 0.327826 0.881594 0.668406
 c 48 34 1806 547 bf 0.416087 0.90087 0.57913 c 47 34 1854 547 bf 0.567391 0.933913 0.426087 c 47 34 1901 547 bf 0.466522 0.911884 0.528116 c 48 34 1948 547 bf 0.592609 0.93942 0.40058 c 48 34 435 581 bf 0.516957 0.922899 0.477101 c 47 34 483 581 bf
 0.592609 0.93942 0.40058 c 47 34 530 581 bf 0.781739 0.980725 0.209275 c 48 34 577 581 bf 0.643043 0.950435 0.349565 c 47 34 625 581 bf 0.516957 0.922899 0.477101 c 47 34 672 581 bf 47 34 719 581 bf 48 34 766 581 bf 0.87 1 0.12 c 47 34 814 581 bf
 0.353043 0.887101 0.642899 c 47 34 861 581 bf 0.516957 0.922899 0.477101 c 47 34 908 581 bf 0.554783 0.931159 0.438841 c 48 34 955 581 bf 0.516957 0.922899 0.477101 c 47 34 1003 581 bf 47 34 1050 581 bf 0.504348 0.920145 0.489855 c 48 34 1097 581 bf
 0.655652 0.953188 0.336812 c 47 34 1145 581 bf 0.617826 0.944928 0.375072 c 47 34 1192 581 bf 0.491739 0.917391 0.502609 c 47 34 1239 581 bf 0.378261 0.892609 0.617391 c 48 34 1286 581 bf 0.491739 0.917391 0.502609 c 47 34 1334 581 bf 0.554783
 0.931159 0.438841 c 47 34 1381 581 bf 48 34 1428 581 bf 0.226957 0.859565 0.770435 c 47 34 1476 581 bf 0.68087 0.958696 0.311304 c 47 34 1523 581 bf 0 0.518023 0.823372 c 47 34 1570 581 bf 0.521951 0.00487805 0 c 48 34 1617 581 bf 0.466522 0.911884
 0.528116 c 47 34 1665 581 bf 0.428696 0.903623 0.566377 c 47 34 1712 581 bf 0.315217 0.878841 0.681159 c 47 34 1759 581 bf 0.567391 0.933913 0.426087 c 48 34 1806 581 bf 0.378261 0.892609 0.617391 c 47 34 1854 581 bf 0.516957 0.922899 0.477101 c 47
 34 1901 581 bf 0.630435 0.947681 0.362319 c 48 34 1948 581 bf 0.592609 0.93942 0.40058 c 48 34 435 615 bf 0.529565 0.925652 0.464348 c 47 34 483 615 bf 0.592609 0.93942 0.40058 c 47 34 530 615 bf 0.516957 0.922899 0.477101 c 48 34 577 615 bf
 0.542174 0.928406 0.451594 c 47 34 625 615 bf 0.516957 0.922899 0.477101 c 47 34 672 615 bf 0.542174 0.928406 0.451594 c 47 34 719 615 bf 0.529565 0.925652 0.464348 c 48 34 766 615 bf 0.929492 0.633898 0.0650847 c 47 34 814 615 bf 0.365652 0.889855
 0.630145 c 47 34 861 615 bf 0.529565 0.925652 0.464348 c 47 34 908 615 bf 48 34 955 615 bf 0.516957 0.922899 0.477101 c 47 34 1003 615 bf 47 34 1050 615 bf 48 34 1097 615 bf 0.491739 0.917391 0.502609 c 47 34 1145 615 bf 0.504348 0.920145 0.489855 c
 47 34 1192 615 bf 0.441304 0.906377 0.553623 c 47 34 1239 615 bf 0.516957 0.922899 0.477101 c 48 34 1286 615 bf 0.567391 0.933913 0.426087 c 47 34 1334 615 bf 0.504348 0.920145 0.489855 c 47 34 1381 615 bf 0.542174 0.928406 0.451594 c 48 34 1428 615
 bf 0.327826 0.881594 0.668406 c 47 34 1476 615 bf 0.617826 0.944928 0.375072 c 47 34 1523 615 bf 0.521951 0.00487805 0 c 47 34 1570 615 bf 0 0.518023 0.823372 c 48 34 1617 615 bf 0.466522 0.911884 0.528116 c 47 34 1665 615 bf 0.302609 0.876087
 0.693913 c 47 34 1712 615 bf 0.592609 0.93942 0.40058 c 47 34 1759 615 bf 0.491739 0.917391 0.502609 c 48 34 1806 615 bf 0.466522 0.911884 0.528116 c 47 34 1854 615 bf 0.529565 0.925652 0.464348 c 47 34 1901 615 bf 0.428696 0.903623 0.566377 c 48 34
 1948 615 bf 0.567391 0.933913 0.426087 c 48 34 435 649 bf 0.516957 0.922899 0.477101 c 47 34 483 649 bf 0.416087 0.90087 0.57913 c 47 34 530 649 bf 48 34 577 649 bf 0.617826 0.944928 0.375072 c 47 34 625 649 bf 0.529565 0.925652 0.464348 c 47 34 672
 649 bf 0.491739 0.917391 0.502609 c 47 34 719 649 bf 0.529565 0.925652 0.464348 c 48 34 766 649 bf 0.516957 0.922899 0.477101 c 47 34 814 649 bf 0.592609 0.93942 0.40058 c 47 34 861 649 bf 0.516957 0.922899 0.477101 c 47 34 908 649 bf 0.529565
 0.925652 0.464348 c 48 34 955 649 bf 0.516957 0.922899 0.477101 c 47 34 1003 649 bf 0.504348 0.920145 0.489855 c 47 34 1050 649 bf 0.516957 0.922899 0.477101 c 48 34 1097 649 bf 0.529565 0.925652 0.464348 c 47 34 1145 649 bf 0.516957 0.922899
 0.477101 c 47 34 1192 649 bf 0.554783 0.931159 0.438841 c 47 34 1239 649 bf 0.567391 0.933913 0.426087 c 48 34 1286 649 bf 0.47913 0.914638 0.515362 c 47 34 1334 649 bf 47 34 1381 649 bf 0 0.753488 0.965814 c 48 34 1428 649 bf 0.252174 0.865072
 0.744928 c 47 34 1476 649 bf 0.521951 0.00487805 0 c 47 34 1523 649 bf 0.617826 0.944928 0.375072 c 47 34 1570 649 bf 0.68087 0.958696 0.311304 c 48 34 1617 649 bf 0.756522 0.975217 0.234783 c 47 34 1665 649 bf 0.68087 0.958696 0.311304 c 47 34 1712
 649 bf 0.806957 0.986232 0.183768 c 47 34 1759 649 bf 0.592609 0.93942 0.40058 c 48 34 1806 649 bf 0.630435 0.947681 0.362319 c 47 34 1854 649 bf 0.516957 0.922899 0.477101 c 47 34 1901 649 bf 0.491739 0.917391 0.502609 c 48 34 1948 649 bf 0.378261
 0.892609 0.617391 c 48 34 435 683 bf 0.491739 0.917391 0.502609 c 47 34 483 683 bf 0.327826 0.881594 0.668406 c 47 34 530 683 bf 0.18913 0.851304 0.808696 c 48 34 577 683 bf 0.516957 0.922899 0.477101 c 47 34 625 683 bf 0.529565 0.925652 0.464348 c
 47 34 672 683 bf 0.504348 0.920145 0.489855 c 47 34 719 683 bf 0.58 0.936667 0.413333 c 48 34 766 683 bf 0.176522 0.848551 0.821449 c 47 34 814 683 bf 0.668261 0.955942 0.324058 c 47 34 861 683 bf 0.516957 0.922899 0.477101 c 47 34 908 683 bf
 0.491739 0.917391 0.502609 c 48 34 955 683 bf 0.529565 0.925652 0.464348 c 47 34 1003 683 bf 0.504348 0.920145 0.489855 c 47 34 1050 683 bf 0.529565 0.925652 0.464348 c 48 34 1097 683 bf 0.453913 0.90913 0.54087 c 47 34 1145 683 bf 0.466522 0.911884
 0.528116 c 47 34 1192 683 bf 0.491739 0.917391 0.502609 c 47 34 1239 683 bf 0.693478 0.961449 0.298551 c 48 34 1286 683 bf 0.491739 0.917391 0.502609 c 47 34 1334 683 bf 0.516957 0.922899 0.477101 c 47 34 1381 683 bf 0 0.649884 0.90314 c 48 34 1428
 683 bf 0.521951 0.00487805 0 c 47 34 1476 683 bf 0.252174 0.865072 0.744928 c 47 34 1523 683 bf 0.327826 0.881594 0.668406 c 47 34 1570 683 bf 0.226957 0.859565 0.770435 c 48 34 1617 683 bf 0.743913 0.972464 0.247536 c 47 34 1665 683 bf 0.605217
 0.942174 0.387826 c 47 34 1712 683 bf 0.441304 0.906377 0.553623 c 47 34 1759 683 bf 0.516957 0.922899 0.477101 c 48 34 1806 683 bf 0.491739 0.917391 0.502609 c 47 34 1854 683 bf 0.516957 0.922899 0.477101 c 47 34 1901 683 bf 0.252174 0.865072
 0.744928 c 48 34 1948 683 bf 0.163913 0.845797 0.834203 c 48 33 435 717 bf 0.491739 0.917391 0.502609 c 47 33 483 717 bf 0.592609 0.93942 0.40058 c 47 33 530 717 bf 0 0.781744 0.982907 c 48 33 577 717 bf 0.617826 0.944928 0.375072 c 47 33 625 717 bf
 0.47913 0.914638 0.515362 c 47 33 672 717 bf 47 33 719 717 bf 0.592609 0.93942 0.40058 c 48 33 766 717 bf 0.756522 0.975217 0.234783 c 47 33 814 717 bf 0.914068 0.728814 0.079322 c 47 33 861 717 bf 0.491739 0.917391 0.502609 c 47 33 908 717 bf
 0.47913 0.914638 0.515362 c 48 33 955 717 bf 0.516957 0.922899 0.477101 c 47 33 1003 717 bf 0.504348 0.920145 0.489855 c 47 33 1050 717 bf 0.516957 0.922899 0.477101 c 48 33 1097 717 bf 0.731304 0.96971 0.26029 c 47 33 1145 717 bf 0.643043 0.950435
 0.349565 c 47 33 1192 717 bf 0.630435 0.947681 0.362319 c 47 33 1239 717 bf 0.567391 0.933913 0.426087 c 48 33 1286 717 bf 0.428696 0.903623 0.566377 c 47 33 1334 717 bf 0.504348 0.920145 0.489855 c 47 33 1381 717 bf 0.521951 0.00487805 0 c 48 33
 1428 717 bf 0 0.649884 0.90314 c 47 33 1476 717 bf 0 0.753488 0.965814 c 47 33 1523 717 bf 0.542174 0.928406 0.451594 c 47 33 1570 717 bf 0.554783 0.931159 0.438841 c 48 33 1617 717 bf 0.58 0.936667 0.413333 c 47 33 1665 717 bf 0.226957 0.859565
 0.770435 c 47 33 1712 717 bf 0.47913 0.914638 0.515362 c 47 33 1759 717 bf 0.542174 0.928406 0.451594 c 48 33 1806 717 bf 0.441304 0.906377 0.553623 c 47 33 1854 717 bf 0.453913 0.90913 0.54087 c 47 33 1901 717 bf 0.29 0.873333 0.706667 c 48 33 1948
 717 bf 0.605217 0.942174 0.387826 c 48 34 435 750 bf 0 0.772326 0.977209 c 47 34 483 750 bf 0.239565 0.862319 0.757681 c 47 34 530 750 bf 0.592609 0.93942 0.40058 c 48 34 577 750 bf 0.529565 0.925652 0.464348 c 47 34 625 750 bf 0.176522 0.848551
 0.821449 c 47 34 672 750 bf 0.504348 0.920145 0.489855 c 47 34 719 750 bf 0.516957 0.922899 0.477101 c 48 34 766 750 bf 0.47913 0.914638 0.515362 c 47 34 814 750 bf 0.592609 0.93942 0.40058 c 47 34 861 750 bf 0.47913 0.914638 0.515362 c 47 34 908
 750 bf 0.491739 0.917391 0.502609 c 48 34 955 750 bf 0.529565 0.925652 0.464348 c 47 34 1003 750 bf 0.504348 0.920145 0.489855 c 47 34 1050 750 bf 48 34 1097 750 bf 0.428696 0.903623 0.566377 c 47 34 1145 750 bf 0.453913 0.90913 0.54087 c 47 34 1192
 750 bf 0.466522 0.911884 0.528116 c 47 34 1239 750 bf 0 0.715814 0.943023 c 48 34 1286 750 bf 0.504348 0.920145 0.489855 c 47 34 1334 750 bf 0.521951 0.00487805 0 c 47 34 1381 750 bf 0.504348 0.920145 0.489855 c 48 34 1428 750 bf 0.516957 0.922899
 0.477101 c 47 34 1476 750 bf 0.47913 0.914638 0.515362 c 47 34 1523 750 bf 0.504348 0.920145 0.489855 c 47 34 1570 750 bf 0.554783 0.931159 0.438841 c 48 34 1617 750 bf 0.542174 0.928406 0.451594 c 47 34 1665 750 bf 0.466522 0.911884 0.528116 c 47
 34 1712 750 bf 0.504348 0.920145 0.489855 c 47 34 1759 750 bf 0.516957 0.922899 0.477101 c 48 34 1806 750 bf 0.491739 0.917391 0.502609 c 47 34 1854 750 bf 0.529565 0.925652 0.464348 c 47 34 1901 750 bf 0.365652 0.889855 0.630145 c 48 34 1948 750 bf
 0.693478 0.961449 0.298551 c 48 34 435 784 bf 0.529565 0.925652 0.464348 c 47 34 483 784 bf 0.892034 0.864407 0.099661 c 47 34 530 784 bf 0.743913 0.972464 0.247536 c 48 34 577 784 bf 0.58 0.936667 0.413333 c 47 34 625 784 bf 0.542174 0.928406
 0.451594 c 47 34 672 784 bf 0.453913 0.90913 0.54087 c 47 34 719 784 bf 0.47913 0.914638 0.515362 c 48 34 766 784 bf 0.542174 0.928406 0.451594 c 47 34 814 784 bf 0.403478 0.898116 0.591884 c 47 34 861 784 bf 0.504348 0.920145 0.489855 c 47 34 908
 784 bf 0.47913 0.914638 0.515362 c 48 34 955 784 bf 0.516957 0.922899 0.477101 c 47 34 1003 784 bf 0.504348 0.920145 0.489855 c 47 34 1050 784 bf 0.516957 0.922899 0.477101 c 48 34 1097 784 bf 0.504348 0.920145 0.489855 c 47 34 1145 784 bf 0.491739
 0.917391 0.502609 c 47 34 1192 784 bf 0.592609 0.93942 0.40058 c 47 34 1239 784 bf 0.617826 0.944928 0.375072 c 48 34 1286 784 bf 0.521951 0.00487805 0 c 47 34 1334 784 bf 0.504348 0.920145 0.489855 c 47 34 1381 784 bf 0.428696 0.903623 0.566377 c
 48 34 1428 784 bf 0.491739 0.917391 0.502609 c 47 34 1476 784 bf 0.47913 0.914638 0.515362 c 47 34 1523 784 bf 0.567391 0.933913 0.426087 c 47 34 1570 784 bf 0.491739 0.917391 0.502609 c 48 34 1617 784 bf 0.605217 0.942174 0.387826 c 47 34 1665 784
 bf 0.504348 0.920145 0.489855 c 47 34 1712 784 bf 0.466522 0.911884 0.528116 c 47 34 1759 784 bf 0.58 0.936667 0.413333 c 48 34 1806 784 bf 0.516957 0.922899 0.477101 c 47 34 1854 784 bf 0.466522 0.911884 0.528116 c 47 34 1901 784 bf 0.542174
 0.928406 0.451594 c 48 34 1948 784 bf 0.226957 0.859565 0.770435 c 48 34 435 818 bf 0.693478 0.961449 0.298551 c 47 34 483 818 bf 0 0.583953 0.863256 c 47 34 530 818 bf 0.126087 0.837536 0.872464 c 48 34 577 818 bf 0.340435 0.884348 0.655652 c 47 34
 625 818 bf 0.504348 0.920145 0.489855 c 47 34 672 818 bf 0.605217 0.942174 0.387826 c 47 34 719 818 bf 0.643043 0.950435 0.349565 c 48 34 766 818 bf 0.29 0.873333 0.706667 c 47 34 814 818 bf 0.542174 0.928406 0.451594 c 47 34 861 818 bf 0.453913
 0.90913 0.54087 c 47 34 908 818 bf 0.58 0.936667 0.413333 c 48 34 955 818 bf 0.504348 0.920145 0.489855 c 47 34 1003 818 bf 0.542174 0.928406 0.451594 c 47 34 1050 818 bf 0.554783 0.931159 0.438841 c 48 34 1097 818 bf 0.567391 0.933913 0.426087 c 47
 34 1145 818 bf 47 34 1192 818 bf 0.416087 0.90087 0.57913 c 47 34 1239 818 bf 0.521951 0.00487805 0 c 48 34 1286 818 bf 0.617826 0.944928 0.375072 c 47 34 1334 818 bf 0 0.715814 0.943023 c 47 34 1381 818 bf 0.567391 0.933913 0.426087 c 48 34 1428
 818 bf 0.693478 0.961449 0.298551 c 47 34 1476 818 bf 0.567391 0.933913 0.426087 c 47 34 1523 818 bf 0.516957 0.922899 0.477101 c 47 34 1570 818 bf 0.378261 0.892609 0.617391 c 48 34 1617 818 bf 0.353043 0.887101 0.642899 c 47 34 1665 818 bf
 0.743913 0.972464 0.247536 c 47 34 1712 818 bf 0.491739 0.917391 0.502609 c 47 34 1759 818 bf 0.453913 0.90913 0.54087 c 48 34 1806 818 bf 0.516957 0.922899 0.477101 c 47 34 1854 818 bf 0.617826 0.944928 0.375072 c 47 34 1901 818 bf 0.18913 0.851304
 0.808696 c 48 34 1948 818 bf 0.416087 0.90087 0.57913 c 48 34 435 852 bf 0.18913 0.851304 0.808696 c 47 34 483 852 bf 0.0756522 0.826522 0.923478 c 47 34 530 852 bf 0.327826 0.881594 0.668406 c 48 34 577 852 bf 0.47913 0.914638 0.515362 c 47 34 625
 852 bf 0.277391 0.87058 0.71942 c 47 34 672 852 bf 0.567391 0.933913 0.426087 c 47 34 719 852 bf 0.542174 0.928406 0.451594 c 48 34 766 852 bf 0.504348 0.920145 0.489855 c 47 34 814 852 bf 0.655652 0.953188 0.336812 c 47 34 861 852 bf 0.516957
 0.922899 0.477101 c 47 34 908 852 bf 0.554783 0.931159 0.438841 c 48 34 955 852 bf 0.529565 0.925652 0.464348 c 47 34 1003 852 bf 0.516957 0.922899 0.477101 c 47 34 1050 852 bf 0.504348 0.920145 0.489855 c 48 34 1097 852 bf 0.491739 0.917391
 0.502609 c 47 34 1145 852 bf 0.516957 0.922899 0.477101 c 47 34 1192 852 bf 0.521951 0.00487805 0 c 47 34 1239 852 bf 0.416087 0.90087 0.57913 c 48 34 1286 852 bf 0.592609 0.93942 0.40058 c 47 34 1334 852 bf 0.466522 0.911884 0.528116 c 47 34 1381
 852 bf 0.630435 0.947681 0.362319 c 48 34 1428 852 bf 0.491739 0.917391 0.502609 c 47 34 1476 852 bf 0.554783 0.931159 0.438841 c 47 34 1523 852 bf 0.441304 0.906377 0.553623 c 47 34 1570 852 bf 0.491739 0.917391 0.502609 c 48 34 1617 852 bf
 0.504348 0.920145 0.489855 c 47 34 1665 852 bf 0.668261 0.955942 0.324058 c 47 34 1712 852 bf 0.491739 0.917391 0.502609 c 47 34 1759 852 bf 0.504348 0.920145 0.489855 c 48 34 1806 852 bf 0.47913 0.914638 0.515362 c 47 34 1854 852 bf 0.554783
 0.931159 0.438841 c 47 34 1901 852 bf 0.529565 0.925652 0.464348 c 48 34 1948 852 bf 0.10087 0.832029 0.897971 c 48 34 435 886 bf 0.567391 0.933913 0.426087 c 47 34 483 886 bf 0.554783 0.931159 0.438841 c 47 34 530 886 bf 0.655652 0.953188 0.336812
 c 48 34 577 886 bf 0.857391 0.997246 0.132754 c 47 34 625 886 bf 0.58 0.936667 0.413333 c 47 34 672 886 bf 0.466522 0.911884 0.528116 c 47 34 719 886 bf 0.441304 0.906377 0.553623 c 48 34 766 886 bf 0.592609 0.93942 0.40058 c 47 34 814 886 bf
 0.794348 0.983478 0.196522 c 47 34 861 886 bf 0.516957 0.922899 0.477101 c 47 34 908 886 bf 0.466522 0.911884 0.528116 c 48 34 955 886 bf 0.516957 0.922899 0.477101 c 47 34 1003 886 bf 0.504348 0.920145 0.489855 c 47 34 1050 886 bf 0.516957 0.922899
 0.477101 c 48 34 1097 886 bf 0.39087 0.895362 0.604638 c 47 34 1145 886 bf 0.521951 0.00487805 0 c 47 34 1192 886 bf 0.516957 0.922899 0.477101 c 47 34 1239 886 bf 0.567391 0.933913 0.426087 c 48 34 1286 886 bf 0.491739 0.917391 0.502609 c 47 34
 1334 886 bf 0.453913 0.90913 0.54087 c 47 34 1381 886 bf 0.643043 0.950435 0.349565 c 48 34 1428 886 bf 0.466522 0.911884 0.528116 c 47 34 1476 886 bf 0.516957 0.922899 0.477101 c 47 34 1523 886 bf 0.504348 0.920145 0.489855 c 47 34 1570 886 bf
 0.617826 0.944928 0.375072 c 48 34 1617 886 bf 0.554783 0.931159 0.438841 c 47 34 1665 886 bf 0.441304 0.906377 0.553623 c 47 34 1712 886 bf 0.554783 0.931159 0.438841 c 47 34 1759 886 bf 0.529565 0.925652 0.464348 c 48 34 1806 886 bf 0.516957
 0.922899 0.477101 c 47 34 1854 886 bf 0.441304 0.906377 0.553623 c 47 34 1901 886 bf 0.504348 0.920145 0.489855 c 48 34 1948 886 bf 0.0630435 0.823768 0.936232 c 48 33 435 920 bf 0.58 0.936667 0.413333 c 47 33 483 920 bf 0.592609 0.93942 0.40058 c
 47 33 530 920 bf 0.643043 0.950435 0.349565 c 48 33 577 920 bf 0.881017 0.932203 0.109831 c 47 33 625 920 bf 0.592609 0.93942 0.40058 c 47 33 672 920 bf 0.466522 0.911884 0.528116 c 47 33 719 920 bf 0.416087 0.90087 0.57913 c 48 33 766 920 bf
 0.655652 0.953188 0.336812 c 47 33 814 920 bf 0.885424 0.905085 0.105763 c 47 33 861 920 bf 0.529565 0.925652 0.464348 c 47 33 908 920 bf 0.453913 0.90913 0.54087 c 48 33 955 920 bf 0.516957 0.922899 0.477101 c 47 33 1003 920 bf 0.504348 0.920145
 0.489855 c 47 33 1050 920 bf 0.516957 0.922899 0.477101 c 48 33 1097 920 bf 0.521951 0.00487805 0 c 47 33 1145 920 bf 0.39087 0.895362 0.604638 c 47 33 1192 920 bf 0.491739 0.917391 0.502609 c 47 33 1239 920 bf 0.567391 0.933913 0.426087 c 48 33
 1286 920 bf 0.504348 0.920145 0.489855 c 47 33 1334 920 bf 0.428696 0.903623 0.566377 c 47 33 1381 920 bf 0.731304 0.96971 0.26029 c 48 33 1428 920 bf 0.453913 0.90913 0.54087 c 47 33 1476 920 bf 0.529565 0.925652 0.464348 c 47 33 1523 920 bf
 0.491739 0.917391 0.502609 c 47 33 1570 920 bf 0.655652 0.953188 0.336812 c 48 33 1617 920 bf 0.567391 0.933913 0.426087 c 47 33 1665 920 bf 0.441304 0.906377 0.553623 c 47 33 1712 920 bf 0.58 0.936667 0.413333 c 47 33 1759 920 bf 0.516957 0.922899
 0.477101 c 48 33 1806 920 bf 47 33 1854 920 bf 0.428696 0.903623 0.566377 c 47 33 1901 920 bf 0.504348 0.920145 0.489855 c 48 33 1948 920 bf 0.516957 0.922899 0.477101 c 48 34 435 953 bf 0.940508 0.566102 0.0549153 c 47 34 483 953 bf 0.453913
 0.90913 0.54087 c 47 34 530 953 bf 0.491739 0.917391 0.502609 c 48 34 577 953 bf 0.504348 0.920145 0.489855 c 47 34 625 953 bf 0.68087 0.958696 0.311304 c 47 34 672 953 bf 0.504348 0.920145 0.489855 c 47 34 719 953 bf 0.529565 0.925652 0.464348 c 48
 34 766 953 bf 0.504348 0.920145 0.489855 c 47 34 814 953 bf 47 34 861 953 bf 0.592609 0.93942 0.40058 c 47 34 908 953 bf 0.516957 0.922899 0.477101 c 48 34 955 953 bf 0.466522 0.911884 0.528116 c 47 34 1003 953 bf 0.516957 0.922899 0.477101 c 47 34
 1050 953 bf 0.521951 0.00487805 0 c 48 34 1097 953 bf 0.516957 0.922899 0.477101 c 47 34 1145 953 bf 47 34 1192 953 bf 0.504348 0.920145 0.489855 c 47 34 1239 953 bf 0.554783 0.931159 0.438841 c 48 34 1286 953 bf 0.516957 0.922899 0.477101 c 47 34
 1334 953 bf 0.504348 0.920145 0.489855 c 47 34 1381 953 bf 0.516957 0.922899 0.477101 c 48 34 1428 953 bf 0.529565 0.925652 0.464348 c 47 34 1476 953 bf 0.516957 0.922899 0.477101 c 47 34 1523 953 bf 47 34 1570 953 bf 0.504348 0.920145 0.489855 c 48
 34 1617 953 bf 0.516957 0.922899 0.477101 c 47 34 1665 953 bf 0.529565 0.925652 0.464348 c 47 34 1712 953 bf 0.504348 0.920145 0.489855 c 47 34 1759 953 bf 0.516957 0.922899 0.477101 c 48 34 1806 953 bf 47 34 1854 953 bf 0.529565 0.925652 0.464348 c
 47 34 1901 953 bf 0.491739 0.917391 0.502609 c 48 34 1948 953 bf 0.453913 0.90913 0.54087 c 48 34 435 987 bf 0.516957 0.922899 0.477101 c 47 34 483 987 bf 0.504348 0.920145 0.489855 c 47 34 530 987 bf 0.567391 0.933913 0.426087 c 48 34 577 987 bf
 0.516957 0.922899 0.477101 c 47 34 625 987 bf 0.529565 0.925652 0.464348 c 47 34 672 987 bf 0.504348 0.920145 0.489855 c 47 34 719 987 bf 48 34 766 987 bf 47 34 814 987 bf 47 34 861 987 bf 0.516957 0.922899 0.477101 c 47 34 908 987 bf 0.504348
 0.920145 0.489855 c 48 34 955 987 bf 0.516957 0.922899 0.477101 c 47 34 1003 987 bf 0.521951 0.00487805 0 c 47 34 1050 987 bf 0.516957 0.922899 0.477101 c 48 34 1097 987 bf 0.504348 0.920145 0.489855 c 47 34 1145 987 bf 47 34 1192 987 bf 0.516957
 0.922899 0.477101 c 47 34 1239 987 bf 0.542174 0.928406 0.451594 c 48 34 1286 987 bf 0.504348 0.920145 0.489855 c 47 34 1334 987 bf 47 34 1381 987 bf 48 34 1428 987 bf 47 34 1476 987 bf 47 34 1523 987 bf 0.516957 0.922899 0.477101 c 47 34 1570 987
 bf 48 34 1617 987 bf 0.542174 0.928406 0.451594 c 47 34 1665 987 bf 0.491739 0.917391 0.502609 c 47 34 1712 987 bf 0.504348 0.920145 0.489855 c 47 34 1759 987 bf 0.529565 0.925652 0.464348 c 48 34 1806 987 bf 0.516957 0.922899 0.477101 c 47 34 1854
 987 bf 0.504348 0.920145 0.489855 c 47 34 1901 987 bf 0.516957 0.922899 0.477101 c 48 34 1948 987 bf 48 34 435 1021 bf 0.794348 0.983478 0.196522 c 47 34 483 1021 bf 0.47913 0.914638 0.515362 c 47 34 530 1021 bf 0.491739 0.917391 0.502609 c 48 34
 577 1021 bf 0.516957 0.922899 0.477101 c 47 34 625 1021 bf 0.878814 0.945763 0.111864 c 47 34 672 1021 bf 0.504348 0.920145 0.489855 c 47 34 719 1021 bf 0.529565 0.925652 0.464348 c 48 34 766 1021 bf 0.516957 0.922899 0.477101 c 47 34 814 1021 bf 47
 34 861 1021 bf 47 34 908 1021 bf 48 34 955 1021 bf 0.521951 0.00487805 0 c 47 34 1003 1021 bf 0.516957 0.922899 0.477101 c 47 34 1050 1021 bf 0.466522 0.911884 0.528116 c 48 34 1097 1021 bf 0.516957 0.922899 0.477101 c 47 34 1145 1021 bf 47 34 1192
 1021 bf 0.529565 0.925652 0.464348 c 47 34 1239 1021 bf 0.504348 0.920145 0.489855 c 48 34 1286 1021 bf 0.516957 0.922899 0.477101 c 47 34 1334 1021 bf 0.529565 0.925652 0.464348 c 47 34 1381 1021 bf 0.516957 0.922899 0.477101 c 48 34 1428 1021 bf
 0.529565 0.925652 0.464348 c 47 34 1476 1021 bf 0.516957 0.922899 0.477101 c 47 34 1523 1021 bf 47 34 1570 1021 bf 48 34 1617 1021 bf 47 34 1665 1021 bf 47 34 1712 1021 bf 47 34 1759 1021 bf 48 34 1806 1021 bf 47 34 1854 1021 bf 0.529565 0.925652
 0.464348 c 47 34 1901 1021 bf 0.504348 0.920145 0.489855 c 48 34 1948 1021 bf 0 0.772326 0.977209 c 48 34 435 1055 bf 0.529565 0.925652 0.464348 c 47 34 483 1055 bf 0.47913 0.914638 0.515362 c 47 34 530 1055 bf 0.68087 0.958696 0.311304 c 48 34 577
 1055 bf 0.911864 0.742373 0.0813559 c 47 34 625 1055 bf 0.542174 0.928406 0.451594 c 47 34 672 1055 bf 0.47913 0.914638 0.515362 c 47 34 719 1055 bf 0.466522 0.911884 0.528116 c 48 34 766 1055 bf 0.516957 0.922899 0.477101 c 47 34 814 1055 bf
 0.554783 0.931159 0.438841 c 47 34 861 1055 bf 0.516957 0.922899 0.477101 c 47 34 908 1055 bf 0.521951 0.00487805 0 c 48 34 955 1055 bf 0.516957 0.922899 0.477101 c 47 34 1003 1055 bf 0.504348 0.920145 0.489855 c 47 34 1050 1055 bf 0.516957 0.922899
 0.477101 c 48 34 1097 1055 bf 0.453913 0.90913 0.54087 c 47 34 1145 1055 bf 0.466522 0.911884 0.528116 c 47 34 1192 1055 bf 0.554783 0.931159 0.438841 c 47 34 1239 1055 bf 0.58 0.936667 0.413333 c 48 34 1286 1055 bf 0.47913 0.914638 0.515362 c 47 34
 1334 1055 bf 0.491739 0.917391 0.502609 c 47 34 1381 1055 bf 0.47913 0.914638 0.515362 c 48 34 1428 1055 bf 0.491739 0.917391 0.502609 c 47 34 1476 1055 bf 0.529565 0.925652 0.464348 c 47 34 1523 1055 bf 47 34 1570 1055 bf 0.554783 0.931159 0.438841
 c 48 34 1617 1055 bf 0.453913 0.90913 0.54087 c 47 34 1665 1055 bf 0.428696 0.903623 0.566377 c 47 34 1712 1055 bf 0.542174 0.928406 0.451594 c 47 34 1759 1055 bf 0.47913 0.914638 0.515362 c 48 34 1806 1055 bf 0.529565 0.925652 0.464348 c 47 34 1854
 1055 bf 0.47913 0.914638 0.515362 c 47 34 1901 1055 bf 0.516957 0.922899 0.477101 c 48 34 1948 1055 bf 0.529565 0.925652 0.464348 c 48 34 435 1089 bf 0.988983 0.267797 0.0101695 c 47 34 483 1089 bf 0.441304 0.906377 0.553623 c 47 34 530 1089 bf
 0.542174 0.928406 0.451594 c 48 34 577 1089 bf 47 34 625 1089 bf 0.796829 0.117073 0 c 47 34 672 1089 bf 0.516957 0.922899 0.477101 c 47 34 719 1089 bf 48 34 766 1089 bf 0.529565 0.925652 0.464348 c 47 34 814 1089 bf 0.554783 0.931159 0.438841 c 47
 34 861 1089 bf 0.521951 0.00487805 0 c 47 34 908 1089 bf 0.516957 0.922899 0.477101 c 48 34 955 1089 bf 47 34 1003 1089 bf 47 34 1050 1089 bf 0.592609 0.93942 0.40058 c 48 34 1097 1089 bf 0.529565 0.925652 0.464348 c 47 34 1145 1089 bf 0.516957
 0.922899 0.477101 c 47 34 1192 1089 bf 47 34 1239 1089 bf 0.453913 0.90913 0.54087 c 48 34 1286 1089 bf 0.504348 0.920145 0.489855 c 47 34 1334 1089 bf 0.47913 0.914638 0.515362 c 47 34 1381 1089 bf 0.491739 0.917391 0.502609 c 48 34 1428 1089 bf
 0.516957 0.922899 0.477101 c 47 34 1476 1089 bf 47 34 1523 1089 bf 0.529565 0.925652 0.464348 c 47 34 1570 1089 bf 0.516957 0.922899 0.477101 c 48 34 1617 1089 bf 0.529565 0.925652 0.464348 c 47 34 1665 1089 bf 0.504348 0.920145 0.489855 c 47 34
 1712 1089 bf 0.542174 0.928406 0.451594 c 47 34 1759 1089 bf 0.529565 0.925652 0.464348 c 48 34 1806 1089 bf 47 34 1854 1089 bf 0.516957 0.922899 0.477101 c 47 34 1901 1089 bf 48 34 1948 1089 bf 0 0.725233 0.948721 c 48 33 435 1123 bf 0.466522
 0.911884 0.528116 c 47 33 483 1123 bf 0.365652 0.889855 0.630145 c 47 33 530 1123 bf 0.340435 0.884348 0.655652 c 48 33 577 1123 bf 0.911864 0.742373 0.0813559 c 47 33 625 1123 bf 0.592609 0.93942 0.40058 c 47 33 672 1123 bf 0.504348 0.920145
 0.489855 c 47 33 719 1123 bf 0.302609 0.876087 0.693913 c 48 33 766 1123 bf 0.47913 0.914638 0.515362 c 47 33 814 1123 bf 0.521951 0.00487805 0 c 47 33 861 1123 bf 0.554783 0.931159 0.438841 c 47 33 908 1123 bf 48 33 955 1123 bf 0.516957 0.922899
 0.477101 c 47 33 1003 1123 bf 0.504348 0.920145 0.489855 c 47 33 1050 1123 bf 48 33 1097 1123 bf 0.885424 0.905085 0.105763 c 47 33 1145 1123 bf 0.794348 0.983478 0.196522 c 47 33 1192 1123 bf 0.655652 0.953188 0.336812 c 47 33 1239 1123 bf 0.542174
 0.928406 0.451594 c 48 33 1286 1123 bf 0.403478 0.898116 0.591884 c 47 33 1334 1123 bf 0.592609 0.93942 0.40058 c 47 33 1381 1123 bf 0.914068 0.728814 0.079322 c 48 33 1428 1123 bf 0.668261 0.955942 0.324058 c 47 33 1476 1123 bf 0.592609 0.93942
 0.40058 c 47 33 1523 1123 bf 0.365652 0.889855 0.630145 c 47 33 1570 1123 bf 0.353043 0.887101 0.642899 c 48 33 1617 1123 bf 0.87 1 0.12 c 47 33 1665 1123 bf 0.554783 0.931159 0.438841 c 47 33 1712 1123 bf 0.806957 0.986232 0.183768 c 47 33 1759
 1123 bf 0.643043 0.950435 0.349565 c 48 33 1806 1123 bf 0.58 0.936667 0.413333 c 47 33 1854 1123 bf 0.378261 0.892609 0.617391 c 47 33 1901 1123 bf 0.10087 0.832029 0.897971 c 48 33 1948 1123 bf 0.874407 0.972881 0.115932 c 48 34 435 1156 bf
 0.554783 0.931159 0.438841 c 47 34 483 1156 bf 0.693478 0.961449 0.298551 c 47 34 530 1156 bf 0.668261 0.955942 0.324058 c 48 34 577 1156 bf 0.466522 0.911884 0.528116 c 47 34 625 1156 bf 0.516957 0.922899 0.477101 c 47 34 672 1156 bf 0.529565
 0.925652 0.464348 c 47 34 719 1156 bf 0.491739 0.917391 0.502609 c 48 34 766 1156 bf 0.521951 0.00487805 0 c 47 34 814 1156 bf 0.47913 0.914638 0.515362 c 47 34 861 1156 bf 0.529565 0.925652 0.464348 c 47 34 908 1156 bf 0.516957 0.922899 0.477101 c
 48 34 955 1156 bf 47 34 1003 1156 bf 0.504348 0.920145 0.489855 c 47 34 1050 1156 bf 48 34 1097 1156 bf 0.655652 0.953188 0.336812 c 47 34 1145 1156 bf 0.592609 0.93942 0.40058 c 47 34 1192 1156 bf 0.504348 0.920145 0.489855 c 47 34 1239 1156 bf
 0.29 0.873333 0.706667 c 48 34 1286 1156 bf 0.542174 0.928406 0.451594 c 47 34 1334 1156 bf 0.47913 0.914638 0.515362 c 47 34 1381 1156 bf 0.756522 0.975217 0.234783 c 48 34 1428 1156 bf 0.176522 0.848551 0.821449 c 47 34 1476 1156 bf 0.516957
 0.922899 0.477101 c 47 34 1523 1156 bf 0.929492 0.633898 0.0650847 c 47 34 1570 1156 bf 0.87 1 0.12 c 48 34 1617 1156 bf 0.819565 0.988985 0.171014 c 47 34 1665 1156 bf 0 0.81 1 c 47 34 1712 1156 bf 0.416087 0.90087 0.57913 c 47 34 1759 1156 bf
 0.39087 0.895362 0.604638 c 48 34 1806 1156 bf 0.327826 0.881594 0.668406 c 47 34 1854 1156 bf 0.542174 0.928406 0.451594 c 47 34 1901 1156 bf 0.894237 0.850847 0.0976271 c 48 34 1948 1156 bf 0.643043 0.950435 0.349565 c 48 34 435 1190 bf 0.542174
 0.928406 0.451594 c 47 34 483 1190 bf 0.428696 0.903623 0.566377 c 47 34 530 1190 bf 0 0.800581 0.994302 c 48 34 577 1190 bf 0.378261 0.892609 0.617391 c 47 34 625 1190 bf 0.567391 0.933913 0.426087 c 47 34 672 1190 bf 0.47913 0.914638 0.515362 c 47
 34 719 1190 bf 0.521951 0.00487805 0 c 48 34 766 1190 bf 0.491739 0.917391 0.502609 c 47 34 814 1190 bf 0.302609 0.876087 0.693913 c 47 34 861 1190 bf 0.516957 0.922899 0.477101 c 47 34 908 1190 bf 0.466522 0.911884 0.528116 c 48 34 955 1190 bf
 0.529565 0.925652 0.464348 c 47 34 1003 1190 bf 0.504348 0.920145 0.489855 c 47 34 1050 1190 bf 0.529565 0.925652 0.464348 c 48 34 1097 1190 bf 0.416087 0.90087 0.57913 c 47 34 1145 1190 bf 0.441304 0.906377 0.553623 c 47 34 1192 1190 bf 0.542174
 0.928406 0.451594 c 47 34 1239 1190 bf 0.643043 0.950435 0.349565 c 48 34 1286 1190 bf 0.47913 0.914638 0.515362 c 47 34 1334 1190 bf 0.516957 0.922899 0.477101 c 47 34 1381 1190 bf 0.592609 0.93942 0.40058 c 48 34 1428 1190 bf 0.58 0.936667
 0.413333 c 47 34 1476 1190 bf 0.529565 0.925652 0.464348 c 47 34 1523 1190 bf 47 34 1570 1190 bf 0.516957 0.922899 0.477101 c 48 34 1617 1190 bf 0.542174 0.928406 0.451594 c 47 34 1665 1190 bf 0.378261 0.892609 0.617391 c 47 34 1712 1190 bf 0.441304
 0.906377 0.553623 c 47 34 1759 1190 bf 0.529565 0.925652 0.464348 c 48 34 1806 1190 bf 0.47913 0.914638 0.515362 c 47 34 1854 1190 bf 0.453913 0.90913 0.54087 c 47 34 1901 1190 bf 0.605217 0.942174 0.387826 c 48 34 1948 1190 bf 0.68087 0.958696
 0.311304 c 48 34 435 1224 bf 0.302609 0.876087 0.693913 c 47 34 483 1224 bf 0.113478 0.834783 0.885217 c 47 34 530 1224 bf 0.163913 0.845797 0.834203 c 48 34 577 1224 bf 0.504348 0.920145 0.489855 c 47 34 625 1224 bf 0.315217 0.878841 0.681159 c 47
 34 672 1224 bf 0.521951 0.00487805 0 c 47 34 719 1224 bf 0.47913 0.914638 0.515362 c 48 34 766 1224 bf 0.529565 0.925652 0.464348 c 47 34 814 1224 bf 0.504348 0.920145 0.489855 c 47 34 861 1224 bf 0.516957 0.922899 0.477101 c 47 34 908 1224 bf
 0.47913 0.914638 0.515362 c 48 34 955 1224 bf 0.504348 0.920145 0.489855 c 47 34 1003 1224 bf 47 34 1050 1224 bf 48 34 1097 1224 bf 0.466522 0.911884 0.528116 c 47 34 1145 1224 bf 47 34 1192 1224 bf 0.567391 0.933913 0.426087 c 47 34 1239 1224 bf
 0.605217 0.942174 0.387826 c 48 34 1286 1224 bf 0.453913 0.90913 0.54087 c 47 34 1334 1224 bf 0.504348 0.920145 0.489855 c 47 34 1381 1224 bf 0.47913 0.914638 0.515362 c 48 34 1428 1224 bf 0.504348 0.920145 0.489855 c 47 34 1476 1224 bf 0.491739
 0.917391 0.502609 c 47 34 1523 1224 bf 0.542174 0.928406 0.451594 c 47 34 1570 1224 bf 0.516957 0.922899 0.477101 c 48 34 1617 1224 bf 0.567391 0.933913 0.426087 c 47 34 1665 1224 bf 0.378261 0.892609 0.617391 c 47 34 1712 1224 bf 0.47913 0.914638
 0.515362 c 47 34 1759 1224 bf 0.567391 0.933913 0.426087 c 48 34 1806 1224 bf 0.504348 0.920145 0.489855 c 47 34 1854 1224 bf 0.466522 0.911884 0.528116 c 47 34 1901 1224 bf 0.504348 0.920145 0.489855 c 48 34 1948 1224 bf 0.428696 0.903623 0.566377
 c 48 34 435 1258 bf 0.844634 0.136585 0 c 47 34 483 1258 bf 0.756522 0.975217 0.234783 c 47 34 530 1258 bf 0.76913 0.977971 0.222029 c 48 34 577 1258 bf 0.605217 0.942174 0.387826 c 47 34 625 1258 bf 0.521951 0.00487805 0 c 47 34 672 1258 bf
 0.315217 0.878841 0.681159 c 47 34 719 1258 bf 0.567391 0.933913 0.426087 c 48 34 766 1258 bf 0.516957 0.922899 0.477101 c 47 34 814 1258 bf 0.592609 0.93942 0.40058 c 47 34 861 1258 bf 0.796829 0.117073 0 c 47 34 908 1258 bf 0.542174 0.928406
 0.451594 c 48 34 955 1258 bf 0.878814 0.945763 0.111864 c 47 34 1003 1258 bf 0.529565 0.925652 0.464348 c 47 34 1050 1258 bf 0.68087 0.958696 0.311304 c 48 34 1097 1258 bf 0.592609 0.93942 0.40058 c 47 34 1145 1258 bf 0.58 0.936667 0.413333 c 47 34
 1192 1258 bf 0.277391 0.87058 0.71942 c 47 34 1239 1258 bf 0.504348 0.920145 0.489855 c 48 34 1286 1258 bf 0.542174 0.928406 0.451594 c 47 34 1334 1258 bf 0.176522 0.848551 0.821449 c 47 34 1381 1258 bf 0.47913 0.914638 0.515362 c 48 34 1428 1258 bf
 0.529565 0.925652 0.464348 c 47 34 1476 1258 bf 47 34 1523 1258 bf 0.516957 0.922899 0.477101 c 47 34 1570 1258 bf 48 34 1617 1258 bf 0.47913 0.914638 0.515362 c 47 34 1665 1258 bf 0.592609 0.93942 0.40058 c 47 34 1712 1258 bf 47 34 1759 1258 bf
 0.504348 0.920145 0.489855 c 48 34 1806 1258 bf 0.542174 0.928406 0.451594 c 47 34 1854 1258 bf 0.264783 0.867826 0.732174 c 47 34 1901 1258 bf 0.554783 0.931159 0.438841 c 48 34 1948 1258 bf 0 0.508605 0.817674 c 48 34 435 1292 bf 0.554783 0.931159
 0.438841 c 47 34 483 1292 bf 0.76913 0.977971 0.222029 c 47 34 530 1292 bf 0.743913 0.972464 0.247536 c 48 34 577 1292 bf 0.521951 0.00487805 0 c 47 34 625 1292 bf 0.605217 0.942174 0.387826 c 47 34 672 1292 bf 0.504348 0.920145 0.489855 c 47 34 719
 1292 bf 0.378261 0.892609 0.617391 c 48 34 766 1292 bf 0.466522 0.911884 0.528116 c 47 34 814 1292 bf 0.911864 0.742373 0.0813559 c 47 34 861 1292 bf 0.542174 0.928406 0.451594 c 47 34 908 1292 bf 0.911864 0.742373 0.0813559 c 48 34 955 1292 bf
 0.516957 0.922899 0.477101 c 47 34 1003 1292 bf 47 34 1050 1292 bf 0.504348 0.920145 0.489855 c 48 34 1097 1292 bf 0.881017 0.932203 0.109831 c 47 34 1145 1292 bf 0.857391 0.997246 0.132754 c 47 34 1192 1292 bf 0.47913 0.914638 0.515362 c 47 34 1239
 1292 bf 0.340435 0.884348 0.655652 c 48 34 1286 1292 bf 0.58 0.936667 0.413333 c 47 34 1334 1292 bf 0.529565 0.925652 0.464348 c 47 34 1381 1292 bf 0.617826 0.944928 0.375072 c 48 34 1428 1292 bf 0.516957 0.922899 0.477101 c 47 34 1476 1292 bf
 0.617826 0.944928 0.375072 c 47 34 1523 1292 bf 0.542174 0.928406 0.451594 c 47 34 1570 1292 bf 0.643043 0.950435 0.349565 c 48 34 1617 1292 bf 0.39087 0.895362 0.604638 c 47 34 1665 1292 bf 0.403478 0.898116 0.591884 c 47 34 1712 1292 bf 0.668261
 0.955942 0.324058 c 47 34 1759 1292 bf 0.988983 0.267797 0.0101695 c 48 34 1806 1292 bf 0.554783 0.931159 0.438841 c 47 34 1854 1292 bf 0.428696 0.903623 0.566377 c 47 34 1901 1292 bf 0.327826 0.881594 0.668406 c 48 34 1948 1292 bf 0.567391 0.933913
 0.426087 c 48 33 435 1326 bf 0.68087 0.958696 0.311304 c 47 33 483 1326 bf 0.916271 0.715254 0.0772881 c 47 33 530 1326 bf 0.521951 0.00487805 0 c 48 33 577 1326 bf 0.743913 0.972464 0.247536 c 47 33 625 1326 bf 0.76913 0.977971 0.222029 c 47 33 672
 1326 bf 0.163913 0.845797 0.834203 c 47 33 719 1326 bf 0 0.800581 0.994302 c 48 33 766 1326 bf 0.668261 0.955942 0.324058 c 47 33 814 1326 bf 0.340435 0.884348 0.655652 c 47 33 861 1326 bf 0.542174 0.928406 0.451594 c 47 33 908 1326 bf 0.68087
 0.958696 0.311304 c 48 33 955 1326 bf 0.491739 0.917391 0.502609 c 47 33 1003 1326 bf 0.567391 0.933913 0.426087 c 47 33 1050 1326 bf 0.491739 0.917391 0.502609 c 48 33 1097 1326 bf 0.643043 0.950435 0.349565 c 47 33 1145 1326 bf 0.655652 0.953188
 0.336812 c 47 33 1192 1326 bf 0.327826 0.881594 0.668406 c 47 33 1239 1326 bf 0.126087 0.837536 0.872464 c 48 33 1286 1326 bf 0.743913 0.972464 0.247536 c 47 33 1334 1326 bf 0.592609 0.93942 0.40058 c 47 33 1381 1326 bf 0 0.781744 0.982907 c 48 33
 1428 1326 bf 0.18913 0.851304 0.808696 c 47 33 1476 1326 bf 0.416087 0.90087 0.57913 c 47 33 1523 1326 bf 0.516957 0.922899 0.477101 c 47 33 1570 1326 bf 0.781739 0.980725 0.209275 c 48 33 1617 1326 bf 0.10087 0.832029 0.897971 c 47 33 1665 1326 bf
 0.874407 0.972881 0.115932 c 47 33 1712 1326 bf 0.58 0.936667 0.413333 c 47 33 1759 1326 bf 0.416087 0.90087 0.57913 c 48 33 1806 1326 bf 0.567391 0.933913 0.426087 c 47 33 1854 1326 bf 0.138696 0.84029 0.85971 c 47 33 1901 1326 bf 0.731304 0.96971
 0.26029 c 48 33 1948 1326 bf 0.668261 0.955942 0.324058 c 48 34 435 1359 bf 0.781739 0.980725 0.209275 c 47 34 483 1359 bf 0.521951 0.00487805 0 c 47 34 530 1359 bf 0.916271 0.715254 0.0772881 c 48 34 577 1359 bf 0.76913 0.977971 0.222029 c 47 34
 625 1359 bf 0.756522 0.975217 0.234783 c 47 34 672 1359 bf 0.113478 0.834783 0.885217 c 47 34 719 1359 bf 0.428696 0.903623 0.566377 c 48 34 766 1359 bf 0.693478 0.961449 0.298551 c 47 34 814 1359 bf 0.365652 0.889855 0.630145 c 47 34 861 1359 bf
 0.441304 0.906377 0.553623 c 47 34 908 1359 bf 0.47913 0.914638 0.515362 c 48 34 955 1359 bf 47 34 1003 1359 bf 0.504348 0.920145 0.489855 c 47 34 1050 1359 bf 0.453913 0.90913 0.54087 c 48 34 1097 1359 bf 0.592609 0.93942 0.40058 c 47 34 1145 1359
 bf 0.554783 0.931159 0.438841 c 47 34 1192 1359 bf 0.0756522 0.826522 0.923478 c 47 34 1239 1359 bf 0 0.583953 0.863256 c 48 34 1286 1359 bf 0.892034 0.864407 0.099661 c 47 34 1334 1359 bf 0.239565 0.862319 0.757681 c 47 34 1381 1359 bf 0.592609
 0.93942 0.40058 c 48 34 1428 1359 bf 0.327826 0.881594 0.668406 c 47 34 1476 1359 bf 0.416087 0.90087 0.57913 c 47 34 1523 1359 bf 0.592609 0.93942 0.40058 c 47 34 1570 1359 bf 48 34 1617 1359 bf 47 34 1665 1359 bf 0.428696 0.903623 0.566377 c 47 34
 1712 1359 bf 0.504348 0.920145 0.489855 c 47 34 1759 1359 bf 0.554783 0.931159 0.438841 c 48 34 1806 1359 bf 47 34 1854 1359 bf 0.10087 0.832029 0.897971 c 47 34 1901 1359 bf 0.668261 0.955942 0.324058 c 48 34 1948 1359 bf 0.491739 0.917391 0.502609
 c 48 34 435 1393 bf 0.521951 0.00487805 0 c 47 34 483 1393 bf 0.781739 0.980725 0.209275 c 47 34 530 1393 bf 0.68087 0.958696 0.311304 c 48 34 577 1393 bf 0.554783 0.931159 0.438841 c 47 34 625 1393 bf 0.844634 0.136585 0 c 47 34 672 1393 bf
 0.302609 0.876087 0.693913 c 47 34 719 1393 bf 0.542174 0.928406 0.451594 c 48 34 766 1393 bf 0.554783 0.931159 0.438841 c 47 34 814 1393 bf 0.466522 0.911884 0.528116 c 47 34 861 1393 bf 0.988983 0.267797 0.0101695 c 47 34 908 1393 bf 0.529565
 0.925652 0.464348 c 48 34 955 1393 bf 0.794348 0.983478 0.196522 c 47 34 1003 1393 bf 0.516957 0.922899 0.477101 c 47 34 1050 1393 bf 0.940508 0.566102 0.0549153 c 48 34 1097 1393 bf 0.58 0.936667 0.413333 c 47 34 1145 1393 bf 0.567391 0.933913
 0.426087 c 47 34 1192 1393 bf 0.18913 0.851304 0.808696 c 47 34 1239 1393 bf 0.693478 0.961449 0.298551 c 48 34 1286 1393 bf 0.529565 0.925652 0.464348 c 47 34 1334 1393 bf 0 0.772326 0.977209 c 47 34 1381 1393 bf 0.491739 0.917391 0.502609 c 48 34
 1428 1393 bf 47 34 1476 1393 bf 0.516957 0.922899 0.477101 c 47 34 1523 1393 bf 0.529565 0.925652 0.464348 c 47 34 1570 1393 bf 0.516957 0.922899 0.477101 c 48 34 1617 1393 bf 0.491739 0.917391 0.502609 c 47 34 1665 1393 bf 0.542174 0.928406
 0.451594 c 47 34 1712 1393 bf 47 34 1759 1393 bf 0.504348 0.920145 0.489855 c 48 34 1806 1393 bf 0.542174 0.928406 0.451594 c 47 34 1854 1393 bf 0.428696 0.903623 0.566377 c 47 34 1901 1393 bf 0.643043 0.950435 0.349565 c 48 34 1948 1393 bf 0.521951
 0.00487805 0 c 48 34 435 1427 bf 0.491739 0.917391 0.502609 c 47 34 483 1427 bf 0.668261 0.955942 0.324058 c 47 34 530 1427 bf 0.567391 0.933913 0.426087 c 48 34 577 1427 bf 0 0.508605 0.817674 c 47 34 625 1427 bf 0.428696 0.903623 0.566377 c 47 34
 672 1427 bf 0.68087 0.958696 0.311304 c 47 34 719 1427 bf 0.643043 0.950435 0.349565 c 48 34 766 1427 bf 0.874407 0.972881 0.115932 c 47 34 814 1427 bf 0 0.725233 0.948721 c 47 34 861 1427 bf 0.529565 0.925652 0.464348 c 47 34 908 1427 bf 0 0.772326
 0.977209 c 48 34 955 1427 bf 0.516957 0.922899 0.477101 c 47 34 1003 1427 bf 0.453913 0.90913 0.54087 c 47 34 1050 1427 bf 0.516957 0.922899 0.477101 c 48 34 1097 1427 bf 0.0630435 0.823768 0.936232 c 47 34 1145 1427 bf 0.10087 0.832029 0.897971 c
 47 34 1192 1427 bf 0.416087 0.90087 0.57913 c 47 34 1239 1427 bf 0.226957 0.859565 0.770435 c 48 34 1286 1427 bf 0.693478 0.961449 0.298551 c 47 34 1334 1427 bf 0.605217 0.942174 0.387826 c 47 34 1381 1427 bf 0.163913 0.845797 0.834203 c 48 34 1428
 1427 bf 0.378261 0.892609 0.617391 c 47 34 1476 1427 bf 0.567391 0.933913 0.426087 c 47 34 1523 1427 bf 0.592609 0.93942 0.40058 c 47 34 1570 1427 bf 48 34 1617 1427 bf 0.958136 0.457627 0.0386441 c 47 34 1665 1427 bf 0.163913 0.845797 0.834203 c 47
 34 1712 1427 bf 0.340435 0.884348 0.655652 c 47 34 1759 1427 bf 0.0882609 0.829275 0.910725 c 48 34 1806 1427 bf 0.416087 0.90087 0.57913 c 47 34 1854 1427 bf 0.731304 0.96971 0.26029 c 47 34 1901 1427 bf 0.857391 0.997246 0.132754 c 48 34 1948 1427
 bf 1 1 1 c black 435 344 m 1561 X s
 gsave  2268 1538 0 0 C 465.925 120.554 t 90 r /Helvetica findfont 29.3239 sf 0 0 m (norm_Wmerged) show NC gr 
 gsave  2268 1538 0 0 C 514.798 202.009 t 90 r /Helvetica findfont 29.3239 sf 0 0 m (norm_Zhf) show NC gr 
 gsave  2268 1538 0 0 C 560.413 211.784 t 90 r /Helvetica findfont 29.3239 sf 0 0 m (norm_Zlf) show NC gr 
 gsave  2268 1538 0 0 C 609.286 130.329 t 90 r /Helvetica findfont 29.3239 sf 0 0 m (norm_Zmerged) show NC gr 
 gsave  2268 1538 0 0 C 654.901 120.554 t 90 r /Helvetica findfont 29.3239 sf 0 0 m (norm_ttbar0Lep) show NC gr 
 gsave  2268 1538 0 0 C 703.774 120.554 t 90 r /Helvetica findfont 29.3239 sf 0 0 m (norm_ttbar2Lep) show NC gr 
 gsave  2268 1538 0 0 C 749.389 -289.981 t 90 r /Helvetica findfont 29.3239 sf 0 0 m (EL_EFF_ID_TOTAL_1NPCOR_PLUS_UNCOR) show NC gr 
 gsave  2268 1538 0 0 C 798.262 -299.756 t 90 r /Helvetica findfont 29.3239 sf 0 0 m (EL_EFF_Iso_TOTAL_1NPCOR_PLUS_UNCOR) show NC gr 
 gsave  2268 1538 0 0 C 843.877 91.23 t 90 r /Helvetica findfont 29.3239 sf 0 0 m (FATJET_ZV_D2R) show NC gr 
 gsave  2268 1538 0 0 C 892.75 91.23 t 90 r /Helvetica findfont 29.3239 sf 0 0 m (FATJET_ZV_JMR) show NC gr 
 gsave  2268 1538 0 0 C 938.365 61.9061 t 90 r /Helvetica findfont 29.3239 sf 0 0 m (FT_EFF_Eigen_B_0) show NC gr 
 gsave  2268 1538 0 0 C 987.239 -52.1314 t 90 r /Helvetica findfont 29.3239 sf 0 0 m (FT_EFF_Eigen_B_0_TrkJets) show NC gr 
 gsave  2268 1538 0 0 C 1036.11 65.1643 t 90 r /Helvetica findfont 29.3239 sf 0 0 m (FT_EFF_Eigen_B_1) show NC gr 
 gsave  2268 1538 0 0 C 1081.73 -52.1314 t 90 r /Helvetica findfont 29.3239 sf 0 0 m (FT_EFF_Eigen_B_1_TrkJets) show NC gr 
 gsave  2268 1538 0 0 C 1130.6 58.6478 t 90 r /Helvetica findfont 29.3239 sf 0 0 m (FT_EFF_Eigen_C_0) show NC gr 
 gsave  2268 1538 0 0 C 1176.22 -52.1314 t 90 r /Helvetica findfont 29.3239 sf 0 0 m (FT_EFF_Eigen_C_0_TrkJets) show NC gr 
 gsave  2268 1538 0 0 C 1225.09 -94.4882 t 90 r /Helvetica findfont 29.3239 sf 0 0 m (FT_EFF_Eigen_Light_0_TrkJets) show NC gr 
 gsave  2268 1538 0 0 C 1270.7 -78.1971 t 90 r /Helvetica findfont 29.3239 sf 0 0 m (JET_21NP_JET_EffectiveNP_1) show NC gr 
 gsave  2268 1538 0 0 C 1319.58 -156.394 t 90 r /Helvetica findfont 29.3239 sf 0 0 m (JET_21NP_JET_Flavor_Composition) show NC gr 
 gsave  2268 1538 0 0 C 1365.19 -127.07 t 90 r /Helvetica findfont 29.3239 sf 0 0 m (JET_21NP_JET_Flavor_Response) show NC gr 
 gsave  2268 1538 0 0 C 1414.06 -169.427 t 90 r /Helvetica findfont 29.3239 sf 0 0 m (JET_21NP_JET_Pileup_RhoTopology) show NC gr 
 gsave  2268 1538 0 0 C 1459.68 -3.25821 t 90 r /Helvetica findfont 29.3239 sf 0 0 m (JET_Comb_Baseline_Kin) show NC gr 
 gsave  2268 1538 0 0 C 1508.55 -16.2911 t 90 r /Helvetica findfont 29.3239 sf 0 0 m (JET_Comb_Modelling_Kin) show NC gr 
 gsave  2268 1538 0 0 C 1554.17 -3.25821 t 90 r /Helvetica findfont 29.3239 sf 0 0 m (JET_Comb_Tracking_Kin) show NC gr 
 gsave  2268 1538 0 0 C 1603.04 9.77464 t 90 r /Helvetica findfont 29.3239 sf 0 0 m (JET_Rtrk_Baseline_Sub) show NC gr 
 gsave  2268 1538 0 0 C 1648.66 -3.25821 t 90 r /Helvetica findfont 29.3239 sf 0 0 m (JET_Rtrk_Modelling_Sub) show NC gr 
 gsave  2268 1538 0 0 C 1697.53 -19.5493 t 90 r /Helvetica findfont 29.3239 sf 0 0 m (MODEL_Wjets_MadGraph) show NC gr 
 gsave  2268 1538 0 0 C 1743.14 -9.77464 t 90 r /Helvetica findfont 29.3239 sf 0 0 m (MODEL_Zjets_MadGraph) show NC gr 
 gsave  2268 1538 0 0 C 1792.02 -81.4553 t 90 r /Helvetica findfont 29.3239 sf 0 0 m (MODEL_ttbar_Herwig_Fat1_L0) show NC gr 
 gsave  2268 1538 0 0 C 1837.63 -78.1971 t 90 r /Helvetica findfont 29.3239 sf 0 0 m (MODEL_ttbar_Herwig_Fat1_L1) show NC gr 
 gsave  2268 1538 0 0 C 1886.51 -117.296 t 90 r /Helvetica findfont 29.3239 sf 0 0 m (MODEL_ttbar_aMcAtNlo_Fat1_L0) show NC gr 
 gsave  2268 1538 0 0 C 1932.12 55.3896 t 90 r /Helvetica findfont 29.3239 sf 0 0 m (MUON_TTVA_STAT) show NC gr 
 gsave  2268 1538 0 0 C 1980.99 127.07 t 90 r /Helvetica findfont 29.3239 sf 0 0 m (PRW_DATASF) show NC gr  435 376 m -32 Y s 483 376 m -32 Y s 530 376 m -32 Y s 577 376 m -32 Y s 625 376 m -32 Y s 672 376 m -32 Y s 719 376 m -32 Y s 766 376 m -32 Y
 s 814 376 m -32 Y s 861 376 m -32 Y s 908 376 m -32 Y s 955 376 m -32 Y s 1003 376 m -32 Y s 1050 376 m -32 Y s 1097 376 m -32 Y s 1145 376 m -32 Y s 1192 376 m -32 Y s 1239 376 m -32 Y s 1286 376 m -32 Y s 1334 376 m -32 Y s 1381 376 m -32 Y s 1428
 376 m -32 Y s 1476 376 m -32 Y s 1523 376 m -32 Y s 1570 376 m -32 Y s 1617 376 m -32 Y s 1665 376 m -32 Y s 1712 376 m -32 Y s 1759 376 m -32 Y s 1806 376 m -32 Y s 1854 376 m -32 Y s 1901 376 m -32 Y s 1948 376 m -32 Y s 1996 376 m -32 Y s 435
 1461 m 1561 X s 435 1429 m 32 Y s 483 1429 m 32 Y s 530 1429 m 32 Y s 577 1429 m 32 Y s 625 1429 m 32 Y s 672 1429 m 32 Y s 719 1429 m 32 Y s 766 1429 m 32 Y s 814 1429 m 32 Y s 861 1429 m 32 Y s 908 1429 m 32 Y s 955 1429 m 32 Y s 1003 1429 m 32 Y
 s 1050 1429 m 32 Y s 1097 1429 m 32 Y s 1145 1429 m 32 Y s 1192 1429 m 32 Y s 1239 1429 m 32 Y s 1286 1429 m 32 Y s 1334 1429 m 32 Y s 1381 1429 m 32 Y s 1428 1429 m 32 Y s 1476 1429 m 32 Y s 1523 1429 m 32 Y s 1570 1429 m 32 Y s 1617 1429 m 32 Y s
 1665 1429 m 32 Y s 1712 1429 m 32 Y s 1759 1429 m 32 Y s 1806 1429 m 32 Y s 1854 1429 m 32 Y s 1901 1429 m 32 Y s 1948 1429 m 32 Y s 1996 1429 m 32 Y s 435 344 m 1117 Y s
 gsave  2268 1538 0 0 C 208.526 351.887 t 0 r /Helvetica findfont 29.3239 sf 0 0 m (PRW_DATASF) show NC gr 
 gsave  2268 1538 0 0 C 136.845 387.727 t 0 r /Helvetica findfont 29.3239 sf 0 0 m (MUON_TTVA_STAT) show NC gr 
 gsave  2268 1538 0 0 C -35.8403 420.31 t 0 r /Helvetica findfont 29.3239 sf 0 0 m (MODEL_ttbar_aMcAtNlo_Fat1_L0) show NC gr 
 gsave  2268 1538 0 0 C 3.25821 456.15 t 0 r /Helvetica findfont 29.3239 sf 0 0 m (MODEL_ttbar_Herwig_Fat1_L1) show NC gr 
 gsave  2268 1538 0 0 C 0 488.732 t 0 r /Helvetica findfont 29.3239 sf 0 0 m (MODEL_ttbar_Herwig_Fat1_L0) show NC gr 
 gsave  2268 1538 0 0 C 71.6807 521.314 t 0 r /Helvetica findfont 29.3239 sf 0 0 m (MODEL_Zjets_MadGraph) show NC gr 
 gsave  2268 1538 0 0 C 61.9061 557.154 t 0 r /Helvetica findfont 29.3239 sf 0 0 m (MODEL_Wjets_MadGraph) show NC gr 
 gsave  2268 1538 0 0 C 78.1971 589.737 t 0 r /Helvetica findfont 29.3239 sf 0 0 m (JET_Rtrk_Modelling_Sub) show NC gr 
 gsave  2268 1538 0 0 C 91.23 622.319 t 0 r /Helvetica findfont 29.3239 sf 0 0 m (JET_Rtrk_Baseline_Sub) show NC gr 
 gsave  2268 1538 0 0 C 78.1971 658.159 t 0 r /Helvetica findfont 29.3239 sf 0 0 m (JET_Comb_Tracking_Kin) show NC gr 
 gsave  2268 1538 0 0 C 65.1643 690.741 t 0 r /Helvetica findfont 29.3239 sf 0 0 m (JET_Comb_Modelling_Kin) show NC gr 
 gsave  2268 1538 0 0 C 78.1971 726.582 t 0 r /Helvetica findfont 29.3239 sf 0 0 m (JET_Comb_Baseline_Kin) show NC gr 
 gsave  2268 1538 0 0 C -87.9718 759.164 t 0 r /Helvetica findfont 29.3239 sf 0 0 m (JET_21NP_JET_Pileup_RhoTopology) show NC gr 
 gsave  2268 1538 0 0 C -45.615 791.746 t 0 r /Helvetica findfont 29.3239 sf 0 0 m (JET_21NP_JET_Flavor_Response) show NC gr 
 gsave  2268 1538 0 0 C -74.9389 827.586 t 0 r /Helvetica findfont 29.3239 sf 0 0 m (JET_21NP_JET_Flavor_Composition) show NC gr 
 gsave  2268 1538 0 0 C 3.25821 860.168 t 0 r /Helvetica findfont 29.3239 sf 0 0 m (JET_21NP_JET_EffectiveNP_1) show NC gr 
 gsave  2268 1538 0 0 C -13.0329 896.009 t 0 r /Helvetica findfont 29.3239 sf 0 0 m (FT_EFF_Eigen_Light_0_TrkJets) show NC gr 
 gsave  2268 1538 0 0 C 29.3239 928.591 t 0 r /Helvetica findfont 29.3239 sf 0 0 m (FT_EFF_Eigen_C_0_TrkJets) show NC gr 
 gsave  2268 1538 0 0 C 140.103 961.173 t 0 r /Helvetica findfont 29.3239 sf 0 0 m (FT_EFF_Eigen_C_0) show NC gr 
 gsave  2268 1538 0 0 C 29.3239 997.013 t 0 r /Helvetica findfont 29.3239 sf 0 0 m (FT_EFF_Eigen_B_1_TrkJets) show NC gr 
 gsave  2268 1538 0 0 C 146.62 1029.6 t 0 r /Helvetica findfont 29.3239 sf 0 0 m (FT_EFF_Eigen_B_1) show NC gr 
 gsave  2268 1538 0 0 C 29.3239 1062.18 t 0 r /Helvetica findfont 29.3239 sf 0 0 m (FT_EFF_Eigen_B_0_TrkJets) show NC gr 
 gsave  2268 1538 0 0 C 143.361 1098.02 t 0 r /Helvetica findfont 29.3239 sf 0 0 m (FT_EFF_Eigen_B_0) show NC gr 
 gsave  2268 1538 0 0 C 172.685 1130.6 t 0 r /Helvetica findfont 29.3239 sf 0 0 m (FATJET_ZV_JMR) show NC gr 
 gsave  2268 1538 0 0 C 172.685 1166.44 t 0 r /Helvetica findfont 29.3239 sf 0 0 m (FATJET_ZV_D2R) show NC gr 
 gsave  2268 1538 0 0 C -218.3 1199.02 t 0 r /Helvetica findfont 29.3239 sf 0 0 m (EL_EFF_Iso_TOTAL_1NPCOR_PLUS_UNCOR) show NC gr 
 gsave  2268 1538 0 0 C -208.526 1231.6 t 0 r /Helvetica findfont 29.3239 sf 0 0 m (EL_EFF_ID_TOTAL_1NPCOR_PLUS_UNCOR) show NC gr 
 gsave  2268 1538 0 0 C 202.009 1267.44 t 0 r /Helvetica findfont 29.3239 sf 0 0 m (norm_ttbar2Lep) show NC gr 
 gsave  2268 1538 0 0 C 202.009 1300.03 t 0 r /Helvetica findfont 29.3239 sf 0 0 m (norm_ttbar0Lep) show NC gr 
 gsave  2268 1538 0 0 C 211.784 1335.87 t 0 r /Helvetica findfont 29.3239 sf 0 0 m (norm_Zmerged) show NC gr 
 gsave  2268 1538 0 0 C 293.239 1368.45 t 0 r /Helvetica findfont 29.3239 sf 0 0 m (norm_Zlf) show NC gr 
 gsave  2268 1538 0 0 C 283.465 1401.03 t 0 r /Helvetica findfont 29.3239 sf 0 0 m (norm_Zhf) show NC gr 
 gsave  2268 1538 0 0 C 202.009 1436.87 t 0 r /Helvetica findfont 29.3239 sf 0 0 m (norm_Wmerged) show NC gr  485 344 m -50 X s 485 378 m -50 X s 485 412 m -50 X s 485 446 m -50 X s 485 480 m -50 X s 485 514 m -50 X s 485 547 m -50 X s 485 581 m -50
 X s 485 615 m -50 X s 485 649 m -50 X s 485 683 m -50 X s 485 717 m -50 X s 485 750 m -50 X s 485 784 m -50 X s 485 818 m -50 X s 485 852 m -50 X s 485 886 m -50 X s 485 920 m -50 X s 485 953 m -50 X s 485 987 m -50 X s 485 1021 m -50 X s 485 1055 m
 -50 X s 485 1089 m -50 X s 485 1123 m -50 X s 485 1156 m -50 X s 485 1190 m -50 X s 485 1224 m -50 X s 485 1258 m -50 X s 485 1292 m -50 X s 485 1326 m -50 X s 485 1359 m -50 X s 485 1393 m -50 X s 485 1427 m -50 X s 485 1461 m -50 X s 1996 344 m
 1117 Y s 1946 344 m 50 X s 1946 378 m 50 X s 1946 412 m 50 X s 1946 446 m 50 X s 1946 480 m 50 X s 1946 514 m 50 X s 1946 547 m 50 X s 1946 581 m 50 X s 1946 615 m 50 X s 1946 649 m 50 X s 1946 683 m 50 X s 1946 717 m 50 X s 1946 750 m 50 X s 1946
 784 m 50 X s 1946 818 m 50 X s 1946 852 m 50 X s 1946 886 m 50 X s 1946 920 m 50 X s 1946 953 m 50 X s 1946 987 m 50 X s 1946 1021 m 50 X s 1946 1055 m 50 X s 1946 1089 m 50 X s 1946 1123 m 50 X s 1946 1156 m 50 X s 1946 1190 m 50 X s 1946 1224 m 50
 X s 1946 1258 m 50 X s 1946 1292 m 50 X s 1946 1326 m 50 X s 1946 1359 m 50 X s 1946 1393 m 50 X s 1946 1427 m 50 X s 1946 1461 m 50 X s 0 0 0.51 c 102 5 2007 344 bf 0 0.0094186 0.515698 c 102 4 2007 349 bf 0 0.0188372 0.521395 c 102 5 2007 353 bf 0
 0.0282558 0.527093 c 102 4 2007 358 bf 0 0.0376744 0.532791 c 102 4 2007 362 bf 0 0.047093 0.538488 c 102 5 2007 366 bf 0 0.0565116 0.544186 c 102 4 2007 371 bf 0 0.0659302 0.549884 c 102 5 2007 375 bf 0 0.0753488 0.555581 c 102 4 2007 380 bf 0
 0.0847674 0.561279 c 102 4 2007 384 bf 0 0.094186 0.566977 c 102 5 2007 388 bf 0 0.103605 0.572674 c 102 4 2007 393 bf 0 0.113023 0.578372 c 102 4 2007 397 bf 0 0.122442 0.58407 c 102 5 2007 401 bf 0 0.13186 0.589767 c 102 4 2007 406 bf 0 0.141279
 0.595465 c 102 5 2007 410 bf 0 0.150698 0.601163 c 102 4 2007 415 bf 0 0.160116 0.60686 c 102 4 2007 419 bf 0 0.169535 0.612558 c 102 5 2007 423 bf 0 0.178953 0.618256 c 102 4 2007 428 bf 0 0.188372 0.623953 c 102 4 2007 432 bf 0 0.197791 0.629651 c
 102 5 2007 436 bf 0 0.207209 0.635349 c 102 4 2007 441 bf 0 0.216628 0.641047 c 102 5 2007 445 bf 0 0.226047 0.646744 c 102 4 2007 450 bf 0 0.235465 0.652442 c 102 4 2007 454 bf 0 0.244884 0.65814 c 102 5 2007 458 bf 0 0.254302 0.663837 c 102 4 2007
 463 bf 0 0.263721 0.669535 c 102 4 2007 467 bf 0 0.27314 0.675233 c 102 5 2007 471 bf 0 0.282558 0.68093 c 102 4 2007 476 bf 0 0.291977 0.686628 c 102 5 2007 480 bf 0 0.301395 0.692326 c 102 4 2007 485 bf 0 0.310814 0.698023 c 102 4 2007 489 bf 0
 0.320233 0.703721 c 102 5 2007 493 bf 0 0.329651 0.709419 c 102 4 2007 498 bf 0 0.33907 0.715116 c 102 4 2007 502 bf 0 0.348488 0.720814 c 102 5 2007 506 bf 0 0.357907 0.726512 c 102 4 2007 511 bf 0 0.367326 0.732209 c 102 5 2007 515 bf 0 0.376744
 0.737907 c 102 4 2007 520 bf 0 0.386163 0.743605 c 102 4 2007 524 bf 0 0.395581 0.749302 c 102 5 2007 528 bf 0 0.405 0.755 c 102 4 2007 533 bf 0 0.414419 0.760698 c 102 5 2007 537 bf 0 0.423837 0.766395 c 102 4 2007 542 bf 0 0.433256 0.772093 c 102
 4 2007 546 bf 0 0.442674 0.777791 c 102 5 2007 550 bf 0 0.452093 0.783488 c 102 4 2007 555 bf 0 0.461512 0.789186 c 102 4 2007 559 bf 0 0.47093 0.794884 c 102 5 2007 563 bf 0 0.480349 0.800581 c 102 4 2007 568 bf 0 0.489767 0.806279 c 102 5 2007 572
 bf 0 0.499186 0.811977 c 102 4 2007 577 bf 0 0.508605 0.817674 c 102 4 2007 581 bf 0 0.518023 0.823372 c 102 5 2007 585 bf 0 0.527442 0.82907 c 102 4 2007 590 bf 0 0.53686 0.834767 c 102 4 2007 594 bf 0 0.546279 0.840465 c 102 5 2007 598 bf 0
 0.555698 0.846163 c 102 4 2007 603 bf 0 0.565116 0.85186 c 102 5 2007 607 bf 0 0.574535 0.857558 c 102 4 2007 612 bf 0 0.583953 0.863256 c 102 4 2007 616 bf 0 0.593372 0.868953 c 102 5 2007 620 bf 0 0.602791 0.874651 c 102 4 2007 625 bf 0 0.612209
 0.880349 c 102 4 2007 629 bf 0 0.621628 0.886047 c 102 5 2007 633 bf 0 0.631047 0.891744 c 102 4 2007 638 bf 0 0.640465 0.897442 c 102 5 2007 642 bf 0 0.649884 0.90314 c 102 4 2007 647 bf 0 0.659302 0.908837 c 102 4 2007 651 bf 0 0.668721 0.914535 c
 102 5 2007 655 bf 0 0.67814 0.920233 c 102 4 2007 660 bf 0 0.687558 0.92593 c 102 4 2007 664 bf 0 0.696977 0.931628 c 102 5 2007 668 bf 0 0.706395 0.937326 c 102 4 2007 673 bf 0 0.715814 0.943023 c 102 5 2007 677 bf 0 0.725233 0.948721 c 102 4 2007
 682 bf 0 0.734651 0.954419 c 102 4 2007 686 bf 0 0.74407 0.960116 c 102 5 2007 690 bf 0 0.753488 0.965814 c 102 4 2007 695 bf 0 0.762907 0.971512 c 102 5 2007 699 bf 0 0.772326 0.977209 c 102 4 2007 704 bf 0 0.781744 0.982907 c 102 4 2007 708 bf 0
 0.791163 0.988605 c 102 5 2007 712 bf 0 0.800581 0.994302 c 102 4 2007 717 bf 0 0.81 1 c 102 4 2007 721 bf 0.0126087 0.812754 0.987246 c 102 5 2007 725 bf 0.0252174 0.815507 0.974493 c 102 4 2007 730 bf 0.0378261 0.818261 0.961739 c 102 5 2007 734
 bf 0.0504348 0.821014 0.948986 c 102 4 2007 739 bf 0.0630435 0.823768 0.936232 c 102 4 2007 743 bf 0.0756522 0.826522 0.923478 c 102 5 2007 747 bf 0.0882609 0.829275 0.910725 c 102 4 2007 752 bf 0.10087 0.832029 0.897971 c 102 4 2007 756 bf 0.113478
 0.834783 0.885217 c 102 5 2007 760 bf 0.126087 0.837536 0.872464 c 102 4 2007 765 bf 0.138696 0.84029 0.85971 c 102 5 2007 769 bf 0.151304 0.843044 0.846957 c 102 4 2007 774 bf 0.163913 0.845797 0.834203 c 102 4 2007 778 bf 0.176522 0.848551
 0.821449 c 102 5 2007 782 bf 0.18913 0.851304 0.808696 c 102 4 2007 787 bf 0.201739 0.854058 0.795942 c 102 4 2007 791 bf 0.214348 0.856812 0.783188 c 102 5 2007 795 bf 0.226957 0.859565 0.770435 c 102 4 2007 800 bf 0.239565 0.862319 0.757681 c 102
 5 2007 804 bf 0.252174 0.865072 0.744928 c 102 4 2007 809 bf 0.264783 0.867826 0.732174 c 102 4 2007 813 bf 0.277391 0.87058 0.71942 c 102 5 2007 817 bf 0.29 0.873333 0.706667 c 102 4 2007 822 bf 0.302609 0.876087 0.693913 c 102 4 2007 826 bf
 0.315217 0.878841 0.681159 c 102 5 2007 830 bf 0.327826 0.881594 0.668406 c 102 4 2007 835 bf 0.340435 0.884348 0.655652 c 102 5 2007 839 bf 0.353043 0.887101 0.642899 c 102 4 2007 844 bf 0.365652 0.889855 0.630145 c 102 4 2007 848 bf 0.378261
 0.892609 0.617391 c 102 5 2007 852 bf 0.39087 0.895362 0.604638 c 102 4 2007 857 bf 0.403478 0.898116 0.591884 c 102 5 2007 861 bf 0.416087 0.90087 0.57913 c 102 4 2007 866 bf 0.428696 0.903623 0.566377 c 102 4 2007 870 bf 0.441304 0.906377 0.553623
 c 102 5 2007 874 bf 0.453913 0.90913 0.54087 c 102 4 2007 879 bf 0.466522 0.911884 0.528116 c 102 4 2007 883 bf 0.47913 0.914638 0.515362 c 102 5 2007 887 bf 0.491739 0.917391 0.502609 c 102 4 2007 892 bf 0.504348 0.920145 0.489855 c 102 5 2007 896
 bf 0.516957 0.922899 0.477101 c 102 4 2007 901 bf 0.529565 0.925652 0.464348 c 102 4 2007 905 bf 0.542174 0.928406 0.451594 c 102 5 2007 909 bf 0.554783 0.931159 0.438841 c 102 4 2007 914 bf 0.567391 0.933913 0.426087 c 102 4 2007 918 bf 0.58
 0.936667 0.413333 c 102 5 2007 922 bf 0.592609 0.93942 0.40058 c 102 4 2007 927 bf 0.605217 0.942174 0.387826 c 102 5 2007 931 bf 0.617826 0.944928 0.375072 c 102 4 2007 936 bf 0.630435 0.947681 0.362319 c 102 4 2007 940 bf 0.643043 0.950435
 0.349565 c 102 5 2007 944 bf 0.655652 0.953188 0.336812 c 102 4 2007 949 bf 0.668261 0.955942 0.324058 c 102 4 2007 953 bf 0.68087 0.958696 0.311304 c 102 5 2007 957 bf 0.693478 0.961449 0.298551 c 102 4 2007 962 bf 0.706087 0.964203 0.285797 c 102
 5 2007 966 bf 0.718696 0.966956 0.273043 c 102 4 2007 971 bf 0.731304 0.96971 0.26029 c 102 4 2007 975 bf 0.743913 0.972464 0.247536 c 102 5 2007 979 bf 0.756522 0.975217 0.234783 c 102 4 2007 984 bf 0.76913 0.977971 0.222029 c 102 4 2007 988 bf
 0.781739 0.980725 0.209275 c 102 5 2007 992 bf 0.794348 0.983478 0.196522 c 102 4 2007 997 bf 0.806957 0.986232 0.183768 c 102 5 2007 1001 bf 0.819565 0.988985 0.171014 c 102 4 2007 1006 bf 0.832174 0.991739 0.158261 c 102 4 2007 1010 bf 0.844783
 0.994493 0.145507 c 102 5 2007 1014 bf 0.857391 0.997246 0.132754 c 102 4 2007 1019 bf 0.87 1 0.12 c 102 5 2007 1023 bf 0.872203 0.986441 0.117966 c 102 4 2007 1028 bf 0.874407 0.972881 0.115932 c 102 4 2007 1032 bf 0.87661 0.959322 0.113898 c 102 5
 2007 1036 bf 0.878814 0.945763 0.111864 c 102 4 2007 1041 bf 0.881017 0.932203 0.109831 c 102 4 2007 1045 bf 0.88322 0.918644 0.107797 c 102 5 2007 1049 bf 0.885424 0.905085 0.105763 c 102 4 2007 1054 bf 0.887627 0.891525 0.103729 c 102 5 2007 1058
 bf 0.889831 0.877966 0.101695 c 102 4 2007 1063 bf 0.892034 0.864407 0.099661 c 102 4 2007 1067 bf 0.894237 0.850847 0.0976271 c 102 5 2007 1071 bf 0.896441 0.837288 0.0955932 c 102 4 2007 1076 bf 0.898644 0.823729 0.0935593 c 102 4 2007 1080 bf
 0.900847 0.81017 0.0915254 c 102 5 2007 1084 bf 0.903051 0.79661 0.0894915 c 102 4 2007 1089 bf 0.905254 0.783051 0.0874576 c 102 5 2007 1093 bf 0.907458 0.769492 0.0854237 c 102 4 2007 1098 bf 0.909661 0.755932 0.0833898 c 102 4 2007 1102 bf
 0.911864 0.742373 0.0813559 c 102 5 2007 1106 bf 0.914068 0.728814 0.079322 c 102 4 2007 1111 bf 0.916271 0.715254 0.0772881 c 102 4 2007 1115 bf 0.918475 0.701695 0.0752542 c 102 5 2007 1119 bf 0.920678 0.688136 0.0732203 c 102 4 2007 1124 bf
 0.922881 0.674576 0.0711864 c 102 5 2007 1128 bf 0.925085 0.661017 0.0691525 c 102 4 2007 1133 bf 0.927288 0.647458 0.0671186 c 102 4 2007 1137 bf 0.929492 0.633898 0.0650847 c 102 5 2007 1141 bf 0.931695 0.620339 0.0630508 c 102 4 2007 1146 bf
 0.933898 0.60678 0.061017 c 102 4 2007 1150 bf 0.936102 0.59322 0.0589831 c 102 5 2007 1154 bf 0.938305 0.579661 0.0569492 c 102 4 2007 1159 bf 0.940508 0.566102 0.0549153 c 102 5 2007 1163 bf 0.942712 0.552542 0.0528814 c 102 4 2007 1168 bf
 0.944915 0.538983 0.0508475 c 102 4 2007 1172 bf 0.947119 0.525424 0.0488136 c 102 5 2007 1176 bf 0.949322 0.511864 0.0467797 c 102 4 2007 1181 bf 0.951525 0.498305 0.0447458 c 102 5 2007 1185 bf 0.953729 0.484746 0.0427119 c 102 4 2007 1190 bf
 0.955932 0.471186 0.040678 c 102 4 2007 1194 bf 0.958136 0.457627 0.0386441 c 102 5 2007 1198 bf 0.960339 0.444068 0.0366102 c 102 4 2007 1203 bf 0.962542 0.430508 0.0345763 c 102 4 2007 1207 bf 0.964746 0.416949 0.0325424 c 102 5 2007 1211 bf
 0.966949 0.40339 0.0305085 c 102 4 2007 1216 bf 0.969153 0.38983 0.0284746 c 102 5 2007 1220 bf 0.971356 0.376271 0.0264407 c 102 4 2007 1225 bf 0.973559 0.362712 0.0244068 c 102 4 2007 1229 bf 0.975763 0.349153 0.0223729 c 102 5 2007 1233 bf
 0.977966 0.335593 0.020339 c 102 4 2007 1238 bf 0.980169 0.322034 0.0183051 c 102 4 2007 1242 bf 0.982373 0.308475 0.0162712 c 102 5 2007 1246 bf 0.984576 0.294915 0.0142373 c 102 4 2007 1251 bf 0.98678 0.281356 0.0122034 c 102 5 2007 1255 bf
 0.988983 0.267797 0.0101695 c 102 4 2007 1260 bf 0.991186 0.254237 0.00813559 c 102 4 2007 1264 bf 0.99339 0.240678 0.00610169 c 102 5 2007 1268 bf 0.995593 0.227119 0.0040678 c 102 4 2007 1273 bf 0.997797 0.213559 0.0020339 c 102 4 2007 1277 bf 1
 0.2 0 c 102 5 2007 1281 bf 0.988049 0.195122 0 c 102 4 2007 1286 bf 0.976098 0.190244 0 c 102 5 2007 1290 bf 0.964146 0.185366 0 c 102 4 2007 1295 bf 0.952195 0.180488 0 c 102 4 2007 1299 bf 0.940244 0.17561 0 c 102 5 2007 1303 bf 0.928293 0.170732
 0 c 102 4 2007 1308 bf 0.916341 0.165854 0 c 102 4 2007 1312 bf 0.90439 0.160976 0 c 102 5 2007 1316 bf 0.892439 0.156098 0 c 102 4 2007 1321 bf 0.880488 0.15122 0 c 102 5 2007 1325 bf 0.868537 0.146341 0 c 102 4 2007 1330 bf 0.856585 0.141463 0 c
 102 4 2007 1334 bf 0.844634 0.136585 0 c 102 5 2007 1338 bf 0.832683 0.131707 0 c 102 4 2007 1343 bf 0.820732 0.126829 0 c 102 5 2007 1347 bf 0.80878 0.121951 0 c 102 4 2007 1352 bf 0.796829 0.117073 0 c 102 4 2007 1356 bf 0.784878 0.112195 0 c 102
 5 2007 1360 bf 0.772927 0.107317 0 c 102 4 2007 1365 bf 0.760976 0.102439 0 c 102 4 2007 1369 bf 0.749024 0.097561 0 c 102 5 2007 1373 bf 0.737073 0.0926829 0 c 102 4 2007 1378 bf 0.725122 0.0878049 0 c 102 5 2007 1382 bf 0.713171 0.0829268 0 c 102
 4 2007 1387 bf 0.701219 0.0780488 0 c 102 4 2007 1391 bf 0.689268 0.0731707 0 c 102 5 2007 1395 bf 0.677317 0.0682927 0 c 102 4 2007 1400 bf 0.665366 0.0634146 0 c 102 4 2007 1404 bf 0.653415 0.0585366 0 c 102 5 2007 1408 bf 0.641463 0.0536585 0 c
 102 4 2007 1413 bf 0.629512 0.0487805 0 c 102 5 2007 1417 bf 0.617561 0.0439024 0 c 102 4 2007 1422 bf 0.60561 0.0390244 0 c 102 4 2007 1426 bf 0.593659 0.0341463 0 c 102 5 2007 1430 bf 0.581707 0.0292683 0 c 102 4 2007 1435 bf 0.569756 0.0243902 0
 c 102 4 2007 1439 bf 0.557805 0.0195122 0 c 102 5 2007 1443 bf 0.545854 0.0146341 0 c 102 4 2007 1448 bf 0.533902 0.0097561 0 c 102 5 2007 1452 bf 0.521951 0.00487805 0 c 102 4 2007 1457 bf black 2109 344 m 1117 Y s 2060 344 m 49 X s 2060 456 m 49 X
 s 2060 568 m 49 X s 2060 679 m 49 X s 2060 791 m 49 X s 2060 903 m 49 X s 2060 1014 m 49 X s 2060 1126 m 49 X s 2060 1238 m 49 X s 2060 1349 m 49 X s 2060 1461 m 49 X s 2060 344 m 49 X s
 gsave  2268 1538 0 0 C 2140.65 325.821 t 0 r /Helvetica findfont 42.3568 sf 0 0 m (1) show NC gr 
 gsave  2268 1538 0 0 C 2117.84 325.821 t 0 r /Symbol findfont 42.3568 sf 0 0 m (-) show NC gr 
 gsave  2268 1538 0 0 C 2140.65 439.859 t 0 r /Helvetica findfont 42.3568 sf 0 0 m (0.8) show NC gr 
 gsave  2268 1538 0 0 C 2117.84 439.859 t 0 r /Symbol findfont 42.3568 sf 0 0 m (-) show NC gr 
 gsave  2268 1538 0 0 C 2140.65 553.896 t 0 r /Helvetica findfont 42.3568 sf 0 0 m (0.6) show NC gr 
 gsave  2268 1538 0 0 C 2117.84 553.896 t 0 r /Symbol findfont 42.3568 sf 0 0 m (-) show NC gr 
 gsave  2268 1538 0 0 C 2140.65 664.676 t 0 r /Helvetica findfont 42.3568 sf 0 0 m (0.4) show NC gr 
 gsave  2268 1538 0 0 C 2117.84 664.676 t 0 r /Symbol findfont 42.3568 sf 0 0 m (-) show NC gr 
 gsave  2268 1538 0 0 C 2140.65 775.455 t 0 r /Helvetica findfont 42.3568 sf 0 0 m (0.2) show NC gr 
 gsave  2268 1538 0 0 C 2117.84 775.455 t 0 r /Symbol findfont 42.3568 sf 0 0 m (-) show NC gr 
 gsave  2268 1538 0 0 C 2117.84 889.492 t 0 r /Helvetica findfont 42.3568 sf 0 0 m (0) show NC gr 
 gsave  2268 1538 0 0 C 2117.84 1000.27 t 0 r /Helvetica findfont 42.3568 sf 0 0 m (0.2) show NC gr 
 gsave  2268 1538 0 0 C 2117.84 1111.05 t 0 r /Helvetica findfont 42.3568 sf 0 0 m (0.4) show NC gr 
 gsave  2268 1538 0 0 C 2117.84 1221.83 t 0 r /Helvetica findfont 42.3568 sf 0 0 m (0.6) show NC gr 
 gsave  2268 1538 0 0 C 2117.84 1335.87 t 0 r /Helvetica findfont 42.3568 sf 0 0 m (0.8) show NC gr 
 gsave  2268 1538 0 0 C 2117.84 1443.39 t 0 r /Helvetica findfont 42.3568 sf 0 0 m (1) show NC gr 
 gr  gr showpage
end
%%EOF
