%!PS-Adobe-2.0 EPSF-2.0
%%BoundingBox:  0 0 567 212
%%Title: : c
%%Creator: ROOT Version 6.06/02
%%CreationDate: Wed May 17 21:30:53 2017
%%DocumentNeededResources: ProcSet (FontSetInit)
%%EndComments
%%BeginProlog
80 dict begin
/s {stroke} def /l {lineto} def /m {moveto} def /t {translate} def
/r {rotate} def /rl {roll}  def /R {repeat} def
/d {rlineto} def /rm {rmoveto} def /gr {grestore} def /f {eofill} def
/c {setrgbcolor} def /black {0 setgray} def /sd {setdash} def
/cl {closepath} def /sf {scalefont setfont} def /lw {setlinewidth} def
/box {m dup 0 exch d exch 0 d 0 exch neg d cl} def
/NC{systemdict begin initclip end}def/C{NC box clip newpath}def
/bl {box s} def /bf {gsave box gsave f grestore 1 lw [] 0 sd s grestore} def /Y { 0 exch d} def /X { 0 d} def 
/K {{pop pop 0 moveto} exch kshow} bind def
/ita {/ang 15 def gsave [1 0 ang dup sin exch cos div 1 0 0] concat} def 
/mp {newpath /y exch def /x exch def} def
/side {[w .77 mul w .23 mul] .385 w mul sd w 0 l currentpoint t -144 r} def
/mr {mp x y w2 0 360 arc} def /m24 {mr s} def /m20 {mr f} def
/mb {mp x y w2 add m w2 neg 0 d 0 w neg d w 0 d 0 w d cl} def
/mt {mp x y w2 add m w2 neg w neg d w 0 d cl} def
/m21 {mb f} def /m25 {mb s} def /m22 {mt f} def /m26{mt s} def
/m23 {mp x y w2 sub m w2 w d w neg 0 d cl f} def
/m27 {mp x y w2 add m w3 neg w2 neg d w3 w2 neg d w3 w2 d cl s} def
/m28 {mp x w2 sub y w2 sub w3 add m w3 0 d  0 w3 neg d w3 0 d 0 w3 d w3 0 d  0 w3 d w3 neg 0 d 0 w3 d w3 neg 0 d 0 w3 neg d w3 neg 0 d cl s } def
/m29 {mp gsave x w2 sub y w2 add w3 sub m currentpoint t 4 {side} repeat cl fill gr} def
/m30 {mp gsave x w2 sub y w2 add w3 sub m currentpoint t 4 {side} repeat cl s gr} def
/m31 {mp x y w2 sub m 0 w d x w2 sub y m w 0 d x w2 sub y w2 add m w w neg d x w2 sub y w2 sub m w w d s} def
/m32 {mp x y w2 sub m w2 w d w neg 0 d cl s} def
/m33 {mp x y w2 add m w3 neg w2 neg d w3 w2 neg d w3 w2 d cl f} def
/m34 {mp x w2 sub y w2 sub w3 add m w3 0 d  0 w3 neg d w3 0 d 0 w3 d w3 0 d  0 w3 d w3 neg 0 d 0 w3 d w3 neg 0 d 0 w3 neg d w3 neg 0 d cl f } def
/m2 {mp x y w2 sub m 0 w d x w2 sub y m w 0 d s} def
/m5 {mp x w2 sub y w2 sub m w w d x w2 sub y w2 add m w w neg d s} def
%%IncludeResource: ProcSet (FontSetInit)
%%IncludeResource: font Times-Roman
%%IncludeResource: font Times-Italic
%%IncludeResource: font Times-Bold
%%IncludeResource: font Times-BoldItalic
%%IncludeResource: font Helvetica
%%IncludeResource: font Helvetica-Oblique
%%IncludeResource: font Helvetica-Bold
%%IncludeResource: font Helvetica-BoldOblique
%%IncludeResource: font Courier
%%IncludeResource: font Courier-Oblique
%%IncludeResource: font Courier-Bold
%%IncludeResource: font Courier-BoldOblique
%%IncludeResource: font Symbol
%%IncludeResource: font ZapfDingbats
/reEncode {exch findfont dup length dict begin {1 index /FID eq  {pop pop} {def} ifelse } forall /Encoding exch def currentdict end dup /FontName get exch definefont pop } def [/Times-Bold /Times-Italic /Times-BoldItalic /Helvetica /Helvetica-Oblique
 /Helvetica-Bold /Helvetica-BoldOblique /Courier /Courier-Oblique /Courier-Bold /Courier-BoldOblique /Times-Roman /AvantGarde-Book /AvantGarde-BookOblique /AvantGarde-Demi /AvantGarde-DemiOblique /Bookman-Demi /Bookman-DemiItalic /Bookman-Light
 /Bookman-LightItalic /Helvetica-Narrow /Helvetica-Narrow-Bold /Helvetica-Narrow-BoldOblique /Helvetica-Narrow-Oblique /NewCenturySchlbk-Roman /NewCenturySchlbk-Bold /NewCenturySchlbk-BoldItalic /NewCenturySchlbk-Italic /Palatino-Bold
 /Palatino-BoldItalic /Palatino-Italic /Palatino-Roman ] {ISOLatin1Encoding reEncode } forall
%%EndProlog
%%BeginSetup
%%EndSetup
newpath  gsave  .25 .25 scale  gsave  0 0 t black[  ] 0 sd 3 lw 1 1 1 c 2268 847 0 0 bf black 1 1 1 c 2077 398 109 407 bf black 2077 398 109 407 bl 1 1 1 c 2077 398 109 407 bf black 2077 398 109 407 bl 109 407 m 2077 X s
 gsave  2268 847 0 0 C 122.948 286.88 t 90 r /Helvetica findfont 15.9378 sf 0 0 m (norm_Wmerged) show NC gr 
 gsave  2268 847 0 0 C 143.44 332.416 t 90 r /Helvetica findfont 15.9378 sf 0 0 m (norm_Zhf) show NC gr 
 gsave  2268 847 0 0 C 161.654 336.97 t 90 r /Helvetica findfont 15.9378 sf 0 0 m (norm_Zlf) show NC gr 
 gsave  2268 847 0 0 C 179.869 291.433 t 90 r /Helvetica findfont 15.9378 sf 0 0 m (norm_Zmerged) show NC gr 
 gsave  2268 847 0 0 C 198.084 286.88 t 90 r /Helvetica findfont 15.9378 sf 0 0 m (norm_ttbar0Lep) show NC gr 
 gsave  2268 847 0 0 C 216.298 286.88 t 90 r /Helvetica findfont 15.9378 sf 0 0 m (norm_ttbar2Lep) show NC gr 
 gsave  2268 847 0 0 C 234.513 291.433 t 90 r /Helvetica findfont 15.9378 sf 0 0 m (LUMI_2015_16) show NC gr 
 gsave  2268 847 0 0 C 252.727 264.112 t 90 r /Helvetica findfont 15.9378 sf 0 0 m (MET_JetTrk_Scale) show NC gr 
 gsave  2268 847 0 0 C 273.219 225.406 t 90 r /Helvetica findfont 15.9378 sf 0 0 m (MET_SoftTrk_ResoPara) show NC gr 
 gsave  2268 847 0 0 C 291.433 225.406 t 90 r /Helvetica findfont 15.9378 sf 0 0 m (MET_SoftTrk_ResoPerp) show NC gr 
 gsave  2268 847 0 0 C 309.648 257.281 t 90 r /Helvetica findfont 15.9378 sf 0 0 m (MET_SoftTrk_Scale) show NC gr 
 gsave  2268 847 0 0 C 327.863 284.603 t 90 r /Helvetica findfont 15.9378 sf 0 0 m (TheoryPS_0Lep) show NC gr 
 gsave  2268 847 0 0 C 346.077 284.603 t 90 r /Helvetica findfont 15.9378 sf 0 0 m (TheoryPS_2Lep) show NC gr 
 gsave  2268 847 0 0 C 364.292 195.807 t 90 r /Helvetica findfont 15.9378 sf 0 0 m (MODEL_VV_PwPy_Fat1_L2) show NC gr 
 gsave  2268 847 0 0 C 382.506 236.79 t 90 r /Helvetica findfont 15.9378 sf 0 0 m (MODEL_VV_PwPy_L2) show NC gr 
 gsave  2268 847 0 0 C 402.998 341.524 t 90 r /Helvetica findfont 15.9378 sf 0 0 m (VVNorm) show NC gr 
 gsave  2268 847 0 0 C 421.212 227.682 t 90 r /Helvetica findfont 15.9378 sf 0 0 m (EG_RESOLUTION_ALL) show NC gr 
 gsave  2268 847 0 0 C 439.427 277.773 t 90 r /Helvetica findfont 15.9378 sf 0 0 m (EG_SCALE_ALL) show NC gr 
 gsave  2268 847 0 0 C 457.642 63.7511 t 90 r /Helvetica findfont 15.9378 sf 0 0 m (EL_EFF_ID_TOTAL_1NPCOR_PLUS_UNCOR) show NC gr 
 gsave  2268 847 0 0 C 475.856 59.1974 t 90 r /Helvetica findfont 15.9378 sf 0 0 m (EL_EFF_Iso_TOTAL_1NPCOR_PLUS_UNCOR) show NC gr 
 gsave  2268 847 0 0 C 494.071 43.2597 t 90 r /Helvetica findfont 15.9378 sf 0 0 m (EL_EFF_Reco_TOTAL_1NPCOR_PLUS_UNCOR) show NC gr 
 gsave  2268 847 0 0 C 512.285 29.5987 t 90 r /Helvetica findfont 15.9378 sf 0 0 m (EL_EFF_Trigger_TOTAL_1NPCOR_PLUS_UNCOR) show NC gr 
 gsave  2268 847 0 0 C 532.777 270.942 t 90 r /Helvetica findfont 15.9378 sf 0 0 m (FATJET_ZV_D2R) show NC gr 
 gsave  2268 847 0 0 C 550.991 273.219 t 90 r /Helvetica findfont 15.9378 sf 0 0 m (FATJET_ZV_JER) show NC gr 
 gsave  2268 847 0 0 C 569.206 270.942 t 90 r /Helvetica findfont 15.9378 sf 0 0 m (FATJET_ZV_JMR) show NC gr 
 gsave  2268 847 0 0 C 587.421 255.004 t 90 r /Helvetica findfont 15.9378 sf 0 0 m (FT_EFF_Eigen_B_0) show NC gr 
 gsave  2268 847 0 0 C 605.635 193.53 t 90 r /Helvetica findfont 15.9378 sf 0 0 m (FT_EFF_Eigen_B_0_TrkJets) show NC gr 
 gsave  2268 847 0 0 C 623.85 257.281 t 90 r /Helvetica findfont 15.9378 sf 0 0 m (FT_EFF_Eigen_B_1) show NC gr 
 gsave  2268 847 0 0 C 642.064 193.53 t 90 r /Helvetica findfont 15.9378 sf 0 0 m (FT_EFF_Eigen_B_1_TrkJets) show NC gr 
 gsave  2268 847 0 0 C 662.556 255.004 t 90 r /Helvetica findfont 15.9378 sf 0 0 m (FT_EFF_Eigen_B_2) show NC gr 
 gsave  2268 847 0 0 C 680.77 193.53 t 90 r /Helvetica findfont 15.9378 sf 0 0 m (FT_EFF_Eigen_B_2_TrkJets) show NC gr 
 gsave  2268 847 0 0 C 698.985 255.004 t 90 r /Helvetica findfont 15.9378 sf 0 0 m (FT_EFF_Eigen_C_0) show NC gr 
 gsave  2268 847 0 0 C 717.2 193.53 t 90 r /Helvetica findfont 15.9378 sf 0 0 m (FT_EFF_Eigen_C_0_TrkJets) show NC gr 
 gsave  2268 847 0 0 C 735.414 257.281 t 90 r /Helvetica findfont 15.9378 sf 0 0 m (FT_EFF_Eigen_C_1) show NC gr 
 gsave  2268 847 0 0 C 753.629 193.53 t 90 r /Helvetica findfont 15.9378 sf 0 0 m (FT_EFF_Eigen_C_1_TrkJets) show NC gr 
 gsave  2268 847 0 0 C 771.843 255.004 t 90 r /Helvetica findfont 15.9378 sf 0 0 m (FT_EFF_Eigen_C_2) show NC gr 
 gsave  2268 847 0 0 C 792.335 193.53 t 90 r /Helvetica findfont 15.9378 sf 0 0 m (FT_EFF_Eigen_C_2_TrkJets) show NC gr 
 gsave  2268 847 0 0 C 810.549 255.004 t 90 r /Helvetica findfont 15.9378 sf 0 0 m (FT_EFF_Eigen_C_3) show NC gr 
 gsave  2268 847 0 0 C 828.764 193.53 t 90 r /Helvetica findfont 15.9378 sf 0 0 m (FT_EFF_Eigen_C_3_TrkJets) show NC gr 
 gsave  2268 847 0 0 C 846.978 232.236 t 90 r /Helvetica findfont 15.9378 sf 0 0 m (FT_EFF_Eigen_Light_0) show NC gr 
 gsave  2268 847 0 0 C 865.193 170.762 t 90 r /Helvetica findfont 15.9378 sf 0 0 m (FT_EFF_Eigen_Light_0_TrkJets) show NC gr 
 gsave  2268 847 0 0 C 883.408 234.513 t 90 r /Helvetica findfont 15.9378 sf 0 0 m (FT_EFF_Eigen_Light_1) show NC gr 
 gsave  2268 847 0 0 C 903.899 170.762 t 90 r /Helvetica findfont 15.9378 sf 0 0 m (FT_EFF_Eigen_Light_1_TrkJets) show NC gr 
 gsave  2268 847 0 0 C 922.114 229.959 t 90 r /Helvetica findfont 15.9378 sf 0 0 m (FT_EFF_Eigen_Light_2) show NC gr 
 gsave  2268 847 0 0 C 940.328 170.762 t 90 r /Helvetica findfont 15.9378 sf 0 0 m (FT_EFF_Eigen_Light_2_TrkJets) show NC gr 
 gsave  2268 847 0 0 C 958.543 232.236 t 90 r /Helvetica findfont 15.9378 sf 0 0 m (FT_EFF_Eigen_Light_3) show NC gr 
 gsave  2268 847 0 0 C 976.757 170.762 t 90 r /Helvetica findfont 15.9378 sf 0 0 m (FT_EFF_Eigen_Light_3_TrkJets) show NC gr 
 gsave  2268 847 0 0 C 994.972 229.959 t 90 r /Helvetica findfont 15.9378 sf 0 0 m (FT_EFF_Eigen_Light_4) show NC gr 
 gsave  2268 847 0 0 C 1013.19 170.762 t 90 r /Helvetica findfont 15.9378 sf 0 0 m (FT_EFF_Eigen_Light_4_TrkJets) show NC gr 
 gsave  2268 847 0 0 C 1033.68 241.343 t 90 r /Helvetica findfont 15.9378 sf 0 0 m (FT_EFF_extrapolation) show NC gr 
 gsave  2268 847 0 0 C 1051.89 179.869 t 90 r /Helvetica findfont 15.9378 sf 0 0 m (FT_EFF_extrapolation_TrkJets) show NC gr 
 gsave  2268 847 0 0 C 1070.11 86.5193 t 90 r /Helvetica findfont 15.9378 sf 0 0 m (FT_EFF_extrapolation_from_charm_TrkJets) show NC gr 
 gsave  2268 847 0 0 C 1088.32 157.101 t 90 r /Helvetica findfont 15.9378 sf 0 0 m (JET_21NP_JET_BJES_Response) show NC gr 
 gsave  2268 847 0 0 C 1106.54 179.869 t 90 r /Helvetica findfont 15.9378 sf 0 0 m (JET_21NP_JET_EffectiveNP_1) show NC gr 
 gsave  2268 847 0 0 C 1124.75 175.315 t 90 r /Helvetica findfont 15.9378 sf 0 0 m (JET_21NP_JET_EffectiveNP_2) show NC gr 
 gsave  2268 847 0 0 C 1142.97 175.315 t 90 r /Helvetica findfont 15.9378 sf 0 0 m (JET_21NP_JET_EffectiveNP_3) show NC gr 
 gsave  2268 847 0 0 C 1163.46 175.315 t 90 r /Helvetica findfont 15.9378 sf 0 0 m (JET_21NP_JET_EffectiveNP_4) show NC gr 
 gsave  2268 847 0 0 C 1181.67 175.315 t 90 r /Helvetica findfont 15.9378 sf 0 0 m (JET_21NP_JET_EffectiveNP_5) show NC gr 
 gsave  2268 847 0 0 C 1199.89 175.315 t 90 r /Helvetica findfont 15.9378 sf 0 0 m (JET_21NP_JET_EffectiveNP_6) show NC gr 
 gsave  2268 847 0 0 C 1218.1 175.315 t 90 r /Helvetica findfont 15.9378 sf 0 0 m (JET_21NP_JET_EffectiveNP_7) show NC gr 
 gsave  2268 847 0 0 C 1236.32 113.841 t 90 r /Helvetica findfont 15.9378 sf 0 0 m (JET_21NP_JET_EffectiveNP_8restTerm) show NC gr 
 gsave  2268 847 0 0 C 1254.53 72.8584 t 90 r /Helvetica findfont 15.9378 sf 0 0 m (JET_21NP_JET_EtaIntercalibration_Modelling) show NC gr 
 gsave  2268 847 0 0 C 1272.74 54.6438 t 90 r /Helvetica findfont 15.9378 sf 0 0 m (JET_21NP_JET_EtaIntercalibration_NonClosure) show NC gr 
 gsave  2268 847 0 0 C 1293.24 75.1352 t 90 r /Helvetica findfont 15.9378 sf 0 0 m (JET_21NP_JET_EtaIntercalibration_TotalStat) show NC gr 
 gsave  2268 847 0 0 C 1311.45 136.609 t 90 r /Helvetica findfont 15.9378 sf 0 0 m (JET_21NP_JET_Flavor_Composition) show NC gr 
 gsave  2268 847 0 0 C 1329.67 152.547 t 90 r /Helvetica findfont 15.9378 sf 0 0 m (JET_21NP_JET_Flavor_Response) show NC gr 
 gsave  2268 847 0 0 C 1347.88 159.378 t 90 r /Helvetica findfont 15.9378 sf 0 0 m (JET_21NP_JET_Pileup_OffsetMu) show NC gr 
 gsave  2268 847 0 0 C 1366.09 147.994 t 90 r /Helvetica findfont 15.9378 sf 0 0 m (JET_21NP_JET_Pileup_OffsetNPV) show NC gr 
 gsave  2268 847 0 0 C 1384.31 173.039 t 90 r /Helvetica findfont 15.9378 sf 0 0 m (JET_21NP_JET_Pileup_PtTerm) show NC gr 
 gsave  2268 847 0 0 C 1402.52 129.779 t 90 r /Helvetica findfont 15.9378 sf 0 0 m (JET_21NP_JET_Pileup_RhoTopology) show NC gr 
 gsave  2268 847 0 0 C 1423.01 120.672 t 90 r /Helvetica findfont 15.9378 sf 0 0 m (JET_21NP_JET_PunchThrough_MC15) show NC gr 
 gsave  2268 847 0 0 C 1441.23 218.575 t 90 r /Helvetica findfont 15.9378 sf 0 0 m (JET_Comb_Baseline_Kin) show NC gr 
 gsave  2268 847 0 0 C 1459.44 211.745 t 90 r /Helvetica findfont 15.9378 sf 0 0 m (JET_Comb_Modelling_Kin) show NC gr 
 gsave  2268 847 0 0 C 1477.66 216.298 t 90 r /Helvetica findfont 15.9378 sf 0 0 m (JET_Comb_TotalStat_Kin) show NC gr 
 gsave  2268 847 0 0 C 1495.87 218.575 t 90 r /Helvetica findfont 15.9378 sf 0 0 m (JET_Comb_Tracking_Kin) show NC gr 
 gsave  2268 847 0 0 C 1514.09 234.513 t 90 r /Helvetica findfont 15.9378 sf 0 0 m (JET_JER_SINGLE_NP) show NC gr 
 gsave  2268 847 0 0 C 1532.3 225.406 t 90 r /Helvetica findfont 15.9378 sf 0 0 m (JET_Rtrk_Baseline_Sub) show NC gr 
 gsave  2268 847 0 0 C 1552.79 218.575 t 90 r /Helvetica findfont 15.9378 sf 0 0 m (JET_Rtrk_Modelling_Sub) show NC gr 
 gsave  2268 847 0 0 C 1571.01 223.129 t 90 r /Helvetica findfont 15.9378 sf 0 0 m (JET_Rtrk_TotalStat_Sub) show NC gr 
 gsave  2268 847 0 0 C 1589.22 225.406 t 90 r /Helvetica findfont 15.9378 sf 0 0 m (JET_Rtrk_Tracking_Sub) show NC gr 
 gsave  2268 847 0 0 C 1607.44 236.79 t 90 r /Helvetica findfont 15.9378 sf 0 0 m (MODEL_Wjets_CKKW) show NC gr 
 gsave  2268 847 0 0 C 1625.65 259.558 t 90 r /Helvetica findfont 15.9378 sf 0 0 m (MODEL_Wjets_Fac) show NC gr 
 gsave  2268 847 0 0 C 1643.87 211.745 t 90 r /Helvetica findfont 15.9378 sf 0 0 m (MODEL_Wjets_MadGraph) show NC gr 
 gsave  2268 847 0 0 C 1662.08 252.727 t 90 r /Helvetica findfont 15.9378 sf 0 0 m (MODEL_Wjets_QSF) show NC gr 
 gsave  2268 847 0 0 C 1682.57 229.959 t 90 r /Helvetica findfont 15.9378 sf 0 0 m (MODEL_Wjets_Renorm) show NC gr 
 gsave  2268 847 0 0 C 1700.79 109.288 t 90 r /Helvetica findfont 15.9378 sf 0 0 m (MODEL_ZjetsAR_DMergedHPSROfRSG) show NC gr 
 gsave  2268 847 0 0 C 1719 111.564 t 90 r /Helvetica findfont 15.9378 sf 0 0 m (MODEL_ZjetsAR_DMergedLPSROfRSG) show NC gr 
 gsave  2268 847 0 0 C 1737.22 243.62 t 90 r /Helvetica findfont 15.9378 sf 0 0 m (MODEL_Zjets_CKKW) show NC gr 
 gsave  2268 847 0 0 C 1755.43 264.112 t 90 r /Helvetica findfont 15.9378 sf 0 0 m (MODEL_Zjets_Fac) show NC gr 
 gsave  2268 847 0 0 C 1773.65 216.298 t 90 r /Helvetica findfont 15.9378 sf 0 0 m (MODEL_Zjets_MadGraph) show NC gr 
 gsave  2268 847 0 0 C 1794.14 259.558 t 90 r /Helvetica findfont 15.9378 sf 0 0 m (MODEL_Zjets_QSF) show NC gr 
 gsave  2268 847 0 0 C 1812.35 234.513 t 90 r /Helvetica findfont 15.9378 sf 0 0 m (MODEL_Zjets_Renorm) show NC gr 
 gsave  2268 847 0 0 C 1830.57 177.592 t 90 r /Helvetica findfont 15.9378 sf 0 0 m (MODEL_ttbar_Herwig_Fat1_L0) show NC gr 
 gsave  2268 847 0 0 C 1848.78 179.869 t 90 r /Helvetica findfont 15.9378 sf 0 0 m (MODEL_ttbar_Herwig_Fat1_L1) show NC gr 
 gsave  2268 847 0 0 C 1867 218.575 t 90 r /Helvetica findfont 15.9378 sf 0 0 m (MODEL_ttbar_Herwig_L2) show NC gr 
 gsave  2268 847 0 0 C 1885.21 157.101 t 90 r /Helvetica findfont 15.9378 sf 0 0 m (MODEL_ttbar_aMcAtNlo_Fat1_L0) show NC gr 
 gsave  2268 847 0 0 C 1903.42 159.378 t 90 r /Helvetica findfont 15.9378 sf 0 0 m (MODEL_ttbar_aMcAtNlo_Fat1_L1) show NC gr 
 gsave  2268 847 0 0 C 1923.92 198.084 t 90 r /Helvetica findfont 15.9378 sf 0 0 m (MODEL_ttbar_aMcAtNlo_L2) show NC gr 
 gsave  2268 847 0 0 C 1942.13 204.914 t 90 r /Helvetica findfont 15.9378 sf 0 0 m (MODEL_ttbar_rad_Fat1_L0) show NC gr 
 gsave  2268 847 0 0 C 1960.35 243.62 t 90 r /Helvetica findfont 15.9378 sf 0 0 m (MODEL_ttbar_rad_L2) show NC gr 
 gsave  2268 847 0 0 C 1978.56 270.942 t 90 r /Helvetica findfont 15.9378 sf 0 0 m (MUON_EFF_SYS) show NC gr 
 gsave  2268 847 0 0 C 1996.77 166.208 t 90 r /Helvetica findfont 15.9378 sf 0 0 m (MUON_EFF_TrigStatUncertainty) show NC gr 
 gsave  2268 847 0 0 C 2014.99 191.253 t 90 r /Helvetica findfont 15.9378 sf 0 0 m (MUON_EFF_TrigtUncertainty) show NC gr 
 gsave  2268 847 0 0 C 2033.2 327.863 t 90 r /Helvetica findfont 15.9378 sf 0 0 m (MUON_ID) show NC gr 
 gsave  2268 847 0 0 C 2053.7 318.755 t 90 r /Helvetica findfont 15.9378 sf 0 0 m (MUON_MS) show NC gr 
 gsave  2268 847 0 0 C 2071.91 195.807 t 90 r /Helvetica findfont 15.9378 sf 0 0 m (MUON_SAGITTA_RESBIAS) show NC gr 
 gsave  2268 847 0 0 C 2090.12 229.959 t 90 r /Helvetica findfont 15.9378 sf 0 0 m (MUON_SAGITTA_RHO) show NC gr 
 gsave  2268 847 0 0 C 2108.34 291.433 t 90 r /Helvetica findfont 15.9378 sf 0 0 m (MUON_SCALE) show NC gr 
 gsave  2268 847 0 0 C 2126.55 252.727 t 90 r /Helvetica findfont 15.9378 sf 0 0 m (MUON_TTVA_STAT) show NC gr 
 gsave  2268 847 0 0 C 2144.77 261.835 t 90 r /Helvetica findfont 15.9378 sf 0 0 m (MUON_TTVA_SYS) show NC gr 
 gsave  2268 847 0 0 C 2162.98 291.433 t 90 r /Helvetica findfont 15.9378 sf 0 0 m (PRW_DATASF) show NC gr 
 gsave  2268 847 0 0 C 2183.47 327.863 t 90 r /Helvetica findfont 15.9378 sf 0 0 m (StopNorm) show NC gr  109 430 m -23 Y s 294 430 m -23 Y s 480 430 m -23 Y s 665 430 m -23 Y s 851 430 m -23 Y s 1036 430 m -23 Y s 1222 430 m -23 Y s 1407 430 m -23 Y
 s 1593 430 m -23 Y s 1778 430 m -23 Y s 1964 430 m -23 Y s 2149 430 m -23 Y s 2149 430 m -23 Y s 109 805 m 2077 X s 109 781 m 24 Y s 294 781 m 24 Y s 480 781 m 24 Y s 665 781 m 24 Y s 851 781 m 24 Y s 1036 781 m 24 Y s 1222 781 m 24 Y s 1407 781 m
 24 Y s 1593 781 m 24 Y s 1778 781 m 24 Y s 1964 781 m 24 Y s 2149 781 m 24 Y s 2149 781 m 24 Y s 109 407 m 398 Y s
 gsave  2268 847 0 0 C 61.4742 769.566 t 90 r /Helvetica findfont 22.7682 sf 0 0 m (Pull) show NC gr  141 435 m -32 X s 125 446 m -16 X s 125 458 m -16 X s 125 469 m -16 X s 125 480 m -16 X s 141 492 m -32 X s 125 503 m -16 X s 125 515 m -16 X s 125
 526 m -16 X s 125 537 m -16 X s 141 549 m -32 X s 125 560 m -16 X s 125 571 m -16 X s 125 583 m -16 X s 125 594 m -16 X s 141 606 m -32 X s 125 617 m -16 X s 125 628 m -16 X s 125 640 m -16 X s 125 651 m -16 X s 141 662 m -32 X s 125 674 m -16 X s
 125 685 m -16 X s 125 697 m -16 X s 125 708 m -16 X s 141 719 m -32 X s 125 731 m -16 X s 125 742 m -16 X s 125 753 m -16 X s 125 765 m -16 X s 141 776 m -32 X s 141 435 m -32 X s 125 424 m -16 X s 125 412 m -16 X s 141 776 m -32 X s 125 788 m -16 X
 s 125 799 m -16 X s
 gsave  2268 847 0 0 C 81.9657 428.043 t 0 r /Helvetica findfont 22.7682 sf 0 0 m (3) show NC gr 
 gsave  2268 847 0 0 C 68.3047 428.043 t 0 r /Symbol findfont 22.7682 sf 0 0 m (-) show NC gr 
 gsave  2268 847 0 0 C 81.9657 482.687 t 0 r /Helvetica findfont 22.7682 sf 0 0 m (2) show NC gr 
 gsave  2268 847 0 0 C 68.3047 482.687 t 0 r /Symbol findfont 22.7682 sf 0 0 m (-) show NC gr 
 gsave  2268 847 0 0 C 86.5193 539.607 t 0 r /Helvetica findfont 22.7682 sf 0 0 m (1) show NC gr 
 gsave  2268 847 0 0 C 72.8584 539.607 t 0 r /Symbol findfont 22.7682 sf 0 0 m (-) show NC gr 
 gsave  2268 847 0 0 C 81.9657 596.528 t 0 r /Helvetica findfont 22.7682 sf 0 0 m (0) show NC gr 
 gsave  2268 847 0 0 C 86.5193 651.172 t 0 r /Helvetica findfont 22.7682 sf 0 0 m (1) show NC gr 
 gsave  2268 847 0 0 C 81.9657 708.092 t 0 r /Helvetica findfont 22.7682 sf 0 0 m (2) show NC gr 
 gsave  2268 847 0 0 C 81.9657 767.29 t 0 r /Helvetica findfont 22.7682 sf 0 0 m (3) show NC gr  2186 407 m 398 Y s 2154 435 m 32 X s 2170 446 m 16 X s 2170 458 m 16 X s 2170 469 m 16 X s 2170 480 m 16 X s 2154 492 m 32 X s 2170 503 m 16 X s 2170 515
 m 16 X s 2170 526 m 16 X s 2170 537 m 16 X s 2154 549 m 32 X s 2170 560 m 16 X s 2170 571 m 16 X s 2170 583 m 16 X s 2170 594 m 16 X s 2154 606 m 32 X s 2170 617 m 16 X s 2170 628 m 16 X s 2170 640 m 16 X s 2170 651 m 16 X s 2154 662 m 32 X s 2170
 674 m 16 X s 2170 685 m 16 X s 2170 697 m 16 X s 2170 708 m 16 X s 2154 719 m 32 X s 2170 731 m 16 X s 2170 742 m 16 X s 2170 753 m 16 X s 2170 765 m 16 X s 2154 776 m 32 X s 2154 435 m 32 X s 2170 424 m 16 X s 2170 412 m 16 X s 2154 776 m 32 X s
 2170 788 m 16 X s 2170 799 m 16 X s 6 lw 1 1 1 c black 3 lw /w 22 def /w2 {w 2 div} def /w3 {w 3 div} def 118 670 137 678 155 670 174 668 192 665 211 662 229 605 415 606 433 614 452 595 471 590 489 604 508 606 526 608 545 626 563 613 582 572 600 606
 619 595 637 603 656 610 675 606 693 618 712 587 730 595 749 603 767 601 786 605 804 607 823 607 841 601 860 591 879 606 897 613 916 606 934 604 953 606 971 605 990 607 1008 605 1027 609 1045 606 1064 606 1083 609 1101 615 1120 625 1138 602 1157 605
 1175 605 1194 605 1212 605 1231 608 1249 605 1268 592 1287 609 1305 560 1324 601 1342 608 1361 615 1379 621 1398 561 1416 606 1435 562 1453 609 1472 610 1491 549 1509 630 1528 602 1546 598 1565 604 1583 604 248 616 266 609 285 599 304 609 359 588
 378 622 1602 611 1620 605 1639 633 1657 606 1676 611 1695 558 1713 597 1732 612 1750 606 1769 587 1787 606 1806 612 1824 586 1843 618 1862 606 1880 635 1899 610 1917 626 1936 603 1954 585 1973 582 1991 606 2010 606 100 { m20} R 2028 604 2047 606
 2066 602 2084 622 2103 605 2121 575 2140 574 2158 597 2177 604 322 606 341 606 396 607 12 { m20} R 6 lw 229 614 m 47 Y s 229 661 m cl s 229 596 m -47 Y s 229 549 m cl s 415 615 m 48 Y s 415 663 m cl s 415 597 m -47 Y s 415 550 m cl s 433 623 m 46 Y
 s 433 669 m cl s 433 605 m -46 Y s 433 559 m cl s 452 605 m 46 Y s 452 651 m cl s 452 586 m -46 Y s 452 540 m cl s 471 599 m 45 Y s 471 644 m cl s 471 581 m -45 Y s 471 536 m cl s 489 613 m 48 Y s 489 661 m cl s 489 595 m -47 Y s 489 548 m cl s 508
 615 m 47 Y s 508 662 m cl s 508 596 m -47 Y s 508 549 m cl s 526 617 m 3 Y s 526 620 m cl s 526 599 m -3 Y s 526 596 m cl s 545 635 m 42 Y s 545 677 m cl s 545 617 m -43 Y s 545 574 m cl s 563 622 m 10 Y s 563 632 m cl s 563 604 m -10 Y s 563 594 m
 cl s 582 581 m 44 Y s 582 625 m cl s 582 562 m -44 Y s 582 518 m cl s 600 615 m 46 Y s 600 661 m cl s 600 597 m -47 Y s 600 550 m cl s 619 604 m 47 Y s 619 651 m cl s 619 586 m -47 Y s 619 539 m cl s 637 612 m 48 Y s 637 660 m cl s 637 594 m -47 Y s
 637 547 m cl s 656 619 m 47 Y s 656 666 m cl s 656 601 m -47 Y s 656 554 m cl s 675 616 m 47 Y s 675 663 m cl s 675 597 m -47 Y s 675 550 m cl s 693 627 m 45 Y s 693 672 m cl s 693 608 m -45 Y s 693 563 m cl s 712 596 m 44 Y s 712 640 m cl s 712 578
 m -44 Y s 712 534 m cl s 730 604 m 47 Y s 730 651 m cl s 730 586 m -46 Y s 730 540 m cl s 749 612 m 47 Y s 749 659 m cl s 749 594 m -47 Y s 749 547 m cl s 767 610 m 47 Y s 767 657 m cl s 767 592 m -48 Y s 767 544 m cl s 786 614 m 48 Y s 786 662 m cl
 s 786 596 m -47 Y s 786 549 m cl s 804 616 m 47 Y s 804 663 m cl s 804 598 m -48 Y s 804 550 m cl s 823 616 m 47 Y s 823 663 m cl s 823 598 m -48 Y s 823 550 m cl s 841 610 m 44 Y s 841 654 m cl s 841 592 m -45 Y s 841 547 m cl s 860 601 m 45 Y s
 860 646 m cl s 860 582 m -45 Y s 860 537 m cl s 879 616 m 47 Y s 879 663 m cl s 879 597 m -47 Y s 879 550 m cl s 897 622 m 47 Y s 897 669 m cl s 897 604 m -47 Y s 897 557 m cl s 916 615 m 47 Y s 916 662 m cl s 916 596 m -47 Y s 916 549 m cl s 934
 613 m 48 Y s 934 661 m cl s 934 595 m -47 Y s 934 548 m cl s 953 615 m 47 Y s 953 662 m cl s 953 597 m -48 Y s 953 549 m cl s 971 614 m 48 Y s 971 662 m cl s 971 596 m -47 Y s 971 549 m cl s 990 616 m 47 Y s 990 663 m cl s 990 598 m -47 Y s 990 551
 m cl s 1008 614 m 48 Y s 1008 662 m cl s 1008 596 m -47 Y s 1008 549 m cl s 1027 618 m 47 Y s 1027 665 m cl s 1027 600 m -47 Y s 1027 553 m cl s 1045 615 m 47 Y s 1045 662 m cl s 1045 596 m -47 Y s 1045 549 m cl s 1064 615 m 47 Y s 1064 662 m cl s
 1064 597 m -48 Y s 1064 549 m cl s 1083 618 m 47 Y s 1083 665 m cl s 1083 600 m -47 Y s 1083 553 m cl s 1101 625 m 45 Y s 1101 670 m cl s 1101 606 m -45 Y s 1101 561 m cl s 1120 634 m 46 Y s 1120 680 m cl s 1120 616 m -46 Y s 1120 570 m cl s 1138
 611 m 47 Y s 1138 658 m cl s 1138 593 m -47 Y s 1138 546 m cl s 1157 614 m 47 Y s 1157 661 m cl s 1157 596 m -48 Y s 1157 548 m cl s 1175 614 m 47 Y s 1175 661 m cl s 1175 595 m -47 Y s 1175 548 m cl s 1194 614 m 47 Y s 1194 661 m cl s 1194 596 m
 -48 Y s 1194 548 m cl s 1212 614 m 48 Y s 1212 662 m cl s 1212 596 m -47 Y s 1212 549 m cl s 1231 617 m 47 Y s 1231 664 m cl s 1231 598 m -47 Y s 1231 551 m cl s 1249 614 m 45 Y s 1249 659 m cl s 1249 596 m -45 Y s 1249 551 m cl s 1268 601 m 44 Y s
 1268 645 m cl s 1268 583 m -44 Y s 1268 539 m cl s 1287 618 m 47 Y s 1287 665 m cl s 1287 600 m -47 Y s 1287 553 m cl s 1305 569 m 31 Y s 1305 600 m cl s 1305 550 m -31 Y s 1305 519 m cl s 1324 610 m 46 Y s 1324 656 m cl s 1324 592 m -46 Y s 1324
 546 m cl s 1342 618 m 47 Y s 1342 665 m cl s 1342 599 m -47 Y s 1342 552 m cl s 1361 624 m 47 Y s 1361 671 m cl s 1361 606 m -47 Y s 1361 559 m cl s 1379 630 m 46 Y s 1379 676 m cl s 1379 612 m -45 Y s 1379 567 m cl s 1398 570 m 40 Y s 1398 610 m cl
 s 1398 552 m -40 Y s 1398 512 m cl s 1416 615 m 47 Y s 1416 662 m cl s 1416 597 m -48 Y s 1416 549 m cl s 1435 571 m 16 Y s 1435 587 m cl s 1435 552 m -16 Y s 1435 536 m cl s 1453 618 m 39 Y s 1453 657 m cl s 1453 600 m -38 Y s 1453 562 m cl s 1472
 619 m 47 Y s 1472 666 m cl s 1472 600 m -47 Y s 1472 553 m cl s 1491 559 m 40 Y s 1491 599 m cl s 1491 540 m -40 Y s 1491 500 m cl s 1509 639 m 30 Y s 1509 669 m cl s 1509 620 m -30 Y s 1509 590 m cl s 1528 611 m 41 Y s 1528 652 m cl s 1528 593 m
 -41 Y s 1528 552 m cl s 1546 607 m 25 Y s 1546 632 m cl s 1546 589 m -26 Y s 1546 563 m cl s 1565 614 m 47 Y s 1565 661 m cl s 1565 595 m -47 Y s 1565 548 m cl s 1583 613 m 47 Y s 1583 660 m cl s 1583 595 m -46 Y s 1583 549 m cl s 248 625 m 46 Y s
 248 671 m cl s 248 606 m -46 Y s 248 560 m cl s 266 618 m 44 Y s 266 662 m cl s 266 600 m -43 Y s 266 557 m cl s 285 608 m 44 Y s 285 652 m cl s 285 589 m -44 Y s 285 545 m cl s 304 618 m 46 Y s 304 664 m cl s 304 600 m -45 Y s 304 555 m cl s 359
 597 m 46 Y s 359 643 m cl s 359 579 m -46 Y s 359 533 m cl s 378 631 m 47 Y s 378 678 m cl s 378 613 m -47 Y s 378 566 m cl s 1602 620 m 47 Y s 1602 667 m cl s 1602 602 m -47 Y s 1602 555 m cl s 1620 615 m 47 Y s 1620 662 m cl s 1620 596 m -47 Y s
 1620 549 m cl s 1639 642 m 38 Y s 1639 680 m cl s 1639 624 m -39 Y s 1639 585 m cl s 1657 615 m 48 Y s 1657 663 m cl s 1657 597 m -47 Y s 1657 550 m cl s 1676 621 m 46 Y s 1676 667 m cl s 1676 602 m -47 Y s 1676 555 m cl s 1695 567 m 12 Y s 1695 579
 m cl s 1695 549 m -13 Y s 1695 536 m cl s 1713 606 m 22 Y s 1713 628 m cl s 1713 588 m -21 Y s 1713 567 m cl s 1732 621 m 46 Y s 1732 667 m cl s 1732 603 m -47 Y s 1732 556 m cl s 1750 615 m 47 Y s 1750 662 m cl s 1750 597 m -48 Y s 1750 549 m cl s
 1769 596 m 18 Y s 1769 614 m cl s 1769 578 m -19 Y s 1769 559 m cl s 1787 615 m 48 Y s 1787 663 m cl s 1787 597 m -47 Y s 1787 550 m cl s 1806 621 m 47 Y s 1806 668 m cl s 1806 603 m -47 Y s 1806 556 m cl s 1824 595 m 18 Y s 1824 613 m cl s 1824 576
 m -18 Y s 1824 558 m cl s 1843 627 m 45 Y s 1843 672 m cl s 1843 609 m -46 Y s 1843 563 m cl s 1862 615 m 27 Y s 1862 642 m cl s 1862 596 m -27 Y s 1862 569 m cl s 1880 644 m 43 Y s 1880 687 m cl s 1880 626 m -42 Y s 1880 584 m cl s 1899 619 m 47 Y
 s 1899 666 m cl s 1899 601 m -47 Y s 1899 554 m cl s 1917 635 m 47 Y s 1917 682 m cl s 1917 617 m -47 Y s 1917 570 m cl s 1936 612 m 47 Y s 1936 659 m cl s 1936 594 m -48 Y s 1936 546 m cl s 1954 594 m 46 Y s 1954 640 m cl s 1954 576 m -47 Y s 1954
 529 m cl s 1973 591 m 43 Y s 1973 634 m cl s 1973 573 m -43 Y s 1973 530 m cl s 1991 615 m 47 Y s 1991 662 m cl s 1991 596 m -47 Y s 1991 549 m cl s 2010 615 m 47 Y s 2010 662 m cl s 2010 596 m -47 Y s 2010 549 m cl s 2028 613 m 48 Y s 2028 661 m cl
 s 2028 595 m -47 Y s 2028 548 m cl s 2047 615 m 47 Y s 2047 662 m cl s 2047 597 m -48 Y s 2047 549 m cl s 2066 611 m 47 Y s 2066 658 m cl s 2066 593 m -47 Y s 2066 546 m cl s 2084 631 m 45 Y s 2084 676 m cl s 2084 612 m -45 Y s 2084 567 m cl s 2103
 614 m 47 Y s 2103 661 m cl s 2103 596 m -48 Y s 2103 548 m cl s 2121 584 m 45 Y s 2121 629 m cl s 2121 566 m -45 Y s 2121 521 m cl s 2140 583 m 45 Y s 2140 628 m cl s 2140 565 m -45 Y s 2140 520 m cl s 2158 607 m 29 Y s 2158 636 m cl s 2158 588 m
 -29 Y s 2158 559 m cl s 2177 613 m 47 Y s 2177 660 m cl s 2177 595 m -47 Y s 2177 548 m cl s 322 615 m 47 Y s 322 662 m cl s 322 596 m -47 Y s 322 549 m cl s 341 615 m 47 Y s 341 662 m cl s 341 596 m -47 Y s 341 549 m cl s 396 617 m 43 Y s 396 660 m
 cl s 396 598 m -43 Y s 396 555 m cl s 1 1 0 c black 3 lw 1 1 0 c 109 719 m 2077 X -227 Y -2077 X f 6 lw black 0 1 0 c black 3 lw 0 1 0 c 109 662 m 2077 X -113 Y -2077 X f 6 lw black 229 614 m 47 Y s 229 661 m cl s 229 596 m -47 Y s 229 549 m cl s
 415 615 m 48 Y s 415 663 m cl s 415 597 m -47 Y s 415 550 m cl s 433 623 m 46 Y s 433 669 m cl s 433 605 m -46 Y s 433 559 m cl s 452 605 m 46 Y s 452 651 m cl s 452 586 m -46 Y s 452 540 m cl s 471 599 m 45 Y s 471 644 m cl s 471 581 m -45 Y s 471
 536 m cl s 489 613 m 48 Y s 489 661 m cl s 489 595 m -47 Y s 489 548 m cl s 508 615 m 47 Y s 508 662 m cl s 508 596 m -47 Y s 508 549 m cl s 526 617 m 3 Y s 526 620 m cl s 526 599 m -3 Y s 526 596 m cl s 545 635 m 42 Y s 545 677 m cl s 545 617 m -43
 Y s 545 574 m cl s 563 622 m 10 Y s 563 632 m cl s 563 604 m -10 Y s 563 594 m cl s 582 581 m 44 Y s 582 625 m cl s 582 562 m -44 Y s 582 518 m cl s 600 615 m 46 Y s 600 661 m cl s 600 597 m -47 Y s 600 550 m cl s 619 604 m 47 Y s 619 651 m cl s 619
 586 m -47 Y s 619 539 m cl s 637 612 m 48 Y s 637 660 m cl s 637 594 m -47 Y s 637 547 m cl s 656 619 m 47 Y s 656 666 m cl s 656 601 m -47 Y s 656 554 m cl s 675 616 m 47 Y s 675 663 m cl s 675 597 m -47 Y s 675 550 m cl s 693 627 m 45 Y s 693 672
 m cl s 693 608 m -45 Y s 693 563 m cl s 712 596 m 44 Y s 712 640 m cl s 712 578 m -44 Y s 712 534 m cl s 730 604 m 47 Y s 730 651 m cl s 730 586 m -46 Y s 730 540 m cl s 749 612 m 47 Y s 749 659 m cl s 749 594 m -47 Y s 749 547 m cl s 767 610 m 47 Y
 s 767 657 m cl s 767 592 m -48 Y s 767 544 m cl s 786 614 m 48 Y s 786 662 m cl s 786 596 m -47 Y s 786 549 m cl s 804 616 m 47 Y s 804 663 m cl s 804 598 m -48 Y s 804 550 m cl s 823 616 m 47 Y s 823 663 m cl s 823 598 m -48 Y s 823 550 m cl s 841
 610 m 44 Y s 841 654 m cl s 841 592 m -45 Y s 841 547 m cl s 860 601 m 45 Y s 860 646 m cl s 860 582 m -45 Y s 860 537 m cl s 879 616 m 47 Y s 879 663 m cl s 879 597 m -47 Y s 879 550 m cl s 897 622 m 47 Y s 897 669 m cl s 897 604 m -47 Y s 897 557
 m cl s 916 615 m 47 Y s 916 662 m cl s 916 596 m -47 Y s 916 549 m cl s 934 613 m 48 Y s 934 661 m cl s 934 595 m -47 Y s 934 548 m cl s 953 615 m 47 Y s 953 662 m cl s 953 597 m -48 Y s 953 549 m cl s 971 614 m 48 Y s 971 662 m cl s 971 596 m -47 Y
 s 971 549 m cl s 990 616 m 47 Y s 990 663 m cl s 990 598 m -47 Y s 990 551 m cl s 1008 614 m 48 Y s 1008 662 m cl s 1008 596 m -47 Y s 1008 549 m cl s 1027 618 m 47 Y s 1027 665 m cl s 1027 600 m -47 Y s 1027 553 m cl s 1045 615 m 47 Y s 1045 662 m
 cl s 1045 596 m -47 Y s 1045 549 m cl s 1064 615 m 47 Y s 1064 662 m cl s 1064 597 m -48 Y s 1064 549 m cl s 1083 618 m 47 Y s 1083 665 m cl s 1083 600 m -47 Y s 1083 553 m cl s 1101 625 m 45 Y s 1101 670 m cl s 1101 606 m -45 Y s 1101 561 m cl s
 1120 634 m 46 Y s 1120 680 m cl s 1120 616 m -46 Y s 1120 570 m cl s 1138 611 m 47 Y s 1138 658 m cl s 1138 593 m -47 Y s 1138 546 m cl s 1157 614 m 47 Y s 1157 661 m cl s 1157 596 m -48 Y s 1157 548 m cl s 1175 614 m 47 Y s 1175 661 m cl s 1175 595
 m -47 Y s 1175 548 m cl s 1194 614 m 47 Y s 1194 661 m cl s 1194 596 m -48 Y s 1194 548 m cl s 1212 614 m 48 Y s 1212 662 m cl s 1212 596 m -47 Y s 1212 549 m cl s 1231 617 m 47 Y s 1231 664 m cl s 1231 598 m -47 Y s 1231 551 m cl s 1249 614 m 45 Y
 s 1249 659 m cl s 1249 596 m -45 Y s 1249 551 m cl s 1268 601 m 44 Y s 1268 645 m cl s 1268 583 m -44 Y s 1268 539 m cl s 1287 618 m 47 Y s 1287 665 m cl s 1287 600 m -47 Y s 1287 553 m cl s 1305 569 m 31 Y s 1305 600 m cl s 1305 550 m -31 Y s 1305
 519 m cl s 1324 610 m 46 Y s 1324 656 m cl s 1324 592 m -46 Y s 1324 546 m cl s 1342 618 m 47 Y s 1342 665 m cl s 1342 599 m -47 Y s 1342 552 m cl s 1361 624 m 47 Y s 1361 671 m cl s 1361 606 m -47 Y s 1361 559 m cl s 1379 630 m 46 Y s 1379 676 m cl
 s 1379 612 m -45 Y s 1379 567 m cl s 1398 570 m 40 Y s 1398 610 m cl s 1398 552 m -40 Y s 1398 512 m cl s 1416 615 m 47 Y s 1416 662 m cl s 1416 597 m -48 Y s 1416 549 m cl s 1435 571 m 16 Y s 1435 587 m cl s 1435 552 m -16 Y s 1435 536 m cl s 1453
 618 m 39 Y s 1453 657 m cl s 1453 600 m -38 Y s 1453 562 m cl s 1472 619 m 47 Y s 1472 666 m cl s 1472 600 m -47 Y s 1472 553 m cl s 1491 559 m 40 Y s 1491 599 m cl s 1491 540 m -40 Y s 1491 500 m cl s 1509 639 m 30 Y s 1509 669 m cl s 1509 620 m
 -30 Y s 1509 590 m cl s 1528 611 m 41 Y s 1528 652 m cl s 1528 593 m -41 Y s 1528 552 m cl s 1546 607 m 25 Y s 1546 632 m cl s 1546 589 m -26 Y s 1546 563 m cl s 1565 614 m 47 Y s 1565 661 m cl s 1565 595 m -47 Y s 1565 548 m cl s 1583 613 m 47 Y s
 1583 660 m cl s 1583 595 m -46 Y s 1583 549 m cl s 248 625 m 46 Y s 248 671 m cl s 248 606 m -46 Y s 248 560 m cl s 266 618 m 44 Y s 266 662 m cl s 266 600 m -43 Y s 266 557 m cl s 285 608 m 44 Y s 285 652 m cl s 285 589 m -44 Y s 285 545 m cl s 304
 618 m 46 Y s 304 664 m cl s 304 600 m -45 Y s 304 555 m cl s 359 597 m 46 Y s 359 643 m cl s 359 579 m -46 Y s 359 533 m cl s 378 631 m 47 Y s 378 678 m cl s 378 613 m -47 Y s 378 566 m cl s 1602 620 m 47 Y s 1602 667 m cl s 1602 602 m -47 Y s 1602
 555 m cl s 1620 615 m 47 Y s 1620 662 m cl s 1620 596 m -47 Y s 1620 549 m cl s 1639 642 m 38 Y s 1639 680 m cl s 1639 624 m -39 Y s 1639 585 m cl s 1657 615 m 48 Y s 1657 663 m cl s 1657 597 m -47 Y s 1657 550 m cl s 1676 621 m 46 Y s 1676 667 m cl
 s 1676 602 m -47 Y s 1676 555 m cl s 1695 567 m 12 Y s 1695 579 m cl s 1695 549 m -13 Y s 1695 536 m cl s 1713 606 m 22 Y s 1713 628 m cl s 1713 588 m -21 Y s 1713 567 m cl s 1732 621 m 46 Y s 1732 667 m cl s 1732 603 m -47 Y s 1732 556 m cl s 1750
 615 m 47 Y s 1750 662 m cl s 1750 597 m -48 Y s 1750 549 m cl s 1769 596 m 18 Y s 1769 614 m cl s 1769 578 m -19 Y s 1769 559 m cl s 1787 615 m 48 Y s 1787 663 m cl s 1787 597 m -47 Y s 1787 550 m cl s 1806 621 m 47 Y s 1806 668 m cl s 1806 603 m
 -47 Y s 1806 556 m cl s 1824 595 m 18 Y s 1824 613 m cl s 1824 576 m -18 Y s 1824 558 m cl s 1843 627 m 45 Y s 1843 672 m cl s 1843 609 m -46 Y s 1843 563 m cl s 1862 615 m 27 Y s 1862 642 m cl s 1862 596 m -27 Y s 1862 569 m cl s 1880 644 m 43 Y s
 1880 687 m cl s 1880 626 m -42 Y s 1880 584 m cl s 1899 619 m 47 Y s 1899 666 m cl s 1899 601 m -47 Y s 1899 554 m cl s 1917 635 m 47 Y s 1917 682 m cl s 1917 617 m -47 Y s 1917 570 m cl s 1936 612 m 47 Y s 1936 659 m cl s 1936 594 m -48 Y s 1936
 546 m cl s 1954 594 m 46 Y s 1954 640 m cl s 1954 576 m -47 Y s 1954 529 m cl s 1973 591 m 43 Y s 1973 634 m cl s 1973 573 m -43 Y s 1973 530 m cl s 1991 615 m 47 Y s 1991 662 m cl s 1991 596 m -47 Y s 1991 549 m cl s 2010 615 m 47 Y s 2010 662 m cl
 s 2010 596 m -47 Y s 2010 549 m cl s 2028 613 m 48 Y s 2028 661 m cl s 2028 595 m -47 Y s 2028 548 m cl s 2047 615 m 47 Y s 2047 662 m cl s 2047 597 m -48 Y s 2047 549 m cl s 2066 611 m 47 Y s 2066 658 m cl s 2066 593 m -47 Y s 2066 546 m cl s 2084
 631 m 45 Y s 2084 676 m cl s 2084 612 m -45 Y s 2084 567 m cl s 2103 614 m 47 Y s 2103 661 m cl s 2103 596 m -48 Y s 2103 548 m cl s 2121 584 m 45 Y s 2121 629 m cl s 2121 566 m -45 Y s 2121 521 m cl s 2140 583 m 45 Y s 2140 628 m cl s 2140 565 m
 -45 Y s 2140 520 m cl s 2158 607 m 29 Y s 2158 636 m cl s 2158 588 m -29 Y s 2158 559 m cl s 2177 613 m 47 Y s 2177 660 m cl s 2177 595 m -47 Y s 2177 548 m cl s 322 615 m 47 Y s 322 662 m cl s 322 596 m -47 Y s 322 549 m cl s 341 615 m 47 Y s 341
 662 m cl s 341 596 m -47 Y s 341 549 m cl s 396 617 m 43 Y s 396 660 m cl s 396 598 m -43 Y s 396 555 m cl s 1 1 1 c black 3 lw 118 670 137 678 155 670 174 668 192 665 211 662 229 605 415 606 433 614 452 595 471 590 489 604 508 606 526 608 545 626
 563 613 582 572 600 606 619 595 637 603 656 610 675 606 693 618 712 587 730 595 749 603 767 601 786 605 804 607 823 607 841 601 860 591 879 606 897 613 916 606 934 604 953 606 971 605 990 607 1008 605 1027 609 1045 606 1064 606 1083 609 1101 615
 1120 625 1138 602 1157 605 1175 605 1194 605 1212 605 1231 608 1249 605 1268 592 1287 609 1305 560 1324 601 1342 608 1361 615 1379 621 1398 561 1416 606 1435 562 1453 609 1472 610 1491 549 1509 630 1528 602 1546 598 1565 604 1583 604 248 616 266 609
 285 599 304 609 359 588 378 622 1602 611 1620 605 1639 633 1657 606 1676 611 1695 558 1713 597 1732 612 1750 606 1769 587 1787 606 1806 612 1824 586 1843 618 1862 606 1880 635 1899 610 1917 626 1936 603 1954 585 1973 582 1991 606 2010 606 100 { m20}
 R 2028 604 2047 606 2066 602 2084 622 2103 605 2121 575 2140 574 2158 597 2177 604 322 606 341 606 396 607 12 { m20} R 6 lw
 gr  gr showpage
end
%%EOF
